[
null,
{"id":1,"expParams":[30,20,30,30],"traits":[],"learnings":[],"name":"Youtuber","note":"","params":[[0,99,98,96,94,92,90,88,86,84,82,80,78,76,74,72,70,68,66,64,62,60,58,56,54,52,50,48,46,44,42,40,38,36,34,32,30,28,26,24,22,20,18,16,14,12,10,8,6,4,2,4010,4079,4148,4217,4286,4355,4424,4493,4562,4630,4699,4768,4837,4906,4975,5044,5113,5182,5251,5320,5389,5458,5527,5596,5665,5734,5803,5872,5941,6009,6078,6147,6216,6285,6354,6423,6492,6561,6630,6699,6768,6837,6906,6975,7044,7113,7182,7251,7319],[0,0,2,4,6,8,10,12,14,16,18,20,22,24,26,28,30,48,51,54,57,60,63,66,69,72,75,78,81,84,87,286,295,303,311,319,327,335,344,352,360,368,376,384,393,401,409,417,425,433,441,450,458,466,474,482,490,499,507,515,523,531,539,548,556,564,572,580,588,597,605,613,621,629,637,646,654,662,670,678,686,695,703,711,719,727,735,744,752,760,768,776,784,793,801,809,817,825,833,841],[0,69,69,69,69,69,69,69,69,69,69,69,69,69,69,69,69,69,69,69,69,69,69,69,69,69,69,69,69,69,69,69,69,69,69,69,69,69,69,69,69,69,69,69,69,69,69,69,69,69,69,69,69,69,69,69,69,69,69,69,69,69,69,69,69,69,69,69,69,69,69,69,69,69,69,69,69,69,69,69,69,69,69,69,69,69,69,69,69,69,69,69,69,69,69,69,69,69,69,69],[0,420,420,420,420,420,420,420,420,420,420,420,420,420,420,420,420,420,420,420,420,420,420,420,420,420,420,420,420,420,420,420,420,420,420,420,420,420,420,420,420,420,420,420,420,420,420,420,420,420,420,420,420,420,420,420,420,420,420,420,420,420,420,420,420,420,420,420,420,420,420,420,420,420,420,420,420,420,420,420,420,420,420,420,420,420,420,420,420,420,420,420,420,420,420,420,420,420,420,420],[0,69,69,69,69,69,69,69,69,69,69,69,69,69,69,69,69,69,69,69,69,69,69,69,69,69,69,69,69,69,69,69,69,69,69,69,69,69,69,69,69,69,69,69,69,69,69,69,69,69,69,69,69,69,69,69,69,69,69,69,69,69,69,69,69,69,69,69,69,69,69,69,69,69,69,69,69,69,69,69,69,69,69,69,69,69,69,69,69,69,69,69,69,69,69,69,69,69,69,69],[0,420,420,420,420,420,420,420,420,420,420,420,420,420,420,420,420,420,420,420,420,420,420,420,420,420,420,420,420,420,420,420,420,420,420,420,420,420,420,420,420,420,420,420,420,420,420,420,420,420,420,420,420,420,420,420,420,420,420,420,420,420,420,420,420,420,420,420,420,420,420,420,420,420,420,420,420,420,420,420,420,420,420,420,420,420,420,420,420,420,420,420,420,420,420,420,420,420,420,420],[0,69,69,69,69,69,69,69,69,69,69,69,69,69,69,69,69,69,69,69,69,69,69,69,69,69,69,69,69,69,69,69,69,69,69,69,69,69,69,69,69,69,69,69,69,69,69,69,69,69,69,69,69,69,69,69,69,69,69,69,69,69,69,69,69,69,69,69,69,69,69,69,69,69,69,69,69,69,69,69,69,69,69,69,69,69,69,69,69,69,69,69,69,69,69,69,69,69,69,69],[0,420,420,420,420,420,420,420,420,420,420,420,420,420,420,420,420,420,420,420,420,420,420,420,420,420,420,420,420,420,420,420,420,420,420,420,420,420,420,420,420,420,420,420,420,420,420,420,420,420,420,420,420,420,420,420,420,420,420,420,420,420,420,420,420,420,420,420,420,420,420,420,420,420,420,420,420,420,420,420,420,420,420,420,420,420,420,420,420,420,420,420,420,420,420,420,420,420,420,420]]},
{"id":2,"expParams":[30,20,30,30],"traits":[{"code":23,"dataId":0,"value":1},{"code":22,"dataId":0,"value":0.95},{"code":22,"dataId":1,"value":0.05},{"code":22,"dataId":2,"value":0.06},{"code":41,"dataId":1,"value":0},{"code":51,"dataId":2,"value":0},{"code":52,"dataId":1,"value":0},{"code":52,"dataId":3,"value":0}],"learnings":[],"name":"Billy","note":"","params":[[0,43,765,848,931,1013,1096,1179,1261,1344,1427,1510,1592,1675,1758,1840,1923,2006,2089,2171,2254,2337,2419,2502,2585,2668,2750,2833,2916,2998,3081,3164,3247,3329,3412,3495,3577,3660,3743,3826,3908,3991,4074,4156,4239,4322,4405,4487,4570,4653,4735,4818,4901,4984,5066,5149,5232,5314,5397,5480,5563,5645,5728,5811,5893,5976,6059,6142,6224,6307,6390,6472,6555,6638,6721,6803,6886,6969,7051,7134,7217,7300,7382,7465,7548,7630,7713,7796,7879,7961,8044,8127,8209,8292,8375,8458,8540,8623,8706,8788],[0,0,55,63,71,80,88,96,105,113,121,130,138,146,155,163,171,180,188,196,205,213,221,229,238,246,254,263,271,279,288,296,304,313,321,329,338,346,354,363,371,379,387,396,404,412,421,429,437,446,454,462,471,479,487,496,504,512,521,529,537,545,554,562,570,579,587,595,604,612,620,629,637,645,654,662,670,679,687,695,703,712,720,728,737,745,753,762,770,778,787,795,803,812,820,828,837,845,853,861],[0,22,24,26,28,30,32,34,36,38,40,41,43,45,47,49,51,53,55,57,59,60,62,64,66,68,70,72,74,76,78,79,81,83,85,87,89,91,93,95,97,98,100,102,104,106,108,110,112,114,115,117,119,121,123,125,127,129,131,133,134,136,138,140,142,144,146,148,150,152,153,155,157,159,161,163,165,167,169,171,172,174,176,178,180,182,184,186,188,190,191,193,195,197,199,201,203,205,207,208],[0,14,16,17,18,19,21,22,23,24,25,27,28,29,30,31,33,34,35,36,37,39,40,41,42,43,45,46,47,48,49,51,52,53,54,55,57,58,59,60,61,63,64,65,66,67,69,70,71,72,73,75,76,77,78,80,81,82,83,84,86,87,88,89,90,92,93,94,95,96,98,99,100,101,102,104,105,106,107,108,110,111,112,113,114,116,117,118,119,120,122,123,124,125,126,128,129,130,131,132],[0,11,12,13,14,15,16,17,18,19,20,21,22,23,24,25,26,27,28,29,30,30,31,32,33,34,35,36,37,38,39,40,41,42,43,44,45,46,47,48,49,49,50,51,52,53,54,55,56,57,58,59,60,61,62,63,64,65,66,67,67,68,69,70,71,72,73,74,75,76,77,78,79,80,81,82,83,84,85,86,86,87,88,89,90,91,92,93,94,95,96,97,98,99,100,101,102,103,104,104],[0,12,14,15,16,17,18,19,20,22,23,24,25,26,27,28,29,31,32,33,34,35,36,37,39,40,41,42,43,44,45,46,48,49,50,51,52,53,54,56,57,58,59,60,61,62,63,65,66,67,68,69,70,71,73,74,75,76,77,78,79,80,82,83,84,85,86,87,88,90,91,92,93,94,95,96,97,99,100,101,102,103,104,105,107,108,109,110,111,112,113,114,116,117,118,119,120,121,122,123],[0,35,39,43,47,51,55,59,62,66,70,74,78,82,86,89,93,97,101,105,109,112,116,120,124,128,132,136,139,143,147,151,155,159,162,166,170,174,178,182,186,189,193,197,201,205,209,212,216,220,224,228,232,236,239,243,247,251,255,259,262,266,270,274,278,282,286,289,293,297,301,305,309,312,316,320,324,328,332,336,339,343,347,351,355,359,362,366,370,374,378,382,386,389,393,397,401,405,409,412],[0,15,18,20,22,24,26,29,31,33,35,37,40,42,44,46,48,51,53,55,57,59,62,64,66,68,70,73,75,77,79,81,84,86,88,90,92,94,97,99,101,103,105,108,110,112,114,116,119,121,123,125,127,130,132,134,136,138,141,143,145,147,149,152,154,156,158,160,162,165,167,169,171,173,176,178,180,182,184,187,189,191,193,195,198,200,202,204,206,209,211,213,215,217,220,222,224,226,228,230]]},
{"id":3,"expParams":[30,20,30,30],"traits":[{"code":23,"dataId":0,"value":1},{"code":22,"dataId":0,"value":0.95},{"code":22,"dataId":1,"value":0.05},{"code":22,"dataId":2,"value":0.04},{"code":41,"dataId":1,"value":0},{"code":41,"dataId":2,"value":0},{"code":51,"dataId":3,"value":0},{"code":52,"dataId":1,"value":0},{"code":52,"dataId":3,"value":0},{"code":52,"dataId":4,"value":0},{"code":52,"dataId":5,"value":0},{"code":52,"dataId":6,"value":0}],"learnings":[],"name":"Subscriber","note":"","params":[[0,62,729,813,896,980,1063,1147,1230,1314,1397,1481,1564,1648,1731,1815,1898,1982,2065,2149,2232,2316,2399,2483,2566,2650,2734,2817,2901,2984,3068,3151,3235,3318,3402,3485,3569,3652,3736,3819,3903,3986,4070,4153,4237,4320,4404,4487,4571,4654,4738,4822,4905,4989,5072,5156,5239,5323,5406,5490,5573,5657,5740,5824,5907,5991,6074,6158,6241,6325,6408,6492,6575,6659,6742,6826,6910,6993,7077,7160,7244,7327,7411,7494,7578,7661,7745,7828,7912,7995,8079,8162,8246,8329,8413,8496,8580,8663,8747,8830],[0,0,107,118,130,141,152,164,175,187,198,209,221,232,243,255,266,278,289,300,312,323,334,346,357,369,380,391,403,414,425,437,448,460,471,482,494,505,516,528,539,551,562,573,585,596,607,619,630,642,653,664,676,687,699,710,721,733,744,755,767,778,790,801,812,824,835,846,858,869,881,892,903,915,926,937,949,960,972,983,994,1006,1017,1028,1040,1051,1063,1074,1085,1097,1108,1119,1131,1142,1154,1165,1176,1188,1199,1210],[0,16,18,20,21,23,24,26,27,29,31,32,34,35,37,38,40,42,43,45,46,48,49,51,53,54,56,57,59,60,62,64,65,67,68,70,71,73,75,76,78,79,81,82,84,86,87,89,90,92,93,95,97,98,100,101,103,104,106,108,109,111,112,114,115,117,119,120,122,123,125,126,128,130,131,133,134,136,137,139,141,142,144,145,147,148,150,152,153,155,156,158,159,161,163,164,166,167,169,170],[0,21,24,26,28,30,32,34,36,38,40,42,44,46,48,50,52,54,56,58,60,62,64,66,68,70,72,74,76,78,80,82,84,86,88,90,92,94,96,98,100,102,104,106,108,110,112,114,116,118,120,123,125,127,129,131,133,135,137,139,141,143,145,147,149,151,153,155,157,159,161,163,165,167,169,171,173,175,177,179,181,183,185,187,189,191,193,195,197,199,201,203,205,207,209,211,213,215,217,219],[0,12,14,15,16,18,19,20,21,23,24,25,27,28,29,30,32,33,34,35,37,38,39,41,42,43,44,46,47,48,49,51,52,53,55,56,57,58,60,61,62,64,65,66,67,69,70,71,72,74,75,76,78,79,80,81,83,84,85,86,88,89,90,92,93,94,95,97,98,99,101,102,103,104,106,107,108,109,111,112,113,115,116,117,118,120,121,122,123,125,126,127,129,130,131,132,134,135,136,137],[0,15,17,18,20,21,22,24,25,27,28,29,31,32,34,35,36,38,39,40,42,43,45,46,47,49,50,52,53,54,56,57,59,60,61,63,64,65,67,68,70,71,72,74,75,77,78,79,81,82,83,85,86,88,89,90,92,93,95,96,97,99,100,102,103,104,106,107,108,110,111,113,114,115,117,118,120,121,122,124,125,127,128,129,131,132,133,135,136,138,139,140,142,143,145,146,147,149,150,151],[0,19,22,24,26,28,31,33,35,37,40,42,44,46,48,51,53,55,57,60,62,64,66,68,71,73,75,77,80,82,84,86,88,91,93,95,97,100,102,104,106,108,111,113,115,117,120,122,124,126,128,131,133,135,137,140,142,144,146,149,151,153,155,157,160,162,164,166,169,171,173,175,177,180,182,184,186,189,191,193,195,197,200,202,204,206,209,211,213,215,217,220,222,224,226,229,231,233,235,237],[0,29,32,35,38,41,44,47,50,53,56,59,62,65,68,71,74,77,80,83,86,88,91,94,97,100,103,106,109,112,115,118,121,124,127,130,133,136,139,142,145,147,150,153,156,159,162,165,168,171,174,177,180,183,186,189,192,195,198,201,203,206,209,212,215,218,221,224,227,230,233,236,239,242,245,248,251,254,257,260,262,265,268,271,274,277,280,283,286,289,292,295,298,301,304,307,310,313,316,318]]},
{"id":4,"expParams":[30,20,30,30],"traits":[{"code":23,"dataId":0,"value":1},{"code":22,"dataId":0,"value":0.95},{"code":22,"dataId":1,"value":0.05},{"code":22,"dataId":2,"value":0.04},{"code":41,"dataId":1,"value":0},{"code":51,"dataId":1,"value":0},{"code":52,"dataId":1,"value":0}],"learnings":[],"name":"Android","note":"","params":[[0,450,500,550,600,650,700,750,800,850,900,950,1000,1050,1100,1150,1200,1250,1300,1350,1400,1450,1500,1550,1600,1650,1700,1750,1800,1850,1900,1950,2000,2050,2100,2150,2200,2250,2300,2350,2400,2450,2500,2550,2600,2650,2700,2750,2800,2850,2900,2950,3000,3050,3100,3150,3200,3250,3300,3350,3400,3450,3500,3550,3600,3650,3700,3750,3800,3850,3900,3950,4000,4050,4100,4150,4200,4250,4300,4350,4400,4450,4500,4550,4600,4650,4700,4750,4800,4850,4900,4950,5000,5050,5100,5150,5200,5250,5300,5350],[0,90,100,110,120,130,140,150,160,170,180,190,200,210,220,230,240,250,260,270,280,290,300,310,320,330,340,350,360,370,380,390,400,410,420,430,440,450,460,470,480,490,500,510,520,530,540,550,560,570,580,590,600,610,620,630,640,650,660,670,680,690,700,710,720,730,740,750,760,770,780,790,800,810,820,830,840,850,860,870,880,890,900,910,920,930,940,950,960,970,980,990,1000,1010,1020,1030,1040,1050,1060,1070],[0,16,17,18,20,21,22,23,25,26,27,28,30,31,32,33,35,36,37,38,40,41,42,43,45,46,47,48,50,51,52,53,55,56,57,58,60,61,62,63,65,66,67,68,70,71,72,73,75,76,77,78,80,81,82,83,85,86,87,88,90,91,92,93,95,96,97,98,100,101,102,103,105,106,107,108,110,111,112,113,115,116,117,118,120,121,122,123,125,126,127,128,130,131,132,133,135,136,137,138],[0,16,17,18,20,21,22,23,25,26,27,28,30,31,32,33,35,36,37,38,40,41,42,43,45,46,47,48,50,51,52,53,55,56,57,58,60,61,62,63,65,66,67,68,70,71,72,73,75,76,77,78,80,81,82,83,85,86,87,88,90,91,92,93,95,96,97,98,100,101,102,103,105,106,107,108,110,111,112,113,115,116,117,118,120,121,122,123,125,126,127,128,130,131,132,133,135,136,137,138],[0,16,17,18,20,21,22,23,25,26,27,28,30,31,32,33,35,36,37,38,40,41,42,43,45,46,47,48,50,51,52,53,55,56,57,58,60,61,62,63,65,66,67,68,70,71,72,73,75,76,77,78,80,81,82,83,85,86,87,88,90,91,92,93,95,96,97,98,100,101,102,103,105,106,107,108,110,111,112,113,115,116,117,118,120,121,122,123,125,126,127,128,130,131,132,133,135,136,137,138],[0,16,17,18,20,21,22,23,25,26,27,28,30,31,32,33,35,36,37,38,40,41,42,43,45,46,47,48,50,51,52,53,55,56,57,58,60,61,62,63,65,66,67,68,70,71,72,73,75,76,77,78,80,81,82,83,85,86,87,88,90,91,92,93,95,96,97,98,100,101,102,103,105,106,107,108,110,111,112,113,115,116,117,118,120,121,122,123,125,126,127,128,130,131,132,133,135,136,137,138],[0,32,35,37,40,42,45,47,50,52,55,57,60,62,65,67,70,72,75,77,80,82,85,87,90,92,95,97,100,102,105,107,110,112,115,117,120,122,125,127,130,132,135,137,140,142,145,147,150,152,155,157,160,162,165,167,170,172,175,177,180,182,185,187,190,192,195,197,200,202,205,207,210,212,215,217,220,222,225,227,230,232,235,237,240,242,245,247,250,252,255,257,260,262,265,267,270,272,275,277],[0,32,35,37,40,42,45,47,50,52,55,57,60,62,65,67,70,72,75,77,80,82,85,87,90,92,95,97,100,102,105,107,110,112,115,117,120,122,125,127,130,132,135,137,140,142,145,147,150,152,155,157,160,162,165,167,170,172,175,177,180,182,185,187,190,192,195,197,200,202,205,207,210,212,215,217,220,222,225,227,230,232,235,237,240,242,245,247,250,252,255,257,260,262,265,267,270,272,275,277]]},
{"id":5,"expParams":[30,20,30,30],"traits":[{"code":23,"dataId":0,"value":1},{"code":22,"dataId":0,"value":0.95},{"code":22,"dataId":1,"value":0.05},{"code":22,"dataId":2,"value":0.04},{"code":41,"dataId":1,"value":0},{"code":51,"dataId":1,"value":0},{"code":52,"dataId":1,"value":0}],"learnings":[],"name":"Ego","note":"","params":[[0,450,500,550,600,650,700,750,800,850,900,950,1000,1050,1100,1150,1200,1250,1300,1350,1400,1450,1500,1550,1600,1650,1700,1750,1800,1850,1900,1950,2000,2050,2100,2150,2200,2250,2300,2350,2400,2450,2500,2550,2600,2650,2700,2750,2800,2850,2900,2950,3000,3050,3100,3150,3200,3250,3300,3350,3400,3450,3500,3550,3600,3650,3700,3750,3800,3850,3900,3950,4000,4050,4100,4150,4200,4250,4300,4350,4400,4450,4500,4550,4600,4650,4700,4750,4800,4850,4900,4950,5000,5050,5100,5150,5200,5250,5300,5350],[0,90,100,110,120,130,140,150,160,170,180,190,200,210,220,230,240,250,260,270,280,290,300,310,320,330,340,350,360,370,380,390,400,410,420,430,440,450,460,470,480,490,500,510,520,530,540,550,560,570,580,590,600,610,620,630,640,650,660,670,680,690,700,710,720,730,740,750,760,770,780,790,800,810,820,830,840,850,860,870,880,890,900,910,920,930,940,950,960,970,980,990,1000,1010,1020,1030,1040,1050,1060,1070],[0,16,17,18,20,21,22,23,25,26,27,28,30,31,32,33,35,36,37,38,40,41,42,43,45,46,47,48,50,51,52,53,55,56,57,58,60,61,62,63,65,66,67,68,70,71,72,73,75,76,77,78,80,81,82,83,85,86,87,88,90,91,92,93,95,96,97,98,100,101,102,103,105,106,107,108,110,111,112,113,115,116,117,118,120,121,122,123,125,126,127,128,130,131,132,133,135,136,137,138],[0,16,17,18,20,21,22,23,25,26,27,28,30,31,32,33,35,36,37,38,40,41,42,43,45,46,47,48,50,51,52,53,55,56,57,58,60,61,62,63,65,66,67,68,70,71,72,73,75,76,77,78,80,81,82,83,85,86,87,88,90,91,92,93,95,96,97,98,100,101,102,103,105,106,107,108,110,111,112,113,115,116,117,118,120,121,122,123,125,126,127,128,130,131,132,133,135,136,137,138],[0,16,17,18,20,21,22,23,25,26,27,28,30,31,32,33,35,36,37,38,40,41,42,43,45,46,47,48,50,51,52,53,55,56,57,58,60,61,62,63,65,66,67,68,70,71,72,73,75,76,77,78,80,81,82,83,85,86,87,88,90,91,92,93,95,96,97,98,100,101,102,103,105,106,107,108,110,111,112,113,115,116,117,118,120,121,122,123,125,126,127,128,130,131,132,133,135,136,137,138],[0,16,17,18,20,21,22,23,25,26,27,28,30,31,32,33,35,36,37,38,40,41,42,43,45,46,47,48,50,51,52,53,55,56,57,58,60,61,62,63,65,66,67,68,70,71,72,73,75,76,77,78,80,81,82,83,85,86,87,88,90,91,92,93,95,96,97,98,100,101,102,103,105,106,107,108,110,111,112,113,115,116,117,118,120,121,122,123,125,126,127,128,130,131,132,133,135,136,137,138],[0,32,35,37,40,42,45,47,50,52,55,57,60,62,65,67,70,72,75,77,80,82,85,87,90,92,95,97,100,102,105,107,110,112,115,117,120,122,125,127,130,132,135,137,140,142,145,147,150,152,155,157,160,162,165,167,170,172,175,177,180,182,185,187,190,192,195,197,200,202,205,207,210,212,215,217,220,222,225,227,230,232,235,237,240,242,245,247,250,252,255,257,260,262,265,267,270,272,275,277],[0,32,35,37,40,42,45,47,50,52,55,57,60,62,65,67,70,72,75,77,80,82,85,87,90,92,95,97,100,102,105,107,110,112,115,117,120,122,125,127,130,132,135,137,140,142,145,147,150,152,155,157,160,162,165,167,170,172,175,177,180,182,185,187,190,192,195,197,200,202,205,207,210,212,215,217,220,222,225,227,230,232,235,237,240,242,245,247,250,252,255,257,260,262,265,267,270,272,275,277]]},
{"id":6,"expParams":[30,20,30,30],"traits":[{"code":23,"dataId":0,"value":1},{"code":22,"dataId":0,"value":0.95},{"code":22,"dataId":1,"value":0.05},{"code":22,"dataId":2,"value":0.04},{"code":41,"dataId":1,"value":0},{"code":51,"dataId":1,"value":0},{"code":52,"dataId":1,"value":0}],"learnings":[],"name":"Community Ego","note":"","params":[[0,450,500,550,600,650,700,750,800,850,900,950,1000,1050,1100,1150,1200,1250,1300,1350,1400,1450,1500,1550,1600,1650,1700,1750,1800,1850,1900,1950,2000,2050,2100,2150,2200,2250,2300,2350,2400,2450,2500,2550,2600,2650,2700,2750,2800,2850,2900,2950,3000,3050,3100,3150,3200,3250,3300,3350,3400,3450,3500,3550,3600,3650,3700,3750,3800,3850,3900,3950,4000,4050,4100,4150,4200,4250,4300,4350,4400,4450,4500,4550,4600,4650,4700,4750,4800,4850,4900,4950,5000,5050,5100,5150,5200,5250,5300,5350],[0,90,100,110,120,130,140,150,160,170,180,190,200,210,220,230,240,250,260,270,280,290,300,310,320,330,340,350,360,370,380,390,400,410,420,430,440,450,460,470,480,490,500,510,520,530,540,550,560,570,580,590,600,610,620,630,640,650,660,670,680,690,700,710,720,730,740,750,760,770,780,790,800,810,820,830,840,850,860,870,880,890,900,910,920,930,940,950,960,970,980,990,1000,1010,1020,1030,1040,1050,1060,1070],[0,16,17,18,20,21,22,23,25,26,27,28,30,31,32,33,35,36,37,38,40,41,42,43,45,46,47,48,50,51,52,53,55,56,57,58,60,61,62,63,65,66,67,68,70,71,72,73,75,76,77,78,80,81,82,83,85,86,87,88,90,91,92,93,95,96,97,98,100,101,102,103,105,106,107,108,110,111,112,113,115,116,117,118,120,121,122,123,125,126,127,128,130,131,132,133,135,136,137,138],[0,16,17,18,20,21,22,23,25,26,27,28,30,31,32,33,35,36,37,38,40,41,42,43,45,46,47,48,50,51,52,53,55,56,57,58,60,61,62,63,65,66,67,68,70,71,72,73,75,76,77,78,80,81,82,83,85,86,87,88,90,91,92,93,95,96,97,98,100,101,102,103,105,106,107,108,110,111,112,113,115,116,117,118,120,121,122,123,125,126,127,128,130,131,132,133,135,136,137,138],[0,16,17,18,20,21,22,23,25,26,27,28,30,31,32,33,35,36,37,38,40,41,42,43,45,46,47,48,50,51,52,53,55,56,57,58,60,61,62,63,65,66,67,68,70,71,72,73,75,76,77,78,80,81,82,83,85,86,87,88,90,91,92,93,95,96,97,98,100,101,102,103,105,106,107,108,110,111,112,113,115,116,117,118,120,121,122,123,125,126,127,128,130,131,132,133,135,136,137,138],[0,16,17,18,20,21,22,23,25,26,27,28,30,31,32,33,35,36,37,38,40,41,42,43,45,46,47,48,50,51,52,53,55,56,57,58,60,61,62,63,65,66,67,68,70,71,72,73,75,76,77,78,80,81,82,83,85,86,87,88,90,91,92,93,95,96,97,98,100,101,102,103,105,106,107,108,110,111,112,113,115,116,117,118,120,121,122,123,125,126,127,128,130,131,132,133,135,136,137,138],[0,32,35,37,40,42,45,47,50,52,55,57,60,62,65,67,70,72,75,77,80,82,85,87,90,92,95,97,100,102,105,107,110,112,115,117,120,122,125,127,130,132,135,137,140,142,145,147,150,152,155,157,160,162,165,167,170,172,175,177,180,182,185,187,190,192,195,197,200,202,205,207,210,212,215,217,220,222,225,227,230,232,235,237,240,242,245,247,250,252,255,257,260,262,265,267,270,272,275,277],[0,32,35,37,40,42,45,47,50,52,55,57,60,62,65,67,70,72,75,77,80,82,85,87,90,92,95,97,100,102,105,107,110,112,115,117,120,122,125,127,130,132,135,137,140,142,145,147,150,152,155,157,160,162,165,167,170,172,175,177,180,182,185,187,190,192,195,197,200,202,205,207,210,212,215,217,220,222,225,227,230,232,235,237,240,242,245,247,250,252,255,257,260,262,265,267,270,272,275,277]]},
{"id":7,"expParams":[30,20,30,30],"traits":[{"code":23,"dataId":0,"value":1},{"code":22,"dataId":0,"value":0.95},{"code":22,"dataId":1,"value":0.05},{"code":22,"dataId":2,"value":0.04},{"code":41,"dataId":1,"value":0},{"code":51,"dataId":1,"value":0},{"code":52,"dataId":1,"value":0}],"learnings":[],"name":"???","note":"","params":[[0,450,500,550,600,650,700,750,800,850,900,950,1000,1050,1100,1150,1200,1250,1300,1350,1400,1450,1500,1550,1600,1650,1700,1750,1800,1850,1900,1950,2000,2050,2100,2150,2200,2250,2300,2350,2400,2450,2500,2550,2600,2650,2700,2750,2800,2850,2900,2950,3000,3050,3100,3150,3200,3250,3300,3350,3400,3450,3500,3550,3600,3650,3700,3750,3800,3850,3900,3950,4000,4050,4100,4150,4200,4250,4300,4350,4400,4450,4500,4550,4600,4650,4700,4750,4800,4850,4900,4950,5000,5050,5100,5150,5200,5250,5300,5350],[0,90,100,110,120,130,140,150,160,170,180,190,200,210,220,230,240,250,260,270,280,290,300,310,320,330,340,350,360,370,380,390,400,410,420,430,440,450,460,470,480,490,500,510,520,530,540,550,560,570,580,590,600,610,620,630,640,650,660,670,680,690,700,710,720,730,740,750,760,770,780,790,800,810,820,830,840,850,860,870,880,890,900,910,920,930,940,950,960,970,980,990,1000,1010,1020,1030,1040,1050,1060,1070],[0,16,17,18,20,21,22,23,25,26,27,28,30,31,32,33,35,36,37,38,40,41,42,43,45,46,47,48,50,51,52,53,55,56,57,58,60,61,62,63,65,66,67,68,70,71,72,73,75,76,77,78,80,81,82,83,85,86,87,88,90,91,92,93,95,96,97,98,100,101,102,103,105,106,107,108,110,111,112,113,115,116,117,118,120,121,122,123,125,126,127,128,130,131,132,133,135,136,137,138],[0,16,17,18,20,21,22,23,25,26,27,28,30,31,32,33,35,36,37,38,40,41,42,43,45,46,47,48,50,51,52,53,55,56,57,58,60,61,62,63,65,66,67,68,70,71,72,73,75,76,77,78,80,81,82,83,85,86,87,88,90,91,92,93,95,96,97,98,100,101,102,103,105,106,107,108,110,111,112,113,115,116,117,118,120,121,122,123,125,126,127,128,130,131,132,133,135,136,137,138],[0,16,17,18,20,21,22,23,25,26,27,28,30,31,32,33,35,36,37,38,40,41,42,43,45,46,47,48,50,51,52,53,55,56,57,58,60,61,62,63,65,66,67,68,70,71,72,73,75,76,77,78,80,81,82,83,85,86,87,88,90,91,92,93,95,96,97,98,100,101,102,103,105,106,107,108,110,111,112,113,115,116,117,118,120,121,122,123,125,126,127,128,130,131,132,133,135,136,137,138],[0,16,17,18,20,21,22,23,25,26,27,28,30,31,32,33,35,36,37,38,40,41,42,43,45,46,47,48,50,51,52,53,55,56,57,58,60,61,62,63,65,66,67,68,70,71,72,73,75,76,77,78,80,81,82,83,85,86,87,88,90,91,92,93,95,96,97,98,100,101,102,103,105,106,107,108,110,111,112,113,115,116,117,118,120,121,122,123,125,126,127,128,130,131,132,133,135,136,137,138],[0,32,35,37,40,42,45,47,50,52,55,57,60,62,65,67,70,72,75,77,80,82,85,87,90,92,95,97,100,102,105,107,110,112,115,117,120,122,125,127,130,132,135,137,140,142,145,147,150,152,155,157,160,162,165,167,170,172,175,177,180,182,185,187,190,192,195,197,200,202,205,207,210,212,215,217,220,222,225,227,230,232,235,237,240,242,245,247,250,252,255,257,260,262,265,267,270,272,275,277],[0,32,35,37,40,42,45,47,50,52,55,57,60,62,65,67,70,72,75,77,80,82,85,87,90,92,95,97,100,102,105,107,110,112,115,117,120,122,125,127,130,132,135,137,140,142,145,147,150,152,155,157,160,162,165,167,170,172,175,177,180,182,185,187,190,192,195,197,200,202,205,207,210,212,215,217,220,222,225,227,230,232,235,237,240,242,245,247,250,252,255,257,260,262,265,267,270,272,275,277]]},
{"id":8,"expParams":[30,20,30,30],"traits":[{"code":23,"dataId":0,"value":1},{"code":22,"dataId":0,"value":0.95},{"code":22,"dataId":1,"value":0.05},{"code":22,"dataId":2,"value":0.04},{"code":41,"dataId":1,"value":0},{"code":51,"dataId":1,"value":0},{"code":52,"dataId":1,"value":0}],"learnings":[],"name":"","note":"","params":[[0,450,500,550,600,650,700,750,800,850,900,950,1000,1050,1100,1150,1200,1250,1300,1350,1400,1450,1500,1550,1600,1650,1700,1750,1800,1850,1900,1950,2000,2050,2100,2150,2200,2250,2300,2350,2400,2450,2500,2550,2600,2650,2700,2750,2800,2850,2900,2950,3000,3050,3100,3150,3200,3250,3300,3350,3400,3450,3500,3550,3600,3650,3700,3750,3800,3850,3900,3950,4000,4050,4100,4150,4200,4250,4300,4350,4400,4450,4500,4550,4600,4650,4700,4750,4800,4850,4900,4950,5000,5050,5100,5150,5200,5250,5300,5350],[0,90,100,110,120,130,140,150,160,170,180,190,200,210,220,230,240,250,260,270,280,290,300,310,320,330,340,350,360,370,380,390,400,410,420,430,440,450,460,470,480,490,500,510,520,530,540,550,560,570,580,590,600,610,620,630,640,650,660,670,680,690,700,710,720,730,740,750,760,770,780,790,800,810,820,830,840,850,860,870,880,890,900,910,920,930,940,950,960,970,980,990,1000,1010,1020,1030,1040,1050,1060,1070],[0,16,17,18,20,21,22,23,25,26,27,28,30,31,32,33,35,36,37,38,40,41,42,43,45,46,47,48,50,51,52,53,55,56,57,58,60,61,62,63,65,66,67,68,70,71,72,73,75,76,77,78,80,81,82,83,85,86,87,88,90,91,92,93,95,96,97,98,100,101,102,103,105,106,107,108,110,111,112,113,115,116,117,118,120,121,122,123,125,126,127,128,130,131,132,133,135,136,137,138],[0,16,17,18,20,21,22,23,25,26,27,28,30,31,32,33,35,36,37,38,40,41,42,43,45,46,47,48,50,51,52,53,55,56,57,58,60,61,62,63,65,66,67,68,70,71,72,73,75,76,77,78,80,81,82,83,85,86,87,88,90,91,92,93,95,96,97,98,100,101,102,103,105,106,107,108,110,111,112,113,115,116,117,118,120,121,122,123,125,126,127,128,130,131,132,133,135,136,137,138],[0,16,17,18,20,21,22,23,25,26,27,28,30,31,32,33,35,36,37,38,40,41,42,43,45,46,47,48,50,51,52,53,55,56,57,58,60,61,62,63,65,66,67,68,70,71,72,73,75,76,77,78,80,81,82,83,85,86,87,88,90,91,92,93,95,96,97,98,100,101,102,103,105,106,107,108,110,111,112,113,115,116,117,118,120,121,122,123,125,126,127,128,130,131,132,133,135,136,137,138],[0,16,17,18,20,21,22,23,25,26,27,28,30,31,32,33,35,36,37,38,40,41,42,43,45,46,47,48,50,51,52,53,55,56,57,58,60,61,62,63,65,66,67,68,70,71,72,73,75,76,77,78,80,81,82,83,85,86,87,88,90,91,92,93,95,96,97,98,100,101,102,103,105,106,107,108,110,111,112,113,115,116,117,118,120,121,122,123,125,126,127,128,130,131,132,133,135,136,137,138],[0,32,35,37,40,42,45,47,50,52,55,57,60,62,65,67,70,72,75,77,80,82,85,87,90,92,95,97,100,102,105,107,110,112,115,117,120,122,125,127,130,132,135,137,140,142,145,147,150,152,155,157,160,162,165,167,170,172,175,177,180,182,185,187,190,192,195,197,200,202,205,207,210,212,215,217,220,222,225,227,230,232,235,237,240,242,245,247,250,252,255,257,260,262,265,267,270,272,275,277],[0,32,35,37,40,42,45,47,50,52,55,57,60,62,65,67,70,72,75,77,80,82,85,87,90,92,95,97,100,102,105,107,110,112,115,117,120,122,125,127,130,132,135,137,140,142,145,147,150,152,155,157,160,162,165,167,170,172,175,177,180,182,185,187,190,192,195,197,200,202,205,207,210,212,215,217,220,222,225,227,230,232,235,237,240,242,245,247,250,252,255,257,260,262,265,267,270,272,275,277]]},
{"id":9,"expParams":[30,20,30,30],"traits":[{"code":23,"dataId":0,"value":1},{"code":22,"dataId":0,"value":0.95},{"code":22,"dataId":1,"value":0.05},{"code":22,"dataId":2,"value":0.04},{"code":41,"dataId":1,"value":0},{"code":51,"dataId":1,"value":0},{"code":52,"dataId":1,"value":0}],"learnings":[],"name":"","note":"","params":[[0,450,500,550,600,650,700,750,800,850,900,950,1000,1050,1100,1150,1200,1250,1300,1350,1400,1450,1500,1550,1600,1650,1700,1750,1800,1850,1900,1950,2000,2050,2100,2150,2200,2250,2300,2350,2400,2450,2500,2550,2600,2650,2700,2750,2800,2850,2900,2950,3000,3050,3100,3150,3200,3250,3300,3350,3400,3450,3500,3550,3600,3650,3700,3750,3800,3850,3900,3950,4000,4050,4100,4150,4200,4250,4300,4350,4400,4450,4500,4550,4600,4650,4700,4750,4800,4850,4900,4950,5000,5050,5100,5150,5200,5250,5300,5350],[0,90,100,110,120,130,140,150,160,170,180,190,200,210,220,230,240,250,260,270,280,290,300,310,320,330,340,350,360,370,380,390,400,410,420,430,440,450,460,470,480,490,500,510,520,530,540,550,560,570,580,590,600,610,620,630,640,650,660,670,680,690,700,710,720,730,740,750,760,770,780,790,800,810,820,830,840,850,860,870,880,890,900,910,920,930,940,950,960,970,980,990,1000,1010,1020,1030,1040,1050,1060,1070],[0,16,17,18,20,21,22,23,25,26,27,28,30,31,32,33,35,36,37,38,40,41,42,43,45,46,47,48,50,51,52,53,55,56,57,58,60,61,62,63,65,66,67,68,70,71,72,73,75,76,77,78,80,81,82,83,85,86,87,88,90,91,92,93,95,96,97,98,100,101,102,103,105,106,107,108,110,111,112,113,115,116,117,118,120,121,122,123,125,126,127,128,130,131,132,133,135,136,137,138],[0,16,17,18,20,21,22,23,25,26,27,28,30,31,32,33,35,36,37,38,40,41,42,43,45,46,47,48,50,51,52,53,55,56,57,58,60,61,62,63,65,66,67,68,70,71,72,73,75,76,77,78,80,81,82,83,85,86,87,88,90,91,92,93,95,96,97,98,100,101,102,103,105,106,107,108,110,111,112,113,115,116,117,118,120,121,122,123,125,126,127,128,130,131,132,133,135,136,137,138],[0,16,17,18,20,21,22,23,25,26,27,28,30,31,32,33,35,36,37,38,40,41,42,43,45,46,47,48,50,51,52,53,55,56,57,58,60,61,62,63,65,66,67,68,70,71,72,73,75,76,77,78,80,81,82,83,85,86,87,88,90,91,92,93,95,96,97,98,100,101,102,103,105,106,107,108,110,111,112,113,115,116,117,118,120,121,122,123,125,126,127,128,130,131,132,133,135,136,137,138],[0,16,17,18,20,21,22,23,25,26,27,28,30,31,32,33,35,36,37,38,40,41,42,43,45,46,47,48,50,51,52,53,55,56,57,58,60,61,62,63,65,66,67,68,70,71,72,73,75,76,77,78,80,81,82,83,85,86,87,88,90,91,92,93,95,96,97,98,100,101,102,103,105,106,107,108,110,111,112,113,115,116,117,118,120,121,122,123,125,126,127,128,130,131,132,133,135,136,137,138],[0,32,35,37,40,42,45,47,50,52,55,57,60,62,65,67,70,72,75,77,80,82,85,87,90,92,95,97,100,102,105,107,110,112,115,117,120,122,125,127,130,132,135,137,140,142,145,147,150,152,155,157,160,162,165,167,170,172,175,177,180,182,185,187,190,192,195,197,200,202,205,207,210,212,215,217,220,222,225,227,230,232,235,237,240,242,245,247,250,252,255,257,260,262,265,267,270,272,275,277],[0,32,35,37,40,42,45,47,50,52,55,57,60,62,65,67,70,72,75,77,80,82,85,87,90,92,95,97,100,102,105,107,110,112,115,117,120,122,125,127,130,132,135,137,140,142,145,147,150,152,155,157,160,162,165,167,170,172,175,177,180,182,185,187,190,192,195,197,200,202,205,207,210,212,215,217,220,222,225,227,230,232,235,237,240,242,245,247,250,252,255,257,260,262,265,267,270,272,275,277]]},
{"id":10,"expParams":[30,20,30,30],"traits":[{"code":23,"dataId":0,"value":1},{"code":22,"dataId":0,"value":0.95},{"code":22,"dataId":1,"value":0.05},{"code":22,"dataId":2,"value":0.04},{"code":41,"dataId":1,"value":0},{"code":51,"dataId":1,"value":0},{"code":52,"dataId":1,"value":0}],"learnings":[],"name":"","note":"","params":[[0,450,500,550,600,650,700,750,800,850,900,950,1000,1050,1100,1150,1200,1250,1300,1350,1400,1450,1500,1550,1600,1650,1700,1750,1800,1850,1900,1950,2000,2050,2100,2150,2200,2250,2300,2350,2400,2450,2500,2550,2600,2650,2700,2750,2800,2850,2900,2950,3000,3050,3100,3150,3200,3250,3300,3350,3400,3450,3500,3550,3600,3650,3700,3750,3800,3850,3900,3950,4000,4050,4100,4150,4200,4250,4300,4350,4400,4450,4500,4550,4600,4650,4700,4750,4800,4850,4900,4950,5000,5050,5100,5150,5200,5250,5300,5350],[0,90,100,110,120,130,140,150,160,170,180,190,200,210,220,230,240,250,260,270,280,290,300,310,320,330,340,350,360,370,380,390,400,410,420,430,440,450,460,470,480,490,500,510,520,530,540,550,560,570,580,590,600,610,620,630,640,650,660,670,680,690,700,710,720,730,740,750,760,770,780,790,800,810,820,830,840,850,860,870,880,890,900,910,920,930,940,950,960,970,980,990,1000,1010,1020,1030,1040,1050,1060,1070],[0,16,17,18,20,21,22,23,25,26,27,28,30,31,32,33,35,36,37,38,40,41,42,43,45,46,47,48,50,51,52,53,55,56,57,58,60,61,62,63,65,66,67,68,70,71,72,73,75,76,77,78,80,81,82,83,85,86,87,88,90,91,92,93,95,96,97,98,100,101,102,103,105,106,107,108,110,111,112,113,115,116,117,118,120,121,122,123,125,126,127,128,130,131,132,133,135,136,137,138],[0,16,17,18,20,21,22,23,25,26,27,28,30,31,32,33,35,36,37,38,40,41,42,43,45,46,47,48,50,51,52,53,55,56,57,58,60,61,62,63,65,66,67,68,70,71,72,73,75,76,77,78,80,81,82,83,85,86,87,88,90,91,92,93,95,96,97,98,100,101,102,103,105,106,107,108,110,111,112,113,115,116,117,118,120,121,122,123,125,126,127,128,130,131,132,133,135,136,137,138],[0,16,17,18,20,21,22,23,25,26,27,28,30,31,32,33,35,36,37,38,40,41,42,43,45,46,47,48,50,51,52,53,55,56,57,58,60,61,62,63,65,66,67,68,70,71,72,73,75,76,77,78,80,81,82,83,85,86,87,88,90,91,92,93,95,96,97,98,100,101,102,103,105,106,107,108,110,111,112,113,115,116,117,118,120,121,122,123,125,126,127,128,130,131,132,133,135,136,137,138],[0,16,17,18,20,21,22,23,25,26,27,28,30,31,32,33,35,36,37,38,40,41,42,43,45,46,47,48,50,51,52,53,55,56,57,58,60,61,62,63,65,66,67,68,70,71,72,73,75,76,77,78,80,81,82,83,85,86,87,88,90,91,92,93,95,96,97,98,100,101,102,103,105,106,107,108,110,111,112,113,115,116,117,118,120,121,122,123,125,126,127,128,130,131,132,133,135,136,137,138],[0,32,35,37,40,42,45,47,50,52,55,57,60,62,65,67,70,72,75,77,80,82,85,87,90,92,95,97,100,102,105,107,110,112,115,117,120,122,125,127,130,132,135,137,140,142,145,147,150,152,155,157,160,162,165,167,170,172,175,177,180,182,185,187,190,192,195,197,200,202,205,207,210,212,215,217,220,222,225,227,230,232,235,237,240,242,245,247,250,252,255,257,260,262,265,267,270,272,275,277],[0,32,35,37,40,42,45,47,50,52,55,57,60,62,65,67,70,72,75,77,80,82,85,87,90,92,95,97,100,102,105,107,110,112,115,117,120,122,125,127,130,132,135,137,140,142,145,147,150,152,155,157,160,162,165,167,170,172,175,177,180,182,185,187,190,192,195,197,200,202,205,207,210,212,215,217,220,222,225,227,230,232,235,237,240,242,245,247,250,252,255,257,260,262,265,267,270,272,275,277]]}
]