{
"autoplayBgm":false,"autoplayBgs":false,"battleback1Name":"","battleback2Name":"","bgm":{"name":"","pan":0,"pitch":100,"volume":100},"bgs":{"name":"","pan":0,"pitch":100,"volume":80},"disableDashing":false,"displayName":"","encounterList":[],"encounterStep":30,"height":15,"note":"<all restrict: 6>","parallaxLoopX":true,"parallaxLoopY":true,"parallaxName":"pl_007","parallaxShow":true,"parallaxSx":1,"parallaxSy":-1,"scrollType":0,"specifyBattleback":false,"tilesetId":10,"width":26,
"data":[0,3292,6720,6704,6704,6704,6704,6704,6704,6704,6704,6704,6704,6704,6704,6704,6704,6704,6704,6704,6704,6704,6704,6728,0,0,0,0,6720,6704,6704,6704,6704,6704,6704,6704,6704,6704,6704,6704,6704,6704,6704,6704,6704,6704,6704,6704,6704,6728,0,0,0,0,6720,6708,6732,6732,6732,6732,6732,6732,6732,6732,6732,6732,6732,6732,6732,6732,6732,6732,6732,6732,6732,6729,0,0,0,0,6720,6728,5123,5126,1547,5123,5126,1547,5123,5126,1547,5123,5126,1547,5123,5126,1547,5123,5126,1547,5127,6736,0,0,0,0,6720,6728,5129,5132,1547,5129,5132,1547,5129,5132,1547,5129,5132,1547,5129,5132,1547,5129,5132,1547,5133,6736,0,0,0,0,6720,6728,1546,1546,1546,1546,1546,1546,1546,1546,1546,1546,1546,1546,1546,1546,1546,1546,1546,1546,1546,6736,0,0,0,0,6720,6728,1546,1546,1546,1546,1546,1546,1546,1546,1546,1546,1546,1546,1546,1546,1546,1546,1546,1546,1546,6736,0,0,0,0,6744,6742,1546,1546,1546,1546,1546,1546,1546,1546,1546,1546,1546,1546,1546,1546,1546,1546,1546,1546,1546,6745,6749,0,0,0,7907,7910,1546,1546,1546,1546,1546,1546,1546,1546,1546,1546,1546,1546,1546,1546,1546,1546,1546,1546,1546,7907,7910,0,0,0,7913,7916,1546,1546,1546,1546,1546,1546,1546,1546,1546,1546,1546,1546,1546,1546,1546,1546,1546,1546,1546,7913,7916,0,0,0,1546,1546,1546,1546,1546,1546,1546,1546,1546,1546,1546,1546,1546,1546,1546,1546,1546,1546,1546,1546,1546,1546,1546,0,0,0,6747,6737,6737,6737,6737,6737,6737,6737,6737,6737,6737,6737,6737,6737,6737,6737,6737,6737,6737,6749,1546,6747,6749,0,0,0,6611,6610,6610,6610,6610,6610,6610,6610,6610,6610,6610,6610,6610,6610,6610,6610,6610,6610,6610,6614,1546,6611,6614,0,0,0,6617,6616,6616,6616,6616,6616,6616,6616,6616,6616,6616,6616,6616,6616,6616,6616,6616,6616,6616,6620,1546,6617,6620,0,0,0,0,0,0,0,0,0,0,0,0,0,0,0,0,0,0,0,0,0,0,0,0,0,0,0,0,3436,0,0,0,0,0,0,0,0,0,0,0,0,0,0,0,0,0,0,0,0,0,0,0,0,0,0,0,0,0,0,0,0,0,0,0,0,0,0,0,0,0,0,0,0,0,0,0,0,0,0,0,0,0,0,0,0,0,0,0,0,0,0,0,0,0,0,0,0,0,0,0,0,0,0,0,0,0,0,0,0,0,0,0,0,0,0,0,0,0,0,0,0,0,0,0,0,0,0,0,0,0,0,0,0,0,0,0,0,0,0,0,0,0,0,0,0,0,0,0,0,0,0,0,0,0,0,0,0,0,0,0,0,0,0,0,0,0,0,0,0,0,0,0,0,0,0,0,0,0,0,0,0,0,0,0,0,0,0,0,0,0,0,0,0,0,0,0,0,0,0,0,0,0,0,0,0,0,0,0,0,0,0,0,0,0,0,0,0,0,0,0,0,0,0,0,0,0,0,0,0,0,0,0,0,0,0,0,0,0,0,0,0,0,0,0,0,0,0,0,0,0,0,0,0,0,0,0,0,0,0,0,0,0,0,0,0,0,0,0,0,0,0,0,0,0,0,0,0,0,0,0,0,0,0,0,0,0,0,0,0,0,0,0,0,0,0,0,0,0,0,0,0,0,0,0,0,0,0,0,0,0,0,0,0,0,0,0,0,0,0,0,0,0,0,0,0,0,0,0,0,0,0,0,0,0,0,0,0,0,0,0,0,0,0,0,0,0,0,0,0,0,0,0,0,0,0,0,0,0,0,0,0,0,0,0,0,0,0,0,0,0,0,0,0,0,0,0,0,0,0,0,0,0,0,0,0,0,0,0,0,0,0,0,0,0,0,0,0,0,0,0,0,0,0,0,0,0,0,0,0,0,0,0,0,0,0,0,0,0,0,0,0,0,0,0,0,0,0,0,0,0,0,0,0,0,0,0,0,0,0,0,0,0,0,0,0,0,0,0,0,0,0,0,0,0,0,0,0,0,0,0,0,0,0,0,0,0,0,0,0,0,0,0,0,0,0,0,0,0,0,0,0,0,0,0,0,0,0,0,0,0,0,0,0,0,0,0,0,0,0,0,0,0,0,0,0,0,0,0,0,0,0,0,0,1023,0,0,1023,0,0,0,0,0,0,0,0,0,0,0,0,0,0,0,0,0,0,0,0,0,0,0,0,0,0,0,0,0,0,0,0,0,0,0,0,0,0,0,0,0,0,0,0,0,0,0,0,0,0,0,0,0,0,0,0,0,0,0,0,0,0,0,0,0,0,0,0,0,0,0,0,0,0,0,0,0,0,0,0,0,0,0,0,0,0,0,0,0,0,0,0,0,0,0,0,0,0,0,0,0,0,0,0,0,0,0,0,0,0,0,0,0,0,0,0,0,0,0,0,0,0,0,0,0,0,0,0,0,0,0,0,0,0,0,0,0,0,0,0,0,0,0,0,0,0,0,0,0,0,0,0,0,0,0,0,0,0,0,0,0,0,0,0,0,0,0,0,0,0,0,0,0,0,0,0,0,0,0,0,0,0,0,0,0,0,0,0,0,0,0,0,0,0,0,0,0,0,0,0,0,0,0,0,0,0,0,0,0,0,0,0,0,0,0,0,0,0,0,0,0,0,0,0,0,0,0,0,0,0,0,0,0,0,0,0,0,0,0,0,0,0,0,0,0,0,0,0,0,0,0,0,0,0,0,0,0,0,0,0,0,0,0,0,0,0,0,0,0,0,0,0,0,0,0,0,0,0,0,0,0,0,0,0,0,0,0,0,0,0,0,0,0,0,0,0,0,0,0,0,0,0,0,0,0,0,0,0,0,0,0,0,0,0,0,0,0,0,0,0,0,0,0,0,0,0,0,0,0,0,0,0,0,0,0,0,0,0,0,0,0,0,0,0,0,0,0,0,0,0,0,0,0,0,0,0,0,0,0,0,0,0,0,0,0,0,0,0,0,0,0,0,0,0,1023,0,0,1023,0,0,1023,0,0,1023,0,0,241,0,0,241,0,0,0,0,0,0,0,0,0,0,1023,0,0,1023,0,0,1023,0,0,1023,0,0,1023,0,0,1023,0,0,0,0,0,0,0,0,24,0,0,24,0,0,24,0,0,24,0,0,24,0,0,24,0,0,24,0,0,0,0,0,0,0,32,0,0,32,0,0,32,0,0,32,0,0,32,0,0,32,0,0,32,0,0,0,0,0,0,0,0,0,0,0,0,0,0,0,0,0,0,0,0,0,0,0,0,0,0,0,0,0,0,0,0,0,0,0,0,0,0,0,0,0,0,0,0,0,0,0,0,0,0,0,0,0,0,0,0,0,0,0,0,0,0,0,0,0,0,0,0,0,0,0,0,0,0,0,0,0,0,0,0,0,0,0,0,0,0,0,0,0,0,0,0,0,0,0,0,0,0,0,0,0,0,0,0,0,0,0,0,0,0,0,0,0,0,0,0,0,0,0,0,0,0,0,0,0,0,0,0,0,0,0,0,0,0,0,0,0,0,0,0,0,0,0,0,0,0,0,0,0,0,0,0,0,0,0,0,0,0,0,0,0,0,0,0,0,0,0,0,0,0,0,0,0,0,0,0,0,0,0,0,0,0,0,0,0,0,0,0,0,0,0,0,0,0,0,0,0,0,0,0,0,0,0,0,0,0,0,0,0,0,0,0,0,0,0,0,0,0,0,0,0,0,0,0,0,0,0,0,0,0,0,0,0,0,0,0,0,0,0,0,0,0,0,0,0,0,0,0,0,0,0,0,0,0,0,0,0,0,0,0,0,0,0,0,0,0,0,0,0,0,0,0,0,0,0,0,0,0,0,0,0,0,0,0,0,0,0,0,0,0,0,0,0,0,0,5,0,0,5,0,0,5,0,0,5,0,0,5,0,0,5,0,0,0,0,0,0,0,0,1536,1536,1541,1536,1536,1541,1536,1536,1541,1536,1536,1541,1536,1536,1541,1536,1536,1541,1536,0,0,0,0,0,0,0,1536,0,0,1536,0,0,1536,0,0,1536,0,0,1536,0,0,1536,0,0,1536,0,0,0,0,0,0,1536,1536,0,0,1536,0,0,1536,0,0,1536,0,0,1536,0,0,1536,0,0,1536,0,0,0,0,0,0,1536,0,0,0,0,0,0,0,0,0,0,0,0,0,0,0,0,0,0,0,0,0,0,0,0,0,1536,0,0,0,0,0,0,0,0,0,0,0,0,0,0,0,0,0,0,0,0,0,0,1536,1536,1536,1536,0,0,0,0,0,0,0,0,0,0,0,0,0,0,0,0,0,0,0,0,0,0,0,0,0,0,0,0,0,0,0,0,0,0,0,0,0,0,0,0,0,0,0,0,0,0,0,0,1536,1536,1536,1536,1536,1536,1536,1536,1536,1536,1536,1536,1536,1536,1536,1536,1536,1536,1536,1536,1536,1536,0,0,0,0,0,0,0,0,0,0,0,0,0,0,0,0,0,0,0,0,0,0,0,0,0,1536,0,1536,0,0,0,0,0,0,0,0,0,0,0,0,0,0,0,0,0,0,0,0,0,0,0,1536,0,1536,0,0,0,0,0,0,0,0,0,0,0,0,0,0,0,0,0,0,0,0,0,0,0,1536,0,1536,0,0,0,0,0,0,0,0,0,0,0,0,0,0,0,0,0,0,0,0,0,0,0,0,0,0,0,0,0,0,0,0,0,0,0,0,0,0,0,0,0,0,0,0,0,0,0,0,0,0,0,0,0,0,0,0,0,0,0,0,0,0,0,0,0,0,0,0,0,0,0,0,0,0,0,0,0,0,0,0,0,0,0,0,0,0,0,0,0,0,0,0,0,0,0,0,0,0,0,0,0,0,0,0,0,0,0,0,0,0,6,6,6,6,6,6,6,6,6,6,6,6,6,6,6,6,6,6,6,0,0,0,0,0,0,0,6,0,0,6,0,0,6,0,0,6,0,0,6,0,0,6,0,0,6,0,0,0,0,0,0,6,6,0,0,6,0,0,6,0,0,6,0,0,6,0,0,6,0,0,6,6,0,0,0,0,0,6,0,0,0,0,0,0,0,0,0,0,0,0,0,0,0,0,0,0,0,6,0,0,0,0,0,6,0,0,0,0,0,0,0,0,0,0,0,0,0,0,0,0,0,0,0,6,0,0,6,6,6,6,0,0,0,0,0,0,0,0,0,0,0,0,0,0,0,0,0,0,0,6,6,6,0,0,0,0,0,0,0,0,0,0,0,0,0,0,0,0,0,0,0,0,0,0,0,0,0,6,6,6,6,6,6,6,6,6,6,6,6,6,6,6,6,6,6,6,6,6,6,6,0,6,6,6,0,0,0,0,0,0,0,0,0,0,0,0,0,0,0,0,0,0,0,0,0,6,0,6,6,6,0,0,0,0,0,0,0,0,0,0,0,0,0,0,0,0,0,0,0,0,0,6,0,6,0,0,0,0,0,0,0,0,0,0,0,0,0,0,0,0,0,0,0,0,0,0,0,6,0,6,0,0],
"events":[
null,
{"id":1,"name":"EV001","note":"","pages":[{"conditions":{"actorId":1,"actorValid":false,"itemId":1,"itemValid":false,"selfSwitchCh":"A","selfSwitchValid":false,"switch1Id":1,"switch1Valid":false,"switch2Id":1,"switch2Valid":false,"variableId":1,"variableValid":false,"variableValue":0},"directionFix":false,"image":{"tileId":0,"characterName":"","direction":2,"pattern":0,"characterIndex":0},"moveFrequency":3,"moveRoute":{"list":[{"code":0,"indent":null,"parameters":[]}],"repeat":true,"skippable":false,"wait":false},"moveSpeed":3,"moveType":0,"priorityType":1,"stepAnime":false,"through":false,"trigger":1,"walkAnime":true,"list":[{"code":201,"indent":0,"parameters":[0,26,24,7,4,0]},{"code":0,"indent":0,"parameters":[]}]}],"x":1,"y":10},
{"id":2,"name":"Door Number 1 (top)","note":"","pages":[{"conditions":{"actorId":1,"actorValid":false,"itemId":1,"itemValid":false,"selfSwitchCh":"A","selfSwitchValid":false,"switch1Id":1,"switch1Valid":false,"switch2Id":1,"switch2Valid":false,"variableId":1,"variableValid":false,"variableValue":0},"directionFix":false,"image":{"tileId":241,"characterName":"","direction":2,"pattern":0,"characterIndex":5},"moveFrequency":3,"moveRoute":{"list":[{"code":0,"indent":null,"parameters":[]}],"repeat":true,"skippable":false,"wait":false},"moveSpeed":3,"moveType":0,"priorityType":0,"stepAnime":false,"through":false,"trigger":0,"walkAnime":true,"list":[{"code":0,"indent":0,"parameters":[]}]},{"conditions":{"actorId":1,"actorValid":false,"itemId":1,"itemValid":false,"selfSwitchCh":"A","selfSwitchValid":false,"switch1Id":1,"switch1Valid":false,"switch2Id":1,"switch2Valid":false,"variableId":21,"variableValid":true,"variableValue":3},"directionFix":false,"image":{"tileId":0,"characterName":"","direction":2,"pattern":0,"characterIndex":0},"moveFrequency":3,"moveRoute":{"list":[{"code":0,"indent":null,"parameters":[]}],"repeat":true,"skippable":false,"wait":false},"moveSpeed":3,"moveType":0,"priorityType":0,"stepAnime":false,"through":false,"trigger":0,"walkAnime":true,"list":[{"code":0,"indent":0,"parameters":[]}]}],"x":6,"y":3},
{"id":3,"name":"Door Number 2 (bottom)","note":"","pages":[{"conditions":{"actorId":1,"actorValid":false,"itemId":1,"itemValid":false,"selfSwitchCh":"A","selfSwitchValid":false,"switch1Id":1,"switch1Valid":false,"switch2Id":1,"switch2Valid":false,"variableId":1,"variableValid":false,"variableValue":0},"directionFix":false,"image":{"tileId":233,"characterName":"","direction":2,"pattern":0,"characterIndex":5},"moveFrequency":3,"moveRoute":{"list":[{"code":0,"indent":null,"parameters":[]}],"repeat":true,"skippable":false,"wait":false},"moveSpeed":3,"moveType":0,"priorityType":1,"stepAnime":false,"through":false,"trigger":0,"walkAnime":true,"list":[{"code":0,"indent":0,"parameters":[]}]},{"conditions":{"actorId":1,"actorValid":false,"itemId":1,"itemValid":false,"selfSwitchCh":"A","selfSwitchValid":false,"switch1Id":1,"switch1Valid":false,"switch2Id":1,"switch2Valid":false,"variableId":21,"variableValid":true,"variableValue":1},"directionFix":false,"image":{"tileId":0,"characterName":"","direction":2,"pattern":0,"characterIndex":0},"moveFrequency":3,"moveRoute":{"list":[{"code":0,"indent":null,"parameters":[]}],"repeat":true,"skippable":false,"wait":false},"moveSpeed":3,"moveType":0,"priorityType":1,"stepAnime":false,"through":false,"trigger":1,"walkAnime":true,"list":[{"code":201,"indent":0,"parameters":[0,151,9,14,8,0]},{"code":0,"indent":0,"parameters":[]}]}],"x":9,"y":4},
{"id":4,"name":"Door Number 1 (bottom)","note":"","pages":[{"conditions":{"actorId":1,"actorValid":false,"itemId":1,"itemValid":false,"selfSwitchCh":"A","selfSwitchValid":false,"switch1Id":1,"switch1Valid":false,"switch2Id":1,"switch2Valid":false,"variableId":1,"variableValid":false,"variableValue":0},"directionFix":false,"image":{"tileId":233,"characterName":"","direction":2,"pattern":0,"characterIndex":5},"moveFrequency":3,"moveRoute":{"list":[{"code":0,"indent":null,"parameters":[]}],"repeat":true,"skippable":false,"wait":false},"moveSpeed":3,"moveType":0,"priorityType":1,"stepAnime":false,"through":false,"trigger":0,"walkAnime":true,"list":[{"code":0,"indent":0,"parameters":[]}]},{"conditions":{"actorId":1,"actorValid":false,"itemId":1,"itemValid":false,"selfSwitchCh":"A","selfSwitchValid":false,"switch1Id":1,"switch1Valid":false,"switch2Id":1,"switch2Valid":false,"variableId":21,"variableValid":true,"variableValue":3},"directionFix":false,"image":{"tileId":0,"characterName":"","direction":2,"pattern":0,"characterIndex":0},"moveFrequency":3,"moveRoute":{"list":[{"code":0,"indent":null,"parameters":[]}],"repeat":true,"skippable":false,"wait":false},"moveSpeed":3,"moveType":0,"priorityType":1,"stepAnime":false,"through":false,"trigger":1,"walkAnime":true,"list":[{"code":201,"indent":0,"parameters":[0,149,9,14,8,0]},{"code":0,"indent":0,"parameters":[]}]}],"x":6,"y":4},
{"id":5,"name":"Door Number 3 (bottom)","note":"","pages":[{"conditions":{"actorId":1,"actorValid":false,"itemId":1,"itemValid":false,"selfSwitchCh":"A","selfSwitchValid":false,"switch1Id":1,"switch1Valid":false,"switch2Id":1,"switch2Valid":false,"variableId":1,"variableValid":false,"variableValue":0},"directionFix":false,"image":{"tileId":248,"characterName":"","direction":2,"pattern":0,"characterIndex":5},"moveFrequency":3,"moveRoute":{"list":[{"code":0,"indent":null,"parameters":[]}],"repeat":true,"skippable":false,"wait":false},"moveSpeed":3,"moveType":0,"priorityType":0,"stepAnime":false,"through":false,"trigger":0,"walkAnime":true,"list":[{"code":0,"indent":0,"parameters":[]}]},{"conditions":{"actorId":1,"actorValid":false,"itemId":1,"itemValid":false,"selfSwitchCh":"A","selfSwitchValid":false,"switch1Id":1,"switch1Valid":false,"switch2Id":1,"switch2Valid":false,"variableId":21,"variableValid":true,"variableValue":4},"directionFix":false,"image":{"tileId":0,"characterName":"","direction":2,"pattern":0,"characterIndex":0},"moveFrequency":3,"moveRoute":{"list":[{"code":0,"indent":null,"parameters":[]}],"repeat":true,"skippable":false,"wait":false},"moveSpeed":3,"moveType":0,"priorityType":1,"stepAnime":false,"through":false,"trigger":1,"walkAnime":true,"list":[{"code":201,"indent":0,"parameters":[0,152,9,11,8,0]},{"code":0,"indent":0,"parameters":[]}]}],"x":12,"y":4},
{"id":6,"name":"EV006","note":"","pages":[{"conditions":{"actorId":1,"actorValid":false,"itemId":1,"itemValid":false,"selfSwitchCh":"A","selfSwitchValid":false,"switch1Id":1,"switch1Valid":false,"switch2Id":1,"switch2Valid":false,"variableId":1,"variableValid":false,"variableValue":0},"directionFix":false,"image":{"tileId":0,"characterName":"","direction":2,"pattern":0,"characterIndex":0},"moveFrequency":3,"moveRoute":{"list":[{"code":0,"indent":null,"parameters":[]}],"repeat":true,"skippable":false,"wait":false},"moveSpeed":3,"moveType":0,"priorityType":0,"stepAnime":false,"through":false,"trigger":3,"walkAnime":true,"list":[{"code":230,"indent":0,"parameters":[60]},{"code":101,"indent":0,"parameters":["fc_altjackna",1,0,2]},{"code":401,"indent":0,"parameters":["Man, I don't know where they get their soap, but"]},{"code":401,"indent":0,"parameters":["that was a wash and a half! Any cleaner and I"]},{"code":401,"indent":0,"parameters":["don't think my clothes would stay on."]},{"code":101,"indent":0,"parameters":["fc_altjackna",6,0,2]},{"code":401,"indent":0,"parameters":["...After the shower. From the lack of friction."]},{"code":101,"indent":0,"parameters":["fc_altjackna",7,0,2]},{"code":401,"indent":0,"parameters":["Mind out of the gutter, you."]},{"code":101,"indent":0,"parameters":["fc_altjackna",0,0,2]},{"code":401,"indent":0,"parameters":["Anyway, feels like some kind of British sci-fi technology"]},{"code":401,"indent":0,"parameters":["in here... looked smaller from the outside but this is"]},{"code":401,"indent":0,"parameters":["actually really roomy!"]},{"code":101,"indent":0,"parameters":["fc_altjackna",3,0,2]},{"code":401,"indent":0,"parameters":["Doctor Who? Doctor Schneeplestein, of course!"]},{"code":250,"indent":0,"parameters":[{"name":"je_scream","pan":0,"pitch":100,"volume":80}]},{"code":101,"indent":0,"parameters":["fc_pse3",4,0,2]},{"code":401,"indent":0,"parameters":["EEAAAAAAAAAAAAAAHH!!!"]},{"code":101,"indent":0,"parameters":["fc_altjackna",14,0,2]},{"code":401,"indent":0,"parameters":["What the--Jenny??"]},{"code":250,"indent":0,"parameters":[{"name":"cliffslip2","pan":0,"pitch":100,"volume":80}]},{"code":250,"indent":0,"parameters":[{"name":"Earth6","pan":0,"pitch":100,"volume":75}]},{"code":225,"indent":0,"parameters":[3,5,30,false]},{"code":101,"indent":0,"parameters":["fc_pse3",7,0,2]},{"code":401,"indent":0,"parameters":["WHOA!!"]},{"code":101,"indent":0,"parameters":["fc_altjackna",15,0,2]},{"code":401,"indent":0,"parameters":["Cliff??"]},{"code":101,"indent":0,"parameters":["fc_altjackna",11,0,2]},{"code":401,"indent":0,"parameters":["Hang on, guys! I'm coming!"]},{"code":250,"indent":0,"parameters":[{"name":"jack_slipping","pan":0,"pitch":100,"volume":80}]},{"code":230,"indent":0,"parameters":[10]},{"code":250,"indent":0,"parameters":[{"name":"Explosion4","pan":0,"pitch":100,"volume":60}]},{"code":250,"indent":0,"parameters":[{"name":"Earth1","pan":0,"pitch":100,"volume":80}]},{"code":225,"indent":0,"parameters":[3,8,60,true]},{"code":230,"indent":0,"parameters":[80]},{"code":101,"indent":0,"parameters":["fc_altjackna",6,0,2]},{"code":401,"indent":0,"parameters":["...ow."]},{"code":101,"indent":0,"parameters":["fc_altjackna",6,0,2]},{"code":401,"indent":0,"parameters":["Okay... I'm coming..."]},{"code":246,"indent":0,"parameters":[1]},{"code":250,"indent":0,"parameters":[{"name":"Equip2","pan":0,"pitch":100,"volume":80}]},{"code":230,"indent":0,"parameters":[60]},{"code":250,"indent":0,"parameters":[{"name":"Ice9","pan":0,"pitch":100,"volume":80}]},{"code":122,"indent":0,"parameters":[21,21,1,0,1]},{"code":129,"indent":0,"parameters":[2,1,0]},{"code":129,"indent":0,"parameters":[3,1,0]},{"code":129,"indent":0,"parameters":[4,1,0]},{"code":111,"indent":0,"parameters":[0,143,0]},{"code":205,"indent":1,"parameters":[-1,{"list":[{"code":41,"parameters":["spr_possepticeye2",1],"indent":null},{"code":40,"indent":null,"parameters":[]},{"code":0,"indent":null,"parameters":[]}],"repeat":false,"skippable":false,"wait":true}]},{"code":505,"indent":1,"parameters":[{"code":41,"parameters":["spr_possepticeye2",1],"indent":null}]},{"code":505,"indent":1,"parameters":[{"code":40,"indent":null,"parameters":[]}]},{"code":0,"indent":1,"parameters":[]},{"code":411,"indent":0,"parameters":[]},{"code":205,"indent":1,"parameters":[-1,{"list":[{"code":41,"parameters":["spr_possepticeye",1],"indent":null},{"code":40,"indent":null,"parameters":[]},{"code":0,"indent":null,"parameters":[]}],"repeat":false,"skippable":false,"wait":true}]},{"code":505,"indent":1,"parameters":[{"code":41,"parameters":["spr_possepticeye",1],"indent":null}]},{"code":505,"indent":1,"parameters":[{"code":40,"indent":null,"parameters":[]}]},{"code":0,"indent":1,"parameters":[]},{"code":412,"indent":0,"parameters":[]},{"code":205,"indent":0,"parameters":[-1,{"list":[{"code":29,"indent":null,"parameters":[6]},{"code":1,"indent":null,"parameters":[]},{"code":1,"indent":null,"parameters":[]},{"code":3,"indent":null,"parameters":[]},{"code":3,"indent":null,"parameters":[]},{"code":3,"indent":null,"parameters":[]},{"code":3,"indent":null,"parameters":[]},{"code":3,"indent":null,"parameters":[]},{"code":3,"indent":null,"parameters":[]},{"code":4,"indent":null,"parameters":[]},{"code":4,"indent":null,"parameters":[]},{"code":0,"indent":null,"parameters":[]}],"repeat":false,"skippable":false,"wait":true}]},{"code":505,"indent":0,"parameters":[{"code":29,"indent":null,"parameters":[6]}]},{"code":505,"indent":0,"parameters":[{"code":1,"indent":null,"parameters":[]}]},{"code":505,"indent":0,"parameters":[{"code":1,"indent":null,"parameters":[]}]},{"code":505,"indent":0,"parameters":[{"code":3,"indent":null,"parameters":[]}]},{"code":505,"indent":0,"parameters":[{"code":3,"indent":null,"parameters":[]}]},{"code":505,"indent":0,"parameters":[{"code":3,"indent":null,"parameters":[]}]},{"code":505,"indent":0,"parameters":[{"code":3,"indent":null,"parameters":[]}]},{"code":505,"indent":0,"parameters":[{"code":3,"indent":null,"parameters":[]}]},{"code":505,"indent":0,"parameters":[{"code":3,"indent":null,"parameters":[]}]},{"code":505,"indent":0,"parameters":[{"code":4,"indent":null,"parameters":[]}]},{"code":505,"indent":0,"parameters":[{"code":4,"indent":null,"parameters":[]}]},{"code":250,"indent":0,"parameters":[{"name":"Knock","pan":0,"pitch":100,"volume":80}]},{"code":230,"indent":0,"parameters":[10]},{"code":250,"indent":0,"parameters":[{"name":"Knock","pan":0,"pitch":100,"volume":80}]},{"code":230,"indent":0,"parameters":[10]},{"code":250,"indent":0,"parameters":[{"name":"Knock","pan":0,"pitch":100,"volume":80}]},{"code":101,"indent":0,"parameters":["1fc_jack2",2,0,2]},{"code":401,"indent":0,"parameters":["You okay, Jenny??"]},{"code":101,"indent":0,"parameters":["fc_pse3",4,0,2]},{"code":401,"indent":0,"parameters":["Oh! S-Sorry, I just... I was surprised to see my"]},{"code":401,"indent":0,"parameters":["insulin pump was missing."]},{"code":101,"indent":0,"parameters":["1fc_jack2",7,0,2]},{"code":401,"indent":0,"parameters":["Missing??"]},{"code":101,"indent":0,"parameters":["fc_pse3",4,0,2]},{"code":401,"indent":0,"parameters":["I guess it didn't translate over to Wireland. But"]},{"code":401,"indent":0,"parameters":["oddly enough, I feel fine without it, so..."]},{"code":101,"indent":0,"parameters":["1fc_jack1",4,0,2]},{"code":401,"indent":0,"parameters":["Oh thank God. I thought you were being"]},{"code":401,"indent":0,"parameters":["abducted or murdered or something."]},{"code":101,"indent":0,"parameters":["fc_pse3",4,0,2]},{"code":401,"indent":0,"parameters":["Inside the shower??"]},{"code":101,"indent":0,"parameters":["1fc_jack2",2,0,2]},{"code":401,"indent":0,"parameters":["I mean, there's Psycho..."]},{"code":101,"indent":0,"parameters":["fc_pse3",4,0,2]},{"code":401,"indent":0,"parameters":["That's… not a comforting thought, Jack."]},{"code":101,"indent":0,"parameters":["fc_pse3",4,0,2]},{"code":401,"indent":0,"parameters":["But on another note, did Cliff scream too?"]},{"code":101,"indent":0,"parameters":["1fc_jack1",7,0,2]},{"code":401,"indent":0,"parameters":["I'm about to go check on him."]},{"code":205,"indent":0,"parameters":[-1,{"list":[{"code":1,"indent":null,"parameters":[]},{"code":1,"indent":null,"parameters":[]},{"code":2,"indent":null,"parameters":[]},{"code":2,"indent":null,"parameters":[]},{"code":2,"indent":null,"parameters":[]},{"code":2,"indent":null,"parameters":[]},{"code":2,"indent":null,"parameters":[]},{"code":2,"indent":null,"parameters":[]},{"code":2,"indent":null,"parameters":[]},{"code":2,"indent":null,"parameters":[]},{"code":2,"indent":null,"parameters":[]},{"code":4,"indent":null,"parameters":[]},{"code":4,"indent":null,"parameters":[]},{"code":29,"indent":null,"parameters":[4]},{"code":0,"indent":null,"parameters":[]}],"repeat":false,"skippable":false,"wait":true}]},{"code":505,"indent":0,"parameters":[{"code":1,"indent":null,"parameters":[]}]},{"code":505,"indent":0,"parameters":[{"code":1,"indent":null,"parameters":[]}]},{"code":505,"indent":0,"parameters":[{"code":2,"indent":null,"parameters":[]}]},{"code":505,"indent":0,"parameters":[{"code":2,"indent":null,"parameters":[]}]},{"code":505,"indent":0,"parameters":[{"code":2,"indent":null,"parameters":[]}]},{"code":505,"indent":0,"parameters":[{"code":2,"indent":null,"parameters":[]}]},{"code":505,"indent":0,"parameters":[{"code":2,"indent":null,"parameters":[]}]},{"code":505,"indent":0,"parameters":[{"code":2,"indent":null,"parameters":[]}]},{"code":505,"indent":0,"parameters":[{"code":2,"indent":null,"parameters":[]}]},{"code":505,"indent":0,"parameters":[{"code":2,"indent":null,"parameters":[]}]},{"code":505,"indent":0,"parameters":[{"code":2,"indent":null,"parameters":[]}]},{"code":505,"indent":0,"parameters":[{"code":4,"indent":null,"parameters":[]}]},{"code":505,"indent":0,"parameters":[{"code":4,"indent":null,"parameters":[]}]},{"code":505,"indent":0,"parameters":[{"code":29,"indent":null,"parameters":[4]}]},{"code":250,"indent":0,"parameters":[{"name":"Knock","pan":0,"pitch":100,"volume":80}]},{"code":230,"indent":0,"parameters":[10]},{"code":250,"indent":0,"parameters":[{"name":"Knock","pan":0,"pitch":100,"volume":80}]},{"code":230,"indent":0,"parameters":[10]},{"code":250,"indent":0,"parameters":[{"name":"Knock","pan":0,"pitch":100,"volume":80}]},{"code":101,"indent":0,"parameters":["1fc_jack2",2,0,2]},{"code":401,"indent":0,"parameters":["You all right in there, Cliff?"]},{"code":101,"indent":0,"parameters":["fc_pse3",7,0,2]},{"code":401,"indent":0,"parameters":["Oof... yeah, just kinda... slipped a bit..."]},{"code":101,"indent":0,"parameters":["fc_pse3",7,0,2]},{"code":401,"indent":0,"parameters":["But there's this computer gadget thing in here that"]},{"code":401,"indent":0,"parameters":["came out of the wall and kind of cushioned my fall."]},{"code":401,"indent":0,"parameters":["Soooo I'm not as bruised as I could've been."]},{"code":101,"indent":0,"parameters":["1fc_jack2",3,0,2]},{"code":401,"indent":0,"parameters":["Wait... computer gadget?"]},{"code":250,"indent":0,"parameters":[{"name":"Ice9","pan":0,"pitch":100,"volume":80}]},{"code":122,"indent":0,"parameters":[21,21,1,0,1]},{"code":111,"indent":0,"parameters":[0,143,0]},{"code":205,"indent":1,"parameters":[7,{"list":[{"code":41,"indent":null,"parameters":["spr_possepticeye2",7]},{"code":29,"indent":null,"parameters":[5]},{"code":1,"indent":null,"parameters":[]},{"code":1,"indent":null,"parameters":[]},{"code":2,"indent":null,"parameters":[]},{"code":2,"indent":null,"parameters":[]},{"code":2,"indent":null,"parameters":[]},{"code":2,"indent":null,"parameters":[]},{"code":2,"indent":null,"parameters":[]},{"code":2,"indent":null,"parameters":[]},{"code":2,"indent":null,"parameters":[]},{"code":2,"indent":null,"parameters":[]},{"code":2,"indent":null,"parameters":[]},{"code":19,"indent":null,"parameters":[]},{"code":0,"indent":null,"parameters":[]}],"repeat":false,"skippable":false,"wait":true}]},{"code":505,"indent":1,"parameters":[{"code":41,"indent":null,"parameters":["spr_possepticeye2",7]}]},{"code":505,"indent":1,"parameters":[{"code":29,"indent":null,"parameters":[5]}]},{"code":505,"indent":1,"parameters":[{"code":1,"indent":null,"parameters":[]}]},{"code":505,"indent":1,"parameters":[{"code":1,"indent":null,"parameters":[]}]},{"code":505,"indent":1,"parameters":[{"code":2,"indent":null,"parameters":[]}]},{"code":505,"indent":1,"parameters":[{"code":2,"indent":null,"parameters":[]}]},{"code":505,"indent":1,"parameters":[{"code":2,"indent":null,"parameters":[]}]},{"code":505,"indent":1,"parameters":[{"code":2,"indent":null,"parameters":[]}]},{"code":505,"indent":1,"parameters":[{"code":2,"indent":null,"parameters":[]}]},{"code":505,"indent":1,"parameters":[{"code":2,"indent":null,"parameters":[]}]},{"code":505,"indent":1,"parameters":[{"code":2,"indent":null,"parameters":[]}]},{"code":505,"indent":1,"parameters":[{"code":2,"indent":null,"parameters":[]}]},{"code":505,"indent":1,"parameters":[{"code":2,"indent":null,"parameters":[]}]},{"code":505,"indent":1,"parameters":[{"code":19,"indent":null,"parameters":[]}]},{"code":0,"indent":1,"parameters":[]},{"code":411,"indent":0,"parameters":[]},{"code":205,"indent":1,"parameters":[7,{"list":[{"code":41,"indent":null,"parameters":["spr_possepticeye",7]},{"code":29,"indent":null,"parameters":[5]},{"code":1,"indent":null,"parameters":[]},{"code":1,"indent":null,"parameters":[]},{"code":2,"indent":null,"parameters":[]},{"code":2,"indent":null,"parameters":[]},{"code":2,"indent":null,"parameters":[]},{"code":2,"indent":null,"parameters":[]},{"code":2,"indent":null,"parameters":[]},{"code":2,"indent":null,"parameters":[]},{"code":2,"indent":null,"parameters":[]},{"code":2,"indent":null,"parameters":[]},{"code":2,"indent":null,"parameters":[]},{"code":19,"indent":null,"parameters":[]},{"code":0,"indent":null,"parameters":[]}],"repeat":false,"skippable":false,"wait":true}]},{"code":505,"indent":1,"parameters":[{"code":41,"indent":null,"parameters":["spr_possepticeye",7]}]},{"code":505,"indent":1,"parameters":[{"code":29,"indent":null,"parameters":[5]}]},{"code":505,"indent":1,"parameters":[{"code":1,"indent":null,"parameters":[]}]},{"code":505,"indent":1,"parameters":[{"code":1,"indent":null,"parameters":[]}]},{"code":505,"indent":1,"parameters":[{"code":2,"indent":null,"parameters":[]}]},{"code":505,"indent":1,"parameters":[{"code":2,"indent":null,"parameters":[]}]},{"code":505,"indent":1,"parameters":[{"code":2,"indent":null,"parameters":[]}]},{"code":505,"indent":1,"parameters":[{"code":2,"indent":null,"parameters":[]}]},{"code":505,"indent":1,"parameters":[{"code":2,"indent":null,"parameters":[]}]},{"code":505,"indent":1,"parameters":[{"code":2,"indent":null,"parameters":[]}]},{"code":505,"indent":1,"parameters":[{"code":2,"indent":null,"parameters":[]}]},{"code":505,"indent":1,"parameters":[{"code":2,"indent":null,"parameters":[]}]},{"code":505,"indent":1,"parameters":[{"code":2,"indent":null,"parameters":[]}]},{"code":505,"indent":1,"parameters":[{"code":19,"indent":null,"parameters":[]}]},{"code":0,"indent":1,"parameters":[]},{"code":412,"indent":0,"parameters":[]},{"code":205,"indent":0,"parameters":[-1,{"list":[{"code":16,"indent":null,"parameters":[]},{"code":0,"indent":null,"parameters":[]}],"repeat":false,"skippable":false,"wait":true}]},{"code":505,"indent":0,"parameters":[{"code":16,"indent":null,"parameters":[]}]},{"code":101,"indent":0,"parameters":["3fc_jenny1",5,0,2]},{"code":401,"indent":0,"parameters":["...I feel so betrayed..."]},{"code":101,"indent":0,"parameters":["3fc_jenny1",2,0,2]},{"code":401,"indent":0,"parameters":["But my cholesterol's good, so... I guess I can only"]},{"code":401,"indent":0,"parameters":["complain a little."]},{"code":250,"indent":0,"parameters":[{"name":"Ice9","pan":0,"pitch":100,"volume":80}]},{"code":122,"indent":0,"parameters":[21,21,1,0,1]},{"code":205,"indent":0,"parameters":[-1,{"list":[{"code":19,"indent":null,"parameters":[]},{"code":13,"indent":null,"parameters":[]},{"code":0,"indent":null,"parameters":[]}],"repeat":false,"skippable":false,"wait":true}]},{"code":505,"indent":0,"parameters":[{"code":19,"indent":null,"parameters":[]}]},{"code":505,"indent":0,"parameters":[{"code":13,"indent":null,"parameters":[]}]},{"code":111,"indent":0,"parameters":[0,143,0]},{"code":205,"indent":1,"parameters":[8,{"list":[{"code":41,"indent":null,"parameters":["spr_possepticeye2",5]},{"code":0,"indent":null,"parameters":[]}],"repeat":false,"skippable":false,"wait":true}]},{"code":505,"indent":1,"parameters":[{"code":41,"indent":null,"parameters":["spr_possepticeye2",5]}]},{"code":0,"indent":1,"parameters":[]},{"code":411,"indent":0,"parameters":[]},{"code":205,"indent":1,"parameters":[8,{"list":[{"code":41,"indent":null,"parameters":["spr_possepticeye",5]},{"code":0,"indent":null,"parameters":[]}],"repeat":false,"skippable":false,"wait":true}]},{"code":505,"indent":1,"parameters":[{"code":41,"indent":null,"parameters":["spr_possepticeye",5]}]},{"code":0,"indent":1,"parameters":[]},{"code":412,"indent":0,"parameters":[]},{"code":101,"indent":0,"parameters":["4fc_cliffgreen1",2,0,2]},{"code":401,"indent":0,"parameters":["I dunno, man. I thought it was kinda cool. Like"]},{"code":401,"indent":0,"parameters":["having a Baymax!"]},{"code":101,"indent":0,"parameters":["4fc_cliffgreen1",4,0,2]},{"code":401,"indent":0,"parameters":["But like, stuck in the wall. And minus the cute face."]},{"code":401,"indent":0,"parameters":["And a voice. But still the same thing."]},{"code":101,"indent":0,"parameters":["1fc_jack1",2,0,2]},{"code":401,"indent":0,"parameters":["There's a lot that isn't the same, though..."]},{"code":101,"indent":0,"parameters":["3fc_jenny1",3,0,2]},{"code":401,"indent":0,"parameters":["That was a very Billy thing to say, Jack."]},{"code":101,"indent":0,"parameters":["1fc_jack1",3,0,2]},{"code":401,"indent":0,"parameters":["I guess I need to fill in for him when he's not around."]},{"code":101,"indent":0,"parameters":["3fc_jenny1",2,0,2]},{"code":401,"indent":0,"parameters":["Speaking of, he's taking a while."]},{"code":101,"indent":0,"parameters":["4fc_cliffgreen1",0,0,2]},{"code":401,"indent":0,"parameters":["Let a kid have his privacy, Jack. He's at that age."]},{"code":101,"indent":0,"parameters":["1fc_jack1",2,0,2]},{"code":401,"indent":0,"parameters":["What age? He's nine. Permanently."]},{"code":205,"indent":0,"parameters":[7,{"list":[{"code":29,"indent":null,"parameters":[5]},{"code":3,"indent":null,"parameters":[]},{"code":3,"indent":null,"parameters":[]},{"code":3,"indent":null,"parameters":[]},{"code":3,"indent":null,"parameters":[]},{"code":3,"indent":null,"parameters":[]},{"code":3,"indent":null,"parameters":[]},{"code":4,"indent":null,"parameters":[]},{"code":4,"indent":null,"parameters":[]},{"code":0,"indent":null,"parameters":[]}],"repeat":false,"skippable":false,"wait":true}]},{"code":505,"indent":0,"parameters":[{"code":29,"indent":null,"parameters":[5]}]},{"code":505,"indent":0,"parameters":[{"code":3,"indent":null,"parameters":[]}]},{"code":505,"indent":0,"parameters":[{"code":3,"indent":null,"parameters":[]}]},{"code":505,"indent":0,"parameters":[{"code":3,"indent":null,"parameters":[]}]},{"code":505,"indent":0,"parameters":[{"code":3,"indent":null,"parameters":[]}]},{"code":505,"indent":0,"parameters":[{"code":3,"indent":null,"parameters":[]}]},{"code":505,"indent":0,"parameters":[{"code":3,"indent":null,"parameters":[]}]},{"code":505,"indent":0,"parameters":[{"code":4,"indent":null,"parameters":[]}]},{"code":505,"indent":0,"parameters":[{"code":4,"indent":null,"parameters":[]}]},{"code":250,"indent":0,"parameters":[{"name":"Knock","pan":0,"pitch":100,"volume":80}]},{"code":230,"indent":0,"parameters":[10]},{"code":250,"indent":0,"parameters":[{"name":"Knock","pan":0,"pitch":100,"volume":80}]},{"code":101,"indent":0,"parameters":["3fc_jenny1",4,0,2]},{"code":401,"indent":0,"parameters":["Billy? Billy, are you okay in there?"]},{"code":230,"indent":0,"parameters":[140]},{"code":101,"indent":0,"parameters":["3fc_jenny1",9,0,2]},{"code":401,"indent":0,"parameters":["...Oh gosh, did he fall??"]},{"code":101,"indent":0,"parameters":["4fc_cliffgreen1",15,0,2]},{"code":401,"indent":0,"parameters":["But the not-Baymax would've caught him like it did"]},{"code":401,"indent":0,"parameters":["with me, right?"]},{"code":101,"indent":0,"parameters":["3fc_jenny1",4,0,2]},{"code":401,"indent":0,"parameters":["I don't know; we're human, Cliff. He's not. Would it react"]},{"code":401,"indent":0,"parameters":["to him the same way it reacted to us?"]},{"code":205,"indent":0,"parameters":[-1,{"list":[{"code":29,"indent":null,"parameters":[6]},{"code":1,"indent":null,"parameters":[]},{"code":3,"indent":null,"parameters":[]},{"code":3,"indent":null,"parameters":[]},{"code":3,"indent":null,"parameters":[]},{"code":3,"indent":null,"parameters":[]},{"code":3,"indent":null,"parameters":[]},{"code":3,"indent":null,"parameters":[]},{"code":0,"indent":null,"parameters":[]}],"repeat":false,"skippable":false,"wait":true}]},{"code":505,"indent":0,"parameters":[{"code":29,"indent":null,"parameters":[6]}]},{"code":505,"indent":0,"parameters":[{"code":1,"indent":null,"parameters":[]}]},{"code":505,"indent":0,"parameters":[{"code":3,"indent":null,"parameters":[]}]},{"code":505,"indent":0,"parameters":[{"code":3,"indent":null,"parameters":[]}]},{"code":505,"indent":0,"parameters":[{"code":3,"indent":null,"parameters":[]}]},{"code":505,"indent":0,"parameters":[{"code":3,"indent":null,"parameters":[]}]},{"code":505,"indent":0,"parameters":[{"code":3,"indent":null,"parameters":[]}]},{"code":505,"indent":0,"parameters":[{"code":3,"indent":null,"parameters":[]}]},{"code":205,"indent":0,"parameters":[7,{"list":[{"code":2,"indent":null,"parameters":[]},{"code":18,"indent":null,"parameters":[]},{"code":0,"indent":null,"parameters":[]}],"repeat":false,"skippable":false,"wait":true}]},{"code":505,"indent":0,"parameters":[{"code":2,"indent":null,"parameters":[]}]},{"code":505,"indent":0,"parameters":[{"code":18,"indent":null,"parameters":[]}]},{"code":205,"indent":0,"parameters":[-1,{"list":[{"code":4,"indent":null,"parameters":[]},{"code":4,"indent":null,"parameters":[]},{"code":0,"indent":null,"parameters":[]}],"repeat":false,"skippable":false,"wait":false}]},{"code":505,"indent":0,"parameters":[{"code":4,"indent":null,"parameters":[]}]},{"code":505,"indent":0,"parameters":[{"code":4,"indent":null,"parameters":[]}]},{"code":205,"indent":0,"parameters":[8,{"list":[{"code":29,"indent":null,"parameters":[5]},{"code":1,"indent":null,"parameters":[]},{"code":1,"indent":null,"parameters":[]},{"code":3,"indent":null,"parameters":[]},{"code":3,"indent":null,"parameters":[]},{"code":3,"indent":null,"parameters":[]},{"code":3,"indent":null,"parameters":[]},{"code":3,"indent":null,"parameters":[]},{"code":3,"indent":null,"parameters":[]},{"code":4,"indent":null,"parameters":[]},{"code":0,"indent":null,"parameters":[]}],"repeat":false,"skippable":false,"wait":false}]},{"code":505,"indent":0,"parameters":[{"code":29,"indent":null,"parameters":[5]}]},{"code":505,"indent":0,"parameters":[{"code":1,"indent":null,"parameters":[]}]},{"code":505,"indent":0,"parameters":[{"code":1,"indent":null,"parameters":[]}]},{"code":505,"indent":0,"parameters":[{"code":3,"indent":null,"parameters":[]}]},{"code":505,"indent":0,"parameters":[{"code":3,"indent":null,"parameters":[]}]},{"code":505,"indent":0,"parameters":[{"code":3,"indent":null,"parameters":[]}]},{"code":505,"indent":0,"parameters":[{"code":3,"indent":null,"parameters":[]}]},{"code":505,"indent":0,"parameters":[{"code":3,"indent":null,"parameters":[]}]},{"code":505,"indent":0,"parameters":[{"code":3,"indent":null,"parameters":[]}]},{"code":505,"indent":0,"parameters":[{"code":4,"indent":null,"parameters":[]}]},{"code":230,"indent":0,"parameters":[60]},{"code":101,"indent":0,"parameters":["1fc_jack1",14,0,2]},{"code":401,"indent":0,"parameters":["Billy!!"]},{"code":250,"indent":0,"parameters":[{"name":"Blow7","pan":0,"pitch":100,"volume":80}]},{"code":230,"indent":0,"parameters":[30]},{"code":250,"indent":0,"parameters":[{"name":"Blow7","pan":0,"pitch":100,"volume":80}]},{"code":230,"indent":0,"parameters":[30]},{"code":122,"indent":0,"parameters":[21,21,1,0,1]},{"code":250,"indent":0,"parameters":[{"name":"Blow4","pan":0,"pitch":100,"volume":80}]},{"code":250,"indent":0,"parameters":[{"name":"Ice9","pan":0,"pitch":100,"volume":80}]},{"code":205,"indent":0,"parameters":[-1,{"list":[{"code":15,"indent":null,"parameters":[10]},{"code":39,"indent":null,"parameters":[]},{"code":15,"indent":null,"parameters":[120]},{"code":16,"indent":null,"parameters":[]},{"code":40,"indent":null,"parameters":[]},{"code":15,"indent":null,"parameters":[10]},{"code":29,"indent":null,"parameters":[4]},{"code":0,"indent":null,"parameters":[]}],"repeat":false,"skippable":false,"wait":true}]},{"code":505,"indent":0,"parameters":[{"code":15,"indent":null,"parameters":[10]}]},{"code":505,"indent":0,"parameters":[{"code":39,"indent":null,"parameters":[]}]},{"code":505,"indent":0,"parameters":[{"code":15,"indent":null,"parameters":[120]}]},{"code":505,"indent":0,"parameters":[{"code":16,"indent":null,"parameters":[]}]},{"code":505,"indent":0,"parameters":[{"code":40,"indent":null,"parameters":[]}]},{"code":505,"indent":0,"parameters":[{"code":15,"indent":null,"parameters":[10]}]},{"code":505,"indent":0,"parameters":[{"code":29,"indent":null,"parameters":[4]}]},{"code":101,"indent":0,"parameters":["1fc_jack1",6,0,2]},{"code":401,"indent":0,"parameters":["He's not in here."]},{"code":101,"indent":0,"parameters":["4fc_cliffgreen1",15,0,2]},{"code":401,"indent":0,"parameters":["What??"]},{"code":101,"indent":0,"parameters":["3fc_jenny1",4,0,2]},{"code":401,"indent":0,"parameters":["Where would he have gone? And without us? It"]},{"code":401,"indent":0,"parameters":["doesn't make sense..."]},{"code":101,"indent":0,"parameters":["1fc_jack1",3,0,2]},{"code":401,"indent":0,"parameters":["Well, we're all dressed and ready; let's go find this"]},{"code":401,"indent":0,"parameters":["pain in the ass."]},{"code":205,"indent":0,"parameters":[-1,{"list":[{"code":29,"indent":null,"parameters":[4]},{"code":0,"indent":null,"parameters":[]}],"repeat":false,"skippable":false,"wait":false}]},{"code":505,"indent":0,"parameters":[{"code":29,"indent":null,"parameters":[4]}]},{"code":221,"indent":0,"parameters":[]},{"code":111,"indent":0,"parameters":[0,143,0]},{"code":322,"indent":1,"parameters":[1,"spr_possepticeye2",1,"",0,""]},{"code":322,"indent":1,"parameters":[3,"spr_possepticeye2",7,"",0,""]},{"code":322,"indent":1,"parameters":[4,"spr_possepticeye2",5,"",0,""]},{"code":0,"indent":1,"parameters":[]},{"code":411,"indent":0,"parameters":[]},{"code":322,"indent":1,"parameters":[1,"spr_possepticeye",1,"1fc_jack1",0,""]},{"code":322,"indent":1,"parameters":[3,"spr_possepticeye",7,"3fc_jenny1",0,""]},{"code":322,"indent":1,"parameters":[4,"spr_possepticeye",5,"4fc_cliffgreen1",0,""]},{"code":0,"indent":1,"parameters":[]},{"code":412,"indent":0,"parameters":[]},{"code":129,"indent":0,"parameters":[3,0,0]},{"code":129,"indent":0,"parameters":[4,0,0]},{"code":121,"indent":0,"parameters":[32,32,0]},{"code":222,"indent":0,"parameters":[]},{"code":0,"indent":0,"parameters":[]}]},{"conditions":{"actorId":1,"actorValid":false,"itemId":1,"itemValid":false,"selfSwitchCh":"A","selfSwitchValid":false,"switch1Id":32,"switch1Valid":true,"switch2Id":1,"switch2Valid":false,"variableId":1,"variableValid":false,"variableValue":0},"directionFix":false,"image":{"tileId":0,"characterName":"","direction":2,"pattern":0,"characterIndex":0},"moveFrequency":3,"moveRoute":{"list":[{"code":0,"indent":null,"parameters":[]}],"repeat":true,"skippable":false,"wait":false},"moveSpeed":3,"moveType":0,"priorityType":0,"stepAnime":false,"through":false,"trigger":0,"walkAnime":true,"list":[{"code":0,"indent":0,"parameters":[]}]}],"x":13,"y":0},
{"id":7,"name":"Jenny","note":"","pages":[{"conditions":{"actorId":1,"actorValid":false,"itemId":1,"itemValid":false,"selfSwitchCh":"A","selfSwitchValid":false,"switch1Id":1,"switch1Valid":false,"switch2Id":1,"switch2Valid":false,"variableId":1,"variableValid":false,"variableValue":0},"directionFix":false,"image":{"tileId":0,"characterName":"spr_possepticeye","direction":2,"pattern":1,"characterIndex":6},"moveFrequency":3,"moveRoute":{"list":[{"code":0,"indent":null,"parameters":[]}],"repeat":true,"skippable":false,"wait":false},"moveSpeed":3,"moveType":0,"priorityType":1,"stepAnime":false,"through":true,"trigger":0,"walkAnime":true,"list":[{"code":0,"indent":0,"parameters":[]}]},{"conditions":{"actorId":1,"actorValid":false,"itemId":1,"itemValid":false,"selfSwitchCh":"A","selfSwitchValid":false,"switch1Id":32,"switch1Valid":true,"switch2Id":1,"switch2Valid":false,"variableId":1,"variableValid":false,"variableValue":0},"directionFix":false,"image":{"tileId":0,"characterName":"","direction":2,"pattern":0,"characterIndex":0},"moveFrequency":3,"moveRoute":{"list":[{"code":0,"indent":null,"parameters":[]}],"repeat":true,"skippable":false,"wait":false},"moveSpeed":3,"moveType":0,"priorityType":0,"stepAnime":false,"through":true,"trigger":0,"walkAnime":true,"list":[{"code":0,"indent":0,"parameters":[]}]}],"x":15,"y":5},
{"id":8,"name":"Cliff","note":"","pages":[{"conditions":{"actorId":1,"actorValid":false,"itemId":1,"itemValid":false,"selfSwitchCh":"A","selfSwitchValid":false,"switch1Id":1,"switch1Valid":false,"switch2Id":1,"switch2Valid":false,"variableId":1,"variableValid":false,"variableValue":0},"directionFix":false,"image":{"tileId":0,"characterName":"spr_possepticeye","direction":2,"pattern":1,"characterIndex":4},"moveFrequency":3,"moveRoute":{"list":[{"code":0,"indent":null,"parameters":[]}],"repeat":true,"skippable":false,"wait":false},"moveSpeed":3,"moveType":0,"priorityType":1,"stepAnime":false,"through":true,"trigger":0,"walkAnime":true,"list":[{"code":0,"indent":0,"parameters":[]}]},{"conditions":{"actorId":1,"actorValid":false,"itemId":1,"itemValid":false,"selfSwitchCh":"A","selfSwitchValid":false,"switch1Id":32,"switch1Valid":true,"switch2Id":1,"switch2Valid":false,"variableId":1,"variableValid":false,"variableValue":0},"directionFix":false,"image":{"tileId":0,"characterName":"","direction":2,"pattern":0,"characterIndex":0},"moveFrequency":3,"moveRoute":{"list":[{"code":0,"indent":null,"parameters":[]}],"repeat":true,"skippable":false,"wait":false},"moveSpeed":3,"moveType":0,"priorityType":0,"stepAnime":false,"through":true,"trigger":0,"walkAnime":true,"list":[{"code":0,"indent":0,"parameters":[]}]}],"x":6,"y":5},
{"id":9,"name":"EV009","note":"","pages":[{"conditions":{"actorId":1,"actorValid":false,"itemId":1,"itemValid":false,"selfSwitchCh":"A","selfSwitchValid":false,"switch1Id":1,"switch1Valid":false,"switch2Id":1,"switch2Valid":false,"variableId":1,"variableValid":false,"variableValue":0},"directionFix":false,"image":{"tileId":0,"characterName":"","direction":2,"pattern":0,"characterIndex":0},"moveFrequency":3,"moveRoute":{"list":[{"code":0,"indent":null,"parameters":[]}],"repeat":true,"skippable":false,"wait":false},"moveSpeed":3,"moveType":0,"priorityType":1,"stepAnime":false,"through":false,"trigger":1,"walkAnime":true,"list":[{"code":201,"indent":0,"parameters":[0,26,37,11,2,0]},{"code":0,"indent":0,"parameters":[]}]}],"x":22,"y":14},
{"id":10,"name":"Door Number 2 (top)","note":"","pages":[{"conditions":{"actorId":1,"actorValid":false,"itemId":1,"itemValid":false,"selfSwitchCh":"A","selfSwitchValid":false,"switch1Id":1,"switch1Valid":false,"switch2Id":1,"switch2Valid":false,"variableId":1,"variableValid":false,"variableValue":0},"directionFix":false,"image":{"tileId":241,"characterName":"","direction":2,"pattern":0,"characterIndex":5},"moveFrequency":3,"moveRoute":{"list":[{"code":0,"indent":null,"parameters":[]}],"repeat":true,"skippable":false,"wait":false},"moveSpeed":3,"moveType":0,"priorityType":0,"stepAnime":false,"through":false,"trigger":0,"walkAnime":true,"list":[{"code":0,"indent":0,"parameters":[]}]},{"conditions":{"actorId":1,"actorValid":false,"itemId":1,"itemValid":false,"selfSwitchCh":"A","selfSwitchValid":false,"switch1Id":1,"switch1Valid":false,"switch2Id":1,"switch2Valid":false,"variableId":21,"variableValid":true,"variableValue":1},"directionFix":false,"image":{"tileId":0,"characterName":"","direction":2,"pattern":0,"characterIndex":0},"moveFrequency":3,"moveRoute":{"list":[{"code":0,"indent":null,"parameters":[]}],"repeat":true,"skippable":false,"wait":false},"moveSpeed":3,"moveType":0,"priorityType":0,"stepAnime":false,"through":false,"trigger":0,"walkAnime":true,"list":[{"code":0,"indent":0,"parameters":[]}]}],"x":9,"y":3},
{"id":11,"name":"Door Number 3 (top)","note":"","pages":[{"conditions":{"actorId":1,"actorValid":false,"itemId":1,"itemValid":false,"selfSwitchCh":"A","selfSwitchValid":false,"switch1Id":1,"switch1Valid":false,"switch2Id":1,"switch2Valid":false,"variableId":1,"variableValid":false,"variableValue":0},"directionFix":false,"image":{"tileId":241,"characterName":"","direction":2,"pattern":0,"characterIndex":5},"moveFrequency":3,"moveRoute":{"list":[{"code":0,"indent":null,"parameters":[]}],"repeat":true,"skippable":false,"wait":false},"moveSpeed":3,"moveType":0,"priorityType":0,"stepAnime":false,"through":false,"trigger":0,"walkAnime":true,"list":[{"code":0,"indent":0,"parameters":[]}]},{"conditions":{"actorId":1,"actorValid":false,"itemId":1,"itemValid":false,"selfSwitchCh":"A","selfSwitchValid":false,"switch1Id":1,"switch1Valid":false,"switch2Id":1,"switch2Valid":false,"variableId":21,"variableValid":true,"variableValue":4},"directionFix":false,"image":{"tileId":0,"characterName":"","direction":2,"pattern":0,"characterIndex":0},"moveFrequency":3,"moveRoute":{"list":[{"code":0,"indent":null,"parameters":[]}],"repeat":true,"skippable":false,"wait":false},"moveSpeed":3,"moveType":0,"priorityType":0,"stepAnime":false,"through":false,"trigger":0,"walkAnime":true,"list":[{"code":0,"indent":0,"parameters":[]}]}],"x":12,"y":3},
{"id":12,"name":"Door Number 4 (top)","note":"","pages":[{"conditions":{"actorId":1,"actorValid":false,"itemId":1,"itemValid":false,"selfSwitchCh":"A","selfSwitchValid":false,"switch1Id":1,"switch1Valid":false,"switch2Id":1,"switch2Valid":false,"variableId":1,"variableValid":false,"variableValue":0},"directionFix":false,"image":{"tileId":241,"characterName":"","direction":2,"pattern":0,"characterIndex":5},"moveFrequency":3,"moveRoute":{"list":[{"code":0,"indent":null,"parameters":[]}],"repeat":true,"skippable":false,"wait":false},"moveSpeed":3,"moveType":0,"priorityType":0,"stepAnime":false,"through":false,"trigger":0,"walkAnime":true,"list":[{"code":0,"indent":0,"parameters":[]}]},{"conditions":{"actorId":1,"actorValid":false,"itemId":1,"itemValid":false,"selfSwitchCh":"A","selfSwitchValid":false,"switch1Id":1,"switch1Valid":false,"switch2Id":1,"switch2Valid":false,"variableId":21,"variableValid":true,"variableValue":2},"directionFix":false,"image":{"tileId":0,"characterName":"","direction":2,"pattern":0,"characterIndex":0},"moveFrequency":3,"moveRoute":{"list":[{"code":0,"indent":null,"parameters":[]}],"repeat":true,"skippable":false,"wait":false},"moveSpeed":3,"moveType":0,"priorityType":0,"stepAnime":false,"through":false,"trigger":0,"walkAnime":true,"list":[{"code":0,"indent":0,"parameters":[]}]}],"x":15,"y":3},
{"id":13,"name":"EV013","note":"","pages":[{"conditions":{"actorId":1,"actorValid":false,"itemId":1,"itemValid":false,"selfSwitchCh":"A","selfSwitchValid":false,"switch1Id":1,"switch1Valid":false,"switch2Id":1,"switch2Valid":false,"variableId":1,"variableValid":false,"variableValue":0},"directionFix":false,"image":{"tileId":0,"characterName":"","direction":2,"pattern":0,"characterIndex":0},"moveFrequency":3,"moveRoute":{"list":[{"code":0,"indent":null,"parameters":[]}],"repeat":true,"skippable":false,"wait":false},"moveSpeed":3,"moveType":0,"priorityType":1,"stepAnime":false,"through":false,"trigger":1,"walkAnime":true,"list":[{"code":201,"indent":0,"parameters":[0,197,2,8,6,0]},{"code":0,"indent":0,"parameters":[]}]}],"x":25,"y":10},
null,
{"id":15,"name":"Door Number 4 (bottom)","note":"","pages":[{"conditions":{"actorId":1,"actorValid":false,"itemId":1,"itemValid":false,"selfSwitchCh":"A","selfSwitchValid":false,"switch1Id":1,"switch1Valid":false,"switch2Id":1,"switch2Valid":false,"variableId":1,"variableValid":false,"variableValue":0},"directionFix":false,"image":{"tileId":248,"characterName":"","direction":2,"pattern":0,"characterIndex":5},"moveFrequency":3,"moveRoute":{"list":[{"code":0,"indent":null,"parameters":[]}],"repeat":true,"skippable":false,"wait":false},"moveSpeed":3,"moveType":0,"priorityType":0,"stepAnime":false,"through":false,"trigger":0,"walkAnime":true,"list":[{"code":0,"indent":0,"parameters":[]}]},{"conditions":{"actorId":1,"actorValid":false,"itemId":1,"itemValid":false,"selfSwitchCh":"A","selfSwitchValid":false,"switch1Id":1,"switch1Valid":false,"switch2Id":1,"switch2Valid":false,"variableId":21,"variableValid":true,"variableValue":2},"directionFix":false,"image":{"tileId":0,"characterName":"","direction":2,"pattern":0,"characterIndex":0},"moveFrequency":3,"moveRoute":{"list":[{"code":0,"indent":null,"parameters":[]}],"repeat":true,"skippable":false,"wait":false},"moveSpeed":3,"moveType":0,"priorityType":1,"stepAnime":false,"through":false,"trigger":1,"walkAnime":true,"list":[{"code":201,"indent":0,"parameters":[0,150,9,14,8,0]},{"code":0,"indent":0,"parameters":[]}]}],"x":15,"y":4},
{"id":16,"name":"Door Number 5 (bottom)","note":"","pages":[{"conditions":{"actorId":1,"actorValid":false,"itemId":1,"itemValid":false,"selfSwitchCh":"A","selfSwitchValid":false,"switch1Id":1,"switch1Valid":false,"switch2Id":1,"switch2Valid":false,"variableId":1,"variableValid":false,"variableValue":0},"directionFix":false,"image":{"tileId":248,"characterName":"","direction":2,"pattern":0,"characterIndex":5},"moveFrequency":3,"moveRoute":{"list":[{"code":0,"indent":null,"parameters":[]}],"repeat":true,"skippable":false,"wait":false},"moveSpeed":3,"moveType":0,"priorityType":1,"stepAnime":false,"through":false,"trigger":1,"walkAnime":true,"list":[{"code":242,"indent":0,"parameters":[1]},{"code":201,"indent":0,"parameters":[0,160,10,14,8,0]},{"code":0,"indent":0,"parameters":[]}]}],"x":18,"y":4},
{"id":17,"name":"Door Number 6 (bottom)","note":"","pages":[{"conditions":{"actorId":1,"actorValid":false,"itemId":1,"itemValid":false,"selfSwitchCh":"A","selfSwitchValid":false,"switch1Id":1,"switch1Valid":false,"switch2Id":1,"switch2Valid":false,"variableId":1,"variableValid":false,"variableValue":0},"directionFix":false,"image":{"tileId":248,"characterName":"","direction":2,"pattern":0,"characterIndex":5},"moveFrequency":3,"moveRoute":{"list":[{"code":0,"indent":null,"parameters":[]}],"repeat":true,"skippable":false,"wait":false},"moveSpeed":3,"moveType":0,"priorityType":1,"stepAnime":false,"through":false,"trigger":0,"walkAnime":true,"list":[{"code":101,"indent":0,"parameters":["3fc_jenny1",4,0,2]},{"code":401,"indent":0,"parameters":["This one's stuck."]},{"code":0,"indent":0,"parameters":[]}]}],"x":21,"y":4},
{"id":18,"name":"EV018","note":"","pages":[{"conditions":{"actorId":1,"actorValid":false,"itemId":1,"itemValid":false,"selfSwitchCh":"A","selfSwitchValid":false,"switch1Id":1,"switch1Valid":false,"switch2Id":1,"switch2Valid":false,"variableId":1,"variableValid":false,"variableValue":0},"directionFix":false,"image":{"tileId":0,"characterName":"","direction":2,"pattern":0,"characterIndex":0},"moveFrequency":3,"moveRoute":{"list":[{"code":0,"indent":null,"parameters":[]}],"repeat":true,"skippable":false,"wait":false},"moveSpeed":3,"moveType":0,"priorityType":0,"stepAnime":false,"through":false,"trigger":4,"walkAnime":true,"list":[{"code":111,"indent":0,"parameters":[3,0,1]},{"code":123,"indent":1,"parameters":["A",0]},{"code":0,"indent":1,"parameters":[]},{"code":412,"indent":0,"parameters":[]},{"code":0,"indent":0,"parameters":[]}]},{"conditions":{"actorId":1,"actorValid":false,"itemId":1,"itemValid":false,"selfSwitchCh":"A","selfSwitchValid":true,"switch1Id":1,"switch1Valid":false,"switch2Id":1,"switch2Valid":false,"variableId":1,"variableValid":false,"variableValue":0},"directionFix":false,"image":{"tileId":0,"characterName":"","direction":2,"pattern":0,"characterIndex":0},"moveFrequency":3,"moveRoute":{"list":[{"code":0,"indent":null,"parameters":[]}],"repeat":true,"skippable":false,"wait":false},"moveSpeed":3,"moveType":0,"priorityType":0,"stepAnime":false,"through":false,"trigger":3,"walkAnime":true,"list":[{"code":241,"indent":0,"parameters":[{"name":"","pan":0,"pitch":100,"volume":100}]},{"code":223,"indent":0,"parameters":[[0,-255,-255,0],1,true]},{"code":101,"indent":0,"parameters":["",0,1,1]},{"code":401,"indent":0,"parameters":["\\c[18]\\a[c]YOU REALLY THINK I'D LET YOU GO?"]},{"code":101,"indent":0,"parameters":["",0,1,1]},{"code":401,"indent":0,"parameters":["\\c[18]\\a[c]YOU REALLY THOUGHT YOU COULD FUCK WITH ME AND GET"]},{"code":401,"indent":0,"parameters":["AWAY WITH IT?"]},{"code":101,"indent":0,"parameters":["",0,1,1]},{"code":401,"indent":0,"parameters":["\\c[18]\\a[c]THIS GAME IS MINE."]},{"code":101,"indent":0,"parameters":["",0,1,1]},{"code":401,"indent":0,"parameters":["\\c[18]\\a[c]AND THERE'S NOTHING YOU CAN DO ABOUT IT."]},{"code":355,"indent":0,"parameters":["msgbox(\"Ý̵͜͠O҉͏̵U̶͏ ̵̨͟͏̢W̸̛͠Į̕͞Ļ̧̛̕L̷̡̢͘͢ ̕Ņ̶̶́E͏͏V̨̛̀͠E̸̕͝R̢̀́͢͠ "]},{"code":655,"indent":0,"parameters":["̵̢̀É̸͘҉S̵̨C̷͟À̴͜͜͜P̡̀͘͝͡Ȩ҉\")"]},{"code":355,"indent":0,"parameters":["$titlename = \"ALWAYS WATCHING\""]},{"code":655,"indent":0,"parameters":["call = Change_title.new"]},{"code":121,"indent":0,"parameters":[142,142,0]},{"code":355,"indent":0,"parameters":["SceneManager.exit"]},{"code":0,"indent":0,"parameters":[]}]}],"x":12,"y":0},
{"id":19,"name":"EV019","note":"","pages":[{"conditions":{"actorId":1,"actorValid":false,"itemId":1,"itemValid":false,"selfSwitchCh":"A","selfSwitchValid":false,"switch1Id":143,"switch1Valid":true,"switch2Id":1,"switch2Valid":false,"variableId":1,"variableValid":false,"variableValue":0},"directionFix":false,"image":{"tileId":0,"characterName":"","direction":2,"pattern":0,"characterIndex":0},"moveFrequency":3,"moveRoute":{"list":[{"code":0,"indent":null,"parameters":[]}],"repeat":true,"skippable":false,"wait":false},"moveSpeed":3,"moveType":0,"priorityType":0,"stepAnime":false,"through":false,"trigger":4,"walkAnime":true,"list":[{"code":230,"indent":0,"parameters":[600]},{"code":111,"indent":0,"parameters":[3,60,1]},{"code":250,"indent":1,"parameters":[{"name":"static","pan":0,"pitch":100,"volume":100}]},{"code":231,"indent":1,"parameters":[1,"anti6",0,0,0,0,100,100,255,0]},{"code":230,"indent":1,"parameters":[15]},{"code":235,"indent":1,"parameters":[1]},{"code":0,"indent":1,"parameters":[]},{"code":411,"indent":0,"parameters":[]},{"code":111,"indent":1,"parameters":[3,240,1]},{"code":250,"indent":2,"parameters":[{"name":"static","pan":0,"pitch":100,"volume":80}]},{"code":231,"indent":2,"parameters":[1,"anti5",0,0,0,0,100,100,255,0]},{"code":230,"indent":2,"parameters":[15]},{"code":235,"indent":2,"parameters":[1]},{"code":0,"indent":2,"parameters":[]},{"code":411,"indent":1,"parameters":[]},{"code":111,"indent":2,"parameters":[3,480,1]},{"code":250,"indent":3,"parameters":[{"name":"static","pan":0,"pitch":100,"volume":70}]},{"code":231,"indent":3,"parameters":[1,"anti4",0,0,0,0,100,100,255,0]},{"code":230,"indent":3,"parameters":[15]},{"code":235,"indent":3,"parameters":[1]},{"code":0,"indent":3,"parameters":[]},{"code":411,"indent":2,"parameters":[]},{"code":111,"indent":3,"parameters":[3,600,1]},{"code":250,"indent":4,"parameters":[{"name":"static","pan":0,"pitch":100,"volume":50}]},{"code":231,"indent":4,"parameters":[1,"anti3",0,0,0,0,100,100,255,0]},{"code":230,"indent":4,"parameters":[15]},{"code":235,"indent":4,"parameters":[1]},{"code":0,"indent":4,"parameters":[]},{"code":411,"indent":3,"parameters":[]},{"code":111,"indent":4,"parameters":[3,900,1]},{"code":250,"indent":5,"parameters":[{"name":"static","pan":0,"pitch":100,"volume":35}]},{"code":231,"indent":5,"parameters":[1,"anti2",0,0,0,0,100,100,255,0]},{"code":230,"indent":5,"parameters":[15]},{"code":235,"indent":5,"parameters":[1]},{"code":0,"indent":5,"parameters":[]},{"code":411,"indent":4,"parameters":[]},{"code":111,"indent":5,"parameters":[3,901,0]},{"code":250,"indent":6,"parameters":[{"name":"static","pan":0,"pitch":100,"volume":15}]},{"code":231,"indent":6,"parameters":[1,"anti1",0,0,0,0,100,100,255,0]},{"code":230,"indent":6,"parameters":[15]},{"code":235,"indent":6,"parameters":[1]},{"code":0,"indent":6,"parameters":[]},{"code":411,"indent":5,"parameters":[]},{"code":0,"indent":6,"parameters":[]},{"code":412,"indent":5,"parameters":[]},{"code":0,"indent":5,"parameters":[]},{"code":412,"indent":4,"parameters":[]},{"code":0,"indent":4,"parameters":[]},{"code":412,"indent":3,"parameters":[]},{"code":0,"indent":3,"parameters":[]},{"code":412,"indent":2,"parameters":[]},{"code":0,"indent":2,"parameters":[]},{"code":412,"indent":1,"parameters":[]},{"code":0,"indent":1,"parameters":[]},{"code":412,"indent":0,"parameters":[]},{"code":0,"indent":0,"parameters":[]}]}],"x":25,"y":0},
{"id":20,"name":"EV020","note":"","pages":[{"conditions":{"actorId":1,"actorValid":false,"itemId":1,"itemValid":false,"selfSwitchCh":"A","selfSwitchValid":false,"switch1Id":1,"switch1Valid":false,"switch2Id":1,"switch2Valid":false,"variableId":1,"variableValid":false,"variableValue":0},"directionFix":false,"image":{"tileId":0,"characterName":"","direction":2,"pattern":0,"characterIndex":0},"moveFrequency":3,"moveRoute":{"list":[{"code":0,"indent":null,"parameters":[]}],"repeat":true,"skippable":false,"wait":false},"moveSpeed":3,"moveType":0,"priorityType":0,"stepAnime":false,"through":false,"trigger":4,"walkAnime":true,"list":[{"code":232,"indent":0,"parameters":[2,0,0,0,0,0,100,100,0,0,30,true]},{"code":214,"indent":0,"parameters":[]},{"code":0,"indent":0,"parameters":[]}]}],"x":1,"y":0},
null,
{"id":22,"name":"EV022","note":"","pages":[{"conditions":{"actorId":1,"actorValid":false,"itemId":1,"itemValid":false,"selfSwitchCh":"A","selfSwitchValid":false,"switch1Id":1,"switch1Valid":false,"switch2Id":1,"switch2Valid":false,"variableId":1,"variableValid":false,"variableValue":0},"directionFix":false,"image":{"tileId":0,"characterName":"","direction":2,"pattern":0,"characterIndex":0},"moveFrequency":3,"moveRoute":{"list":[{"code":0,"indent":null,"parameters":[]}],"repeat":true,"skippable":false,"wait":false},"moveSpeed":3,"moveType":0,"priorityType":0,"stepAnime":false,"through":false,"trigger":3,"walkAnime":true,"list":[{"code":111,"indent":0,"parameters":[4,2,0]},{"code":241,"indent":1,"parameters":[{"name":"mus_doctahwho","pan":0,"pitch":100,"volume":75}]},{"code":0,"indent":1,"parameters":[]},{"code":411,"indent":0,"parameters":[]},{"code":111,"indent":1,"parameters":[0,33,0]},{"code":241,"indent":2,"parameters":[{"name":"mus_biohosp","pan":0,"pitch":100,"volume":60}]},{"code":0,"indent":2,"parameters":[]},{"code":411,"indent":1,"parameters":[]},{"code":241,"indent":2,"parameters":[{"name":"mus_doctahwho","pan":0,"pitch":100,"volume":75}]},{"code":0,"indent":2,"parameters":[]},{"code":412,"indent":1,"parameters":[]},{"code":0,"indent":1,"parameters":[]},{"code":412,"indent":0,"parameters":[]},{"code":214,"indent":0,"parameters":[]},{"code":0,"indent":0,"parameters":[]}]}],"x":25,"y":1}
]
}