{
"autoplayBgm":false,"autoplayBgs":false,"battleback1Name":"","battleback2Name":"","bgm":{"name":"","pan":0,"pitch":100,"volume":100},"bgs":{"name":"","pan":0,"pitch":100,"volume":80},"disableDashing":false,"displayName":"","encounterList":[],"encounterStep":30,"height":15,"note":"<all restrict: 6>","parallaxLoopX":true,"parallaxLoopY":true,"parallaxName":"pl_007","parallaxShow":true,"parallaxSx":1,"parallaxSy":-1,"scrollType":0,"specifyBattleback":false,"tilesetId":10,"width":20,
"data":[0,0,0,0,0,0,0,0,0,0,0,0,0,0,0,0,0,0,0,0,0,0,0,0,0,0,0,0,0,0,0,0,0,0,0,0,0,0,0,0,0,0,0,6739,6737,6737,6737,6737,6741,0,0,6739,6737,6737,6737,6737,6741,0,0,0,0,0,0,6736,7234,7234,7234,7234,6745,6737,6737,6743,8050,8054,1564,8051,6736,0,0,0,0,0,0,6736,7240,7240,7240,7240,8051,8050,8050,8054,8056,8060,8058,8057,6736,0,0,0,0,0,0,6736,1591,1591,1591,1591,8057,8056,8056,8060,1546,1546,1546,1546,6736,0,0,0,0,0,0,6748,1546,1546,1546,1546,1546,1546,1546,1546,1546,1546,1546,1546,6736,0,0,0,0,0,0,7095,1546,1546,1546,1546,1546,1546,1546,1546,1546,1546,1546,1546,6736,0,0,0,0,0,0,7101,1546,1546,1546,1546,1546,1546,1546,1546,1546,1546,1546,1546,6736,0,0,0,0,0,0,1546,1546,1546,1546,1546,1546,1546,1546,1546,1546,1546,1546,1546,6736,0,0,0,0,0,0,6746,1546,1546,1546,1546,1546,1546,1546,1546,1546,1546,1546,1546,6736,0,0,0,0,0,0,6745,6737,6737,6737,6737,6737,6737,6737,6737,6737,6737,6737,6737,6743,0,0,0,0,0,0,0,0,0,0,0,0,0,0,0,0,0,0,0,0,0,0,0,0,0,0,0,0,0,0,0,0,0,0,0,0,0,0,0,0,0,0,0,0,0,0,0,0,0,0,0,0,0,0,0,0,0,0,0,0,0,0,0,0,0,0,0,0,0,0,0,0,0,0,0,0,0,0,0,0,0,0,0,0,0,0,0,0,0,0,0,0,0,0,0,0,0,0,0,0,0,0,0,0,0,0,0,0,0,0,0,0,0,0,0,0,0,0,0,0,0,0,0,0,0,0,0,0,0,0,0,0,0,0,0,0,0,0,0,0,0,0,0,0,0,0,0,0,0,0,0,0,0,0,0,0,0,0,0,0,0,0,0,0,0,0,0,0,0,0,0,0,0,0,0,0,0,0,0,0,0,0,0,0,0,0,0,0,0,0,0,0,0,0,0,0,0,0,0,0,0,0,0,0,0,0,0,0,0,0,0,0,0,0,0,0,0,0,0,0,0,0,0,0,0,0,0,0,0,0,0,0,0,0,0,0,0,0,0,0,0,0,0,0,0,0,0,0,0,0,0,0,0,0,0,0,0,0,0,0,0,0,0,0,0,0,0,0,0,0,0,0,0,0,0,0,0,0,0,0,0,0,0,0,0,0,0,0,0,0,0,0,0,0,0,0,0,0,0,0,0,0,0,0,0,0,0,0,0,0,0,0,0,0,0,0,0,0,0,0,0,0,0,0,0,0,0,0,0,0,0,0,0,0,0,0,0,0,0,0,0,0,0,0,0,0,0,0,0,0,0,0,0,0,0,0,0,0,0,0,0,0,0,0,0,0,0,0,0,0,0,0,0,0,0,0,0,0,0,0,0,0,0,0,0,0,0,0,0,0,0,0,0,0,0,0,0,0,0,0,0,0,0,0,0,0,0,0,0,0,0,0,0,0,0,0,0,0,0,0,0,0,0,0,0,0,0,0,0,0,0,0,0,0,0,488,489,0,0,0,0,0,0,0,0,0,0,0,0,0,0,0,0,0,0,0,0,0,0,0,0,0,0,0,0,0,0,0,0,0,0,0,0,0,0,0,0,0,0,0,0,0,0,0,0,0,0,0,0,0,0,0,0,0,0,0,0,0,0,0,0,0,0,0,0,0,0,0,0,0,0,0,0,0,0,0,0,0,0,0,0,0,0,0,0,0,0,0,0,0,0,0,0,0,0,0,0,0,0,0,0,0,0,0,0,0,0,0,0,0,0,0,0,0,0,0,0,0,0,0,0,0,0,0,0,0,0,0,0,0,0,0,0,0,0,0,0,0,0,0,0,0,0,0,0,0,0,0,0,0,0,0,0,0,0,0,0,0,0,0,0,0,0,0,0,0,0,0,0,0,0,0,0,0,0,0,0,0,0,0,0,0,0,0,0,0,0,0,0,0,0,0,0,0,0,0,0,0,0,0,0,0,0,0,0,0,0,0,0,0,0,0,0,0,0,0,0,0,0,0,0,0,0,0,0,0,0,0,0,0,0,0,0,0,0,0,0,0,0,0,0,0,0,0,0,0,0,0,0,0,0,0,0,0,0,0,0,0,0,0,0,0,0,0,0,0,0,0,0,0,0,0,0,0,0,0,0,0,0,0,0,0,0,0,0,0,0,108,108,108,108,0,0,0,0,488,489,0,0,0,0,0,0,0,0,0,0,393,394,25,25,208,209,210,211,496,497,498,172,0,0,0,0,0,0,0,0,401,402,33,33,216,217,218,219,504,505,506,180,0,0,0,0,0,0,0,0,353,0,0,0,0,0,0,0,0,0,0,0,0,0,0,0,0,0,0,0,361,0,0,0,16,17,0,16,17,0,16,17,0,0,0,0,0,0,0,0,369,0,0,0,0,0,0,0,0,0,0,0,0,0,0,0,0,0,0,0,0,0,0,0,16,17,0,16,17,0,16,17,0,0,0,0,0,0,0,0,0,0,0,0,0,0,0,0,0,0,0,0,0,0,0,0,0,0,0,0,0,0,0,0,0,0,0,0,0,0,0,0,0,0,0,0,0,0,0,0,0,0,0,0,0,0,0,0,0,0,0,0,0,0,0,0,0,0,0,0,0,0,0,0,0,0,0,0,0,0,0,0,0,0,0,0,0,0,0,0,0,0,0,0,0,0,0,0,0,0,0,0,0,0,0,0,0,0,0,0,0,0,0,0,0,0,0,0,0,0,0,0,0,0,0,0,0,0,0,0,0,0,0,0,0,0,0,0,0,0,0,0,0,0,0,0,0,0,0,0,0,0,0,0,0,0,0,0,0,0,0,0,0,0,0,0,0,0,0,0,0,0,0,0,0,0,0,0,0,0,0,0,0,0,0,0,0,0,0,0,1536,1536,1536,1536,1536,1536,1536,1536,1536,1536,1536,1536,1536,0,0,0,0,0,0,0,1536,1536,1536,1536,1536,1536,1536,1536,1536,1536,0,1536,1536,0,0,0,0,0,0,0,0,0,0,0,0,0,0,0,0,0,0,0,1536,0,0,0,0,0,0,0,1536,0,0,0,1536,1536,0,1536,1536,0,1536,1536,1536,0,0,0,0,0,0,0,1536,0,0,0,0,0,0,0,0,0,0,0,1536,0,0,0,0,0,0,0,0,0,0,0,1536,1536,0,1536,1536,0,1536,1536,1536,0,0,0,0,0,0,0,0,0,0,0,0,0,0,0,0,0,0,0,1536,0,0,0,0,0,0,0,0,0,0,0,0,0,0,0,0,0,0,0,0,0,0,0,0,0,0,0,0,0,0,0,0,0,0,0,0,0,0,0,0,0,0,0,0,0,0,0,0,0,0,0,0,0,0,0,0,0,0,0,0,0,0,0,0,0,0,0,0,0,0,0,0,0,0,0,0,0,0,0,0,0,0,0,0,0,0,0,0,0,0,0,0,0,0,0,0,0,0,0,0,0,0,0,0,0,0,0,0,0,0,0,0,0,0,0,0,0,0,0,0,0,0,0,0,0,0,0,0,0,0,0,0,0,0,0,0,0,0,0,0,0,0,0,0,0,0,0,0,0,0,0,0,0,0,0,0,0,0,0,0,0,0,0,0,0,0,6,6,6,6,6,6,6,6,6,6,6,6,6,6,0,0,0,0,0,0,6,6,6,6,6,6,6,6,6,6,6,0,6,6,0,0,0,0,0,0,6,0,0,0,0,0,0,0,0,0,0,0,0,6,0,0,0,0,0,0,6,6,0,0,0,6,6,0,6,6,0,6,6,6,0,0,0,0,0,0,6,6,0,0,0,0,0,0,0,0,0,0,0,6,0,0,0,0,0,0,0,0,0,0,0,6,6,0,6,6,0,6,6,6,0,0,0,0,0,0,7,0,0,0,0,0,0,0,0,0,0,0,0,6,0,0,0,0,0,0,6,6,6,6,6,6,6,6,6,6,6,6,6,6,0,0,0,0,0,0,0,0,0,0,0,0,0,0,0,0,0,0,0,0,0,0,0,0,0,0,0,0,0,0,0,0,0,0,0,0,0,0,0,0,0,0,0,0,0,0,0,0,0,0,0,0,0,0,0,0,0,0,0,0,0,0,0],
"events":[
null,
{"id":1,"name":"EV001","note":"","pages":[{"conditions":{"actorId":1,"actorValid":false,"itemId":1,"itemValid":false,"selfSwitchCh":"A","selfSwitchValid":false,"switch1Id":1,"switch1Valid":false,"switch2Id":1,"switch2Valid":false,"variableId":1,"variableValid":false,"variableValue":0},"directionFix":false,"image":{"tileId":113,"characterName":"","direction":2,"pattern":0,"characterIndex":0},"moveFrequency":3,"moveRoute":{"list":[{"code":0,"indent":null,"parameters":[]}],"repeat":true,"skippable":false,"wait":false},"moveSpeed":3,"moveType":0,"priorityType":1,"stepAnime":false,"through":false,"trigger":0,"walkAnime":false,"list":[{"code":108,"indent":0,"parameters":["<Sprite Offset: +0, -6>"]},{"code":111,"indent":0,"parameters":[4,2,0]},{"code":101,"indent":1,"parameters":["2fc_billy1",2,0,2]},{"code":401,"indent":1,"parameters":["Condiment containers. With orange juice in them."]},{"code":101,"indent":1,"parameters":["1fc_jack2",3,0,2]},{"code":401,"indent":1,"parameters":["Is that what it is? "]},{"code":101,"indent":1,"parameters":["2fc_billy1",10,0,2]},{"code":401,"indent":1,"parameters":["Well, it \\fiwas\\fi orange juice at one point."]},{"code":0,"indent":1,"parameters":[]},{"code":411,"indent":0,"parameters":[]},{"code":101,"indent":1,"parameters":["1fc_jack2",3,0,2]},{"code":401,"indent":1,"parameters":["Why are there glasses of orange goo sitting here?"]},{"code":101,"indent":1,"parameters":["4fc_cliffgreen1",13,0,2]},{"code":401,"indent":1,"parameters":["Let's not speculate too much, okay?"]},{"code":0,"indent":1,"parameters":[]},{"code":412,"indent":0,"parameters":[]},{"code":0,"indent":0,"parameters":[]}]}],"x":15,"y":7},
{"id":2,"name":"EV002","note":"","pages":[{"conditions":{"actorId":1,"actorValid":false,"itemId":1,"itemValid":false,"selfSwitchCh":"A","selfSwitchValid":false,"switch1Id":1,"switch1Valid":false,"switch2Id":1,"switch2Valid":false,"variableId":1,"variableValid":false,"variableValue":0},"directionFix":false,"image":{"tileId":105,"characterName":"","direction":2,"pattern":0,"characterIndex":0},"moveFrequency":3,"moveRoute":{"list":[{"code":0,"indent":null,"parameters":[]}],"repeat":true,"skippable":false,"wait":false},"moveSpeed":3,"moveType":0,"priorityType":1,"stepAnime":false,"through":false,"trigger":0,"walkAnime":false,"list":[{"code":108,"indent":0,"parameters":["<Sprite Offset: +0, -14>"]},{"code":111,"indent":0,"parameters":[4,2,0]},{"code":101,"indent":1,"parameters":["2fc_billy1",2,0,2]},{"code":401,"indent":1,"parameters":["I've been called 'shrimp' more times than I can count,"]},{"code":401,"indent":1,"parameters":["but this is the first time I've realized how insulted I should"]},{"code":401,"indent":1,"parameters":["have been."]},{"code":101,"indent":1,"parameters":["1fc_jack1",6,0,2]},{"code":401,"indent":1,"parameters":["Shrimp doesn't usually have things growing on it."]},{"code":101,"indent":1,"parameters":["3fc_jenny1",4,0,2]},{"code":401,"indent":1,"parameters":["Can we leave please?"]},{"code":0,"indent":1,"parameters":[]},{"code":411,"indent":0,"parameters":[]},{"code":101,"indent":1,"parameters":["1fc_jack2",2,0,2]},{"code":401,"indent":1,"parameters":["If I stand any closer to this, I'm gonna hurl."]},{"code":101,"indent":1,"parameters":["4fc_cliffgreen1",4,0,2]},{"code":401,"indent":1,"parameters":["Well, we're in a hospital, so technically not a bad place"]},{"code":401,"indent":1,"parameters":["for it."]},{"code":101,"indent":1,"parameters":["1fc_jack2",2,0,2]},{"code":401,"indent":1,"parameters":["Yeah, but you forget: Schneep's on duty."]},{"code":101,"indent":1,"parameters":["4fc_cliffgreen1",4,0,2]},{"code":401,"indent":1,"parameters":["..."]},{"code":101,"indent":1,"parameters":["4fc_cliffgreen1",13,0,2]},{"code":401,"indent":1,"parameters":["Ah. Yes. You make an excellent point."]},{"code":0,"indent":1,"parameters":[]},{"code":412,"indent":0,"parameters":[]},{"code":0,"indent":0,"parameters":[]}]}],"x":14,"y":9},
{"id":3,"name":"EV003","note":"","pages":[{"conditions":{"actorId":1,"actorValid":false,"itemId":1,"itemValid":false,"selfSwitchCh":"A","selfSwitchValid":false,"switch1Id":1,"switch1Valid":false,"switch2Id":1,"switch2Valid":false,"variableId":1,"variableValid":false,"variableValue":0},"directionFix":true,"image":{"tileId":97,"characterName":"","direction":2,"pattern":0,"characterIndex":0},"moveFrequency":3,"moveRoute":{"list":[{"code":0,"indent":null,"parameters":[]}],"repeat":true,"skippable":false,"wait":false},"moveSpeed":3,"moveType":0,"priorityType":1,"stepAnime":false,"through":false,"trigger":0,"walkAnime":false,"list":[{"code":108,"indent":0,"parameters":["MOVE 0, -4"]},{"code":111,"indent":0,"parameters":[4,2,0]},{"code":101,"indent":1,"parameters":["2fc_billy1",3,0,2]},{"code":401,"indent":1,"parameters":["Ugh, that's repulsive!"]},{"code":101,"indent":1,"parameters":["1fc_jack1",0,0,2]},{"code":401,"indent":1,"parameters":["Oh yeah, Shark-chan wanted you to bring this out to"]},{"code":401,"indent":1,"parameters":["her."]},{"code":101,"indent":1,"parameters":["4fc_cliffgreen1",4,0,2]},{"code":401,"indent":1,"parameters":["Yeah, she said it'd cure your ichthyophobia."]},{"code":101,"indent":1,"parameters":["3fc_jenny1",10,0,2]},{"code":401,"indent":1,"parameters":["Um... actually, I don't think that's a real fish."]},{"code":101,"indent":1,"parameters":["4fc_cliffgreen1",4,0,2]},{"code":401,"indent":1,"parameters":["Yeah, that's definitely one of those novelty wall mounted"]},{"code":401,"indent":1,"parameters":["fish that sings. You can even see the button."]},{"code":101,"indent":1,"parameters":["1fc_jack1",1,0,2]},{"code":401,"indent":1,"parameters":["Well, you can't say that without pressing it. What does it"]},{"code":401,"indent":1,"parameters":["sing?"]},{"code":242,"indent":1,"parameters":[1]},{"code":230,"indent":1,"parameters":[30]},{"code":250,"indent":1,"parameters":[{"name":"sfx_pressthebutton","pan":0,"pitch":100,"volume":80}]},{"code":230,"indent":1,"parameters":[60]},{"code":241,"indent":1,"parameters":[{"name":"mus_dicks","pan":0,"pitch":100,"volume":60}]},{"code":230,"indent":1,"parameters":[120]},{"code":101,"indent":1,"parameters":["4fc_cliffgreen1",8,0,2]},{"code":401,"indent":1,"parameters":["..."]},{"code":101,"indent":1,"parameters":["3fc_jenny1",3,0,2]},{"code":401,"indent":1,"parameters":["..."]},{"code":101,"indent":1,"parameters":["2fc_billy1",9,0,2]},{"code":401,"indent":1,"parameters":["You're the absolute pinnacle of maturity."]},{"code":101,"indent":1,"parameters":["1fc_jack1",9,0,2]},{"code":401,"indent":1,"parameters":["I am, aren't I?"]},{"code":250,"indent":1,"parameters":[{"name":"sfx_pressthebutton","pan":0,"pitch":100,"volume":80}]},{"code":230,"indent":1,"parameters":[20]},{"code":242,"indent":1,"parameters":[1]},{"code":101,"indent":1,"parameters":["3fc_jenny1",2,0,2]},{"code":401,"indent":1,"parameters":["Moving on..."]},{"code":241,"indent":1,"parameters":[{"name":"mus_doctahwho","pan":0,"pitch":100,"volume":75}]},{"code":121,"indent":1,"parameters":[94,94,0]},{"code":0,"indent":1,"parameters":[]},{"code":411,"indent":0,"parameters":[]},{"code":101,"indent":1,"parameters":["4fc_cliffgreen2",2,0,2]},{"code":401,"indent":1,"parameters":["I've never been a seafood fan but I don't think I'd eat"]},{"code":401,"indent":1,"parameters":["anything here anyway."]},{"code":101,"indent":1,"parameters":["1fc_jack1",2,0,2]},{"code":401,"indent":1,"parameters":["Probably for the best. You can already see food here"]},{"code":401,"indent":1,"parameters":["already, so you're getting your fill, whether you like it"]},{"code":401,"indent":1,"parameters":["or not."]},{"code":101,"indent":1,"parameters":["4fc_cliffgreen1",4,0,2]},{"code":401,"indent":1,"parameters":["True, but the smell's not usually THIS bad."]},{"code":0,"indent":1,"parameters":[]},{"code":412,"indent":0,"parameters":[]},{"code":0,"indent":0,"parameters":[]}]},{"conditions":{"actorId":1,"actorValid":false,"itemId":1,"itemValid":false,"selfSwitchCh":"A","selfSwitchValid":false,"switch1Id":94,"switch1Valid":true,"switch2Id":1,"switch2Valid":false,"variableId":1,"variableValid":false,"variableValue":0},"directionFix":true,"image":{"tileId":97,"characterName":"","direction":2,"pattern":0,"characterIndex":0},"moveFrequency":3,"moveRoute":{"list":[{"code":0,"indent":null,"parameters":[]}],"repeat":true,"skippable":false,"wait":false},"moveSpeed":3,"moveType":0,"priorityType":1,"stepAnime":false,"through":false,"trigger":0,"walkAnime":false,"list":[{"code":108,"indent":0,"parameters":["MOVE 0, -4"]},{"code":242,"indent":0,"parameters":[1]},{"code":101,"indent":0,"parameters":["2fc_billy1",6,0,2]},{"code":401,"indent":0,"parameters":["Jack, come on!!"]},{"code":250,"indent":0,"parameters":[{"name":"sfx_pressthebutton","pan":0,"pitch":100,"volume":80}]},{"code":230,"indent":0,"parameters":[30]},{"code":241,"indent":0,"parameters":[{"name":"mus_dicks","pan":0,"pitch":100,"volume":60}]},{"code":230,"indent":0,"parameters":[60]},{"code":101,"indent":0,"parameters":["1fc_jack1",9,0,2]},{"code":401,"indent":0,"parameters":["Never gets old."]},{"code":101,"indent":0,"parameters":["2fc_billy1",2,0,2]},{"code":401,"indent":0,"parameters":["The song or your maturity level?"]},{"code":101,"indent":0,"parameters":["4fc_cliffgreen1",4,0,2]},{"code":401,"indent":0,"parameters":["I'd say both."]},{"code":101,"indent":0,"parameters":["1fc_jack1",3,0,2]},{"code":401,"indent":0,"parameters":["See? Cliff gets it."]},{"code":250,"indent":0,"parameters":[{"name":"sfx_pressthebutton","pan":0,"pitch":100,"volume":80}]},{"code":230,"indent":0,"parameters":[20]},{"code":242,"indent":0,"parameters":[1]},{"code":101,"indent":0,"parameters":["3fc_jenny1",2,0,2]},{"code":401,"indent":0,"parameters":["So... to Byte'on?"]},{"code":241,"indent":0,"parameters":[{"name":"mus_doctahwho","pan":0,"pitch":100,"volume":75}]},{"code":0,"indent":0,"parameters":[]}]}],"x":8,"y":7},
{"id":4,"name":"EV004","note":"","pages":[{"conditions":{"actorId":1,"actorValid":false,"itemId":1,"itemValid":false,"selfSwitchCh":"A","selfSwitchValid":false,"switch1Id":1,"switch1Valid":false,"switch2Id":1,"switch2Valid":false,"variableId":1,"variableValid":false,"variableValue":0},"directionFix":false,"image":{"tileId":96,"characterName":"","direction":2,"pattern":0,"characterIndex":0},"moveFrequency":3,"moveRoute":{"list":[{"code":0,"indent":null,"parameters":[]}],"repeat":true,"skippable":false,"wait":false},"moveSpeed":3,"moveType":0,"priorityType":1,"stepAnime":false,"through":false,"trigger":0,"walkAnime":false,"list":[{"code":108,"indent":0,"parameters":["MOVE 0, -4"]},{"code":111,"indent":0,"parameters":[4,2,0]},{"code":101,"indent":1,"parameters":["2fc_billy1",2,0,2]},{"code":401,"indent":1,"parameters":["These are plastic."]},{"code":101,"indent":1,"parameters":["1fc_jack1",6,0,2]},{"code":401,"indent":1,"parameters":["Probably safer to eat than the real shrimp a table over."]},{"code":0,"indent":1,"parameters":[]},{"code":411,"indent":0,"parameters":[]},{"code":101,"indent":1,"parameters":["1fc_jack2",3,0,2]},{"code":401,"indent":1,"parameters":["A plate of plastic shrimp. I mean...  probably safer to"]},{"code":401,"indent":1,"parameters":["eat than real shrimp here."]},{"code":101,"indent":1,"parameters":["3fc_jenny1",2,0,2]},{"code":401,"indent":1,"parameters":["And that's after you get past the plastic smell and lead"]},{"code":401,"indent":1,"parameters":["paint."]},{"code":0,"indent":1,"parameters":[]},{"code":412,"indent":0,"parameters":[]},{"code":0,"indent":0,"parameters":[]}]}],"x":12,"y":9},
{"id":5,"name":"EV005","note":"","pages":[{"conditions":{"actorId":1,"actorValid":false,"itemId":1,"itemValid":false,"selfSwitchCh":"A","selfSwitchValid":false,"switch1Id":1,"switch1Valid":false,"switch2Id":1,"switch2Valid":false,"variableId":1,"variableValid":false,"variableValue":0},"directionFix":false,"image":{"tileId":96,"characterName":"","direction":2,"pattern":0,"characterIndex":0},"moveFrequency":3,"moveRoute":{"list":[{"code":0,"indent":null,"parameters":[]}],"repeat":true,"skippable":false,"wait":false},"moveSpeed":3,"moveType":0,"priorityType":1,"stepAnime":false,"through":false,"trigger":0,"walkAnime":false,"list":[{"code":108,"indent":0,"parameters":["MOVE 0, -4"]},{"code":111,"indent":0,"parameters":[4,2,0]},{"code":101,"indent":1,"parameters":["2fc_billy1",10,0,2]},{"code":401,"indent":1,"parameters":["This has a distinct odor to it."]},{"code":101,"indent":1,"parameters":["1fc_jack1",6,0,2]},{"code":401,"indent":1,"parameters":["Maybe we should back away before one of us throws up."]},{"code":0,"indent":1,"parameters":[]},{"code":411,"indent":0,"parameters":[]},{"code":101,"indent":1,"parameters":["1fc_jack2",3,0,2]},{"code":401,"indent":1,"parameters":["Ew, there are flies buzzing over it!"]},{"code":101,"indent":1,"parameters":["4fc_cliffgreen1",4,0,2]},{"code":401,"indent":1,"parameters":["Some of them are walking, though. So it's flies and"]},{"code":401,"indent":1,"parameters":["walks."]},{"code":101,"indent":1,"parameters":["3fc_jenny1",15,0,2]},{"code":401,"indent":1,"parameters":["What about the ones on the side that look like they've"]},{"code":401,"indent":1,"parameters":["died?"]},{"code":101,"indent":1,"parameters":["4fc_cliffgreen1",4,0,2]},{"code":401,"indent":1,"parameters":["...Flies and walks and dies."]},{"code":101,"indent":1,"parameters":["1fc_jack2",15,0,2]},{"code":401,"indent":1,"parameters":["This is starting to sound like the buildup for a very"]},{"code":401,"indent":1,"parameters":["weird riddle."]},{"code":0,"indent":1,"parameters":[]},{"code":412,"indent":0,"parameters":[]},{"code":0,"indent":0,"parameters":[]}]}],"x":11,"y":7},
null,
null,
null,
{"id":9,"name":"EV009","note":"","pages":[{"conditions":{"actorId":1,"actorValid":false,"itemId":1,"itemValid":false,"selfSwitchCh":"A","selfSwitchValid":false,"switch1Id":1,"switch1Valid":false,"switch2Id":1,"switch2Valid":false,"variableId":1,"variableValid":false,"variableValue":0},"directionFix":false,"image":{"tileId":0,"characterName":"","direction":2,"pattern":0,"characterIndex":0},"moveFrequency":3,"moveRoute":{"list":[{"code":0,"indent":null,"parameters":[]}],"repeat":true,"skippable":false,"wait":false},"moveSpeed":3,"moveType":0,"priorityType":1,"stepAnime":false,"through":false,"trigger":1,"walkAnime":false,"list":[{"code":201,"indent":0,"parameters":[0,26,30,35,4,0]},{"code":0,"indent":0,"parameters":[]}]}],"x":2,"y":9},
{"id":10,"name":"EV010","note":"","pages":[{"conditions":{"actorId":1,"actorValid":false,"itemId":1,"itemValid":false,"selfSwitchCh":"A","selfSwitchValid":false,"switch1Id":1,"switch1Valid":false,"switch2Id":1,"switch2Valid":false,"variableId":1,"variableValid":false,"variableValue":0},"directionFix":false,"image":{"tileId":0,"characterName":"","direction":2,"pattern":0,"characterIndex":0},"moveFrequency":3,"moveRoute":{"list":[{"code":0,"indent":null,"parameters":[]}],"repeat":true,"skippable":false,"wait":false},"moveSpeed":3,"moveType":0,"priorityType":1,"stepAnime":false,"through":false,"trigger":0,"walkAnime":true,"list":[{"code":0,"indent":0,"parameters":[]}]}],"x":3,"y":10},
{"id":11,"name":"EV011","note":"","pages":[{"conditions":{"actorId":1,"actorValid":false,"itemId":1,"itemValid":false,"selfSwitchCh":"A","selfSwitchValid":false,"switch1Id":1,"switch1Valid":false,"switch2Id":1,"switch2Valid":false,"variableId":1,"variableValid":false,"variableValue":0},"directionFix":false,"image":{"tileId":0,"characterName":"","direction":2,"pattern":0,"characterIndex":0},"moveFrequency":3,"moveRoute":{"list":[{"code":0,"indent":null,"parameters":[]}],"repeat":true,"skippable":false,"wait":false},"moveSpeed":3,"moveType":0,"priorityType":1,"stepAnime":false,"through":false,"trigger":0,"walkAnime":true,"list":[{"code":101,"indent":0,"parameters":["1fc_jack1",2,0,2]},{"code":401,"indent":0,"parameters":["Hey, I recognise this! It's the water cooler of doom!"]},{"code":101,"indent":0,"parameters":["3fc_jenny1",4,0,2]},{"code":401,"indent":0,"parameters":["It's not plugged in."]},{"code":101,"indent":0,"parameters":["4fc_cliffgreen1",4,0,2]},{"code":401,"indent":0,"parameters":["I guess we won't meet our doom today."]},{"code":0,"indent":0,"parameters":[]}]}],"x":15,"y":5},
{"id":12,"name":"EV012","note":"","pages":[{"conditions":{"actorId":1,"actorValid":false,"itemId":1,"itemValid":false,"selfSwitchCh":"A","selfSwitchValid":false,"switch1Id":1,"switch1Valid":false,"switch2Id":1,"switch2Valid":false,"variableId":1,"variableValid":false,"variableValue":0},"directionFix":false,"image":{"tileId":0,"characterName":"","direction":2,"pattern":0,"characterIndex":0},"moveFrequency":3,"moveRoute":{"list":[{"code":0,"indent":null,"parameters":[]}],"repeat":true,"skippable":false,"wait":false},"moveSpeed":3,"moveType":0,"priorityType":0,"stepAnime":false,"through":false,"trigger":4,"walkAnime":true,"list":[{"code":111,"indent":0,"parameters":[3,0,1]},{"code":123,"indent":1,"parameters":["A",0]},{"code":0,"indent":1,"parameters":[]},{"code":412,"indent":0,"parameters":[]},{"code":0,"indent":0,"parameters":[]}]},{"conditions":{"actorId":1,"actorValid":false,"itemId":1,"itemValid":false,"selfSwitchCh":"A","selfSwitchValid":true,"switch1Id":1,"switch1Valid":false,"switch2Id":1,"switch2Valid":false,"variableId":1,"variableValid":false,"variableValue":0},"directionFix":false,"image":{"tileId":0,"characterName":"","direction":2,"pattern":0,"characterIndex":0},"moveFrequency":3,"moveRoute":{"list":[{"code":0,"indent":null,"parameters":[]}],"repeat":true,"skippable":false,"wait":false},"moveSpeed":3,"moveType":0,"priorityType":0,"stepAnime":false,"through":false,"trigger":3,"walkAnime":true,"list":[{"code":241,"indent":0,"parameters":[{"name":"","pan":0,"pitch":100,"volume":100}]},{"code":223,"indent":0,"parameters":[[0,-255,-255,0],1,true]},{"code":101,"indent":0,"parameters":["",0,1,1]},{"code":401,"indent":0,"parameters":["\\c[18]\\a[c]YOU REALLY THINK I'D LET YOU GO?"]},{"code":101,"indent":0,"parameters":["",0,1,1]},{"code":401,"indent":0,"parameters":["\\c[18]\\a[c]YOU REALLY THOUGHT YOU COULD FUCK WITH ME AND GET"]},{"code":401,"indent":0,"parameters":["AWAY WITH IT?"]},{"code":101,"indent":0,"parameters":["",0,1,1]},{"code":401,"indent":0,"parameters":["\\c[18]\\a[c]THIS GAME IS MINE."]},{"code":101,"indent":0,"parameters":["",0,1,1]},{"code":401,"indent":0,"parameters":["\\c[18]\\a[c]AND THERE'S NOTHING YOU CAN DO ABOUT IT."]},{"code":355,"indent":0,"parameters":["msgbox(\"Ý̵͜͠O҉͏̵U̶͏ ̵̨͟͏̢W̸̛͠Į̕͞Ļ̧̛̕L̷̡̢͘͢ ̕Ņ̶̶́E͏͏V̨̛̀͠E̸̕͝R̢̀́͢͠ "]},{"code":655,"indent":0,"parameters":["̵̢̀É̸͘҉S̵̨C̷͟À̴͜͜͜P̡̀͘͝͡Ȩ҉\")"]},{"code":355,"indent":0,"parameters":["$titlename = \"ALWAYS WATCHING\""]},{"code":655,"indent":0,"parameters":["call = Change_title.new"]},{"code":121,"indent":0,"parameters":[142,142,0]},{"code":355,"indent":0,"parameters":["SceneManager.exit"]},{"code":0,"indent":0,"parameters":[]}]}],"x":2,"y":0},
{"id":13,"name":"EV013","note":"","pages":[{"conditions":{"actorId":1,"actorValid":false,"itemId":1,"itemValid":false,"selfSwitchCh":"A","selfSwitchValid":false,"switch1Id":143,"switch1Valid":true,"switch2Id":1,"switch2Valid":false,"variableId":1,"variableValid":false,"variableValue":0},"directionFix":false,"image":{"tileId":0,"characterName":"","direction":2,"pattern":0,"characterIndex":0},"moveFrequency":3,"moveRoute":{"list":[{"code":0,"indent":null,"parameters":[]}],"repeat":true,"skippable":false,"wait":false},"moveSpeed":3,"moveType":0,"priorityType":0,"stepAnime":false,"through":false,"trigger":4,"walkAnime":true,"list":[{"code":230,"indent":0,"parameters":[600]},{"code":111,"indent":0,"parameters":[3,60,1]},{"code":250,"indent":1,"parameters":[{"name":"static","pan":0,"pitch":100,"volume":100}]},{"code":231,"indent":1,"parameters":[1,"anti6",0,0,0,0,100,100,255,0]},{"code":230,"indent":1,"parameters":[15]},{"code":235,"indent":1,"parameters":[1]},{"code":0,"indent":1,"parameters":[]},{"code":411,"indent":0,"parameters":[]},{"code":111,"indent":1,"parameters":[3,240,1]},{"code":250,"indent":2,"parameters":[{"name":"static","pan":0,"pitch":100,"volume":80}]},{"code":231,"indent":2,"parameters":[1,"anti5",0,0,0,0,100,100,255,0]},{"code":230,"indent":2,"parameters":[15]},{"code":235,"indent":2,"parameters":[1]},{"code":0,"indent":2,"parameters":[]},{"code":411,"indent":1,"parameters":[]},{"code":111,"indent":2,"parameters":[3,480,1]},{"code":250,"indent":3,"parameters":[{"name":"static","pan":0,"pitch":100,"volume":70}]},{"code":231,"indent":3,"parameters":[1,"anti4",0,0,0,0,100,100,255,0]},{"code":230,"indent":3,"parameters":[15]},{"code":235,"indent":3,"parameters":[1]},{"code":0,"indent":3,"parameters":[]},{"code":411,"indent":2,"parameters":[]},{"code":111,"indent":3,"parameters":[3,600,1]},{"code":250,"indent":4,"parameters":[{"name":"static","pan":0,"pitch":100,"volume":50}]},{"code":231,"indent":4,"parameters":[1,"anti3",0,0,0,0,100,100,255,0]},{"code":230,"indent":4,"parameters":[15]},{"code":235,"indent":4,"parameters":[1]},{"code":0,"indent":4,"parameters":[]},{"code":411,"indent":3,"parameters":[]},{"code":111,"indent":4,"parameters":[3,900,1]},{"code":250,"indent":5,"parameters":[{"name":"static","pan":0,"pitch":100,"volume":35}]},{"code":231,"indent":5,"parameters":[1,"anti2",0,0,0,0,100,100,255,0]},{"code":230,"indent":5,"parameters":[15]},{"code":235,"indent":5,"parameters":[1]},{"code":0,"indent":5,"parameters":[]},{"code":411,"indent":4,"parameters":[]},{"code":111,"indent":5,"parameters":[3,901,0]},{"code":250,"indent":6,"parameters":[{"name":"static","pan":0,"pitch":100,"volume":15}]},{"code":231,"indent":6,"parameters":[1,"anti1",0,0,0,0,100,100,255,0]},{"code":230,"indent":6,"parameters":[15]},{"code":235,"indent":6,"parameters":[1]},{"code":0,"indent":6,"parameters":[]},{"code":411,"indent":5,"parameters":[]},{"code":0,"indent":6,"parameters":[]},{"code":412,"indent":5,"parameters":[]},{"code":0,"indent":5,"parameters":[]},{"code":412,"indent":4,"parameters":[]},{"code":0,"indent":4,"parameters":[]},{"code":412,"indent":3,"parameters":[]},{"code":0,"indent":3,"parameters":[]},{"code":412,"indent":2,"parameters":[]},{"code":0,"indent":2,"parameters":[]},{"code":412,"indent":1,"parameters":[]},{"code":0,"indent":1,"parameters":[]},{"code":412,"indent":0,"parameters":[]},{"code":0,"indent":0,"parameters":[]}]}],"x":12,"y":0},
{"id":14,"name":"EV014","note":"","pages":[{"conditions":{"actorId":1,"actorValid":false,"itemId":1,"itemValid":false,"selfSwitchCh":"A","selfSwitchValid":false,"switch1Id":1,"switch1Valid":false,"switch2Id":1,"switch2Valid":false,"variableId":1,"variableValid":false,"variableValue":0},"directionFix":false,"image":{"tileId":0,"characterName":"","direction":2,"pattern":0,"characterIndex":0},"moveFrequency":3,"moveRoute":{"list":[{"code":0,"indent":null,"parameters":[]}],"repeat":true,"skippable":false,"wait":false},"moveSpeed":3,"moveType":0,"priorityType":0,"stepAnime":false,"through":false,"trigger":3,"walkAnime":true,"list":[{"code":117,"indent":0,"parameters":[37]},{"code":214,"indent":0,"parameters":[]},{"code":0,"indent":0,"parameters":[]}]}],"x":19,"y":0},
{"id":15,"name":"EV015","note":"","pages":[{"conditions":{"actorId":1,"actorValid":false,"itemId":1,"itemValid":false,"selfSwitchCh":"A","selfSwitchValid":false,"switch1Id":1,"switch1Valid":false,"switch2Id":1,"switch2Valid":false,"variableId":1,"variableValid":false,"variableValue":0},"directionFix":false,"image":{"tileId":0,"characterName":"","direction":2,"pattern":0,"characterIndex":0},"moveFrequency":3,"moveRoute":{"list":[{"code":0,"indent":null,"parameters":[]}],"repeat":true,"skippable":false,"wait":false},"moveSpeed":3,"moveType":0,"priorityType":1,"stepAnime":false,"through":false,"trigger":0,"walkAnime":true,"list":[{"code":101,"indent":0,"parameters":["3fc_jenny1",15,0,2]},{"code":401,"indent":0,"parameters":["The doors won't open."]},{"code":101,"indent":0,"parameters":["4fc_cliffgreen2",10,0,2]},{"code":401,"indent":0,"parameters":["Actually I think those doors are just decorative."]},{"code":101,"indent":0,"parameters":["1fc_jack1",2,0,2]},{"code":401,"indent":0,"parameters":["Yeah, a gigantic hunk of metal pretending to be a cabinet"]},{"code":401,"indent":0,"parameters":["is exactly what's missing from modern architecture."]},{"code":0,"indent":0,"parameters":[]}]}],"x":7,"y":5},
{"id":16,"name":"EV016","note":"","pages":[{"conditions":{"actorId":1,"actorValid":false,"itemId":1,"itemValid":false,"selfSwitchCh":"A","selfSwitchValid":false,"switch1Id":1,"switch1Valid":false,"switch2Id":1,"switch2Valid":false,"variableId":1,"variableValid":false,"variableValue":0},"directionFix":false,"image":{"tileId":0,"characterName":"","direction":2,"pattern":0,"characterIndex":0},"moveFrequency":3,"moveRoute":{"list":[{"code":0,"indent":null,"parameters":[]}],"repeat":true,"skippable":false,"wait":false},"moveSpeed":3,"moveType":0,"priorityType":1,"stepAnime":false,"through":false,"trigger":0,"walkAnime":true,"list":[{"code":101,"indent":0,"parameters":["3fc_jenny1",15,0,2]},{"code":401,"indent":0,"parameters":["The doors won't open."]},{"code":101,"indent":0,"parameters":["4fc_cliffgreen2",10,0,2]},{"code":401,"indent":0,"parameters":["Actually I think those doors are just decorative."]},{"code":101,"indent":0,"parameters":["1fc_jack1",2,0,2]},{"code":401,"indent":0,"parameters":["Yeah, a gigantic hunk of metal pretending to be a cabinet"]},{"code":401,"indent":0,"parameters":["is exactly what's missing from modern architecture."]},{"code":0,"indent":0,"parameters":[]}]}],"x":6,"y":5},
{"id":17,"name":"EV017","note":"","pages":[{"conditions":{"actorId":1,"actorValid":false,"itemId":1,"itemValid":false,"selfSwitchCh":"A","selfSwitchValid":false,"switch1Id":1,"switch1Valid":false,"switch2Id":1,"switch2Valid":false,"variableId":1,"variableValid":false,"variableValue":0},"directionFix":false,"image":{"tileId":0,"characterName":"","direction":2,"pattern":0,"characterIndex":0},"moveFrequency":3,"moveRoute":{"list":[{"code":0,"indent":null,"parameters":[]}],"repeat":true,"skippable":false,"wait":false},"moveSpeed":3,"moveType":0,"priorityType":1,"stepAnime":false,"through":false,"trigger":0,"walkAnime":true,"list":[{"code":101,"indent":0,"parameters":["3fc_jenny1",15,0,2]},{"code":401,"indent":0,"parameters":["This fridge is empty, it just has a giant sticker over the"]},{"code":401,"indent":0,"parameters":["glass part so it looks full."]},{"code":101,"indent":0,"parameters":["4fc_cliffgreen2",10,0,2]},{"code":401,"indent":0,"parameters":["If you're going to pretend you've got a full fridge, you"]},{"code":401,"indent":0,"parameters":["might as well fill it with something more interesting than"]},{"code":401,"indent":0,"parameters":["yogurt and milk."]},{"code":101,"indent":0,"parameters":["1fc_jack1",1,0,2]},{"code":401,"indent":0,"parameters":["Like jellyfish!"]},{"code":101,"indent":0,"parameters":["3fc_jenny1",0,0,2]},{"code":401,"indent":0,"parameters":["I guess that would make it more interesting."]},{"code":0,"indent":0,"parameters":[]}]}],"x":5,"y":5},
{"id":18,"name":"EV018","note":"","pages":[{"conditions":{"actorId":1,"actorValid":false,"itemId":1,"itemValid":false,"selfSwitchCh":"A","selfSwitchValid":false,"switch1Id":1,"switch1Valid":false,"switch2Id":1,"switch2Valid":false,"variableId":1,"variableValid":false,"variableValue":0},"directionFix":false,"image":{"tileId":0,"characterName":"","direction":2,"pattern":0,"characterIndex":0},"moveFrequency":3,"moveRoute":{"list":[{"code":0,"indent":null,"parameters":[]}],"repeat":true,"skippable":false,"wait":false},"moveSpeed":3,"moveType":0,"priorityType":1,"stepAnime":false,"through":false,"trigger":0,"walkAnime":true,"list":[{"code":101,"indent":0,"parameters":["3fc_jenny1",15,0,2]},{"code":401,"indent":0,"parameters":["This fridge is empty, it just has a giant sticker over the"]},{"code":401,"indent":0,"parameters":["glass part so it looks full."]},{"code":101,"indent":0,"parameters":["4fc_cliffgreen2",10,0,2]},{"code":401,"indent":0,"parameters":["If you're going to pretend you've got a full fridge, you"]},{"code":401,"indent":0,"parameters":["might as well fill it with something more interesting than"]},{"code":401,"indent":0,"parameters":["yogurt and milk."]},{"code":101,"indent":0,"parameters":["1fc_jack1",1,0,2]},{"code":401,"indent":0,"parameters":["Like jellyfish!"]},{"code":101,"indent":0,"parameters":["3fc_jenny1",0,0,2]},{"code":401,"indent":0,"parameters":["I guess that would make it more interesting."]},{"code":0,"indent":0,"parameters":[]}]}],"x":4,"y":5},
{"id":19,"name":"EV019","note":"","pages":[{"conditions":{"actorId":1,"actorValid":false,"itemId":1,"itemValid":false,"selfSwitchCh":"A","selfSwitchValid":false,"switch1Id":1,"switch1Valid":false,"switch2Id":1,"switch2Valid":false,"variableId":1,"variableValid":false,"variableValue":0},"directionFix":false,"image":{"tileId":0,"characterName":"","direction":2,"pattern":0,"characterIndex":0},"moveFrequency":3,"moveRoute":{"list":[{"code":0,"indent":null,"parameters":[]}],"repeat":true,"skippable":false,"wait":false},"moveSpeed":3,"moveType":0,"priorityType":1,"stepAnime":false,"through":false,"trigger":0,"walkAnime":true,"list":[{"code":111,"indent":0,"parameters":[4,2,0]},{"code":101,"indent":1,"parameters":["1fc_jack1",1,0,2]},{"code":401,"indent":1,"parameters":["Hey, Billy, would you look at that! They're listing your"]},{"code":401,"indent":1,"parameters":["medical info right here on the screen!"]},{"code":101,"indent":1,"parameters":["2fc_billy1",6,0,2]},{"code":401,"indent":1,"parameters":["What?? Whatever happened to patient confidentiality??"]},{"code":101,"indent":1,"parameters":["4fc_cliffgreen1",4,0,2]},{"code":401,"indent":1,"parameters":["Seems intact, unless your records indicate you have"]},{"code":401,"indent":1,"parameters":["a serious case of spaghetti bolognese."]},{"code":101,"indent":1,"parameters":["2fc_billy1",3,0,2]},{"code":401,"indent":1,"parameters":["You know, sometimes I feel like you just WANT me"]},{"code":401,"indent":1,"parameters":["dead."]},{"code":101,"indent":1,"parameters":["1fc_jack1",4,0,2]},{"code":401,"indent":1,"parameters":["Come on, if I really did, I'd go run you through"]},{"code":401,"indent":1,"parameters":["Happy Wheels a couple of times. And yet here we are."]},{"code":101,"indent":1,"parameters":["2fc_billy1",9,0,2]},{"code":401,"indent":1,"parameters":["You know full well I can't die in Happy Wheels."]},{"code":101,"indent":1,"parameters":["1fc_jack2",11,0,2]},{"code":401,"indent":1,"parameters":["Yes, but it's satisfying to watch."]},{"code":0,"indent":1,"parameters":[]},{"code":411,"indent":0,"parameters":[]},{"code":101,"indent":1,"parameters":["1fc_jack2",15,0,2]},{"code":401,"indent":1,"parameters":["Is this the menu or the old TABS layout?"]},{"code":101,"indent":1,"parameters":["4fc_cliffgreen1",4,0,2]},{"code":401,"indent":1,"parameters":["Why not both? It looks like the salmon fillets are about"]},{"code":401,"indent":1,"parameters":["to take on the meatloaf, if you look at it from this angle."]},{"code":101,"indent":1,"parameters":["4fc_cliffgreen1",2,0,2]},{"code":401,"indent":1,"parameters":["Hoping the salmon wins; if that could score us some extra"]},{"code":401,"indent":1,"parameters":["omega-3 vitamins, that'd be pretty sweet."]},{"code":101,"indent":1,"parameters":["1fc_jack1",3,0,2]},{"code":401,"indent":1,"parameters":["Too late; looks like the potatoes are winning."]},{"code":101,"indent":1,"parameters":["1fc_jack1",10,0,2]},{"code":401,"indent":1,"parameters":["GO IRELAND!!"]},{"code":0,"indent":1,"parameters":[]},{"code":412,"indent":0,"parameters":[]},{"code":0,"indent":0,"parameters":[]}]}],"x":8,"y":5},
{"id":20,"name":"EV020","note":"","pages":[{"conditions":{"actorId":1,"actorValid":false,"itemId":1,"itemValid":false,"selfSwitchCh":"A","selfSwitchValid":false,"switch1Id":1,"switch1Valid":false,"switch2Id":1,"switch2Valid":false,"variableId":1,"variableValid":false,"variableValue":0},"directionFix":false,"image":{"tileId":0,"characterName":"","direction":2,"pattern":0,"characterIndex":0},"moveFrequency":3,"moveRoute":{"list":[{"code":0,"indent":null,"parameters":[]}],"repeat":true,"skippable":false,"wait":false},"moveSpeed":3,"moveType":0,"priorityType":1,"stepAnime":false,"through":false,"trigger":0,"walkAnime":true,"list":[{"code":111,"indent":0,"parameters":[4,2,0]},{"code":101,"indent":1,"parameters":["1fc_jack1",1,0,2]},{"code":401,"indent":1,"parameters":["Hey, Billy, would you look at that! They're listing your"]},{"code":401,"indent":1,"parameters":["medical info right here on the screen!"]},{"code":101,"indent":1,"parameters":["2fc_billy1",6,0,2]},{"code":401,"indent":1,"parameters":["What?? Whatever happened to patient confidentiality??"]},{"code":101,"indent":1,"parameters":["4fc_cliffgreen1",4,0,2]},{"code":401,"indent":1,"parameters":["Seems intact, unless your records indicate you have"]},{"code":401,"indent":1,"parameters":["a serious case of spaghetti bolognese."]},{"code":101,"indent":1,"parameters":["2fc_billy1",3,0,2]},{"code":401,"indent":1,"parameters":["You know, sometimes I feel like you just WANT me"]},{"code":401,"indent":1,"parameters":["dead."]},{"code":101,"indent":1,"parameters":["1fc_jack1",4,0,2]},{"code":401,"indent":1,"parameters":["Come on, if I really did, I'd go run you through"]},{"code":401,"indent":1,"parameters":["Happy Wheels a couple of times. And yet here we are."]},{"code":101,"indent":1,"parameters":["2fc_billy1",9,0,2]},{"code":401,"indent":1,"parameters":["You know full well I can't die in Happy Wheels."]},{"code":101,"indent":1,"parameters":["1fc_jack2",11,0,2]},{"code":401,"indent":1,"parameters":["Yes, but it's satisfying to watch."]},{"code":0,"indent":1,"parameters":[]},{"code":411,"indent":0,"parameters":[]},{"code":101,"indent":1,"parameters":["1fc_jack2",15,0,2]},{"code":401,"indent":1,"parameters":["Is this the menu or the old TABS layout?"]},{"code":101,"indent":1,"parameters":["4fc_cliffgreen1",4,0,2]},{"code":401,"indent":1,"parameters":["Why not both? It looks like the salmon fillets are about"]},{"code":401,"indent":1,"parameters":["to take on the meatloaf, if you look at it from this angle."]},{"code":101,"indent":1,"parameters":["4fc_cliffgreen1",2,0,2]},{"code":401,"indent":1,"parameters":["Hoping the salmon wins; if that could score us some extra"]},{"code":401,"indent":1,"parameters":["omega-3 vitamins, that'd be pretty sweet."]},{"code":101,"indent":1,"parameters":["1fc_jack1",3,0,2]},{"code":401,"indent":1,"parameters":["Too late; looks like the potatoes are winning."]},{"code":101,"indent":1,"parameters":["1fc_jack1",10,0,2]},{"code":401,"indent":1,"parameters":["GO IRELAND!!"]},{"code":0,"indent":1,"parameters":[]},{"code":412,"indent":0,"parameters":[]},{"code":0,"indent":0,"parameters":[]}]}],"x":9,"y":5},
{"id":21,"name":"EV021","note":"","pages":[{"conditions":{"actorId":1,"actorValid":false,"itemId":1,"itemValid":false,"selfSwitchCh":"A","selfSwitchValid":false,"switch1Id":1,"switch1Valid":false,"switch2Id":1,"switch2Valid":false,"variableId":1,"variableValid":false,"variableValue":0},"directionFix":false,"image":{"tileId":0,"characterName":"","direction":2,"pattern":0,"characterIndex":0},"moveFrequency":3,"moveRoute":{"list":[{"code":0,"indent":null,"parameters":[]}],"repeat":true,"skippable":false,"wait":false},"moveSpeed":3,"moveType":0,"priorityType":1,"stepAnime":false,"through":false,"trigger":0,"walkAnime":true,"list":[{"code":111,"indent":0,"parameters":[4,2,0]},{"code":101,"indent":1,"parameters":["1fc_jack1",1,0,2]},{"code":401,"indent":1,"parameters":["Hey, Billy, would you look at that! They're listing your"]},{"code":401,"indent":1,"parameters":["medical info right here on the screen!"]},{"code":101,"indent":1,"parameters":["2fc_billy1",6,0,2]},{"code":401,"indent":1,"parameters":["What?? Whatever happened to patient confidentiality??"]},{"code":101,"indent":1,"parameters":["4fc_cliffgreen1",4,0,2]},{"code":401,"indent":1,"parameters":["Seems intact, unless your records indicate you have"]},{"code":401,"indent":1,"parameters":["a serious case of spaghetti bolognese."]},{"code":101,"indent":1,"parameters":["2fc_billy1",3,0,2]},{"code":401,"indent":1,"parameters":["You know, sometimes I feel like you just WANT me"]},{"code":401,"indent":1,"parameters":["dead."]},{"code":101,"indent":1,"parameters":["1fc_jack1",4,0,2]},{"code":401,"indent":1,"parameters":["Come on, if I really did, I'd go run you through"]},{"code":401,"indent":1,"parameters":["Happy Wheels a couple of times. And yet here we are."]},{"code":101,"indent":1,"parameters":["2fc_billy1",9,0,2]},{"code":401,"indent":1,"parameters":["You know full well I can't die in Happy Wheels."]},{"code":101,"indent":1,"parameters":["1fc_jack2",11,0,2]},{"code":401,"indent":1,"parameters":["Yes, but it's satisfying to watch."]},{"code":0,"indent":1,"parameters":[]},{"code":411,"indent":0,"parameters":[]},{"code":101,"indent":1,"parameters":["1fc_jack2",15,0,2]},{"code":401,"indent":1,"parameters":["Is this the menu or the old TABS layout?"]},{"code":101,"indent":1,"parameters":["4fc_cliffgreen1",4,0,2]},{"code":401,"indent":1,"parameters":["Why not both? It looks like the salmon fillets are about"]},{"code":401,"indent":1,"parameters":["to take on the meatloaf, if you look at it from this angle."]},{"code":101,"indent":1,"parameters":["4fc_cliffgreen1",2,0,2]},{"code":401,"indent":1,"parameters":["Hoping the salmon wins; if that could score us some extra"]},{"code":401,"indent":1,"parameters":["omega-3 vitamins, that'd be pretty sweet."]},{"code":101,"indent":1,"parameters":["1fc_jack1",3,0,2]},{"code":401,"indent":1,"parameters":["Too late; looks like the potatoes are winning."]},{"code":101,"indent":1,"parameters":["1fc_jack1",10,0,2]},{"code":401,"indent":1,"parameters":["GO IRELAND!!"]},{"code":0,"indent":1,"parameters":[]},{"code":412,"indent":0,"parameters":[]},{"code":0,"indent":0,"parameters":[]}]}],"x":10,"y":5},
{"id":22,"name":"EV022","note":"","pages":[{"conditions":{"actorId":1,"actorValid":false,"itemId":1,"itemValid":false,"selfSwitchCh":"A","selfSwitchValid":false,"switch1Id":1,"switch1Valid":false,"switch2Id":1,"switch2Valid":false,"variableId":1,"variableValid":false,"variableValue":0},"directionFix":false,"image":{"tileId":0,"characterName":"","direction":2,"pattern":0,"characterIndex":0},"moveFrequency":3,"moveRoute":{"list":[{"code":0,"indent":null,"parameters":[]}],"repeat":true,"skippable":false,"wait":false},"moveSpeed":3,"moveType":0,"priorityType":1,"stepAnime":false,"through":false,"trigger":0,"walkAnime":true,"list":[{"code":111,"indent":0,"parameters":[4,2,0]},{"code":101,"indent":1,"parameters":["1fc_jack1",1,0,2]},{"code":401,"indent":1,"parameters":["Hey, Billy, would you look at that! They're listing your"]},{"code":401,"indent":1,"parameters":["medical info right here on the screen!"]},{"code":101,"indent":1,"parameters":["2fc_billy1",6,0,2]},{"code":401,"indent":1,"parameters":["What?? Whatever happened to patient confidentiality??"]},{"code":101,"indent":1,"parameters":["4fc_cliffgreen1",4,0,2]},{"code":401,"indent":1,"parameters":["Seems intact, unless your records indicate you have"]},{"code":401,"indent":1,"parameters":["a serious case of spaghetti bolognese."]},{"code":101,"indent":1,"parameters":["2fc_billy1",3,0,2]},{"code":401,"indent":1,"parameters":["You know, sometimes I feel like you just WANT me"]},{"code":401,"indent":1,"parameters":["dead."]},{"code":101,"indent":1,"parameters":["1fc_jack1",4,0,2]},{"code":401,"indent":1,"parameters":["Come on, if I really did, I'd go run you through"]},{"code":401,"indent":1,"parameters":["Happy Wheels a couple of times. And yet here we are."]},{"code":101,"indent":1,"parameters":["2fc_billy1",9,0,2]},{"code":401,"indent":1,"parameters":["You know full well I can't die in Happy Wheels."]},{"code":101,"indent":1,"parameters":["1fc_jack2",11,0,2]},{"code":401,"indent":1,"parameters":["Yes, but it's satisfying to watch."]},{"code":0,"indent":1,"parameters":[]},{"code":411,"indent":0,"parameters":[]},{"code":101,"indent":1,"parameters":["1fc_jack2",15,0,2]},{"code":401,"indent":1,"parameters":["Is this the menu or the old TABS layout?"]},{"code":101,"indent":1,"parameters":["4fc_cliffgreen1",4,0,2]},{"code":401,"indent":1,"parameters":["Why not both? It looks like the salmon fillets are about"]},{"code":401,"indent":1,"parameters":["to take on the meatloaf, if you look at it from this angle."]},{"code":101,"indent":1,"parameters":["4fc_cliffgreen1",2,0,2]},{"code":401,"indent":1,"parameters":["Hoping the salmon wins; if that could score us some extra"]},{"code":401,"indent":1,"parameters":["omega-3 vitamins, that'd be pretty sweet."]},{"code":101,"indent":1,"parameters":["1fc_jack1",3,0,2]},{"code":401,"indent":1,"parameters":["Too late; looks like the potatoes are winning."]},{"code":101,"indent":1,"parameters":["1fc_jack1",10,0,2]},{"code":401,"indent":1,"parameters":["GO IRELAND!!"]},{"code":0,"indent":1,"parameters":[]},{"code":412,"indent":0,"parameters":[]},{"code":0,"indent":0,"parameters":[]}]}],"x":11,"y":5},
{"id":23,"name":"EV023","note":"","pages":[{"conditions":{"actorId":1,"actorValid":false,"itemId":1,"itemValid":false,"selfSwitchCh":"A","selfSwitchValid":false,"switch1Id":1,"switch1Valid":false,"switch2Id":1,"switch2Valid":false,"variableId":1,"variableValid":false,"variableValue":0},"directionFix":false,"image":{"tileId":0,"characterName":"","direction":2,"pattern":0,"characterIndex":0},"moveFrequency":3,"moveRoute":{"list":[{"code":0,"indent":null,"parameters":[]}],"repeat":true,"skippable":false,"wait":false},"moveSpeed":3,"moveType":0,"priorityType":1,"stepAnime":false,"through":false,"trigger":0,"walkAnime":true,"list":[{"code":111,"indent":0,"parameters":[4,2,0]},{"code":101,"indent":1,"parameters":["3fc_jenny1",13,0,2]},{"code":401,"indent":1,"parameters":["That is rather frightening-looking for an air conditioner."]},{"code":101,"indent":1,"parameters":["1fc_jack1",2,0,2]},{"code":401,"indent":1,"parameters":["I'm pretty sure it's tame; it just makes the air cooler."]},{"code":101,"indent":1,"parameters":["4fc_cliffgreen2",10,0,2]},{"code":401,"indent":1,"parameters":["..."]},{"code":101,"indent":1,"parameters":["4fc_cliffgreen2",1,0,2]},{"code":401,"indent":1,"parameters":["Are you guys hearing vaporwave?"]},{"code":101,"indent":1,"parameters":["1fc_jack1",3,0,2]},{"code":401,"indent":1,"parameters":["Not unless it's a humidifier too."]},{"code":101,"indent":1,"parameters":["4fc_cliffgreen1",4,0,2]},{"code":401,"indent":1,"parameters":["Eyyyyy."]},{"code":101,"indent":1,"parameters":["2fc_billy2",6,0,2]},{"code":401,"indent":1,"parameters":["...Can I go back? I will gladly let Schneep cut me open."]},{"code":0,"indent":1,"parameters":[]},{"code":411,"indent":0,"parameters":[]},{"code":101,"indent":1,"parameters":["3fc_jenny1",13,0,2]},{"code":401,"indent":1,"parameters":["That is rather frightening-looking for an air conditioner."]},{"code":101,"indent":1,"parameters":["1fc_jack1",2,0,2]},{"code":401,"indent":1,"parameters":["I'm pretty sure it's tame; it just makes the air cooler."]},{"code":101,"indent":1,"parameters":["4fc_cliffgreen2",10,0,2]},{"code":401,"indent":1,"parameters":["..."]},{"code":101,"indent":1,"parameters":["4fc_cliffgreen2",1,0,2]},{"code":401,"indent":1,"parameters":["Are you guys hearing vaporwave?"]},{"code":101,"indent":1,"parameters":["1fc_jack1",3,0,2]},{"code":401,"indent":1,"parameters":["Not unless it's a humidifier too."]},{"code":101,"indent":1,"parameters":["4fc_cliffgreen1",4,0,2]},{"code":401,"indent":1,"parameters":["Eyyyyy."]},{"code":0,"indent":1,"parameters":[]},{"code":412,"indent":0,"parameters":[]},{"code":0,"indent":0,"parameters":[]}]}],"x":12,"y":5},
{"id":24,"name":"EV024","note":"","pages":[{"conditions":{"actorId":1,"actorValid":false,"itemId":1,"itemValid":false,"selfSwitchCh":"A","selfSwitchValid":false,"switch1Id":1,"switch1Valid":false,"switch2Id":1,"switch2Valid":false,"variableId":1,"variableValid":false,"variableValue":0},"directionFix":false,"image":{"tileId":0,"characterName":"","direction":2,"pattern":0,"characterIndex":0},"moveFrequency":3,"moveRoute":{"list":[{"code":0,"indent":null,"parameters":[]}],"repeat":true,"skippable":false,"wait":false},"moveSpeed":3,"moveType":0,"priorityType":1,"stepAnime":false,"through":false,"trigger":0,"walkAnime":true,"list":[{"code":111,"indent":0,"parameters":[4,2,0]},{"code":101,"indent":1,"parameters":["3fc_jenny1",13,0,2]},{"code":401,"indent":1,"parameters":["That is rather frightening-looking for an air conditioner."]},{"code":101,"indent":1,"parameters":["1fc_jack1",2,0,2]},{"code":401,"indent":1,"parameters":["I'm pretty sure it's tame; it just makes the air cooler."]},{"code":101,"indent":1,"parameters":["4fc_cliffgreen2",10,0,2]},{"code":401,"indent":1,"parameters":["..."]},{"code":101,"indent":1,"parameters":["4fc_cliffgreen2",1,0,2]},{"code":401,"indent":1,"parameters":["Are you guys hearing vaporwave?"]},{"code":101,"indent":1,"parameters":["1fc_jack1",3,0,2]},{"code":401,"indent":1,"parameters":["Not unless it's a humidifier too."]},{"code":101,"indent":1,"parameters":["4fc_cliffgreen1",4,0,2]},{"code":401,"indent":1,"parameters":["Eyyyyy."]},{"code":101,"indent":1,"parameters":["2fc_billy2",6,0,2]},{"code":401,"indent":1,"parameters":["...Can I go back? I will gladly let Schneep cut me open."]},{"code":0,"indent":1,"parameters":[]},{"code":411,"indent":0,"parameters":[]},{"code":101,"indent":1,"parameters":["3fc_jenny1",13,0,2]},{"code":401,"indent":1,"parameters":["That is rather frightening-looking for an air conditioner."]},{"code":101,"indent":1,"parameters":["1fc_jack1",2,0,2]},{"code":401,"indent":1,"parameters":["I'm pretty sure it's tame; it just makes the air cooler."]},{"code":101,"indent":1,"parameters":["4fc_cliffgreen2",10,0,2]},{"code":401,"indent":1,"parameters":["..."]},{"code":101,"indent":1,"parameters":["4fc_cliffgreen2",1,0,2]},{"code":401,"indent":1,"parameters":["Are you guys hearing vaporwave?"]},{"code":101,"indent":1,"parameters":["1fc_jack1",3,0,2]},{"code":401,"indent":1,"parameters":["Not unless it's a humidifier too."]},{"code":101,"indent":1,"parameters":["4fc_cliffgreen1",4,0,2]},{"code":401,"indent":1,"parameters":["Eyyyyy."]},{"code":0,"indent":1,"parameters":[]},{"code":412,"indent":0,"parameters":[]},{"code":0,"indent":0,"parameters":[]}]}],"x":13,"y":5},
{"id":25,"name":"EV025","note":"","pages":[{"conditions":{"actorId":1,"actorValid":false,"itemId":1,"itemValid":false,"selfSwitchCh":"A","selfSwitchValid":false,"switch1Id":1,"switch1Valid":false,"switch2Id":1,"switch2Valid":false,"variableId":1,"variableValid":false,"variableValue":0},"directionFix":false,"image":{"tileId":0,"characterName":"","direction":2,"pattern":0,"characterIndex":0},"moveFrequency":3,"moveRoute":{"list":[{"code":0,"indent":null,"parameters":[]}],"repeat":true,"skippable":false,"wait":false},"moveSpeed":3,"moveType":0,"priorityType":0,"stepAnime":false,"through":false,"trigger":0,"walkAnime":true,"list":[{"code":111,"indent":0,"parameters":[4,2,0]},{"code":101,"indent":1,"parameters":["3fc_jenny1",3,0,2]},{"code":401,"indent":1,"parameters":["Great."]},{"code":101,"indent":1,"parameters":["1fc_jack2",15,0,2]},{"code":401,"indent":1,"parameters":["What is?"]},{"code":101,"indent":1,"parameters":["3fc_jenny1",3,0,2]},{"code":401,"indent":1,"parameters":["That is. That grate."]},{"code":101,"indent":1,"parameters":["2fc_billy1",10,0,2]},{"code":401,"indent":1,"parameters":["Uuuuuuugh, you're turning into THEM."]},{"code":101,"indent":1,"parameters":["3fc_jenny1",2,0,2]},{"code":401,"indent":1,"parameters":["Oh, I... I don't mean to disappoint you, Billy, but--"]},{"code":101,"indent":1,"parameters":["2fc_billy1",9,0,2]},{"code":401,"indent":1,"parameters":["Please. Don't say anything more. I wanted to keep my"]},{"code":401,"indent":1,"parameters":["high opinion of you intact and come hell or high water,"]},{"code":401,"indent":1,"parameters":["that's what I plan to do."]},{"code":0,"indent":1,"parameters":[]},{"code":411,"indent":0,"parameters":[]},{"code":101,"indent":1,"parameters":["3fc_jenny1",3,0,2]},{"code":401,"indent":1,"parameters":["Great."]},{"code":101,"indent":1,"parameters":["1fc_jack2",15,0,2]},{"code":401,"indent":1,"parameters":["What is?"]},{"code":101,"indent":1,"parameters":["3fc_jenny1",3,0,2]},{"code":401,"indent":1,"parameters":["That is. That grate."]},{"code":101,"indent":1,"parameters":["3fc_jenny1",1,0,2]},{"code":401,"indent":1,"parameters":["I can't let you two have all the puns, you know."]},{"code":101,"indent":1,"parameters":["4fc_cliffgreen1",2,0,2]},{"code":401,"indent":1,"parameters":["By all means! Don't be shy."]},{"code":0,"indent":1,"parameters":[]},{"code":412,"indent":0,"parameters":[]},{"code":0,"indent":0,"parameters":[]}]}],"x":14,"y":4},
{"id":26,"name":"EV026","note":"","pages":[{"conditions":{"actorId":1,"actorValid":false,"itemId":1,"itemValid":false,"selfSwitchCh":"A","selfSwitchValid":false,"switch1Id":1,"switch1Valid":false,"switch2Id":1,"switch2Valid":false,"variableId":1,"variableValid":false,"variableValue":0},"directionFix":false,"image":{"tileId":0,"characterName":"","direction":2,"pattern":0,"characterIndex":0},"moveFrequency":3,"moveRoute":{"list":[{"code":0,"indent":null,"parameters":[]}],"repeat":true,"skippable":false,"wait":false},"moveSpeed":3,"moveType":0,"priorityType":0,"stepAnime":false,"through":false,"trigger":0,"walkAnime":true,"list":[{"code":111,"indent":0,"parameters":[4,2,0]},{"code":101,"indent":1,"parameters":["2fc_billy1",2,0,2]},{"code":401,"indent":1,"parameters":["Oookay, why are we stopping to look at a bare"]},{"code":401,"indent":1,"parameters":["countertop?"]},{"code":101,"indent":1,"parameters":["1fc_jack1",1,0,2]},{"code":401,"indent":1,"parameters":["Because we can. And it seems to be getting to you, so"]},{"code":401,"indent":1,"parameters":["that's just adding more fuel."]},{"code":101,"indent":1,"parameters":["2fc_billy2",5,0,2]},{"code":401,"indent":1,"parameters":["You know, I could ask Schneep to forcibly remove your"]},{"code":401,"indent":1,"parameters":["sick sense of humor."]},{"code":101,"indent":1,"parameters":["1fc_jack1",5,0,2]},{"code":401,"indent":1,"parameters":["Can't we just get it healed instead of removed?"]},{"code":101,"indent":1,"parameters":["4fc_cliffgreen1",4,0,2]},{"code":401,"indent":1,"parameters":["Don't worry, Jack; Schneep's kind of indisposed at the"]},{"code":401,"indent":1,"parameters":["moment anyway. Your sense of humor will remain..."]},{"code":401,"indent":1,"parameters":["uh... sick?"]},{"code":101,"indent":1,"parameters":["3fc_jenny1",15,0,2]},{"code":401,"indent":1,"parameters":["Why are we still here?"]},{"code":101,"indent":1,"parameters":["1fc_jack2",0,0,2]},{"code":401,"indent":1,"parameters":["Oversight, I'm guessing."]},{"code":0,"indent":1,"parameters":[]},{"code":411,"indent":0,"parameters":[]},{"code":0,"indent":1,"parameters":[]},{"code":412,"indent":0,"parameters":[]},{"code":101,"indent":0,"parameters":["1fc_jack1",0,0,2]},{"code":401,"indent":0,"parameters":["Brushed steel counter? Very nice. Very industrial."]},{"code":101,"indent":0,"parameters":["4fc_cliffgreen1",0,0,2]},{"code":401,"indent":0,"parameters":["That might look pretty cool at your place, Jack."]},{"code":101,"indent":0,"parameters":["1fc_jack1",4,0,2]},{"code":401,"indent":0,"parameters":["I mean, it would, but not only would getting it there"]},{"code":401,"indent":0,"parameters":["be a pain, it'd be kinda small. And a little too digital"]},{"code":401,"indent":0,"parameters":["for the real world."]},{"code":101,"indent":0,"parameters":["3fc_jenny1",1,0,2]},{"code":401,"indent":0,"parameters":["That's a shame. I guess even if you wanted to--and it"]},{"code":401,"indent":0,"parameters":["would still be wrong--you couldn't steel it."]},{"code":101,"indent":0,"parameters":["1fc_jack1",3,0,2]},{"code":401,"indent":0,"parameters":["I don't need to; it already is."]},{"code":0,"indent":0,"parameters":[]}]}],"x":4,"y":8}
]
}