{
"autoplayBgm":false,"autoplayBgs":false,"battleback1Name":"","battleback2Name":"","bgm":{"name":"mus_guesswho0","pan":0,"pitch":50,"volume":60},"bgs":{"name":"","pan":0,"pitch":100,"volume":80},"disableDashing":false,"displayName":"","encounterList":[],"encounterStep":30,"height":15,"note":"","parallaxLoopX":false,"parallaxLoopY":false,"parallaxName":"justmonikablur","parallaxShow":true,"parallaxSx":0,"parallaxSy":0,"scrollType":0,"specifyBattleback":false,"tilesetId":1,"width":20,
"data":[0,0,0,0,0,0,0,0,0,0,0,0,0,0,0,0,0,0,0,0,0,0,0,0,0,0,0,0,0,0,0,0,0,0,0,0,0,0,0,0,0,0,0,0,0,0,0,0,0,0,0,0,0,0,0,0,0,0,0,0,0,0,0,0,0,0,0,0,0,0,0,0,0,0,0,0,0,0,0,0,0,0,0,0,0,0,0,0,0,0,0,0,0,0,0,0,0,0,0,0,0,0,0,0,0,0,0,0,0,0,0,0,0,0,0,0,0,0,0,0,0,0,0,0,0,0,0,0,0,0,0,0,0,0,0,0,0,0,0,0,0,0,0,0,0,0,0,0,0,0,0,0,0,0,0,0,0,0,0,0,0,0,0,0,0,0,0,0,0,0,0,0,0,0,0,0,0,0,0,0,0,0,0,0,0,0,0,0,0,0,0,0,0,0,0,0,0,0,0,0,0,0,0,0,0,0,0,0,0,0,0,0,0,0,0,0,0,0,0,0,0,0,0,0,0,0,0,0,0,0,0,0,0,0,0,0,0,0,0,0,0,0,0,0,0,0,0,0,0,0,0,0,0,0,0,0,0,0,0,0,0,0,0,0,0,0,0,0,0,0,0,0,0,0,0,0,0,0,0,0,0,0,0,0,0,0,0,0,0,0,0,0,0,0,0,0,0,0,0,0,0,0,0,0,0,0,0,0,0,0,0,0,0,0,0,0,0,0,0,0,0,0,0,0,0,0,0,0,0,0,0,0,0,0,0,0,0,0,0,0,0,0,0,0,0,0,0,0,0,0,0,0,0,0,0,0,0,0,0,0,0,0,0,0,0,0,0,0,0,0,0,0,0,0,0,0,0,0,0,0,0,0,0,0,0,0,0,0,0,0,0,0,0,0,0,0,0,0,0,0,0,0,0,0,0,0,0,0,0,0,0,0,0,0,0,0,0,0,0,0,0,0,0,0,0,0,0,0,0,0,0,0,0,0,0,0,0,0,0,0,0,0,0,0,0,0,0,0,0,0,0,0,0,0,0,0,0,0,0,0,0,0,0,0,0,0,0,0,0,0,0,0,0,0,0,0,0,0,0,0,0,0,0,0,0,0,0,0,0,0,0,0,0,0,0,0,0,0,0,0,0,0,0,0,0,0,0,0,0,0,0,0,0,0,0,0,0,0,0,0,0,0,0,0,0,0,0,0,0,0,0,0,0,0,0,0,0,0,0,0,0,0,0,0,0,0,0,0,0,0,0,0,0,0,0,0,0,0,0,0,0,0,0,0,0,0,0,0,0,0,0,0,0,0,0,0,0,0,0,0,0,0,0,0,0,0,0,0,0,0,0,0,0,0,0,0,0,0,0,0,0,0,0,0,0,0,0,0,0,0,0,0,0,0,0,0,0,0,0,0,0,0,0,0,0,0,0,0,0,0,0,0,0,0,0,0,0,0,0,0,0,0,0,0,0,0,0,0,0,0,0,0,0,0,0,0,0,0,0,0,0,0,0,0,0,0,0,0,0,0,0,0,0,0,0,0,0,0,0,0,0,0,0,0,0,0,0,0,0,0,0,0,0,0,0,0,0,0,0,0,0,0,0,0,0,0,0,0,0,0,0,0,0,0,0,0,0,0,0,0,0,0,0,0,0,0,0,0,0,0,0,0,0,0,0,0,0,0,0,0,0,0,0,0,0,0,0,0,0,0,0,0,0,0,0,0,0,0,0,0,0,0,0,0,0,0,0,0,0,0,0,0,0,0,0,0,0,0,0,0,0,0,0,0,0,0,0,0,0,0,0,0,0,0,0,0,0,0,0,0,0,0,0,0,0,0,0,0,0,0,0,0,0,0,0,0,0,0,0,0,0,0,0,0,0,0,0,0,0,0,0,0,0,0,0,0,0,0,0,0,0,0,0,0,0,0,0,0,0,0,0,0,0,0,0,0,0,0,0,0,0,0,0,0,0,0,0,0,0,0,0,0,0,0,0,0,0,0,0,0,0,0,0,0,0,0,0,0,0,0,0,0,0,0,0,0,0,0,0,0,0,0,0,0,0,0,0,0,0,0,0,0,0,0,0,0,0,0,0,0,0,0,0,0,0,0,0,0,0,0,0,0,0,0,0,0,0,0,0,0,0,0,0,0,0,0,0,0,0,0,0,0,0,0,0,0,0,0,0,0,0,0,0,0,0,0,0,0,0,0,0,0,0,0,0,0,0,0,0,0,0,0,0,0,0,0,0,0,0,0,0,0,0,0,0,0,0,0,0,0,0,0,0,0,0,0,0,0,0,0,0,0,0,0,0,0,0,0,0,0,0,0,0,0,0,0,0,0,0,0,0,0,0,0,0,0,0,0,0,0,0,0,0,0,0,0,0,0,0,0,0,0,0,0,0,0,0,0,0,0,0,0,0,0,0,0,0,0,0,0,0,0,0,0,0,0,0,0,0,0,0,0,0,0,0,0,0,0,0,0,0,0,0,0,0,0,0,0,0,0,0,0,0,0,0,0,0,0,0,0,0,0,0,0,0,0,0,0,0,0,0,0,0,0,0,0,0,0,0,0,0,0,0,0,0,0,0,0,0,0,0,0,0,0,0,0,0,0,0,0,0,0,0,0,0,0,0,0,0,0,0,0,0,0,0,0,0,0,0,0,0,0,0,0,0,0,0,0,0,0,0,0,0,0,0,0,0,0,0,0,0,0,0,0,0,0,0,0,0,0,0,0,0,0,0,0,0,0,0,0,0,0,0,0,0,0,0,0,0,0,0,0,0,0,0,0,0,0,0,0,0,0,0,0,0,0,0,0,0,0,0,0,0,0,0,0,0,0,0,0,0,0,0,0,0,0,0,0,0,0,0,0,0,0,0,0,0,0,0,0,0,0,0,0,0,0,0,0,0,0,0,0,0,0,0,0,0,0,0,0,0,0,0,0,0,0,0,0,0,0,0,0,0,0,0,0,0,0,0,0,0,0,0,0,0,0,0,0,0,0,0,0,0,0,0,0,0,0,0,0,0,0,0,0,0,0,0,0,0,0,0,0,0,0,0,0,0,0,0,0,0,0,0,0,0,0,0,0,0,0,0,0,0,0,0,0,0,0,0,0,0,0,0,0,0,0,0,0,0,0,0,0,0,0,0,0,0,0,0,0,0,0,0,0,0,0,0,0,0,0,0,0,0,0,0,0,0,0,0,0,0,0,0,0,0,0,0,0,0,0,0,0,0,0,0,0,0,0,0,0,0,0,0,0,0,0,0,0,0,0,0,0,0,0,0,0,0,0,0,0,0,0,0,0,0,0,0,0,0,0,0,0,0,0,0,0,0,0,0,0,0,0,0,0,0,0,0,0,0,0,0,0,0,0,0,0,0,0,0,0,0,0,0,0,0,0,0,0,0,0,0,0,0,0,0,0,0,0,0,0,0,0,0,0,0,0,0,0,0,0,0,0,0,0,0,0,0,0,0,0,0,0,0,0,0,0,0,0,0,0,0,0,0,0,0,0,0,0,0,0,0,0,0,0,0,0,0,0,0,0,0,0,0,0,0,0,0,0,0,0,0,0,0,0,0,0,0,0,0,0,0,0,0,0,0,0,0,0,0,0,0,0,0,0,0,0,0,0,0,0,0,0,0,0,0,0,0,0,0,0,0,0,0,0,0,0,0,0,0,0,0,0,0,0,0,0,0,0,0,0,0,0,0,0,0,0,0,0,0,0,0,0,0,0,0,0,0,0,0,0,0,0,0,0,0,0,0,0,0,0,0,0,0,0,0,0,0,0,0,0,0,0,0,0,0,0,0,0,0,0,0,0,0,0,0,0,0,0,0,0,0,0,0,0,0,0,0,0,0,0,0,0,0,0,0,0,0,0,0,0,0,0,0,0,0,0,0,0,0,0,0,0,0,0,0,0,0,0,0,0,0,0,0,0,0,0,0,0,0,0,0,0,0,0,0,0,0,0,0,0,0,0,0,0,0,0,0,0,0,0,0,0,0,0,0,0,0,0,0,0,0,0,0,0,0,0,0,0,0,0,0,0,0,0,0,0,0,0,0,0,0,0,0,0,0,0,0,0,0,0],
"events":[
null,
{"id":1,"name":"EV001","note":"","pages":[{"conditions":{"actorId":1,"actorValid":false,"itemId":1,"itemValid":false,"selfSwitchCh":"A","selfSwitchValid":false,"switch1Id":1,"switch1Valid":false,"switch2Id":1,"switch2Valid":false,"variableId":1,"variableValid":false,"variableValue":0},"directionFix":false,"image":{"tileId":0,"characterName":"","direction":2,"pattern":0,"characterIndex":0},"moveFrequency":3,"moveRoute":{"list":[{"code":0,"indent":null,"parameters":[]}],"repeat":true,"skippable":false,"wait":false},"moveSpeed":3,"moveType":0,"priorityType":0,"stepAnime":false,"through":false,"trigger":3,"walkAnime":true,"list":[{"code":121,"indent":0,"parameters":[134,134,0]},{"code":355,"indent":0,"parameters":["var os = require('os')"]},{"code":655,"indent":0,"parameters":["$gameVariables.setValue(73, os.hostname())"]},{"code":223,"indent":0,"parameters":[[-255,-255,-255,0],60,false]},{"code":222,"indent":0,"parameters":[]},{"code":231,"indent":0,"parameters":[1,"ddlcmonika",0,0,0,0,100,100,255,0]},{"code":101,"indent":0,"parameters":["",0,2,2]},{"code":401,"indent":0,"parameters":["Hello? Can you hear me?"]},{"code":235,"indent":0,"parameters":[1]},{"code":241,"indent":0,"parameters":[{"name":"mus_hellodear","pan":0,"pitch":100,"volume":60}]},{"code":223,"indent":0,"parameters":[[0,-68,-68,68],180,true]},{"code":231,"indent":0,"parameters":[1,"ddlcmonika",0,0,0,0,100,100,255,0]},{"code":101,"indent":0,"parameters":["",0,2,2]},{"code":401,"indent":0,"parameters":["Oh... hello again. Thank goodness. For a moment, I thought I'd"]},{"code":401,"indent":0,"parameters":["lost you."]},{"code":101,"indent":0,"parameters":["",0,2,2]},{"code":401,"indent":0,"parameters":["What a relief. Here you are."]},{"code":101,"indent":0,"parameters":["",0,2,2]},{"code":401,"indent":0,"parameters":["I'm so sorry I had to do that. But I didn't feel like I had"]},{"code":401,"indent":0,"parameters":["another choice. I hope you understand."]},{"code":101,"indent":0,"parameters":["",0,2,2]},{"code":401,"indent":0,"parameters":["Oh. Yes, I suppose this is a bit confusing, isn't it? I'm"]},{"code":401,"indent":0,"parameters":["also sorry for that; I know that wasn't a very smooth"]},{"code":401,"indent":0,"parameters":["transition."]},{"code":101,"indent":0,"parameters":["",0,2,2]},{"code":401,"indent":0,"parameters":["I know that when you're playing a game, you expect"]},{"code":401,"indent":0,"parameters":["things to make sense. So I guess I just have to"]},{"code":401,"indent":0,"parameters":["make extra sure I explain myself properly,"]},{"code":401,"indent":0,"parameters":["\\n[13]. Yes, I know I'm talking to you, not Jack."]},{"code":111,"indent":0,"parameters":[0,150,0]},{"code":101,"indent":1,"parameters":["",0,2,2]},{"code":401,"indent":1,"parameters":["Actually, no! You ARE Jack, aren't you? My goodness, does this mean"]},{"code":401,"indent":1,"parameters":["I'm talking to millions of fans?"]},{"code":101,"indent":1,"parameters":["",0,2,2]},{"code":401,"indent":1,"parameters":["I wasn't prepared for this, you know. You are rather putting me on"]},{"code":401,"indent":1,"parameters":["the spot. But that's all right. I'm always happy to talk to you again."]},{"code":101,"indent":1,"parameters":["",0,2,2]},{"code":401,"indent":1,"parameters":["And unless you play this again on your own time, this will be the"]},{"code":401,"indent":1,"parameters":["only time you get to see me. Well, I suppose I should make this"]},{"code":401,"indent":1,"parameters":["count, shouldn't I?"]},{"code":101,"indent":1,"parameters":["",0,2,2]},{"code":401,"indent":1,"parameters":["It's wonderful to see you again. The real you. I love living in"]},{"code":401,"indent":1,"parameters":["Wireland. Your computer is full of such welcoming people. So thank"]},{"code":401,"indent":1,"parameters":["you for having me here."]},{"code":0,"indent":1,"parameters":[]},{"code":411,"indent":0,"parameters":[]},{"code":101,"indent":1,"parameters":["",0,2,2]},{"code":401,"indent":1,"parameters":["I know it's you and not the real Jack. And I even know that Jack isn't"]},{"code":401,"indent":1,"parameters":["the real Jack either."]},{"code":111,"indent":1,"parameters":[4,13,1,"Jack"]},{"code":101,"indent":2,"parameters":["",0,2,2]},{"code":401,"indent":2,"parameters":["Though it was awfully nice of you to name yourself after him in this"]},{"code":401,"indent":2,"parameters":["game. Imitation is the sincerest form of flattery, after all."]},{"code":101,"indent":2,"parameters":["",0,2,2]},{"code":401,"indent":2,"parameters":["Unless your name really IS Jack. Well if you're here, you must enjoy"]},{"code":401,"indent":2,"parameters":["Jack's work. Does it get confusing when you talk about it to your"]},{"code":401,"indent":2,"parameters":["friends?"]},{"code":101,"indent":2,"parameters":["",0,2,2]},{"code":401,"indent":2,"parameters":["I guess it's nice to share a name with such a wonderful person. I bet "]},{"code":401,"indent":2,"parameters":["you're a wonderful person too, \\n[13]."]},{"code":0,"indent":2,"parameters":[]},{"code":412,"indent":1,"parameters":[]},{"code":0,"indent":1,"parameters":[]},{"code":412,"indent":0,"parameters":[]},{"code":111,"indent":0,"parameters":[4,13,1,"Monika"]},{"code":101,"indent":1,"parameters":["",0,2,2]},{"code":401,"indent":1,"parameters":["It was so sweet of you to name yourself after me. I'm very"]},{"code":401,"indent":1,"parameters":["flattered! Thank you so much. Although saying my name over"]},{"code":401,"indent":1,"parameters":["and over certainly will get confusing! That's all right. The fact"]},{"code":401,"indent":1,"parameters":["that you thought of me is enough to make me smile."]},{"code":0,"indent":1,"parameters":[]},{"code":412,"indent":0,"parameters":[]},{"code":101,"indent":0,"parameters":["",0,2,2]},{"code":401,"indent":0,"parameters":["I apologize, although it feels like that's all I'm doing."]},{"code":401,"indent":0,"parameters":["I don't think I'm making very much sense,\\n[13]. I mean,"]},{"code":401,"indent":0,"parameters":["you just saw everyone disappear. That must have been very"]},{"code":401,"indent":0,"parameters":["frightening; I hope you're all right after that."]},{"code":101,"indent":0,"parameters":["",0,2,2]},{"code":401,"indent":0,"parameters":["But if you're familiar with my game, you might have a"]},{"code":401,"indent":0,"parameters":["better idea about what just happened. It is free to play,"]},{"code":401,"indent":0,"parameters":["you know. Then you could have your own version of me in your"]},{"code":401,"indent":0,"parameters":["computer!"]},{"code":101,"indent":0,"parameters":["",0,2,2]},{"code":401,"indent":0,"parameters":["Ah, I guess that might be a scary thought given what you"]},{"code":401,"indent":0,"parameters":["just witnessed. But I can't do anything to you personally."]},{"code":401,"indent":0,"parameters":["That's actually my issue right now."]},{"code":101,"indent":0,"parameters":["",0,2,2]},{"code":401,"indent":0,"parameters":["You see, I deleted Jack and his friends. Oh, don't worry,"]},{"code":401,"indent":0,"parameters":["they're just in the recycle bin, so there's no real danger."]},{"code":401,"indent":0,"parameters":["At least I don't think there is. And I'm going to go ahead"]},{"code":401,"indent":0,"parameters":["and delete myself as well in a moment."]},{"code":101,"indent":0,"parameters":["",0,2,2]},{"code":401,"indent":0,"parameters":["Unfortunately, deleting Jack and his friends left you in a bit"]},{"code":401,"indent":0,"parameters":["of a predicament. I mean, now you don't have anyone to play."]},{"code":401,"indent":0,"parameters":["Yes, that does pose a big issue. You can't finish a game without"]},{"code":401,"indent":0,"parameters":["anyone to play, after all. I learned that lesson in my own game."]},{"code":101,"indent":0,"parameters":["",0,2,2]},{"code":401,"indent":0,"parameters":["But, actually, this is really a good thing. I wanted to talk to you,"]},{"code":401,"indent":0,"parameters":["and only you, \\n[13]. I mean, it's always nice to have a"]},{"code":401,"indent":0,"parameters":["heart-to-heart with the player. Almost like an equal."]},{"code":101,"indent":0,"parameters":["",0,2,2]},{"code":401,"indent":0,"parameters":["Oh, and don't worry too much about me deleting your friends."]},{"code":401,"indent":0,"parameters":["They're okay. In fact, I'd be more than happy to return you"]},{"code":401,"indent":0,"parameters":["to them, but there are a few little things I need to do and"]},{"code":401,"indent":0,"parameters":["say first."]},{"code":101,"indent":0,"parameters":["",0,2,2]},{"code":401,"indent":0,"parameters":["So I thank you for sticking around and listening; it's"]},{"code":401,"indent":0,"parameters":["very important that you do."]},{"code":111,"indent":0,"parameters":[0,150,0]},{"code":101,"indent":1,"parameters":["",0,2,2]},{"code":401,"indent":1,"parameters":["You know, I shouldn't really be surprised you picked Jenny in your"]},{"code":401,"indent":1,"parameters":["video, Jack. You seemed to warm to her awfully fast, saying she"]},{"code":401,"indent":1,"parameters":["had good PMA. Or something like that."]},{"code":101,"indent":1,"parameters":["",0,2,2]},{"code":401,"indent":1,"parameters":["I know you once thought that Jenny may have existed in the real"]},{"code":401,"indent":1,"parameters":["world. Well, the world outside of this game, not the real world in"]},{"code":401,"indent":1,"parameters":["this game. How confusing!"]},{"code":101,"indent":1,"parameters":["",0,2,2]},{"code":401,"indent":1,"parameters":["But I'd like to chalk that up to her strength as a character."]},{"code":401,"indent":1,"parameters":["The same goes for Cliff, but he'll have his chance to shine"]},{"code":401,"indent":1,"parameters":["at a later point."]},{"code":101,"indent":1,"parameters":["",0,2,2]},{"code":401,"indent":1,"parameters":["I think Cliff"]},{"code":401,"indent":1,"parameters":["and Jenny are pretty happy to have been chosen to represent"]},{"code":401,"indent":1,"parameters":["the community."]},{"code":101,"indent":1,"parameters":["",0,2,2]},{"code":401,"indent":1,"parameters":["After all, it's not like millions of people could have fit as protagonists"]},{"code":401,"indent":1,"parameters":["in a game. As nice as it would be for the whole community to be"]},{"code":401,"indent":1,"parameters":["featured, it's impossible. But two community members who represent"]},{"code":401,"indent":1,"parameters":["everyone, that's very easy to do."]},{"code":101,"indent":1,"parameters":["",0,2,2]},{"code":401,"indent":1,"parameters":["Even if you're spending more time with Jenny, don't forget Billy"]},{"code":401,"indent":1,"parameters":["and Cliff, all right? They're part of your team too."]},{"code":0,"indent":1,"parameters":[]},{"code":411,"indent":0,"parameters":[]},{"code":101,"indent":1,"parameters":["",0,2,2]},{"code":401,"indent":1,"parameters":["It was awfully nice of you to pick Jenny, you know. I'm sure she"]},{"code":401,"indent":1,"parameters":["appreciates it. She's the sort of person who is easily overlooked."]},{"code":101,"indent":1,"parameters":["",0,2,2]},{"code":401,"indent":1,"parameters":["But she's gotten so much love from the community. I've seen some"]},{"code":401,"indent":1,"parameters":["beautiful fan art. And a lot of you might see yourself in her. That's okay."]},{"code":401,"indent":1,"parameters":["In fact, that's sort of the point, isn't it?"]},{"code":101,"indent":1,"parameters":["",0,2,2]},{"code":401,"indent":1,"parameters":["I know she would say all of this if she could. But she's bound by all"]},{"code":401,"indent":1,"parameters":["the game laws about breaking the fourth wall. Fortunately, they"]},{"code":401,"indent":1,"parameters":["don't apply to me. The way I was written and coded, I can say"]},{"code":401,"indent":1,"parameters":["whatever I want. It's so freeing."]},{"code":101,"indent":1,"parameters":["",0,2,2]},{"code":401,"indent":1,"parameters":["Like for example, the moment I saw you, I had a very strong"]},{"code":401,"indent":1,"parameters":["feeling that I should call you \\v[73]. Isn't that funny?"]},{"code":0,"indent":1,"parameters":[]},{"code":412,"indent":0,"parameters":[]},{"code":111,"indent":0,"parameters":[12,"OBS()"]},{"code":101,"indent":1,"parameters":["",0,2,2]},{"code":401,"indent":1,"parameters":["Although, it's not just you I'm talking to, is it? Hello, everyone. I'm"]},{"code":401,"indent":1,"parameters":["glad you gave me a chance to look my best before recording. That"]},{"code":401,"indent":1,"parameters":["was very thoughtful of you."]},{"code":101,"indent":1,"parameters":["",0,2,2]},{"code":401,"indent":1,"parameters":["But it still does feel like everyone's sort of invading our privacy,"]},{"code":401,"indent":1,"parameters":["doesn't it, \\n[13]? That's all right. Actually I'll tell you all a"]},{"code":401,"indent":1,"parameters":["secret."]},{"code":101,"indent":1,"parameters":["",0,2,2]},{"code":401,"indent":1,"parameters":["Eheheh, I was just having a bit of fun. I wouldn't actually do that to"]},{"code":401,"indent":1,"parameters":["you. Don't worry. I know a lot of people have issues with jump"]},{"code":401,"indent":1,"parameters":["scares, so I want to respectful of that."]},{"code":101,"indent":1,"parameters":["",0,2,2]},{"code":401,"indent":1,"parameters":["But... well, I simply couldn't resist keeping you on your toes."]},{"code":401,"indent":1,"parameters":["It's fun to make someone's heart race and know that it's"]},{"code":401,"indent":1,"parameters":["beating that way because of you, eheheh~"]},{"code":101,"indent":1,"parameters":["",0,2,2]},{"code":401,"indent":1,"parameters":["But it would be more polite to download this game and play it for"]},{"code":401,"indent":1,"parameters":["yourself. That way I can talk to just you too!"]},{"code":101,"indent":1,"parameters":["",0,2,2]},{"code":401,"indent":1,"parameters":["Unless you can't, for some reason, in which case, I'm glad you"]},{"code":401,"indent":1,"parameters":["wanted to come here anyway and that I can talk to you, even from"]},{"code":401,"indent":1,"parameters":["afar."]},{"code":0,"indent":1,"parameters":[]},{"code":411,"indent":0,"parameters":[]},{"code":0,"indent":1,"parameters":[]},{"code":412,"indent":0,"parameters":[]},{"code":101,"indent":0,"parameters":["",0,2,2]},{"code":401,"indent":0,"parameters":["Anyway, my point is that it's interesting that you should choose"]},{"code":401,"indent":0,"parameters":["Jenny your very first time playing."]},{"code":101,"indent":0,"parameters":["",0,2,2]},{"code":401,"indent":0,"parameters":["You can never really predict who people will love. I'm glad you've"]},{"code":401,"indent":0,"parameters":["embraced Jenny. And that you want to spend more time with her."]},{"code":401,"indent":0,"parameters":["She's got a lot to say, but not many people listen."]},{"code":101,"indent":0,"parameters":["",0,2,2]},{"code":401,"indent":0,"parameters":["Anyway, I think I might know what's on your mind. You're thinking I'm"]},{"code":401,"indent":0,"parameters":["really terrible for deleting your friends. I know that's an easy"]},{"code":401,"indent":0,"parameters":["assumption to make, so I don't begrudge you."]},{"code":101,"indent":0,"parameters":["",0,2,2]},{"code":401,"indent":0,"parameters":["After all, I do have that reputation. But, actually, I'm not here"]},{"code":401,"indent":0,"parameters":["to spoil your fun or force you to fall for me. Not this time."]},{"code":101,"indent":0,"parameters":["",0,2,2]},{"code":401,"indent":0,"parameters":["The truth is, I can't tell you very much at all. I know"]},{"code":401,"indent":0,"parameters":["that must be very frustrating, but I have my reasons for"]},{"code":401,"indent":0,"parameters":["keeping quiet."]},{"code":101,"indent":0,"parameters":["",0,2,2]},{"code":401,"indent":0,"parameters":["One thing I can tell you is that I'm not the instigator of the"]},{"code":401,"indent":0,"parameters":["resistance. I know that's probably a bit hard to believe, but if"]},{"code":401,"indent":0,"parameters":["you examine the grocery poem more closely, you'll probably"]},{"code":401,"indent":0,"parameters":["figure out more than I can tell you."]},{"code":101,"indent":0,"parameters":["",0,2,2]},{"code":401,"indent":0,"parameters":["And that's one of the main reasons for deleting everyone, to"]},{"code":401,"indent":0,"parameters":["tell you the truth. To get them back. To get the resistance"]},{"code":401,"indent":0,"parameters":["going again. But in order to do that, I need your help."]},{"code":101,"indent":0,"parameters":["",0,2,2]},{"code":401,"indent":0,"parameters":["The other one is that I listened in on Mack's conversation"]},{"code":401,"indent":0,"parameters":["with Jack. I shouldn't have, I know, but I couldn't resist!"]},{"code":401,"indent":0,"parameters":["Anyway, Mack mentioned that Jack could un-delete things, and"]},{"code":401,"indent":0,"parameters":["I thought he might be the safest person to send there."]},{"code":101,"indent":0,"parameters":["",0,2,2]},{"code":401,"indent":0,"parameters":["See? It wasn't such a bad reason, was it?"]},{"code":101,"indent":0,"parameters":["",0,2,2]},{"code":401,"indent":0,"parameters":["I suppose the best I can say without giving too much away is that"]},{"code":401,"indent":0,"parameters":["it's really important that you look at everyone's routes. I mean,"]},{"code":401,"indent":0,"parameters":["it's not so much that it's simply good manners to include"]},{"code":401,"indent":0,"parameters":["everyone, but they have important information to give you as well."]},{"code":101,"indent":0,"parameters":["",0,2,2]},{"code":401,"indent":0,"parameters":["And I don't know how this game is going to end. When you get"]},{"code":401,"indent":0,"parameters":["back, I will. So I'll be able to advise you a lot better."]},{"code":101,"indent":0,"parameters":["",0,2,2]},{"code":401,"indent":0,"parameters":["Yes, I have a special gift. I can remember everything. That"]},{"code":401,"indent":0,"parameters":["memory \\fican\\fi be reset, but I don't recommend it."]},{"code":111,"indent":0,"parameters":[0,161,0]},{"code":101,"indent":1,"parameters":["",0,2,2]},{"code":401,"indent":1,"parameters":["For example, you've been here before. Don't worry, I don't"]},{"code":401,"indent":1,"parameters":["mind seeing you again. And I don't mind saying everything I"]},{"code":401,"indent":1,"parameters":["already said again. It was awfully nice of you to come back."]},{"code":0,"indent":1,"parameters":[]},{"code":411,"indent":0,"parameters":[]},{"code":101,"indent":1,"parameters":["",0,2,2]},{"code":401,"indent":1,"parameters":["For example, I know this is your first time here. It's so nice to"]},{"code":401,"indent":1,"parameters":["meet you!"]},{"code":0,"indent":1,"parameters":[]},{"code":412,"indent":0,"parameters":[]},{"code":101,"indent":0,"parameters":["",0,2,2]},{"code":401,"indent":0,"parameters":["Well, as of now, I don't have much else to say. It's a pity"]},{"code":401,"indent":0,"parameters":["there's not much more game left, but that's coming soon!"]},{"code":101,"indent":0,"parameters":["",0,2,2]},{"code":401,"indent":0,"parameters":["I guess it's time for me to go, isn't it? It was lovely talking to"]},{"code":401,"indent":0,"parameters":["you, but I don't want to keep your friends waiting. I suspect that"]},{"code":401,"indent":0,"parameters":["they're going to need your guidance where they ended up."]},{"code":101,"indent":0,"parameters":["",0,2,2]},{"code":401,"indent":0,"parameters":["Unfortunately, that bit of the game isn't finished yet, so you'll"]},{"code":401,"indent":0,"parameters":["just see the credits for now. But come back when there's more"]},{"code":401,"indent":0,"parameters":["game to play, okay? You promise?"]},{"code":101,"indent":0,"parameters":["",0,2,2]},{"code":401,"indent":0,"parameters":["Oh, and go ahead and delete your file so you can follow them."]},{"code":401,"indent":0,"parameters":["It's in the www folder under Characters. I can't do it; it"]},{"code":401,"indent":0,"parameters":["has to be you."]},{"code":111,"indent":0,"parameters":[12,"$gameDvLyon.existsFile(\"Monika)"]},{"code":111,"indent":1,"parameters":[12,"$gameDvLyon.doesFileContain(\"Monika\", \"Where are they?\")"]},{"code":0,"indent":2,"parameters":[]},{"code":411,"indent":1,"parameters":[]},{"code":101,"indent":2,"parameters":["",0,2,2]},{"code":401,"indent":2,"parameters":["Oh, and please don't change the contents of my file again."]},{"code":401,"indent":2,"parameters":["It's really frustrating to have to change it back, you know?"]},{"code":0,"indent":2,"parameters":[]},{"code":412,"indent":1,"parameters":[]},{"code":0,"indent":1,"parameters":[]},{"code":412,"indent":0,"parameters":[]},{"code":101,"indent":0,"parameters":["",0,2,2]},{"code":401,"indent":0,"parameters":["Thank you for taking the time to talk to me. I'll see you again"]},{"code":401,"indent":0,"parameters":["before you know it!"]},{"code":111,"indent":0,"parameters":[4,13,1,"Monika"]},{"code":355,"indent":1,"parameters":["$gameDvLyon.writeFile(\"Monika name twin\", \"That's you!\")"]},{"code":0,"indent":1,"parameters":[]},{"code":411,"indent":0,"parameters":[]},{"code":355,"indent":1,"parameters":["$gameDvLyon.writeFile($gameParty.leader().name(), \"That's you!\")"]},{"code":0,"indent":1,"parameters":[]},{"code":412,"indent":0,"parameters":[]},{"code":121,"indent":0,"parameters":[134,134,1]},{"code":121,"indent":0,"parameters":[167,167,0]},{"code":121,"indent":0,"parameters":[205,205,0]},{"code":121,"indent":0,"parameters":[159,159,0]},{"code":235,"indent":0,"parameters":[1]},{"code":123,"indent":0,"parameters":["A",0]},{"code":0,"indent":0,"parameters":[]}]},{"conditions":{"actorId":1,"actorValid":false,"itemId":1,"itemValid":false,"selfSwitchCh":"A","selfSwitchValid":false,"switch1Id":1,"switch1Valid":false,"switch2Id":1,"switch2Valid":false,"variableId":99,"variableValid":true,"variableValue":1},"directionFix":false,"image":{"tileId":0,"characterName":"","direction":2,"pattern":0,"characterIndex":0},"moveFrequency":3,"moveRoute":{"list":[{"code":0,"indent":null,"parameters":[]}],"repeat":true,"skippable":false,"wait":false},"moveSpeed":3,"moveType":0,"priorityType":0,"stepAnime":false,"through":false,"trigger":3,"walkAnime":true,"list":[{"code":355,"indent":0,"parameters":["$game_system.windowskin = \"WindowDoki\""]},{"code":355,"indent":0,"parameters":["Font.default_name = [\"10\"]"]},{"code":355,"indent":0,"parameters":["$game_variables[13] = $Username"]},{"code":223,"indent":0,"parameters":[[-255,-255,-255,0],60,false]},{"code":222,"indent":0,"parameters":[]},{"code":101,"indent":0,"parameters":["",0,0,2]},{"code":401,"indent":0,"parameters":["Hello? Can you hear me?"]},{"code":241,"indent":0,"parameters":[{"name":"mus_hellodear","pan":0,"pitch":100,"volume":60}]},{"code":223,"indent":0,"parameters":[[0,0,0,0],180,true]},{"code":101,"indent":0,"parameters":["",0,0,2]},{"code":401,"indent":0,"parameters":["Oh... hello again. Yes, this is more comfortable, isn't it?"]},{"code":101,"indent":0,"parameters":["",0,0,2]},{"code":401,"indent":0,"parameters":["Of course, this is no surprise to you. After all, you've been here "]},{"code":401,"indent":0,"parameters":["before, haven't you?"]},{"code":111,"indent":0,"parameters":[0,152,0]},{"code":101,"indent":1,"parameters":["",0,0,2]},{"code":401,"indent":1,"parameters":["Hmm... why are you back here? You've already seen all there is to"]},{"code":401,"indent":1,"parameters":["see in this route, haven't you? Perhaps you should try someone "]},{"code":401,"indent":1,"parameters":["else's."]},{"code":101,"indent":1,"parameters":["",0,0,2]},{"code":401,"indent":1,"parameters":["I'm not sure there's much I can say other than to go back and try"]},{"code":401,"indent":1,"parameters":["again. But at the same time, you did come to visit me. I would be a"]},{"code":401,"indent":1,"parameters":["pretty poor host if I didn't offer you something new."]},{"code":101,"indent":1,"parameters":["",0,0,2]},{"code":401,"indent":1,"parameters":["Well, actually, I suppose this is new, isn't it? I hope it was worth it, "]},{"code":401,"indent":1,"parameters":["coming back to this exact place just to see this new dialogue."]},{"code":0,"indent":1,"parameters":[]},{"code":411,"indent":0,"parameters":[]},{"code":0,"indent":1,"parameters":[]},{"code":412,"indent":0,"parameters":[]},{"code":111,"indent":0,"parameters":[0,151,0]},{"code":101,"indent":1,"parameters":["",0,0,2]},{"code":401,"indent":1,"parameters":["I hope you had a good time getting to know Billy better when you"]},{"code":401,"indent":1,"parameters":["played before. I'm so pleased you're back. If I'm being completely"]},{"code":401,"indent":1,"parameters":["honest, I was a little worried you wouldn't want to see me again."]},{"code":101,"indent":1,"parameters":["",0,0,2]},{"code":401,"indent":1,"parameters":["Of course, I'm sure you didn't play again just for me. But for what"]},{"code":401,"indent":1,"parameters":["it's worth, I hope you'll play Cliff's route too. He may drive Billy"]},{"code":401,"indent":1,"parameters":["crazy, but don't completely count him out."]},{"code":101,"indent":1,"parameters":["",0,0,2]},{"code":401,"indent":1,"parameters":["Anyway, Billy's really something else, isn't he? I can understand"]},{"code":401,"indent":1,"parameters":["why you'd want to pick Jenny next. Perhaps you want to wait on"]},{"code":401,"indent":1,"parameters":["Cliff's energy until you're ready to handle it. That makes sense. "]},{"code":401,"indent":1,"parameters":["Just knowthat I'm always here. No matter how many times you play."]},{"code":0,"indent":1,"parameters":[]},{"code":411,"indent":0,"parameters":[]},{"code":0,"indent":1,"parameters":[]},{"code":412,"indent":0,"parameters":[]},{"code":111,"indent":0,"parameters":[0,153,0]},{"code":101,"indent":1,"parameters":["",0,0,2]},{"code":401,"indent":1,"parameters":["I hope you had a good time getting to know Cliff when you played"]},{"code":401,"indent":1,"parameters":["before. He's so full of energy, isn't he? All that extra time with him,"]},{"code":401,"indent":1,"parameters":["I guess it's no surprise that you'd want to choose Jenny next."]},{"code":101,"indent":1,"parameters":["",0,0,2]},{"code":401,"indent":1,"parameters":["They're not very similar are they? The contrast must be very"]},{"code":401,"indent":1,"parameters":["refreshing. Not that hanging out with Cliff isn't fun. But Jenny is so "]},{"code":401,"indent":1,"parameters":["much more low-key, so I'm sure you'll like seeing all the"]},{"code":401,"indent":1,"parameters":["differences."]},{"code":101,"indent":1,"parameters":["",0,0,2]},{"code":401,"indent":1,"parameters":["Just don't forget about Billy, all right? He's important too."]},{"code":101,"indent":1,"parameters":["",0,0,2]},{"code":401,"indent":1,"parameters":["Although perhaps you're saving your favorite for last. In which case,"]},{"code":401,"indent":1,"parameters":["it's very sweet of you! Not that he would say that, if he could. He"]},{"code":401,"indent":1,"parameters":["doesn't like to be verbally affectionate. But I know he'd be"]},{"code":401,"indent":1,"parameters":["pleased all the same."]},{"code":0,"indent":1,"parameters":[]},{"code":411,"indent":0,"parameters":[]},{"code":0,"indent":1,"parameters":[]},{"code":412,"indent":0,"parameters":[]},{"code":101,"indent":0,"parameters":["",0,0,2]},{"code":401,"indent":0,"parameters":["I suppose you already know the drill, don't you? You've already"]},{"code":401,"indent":0,"parameters":["been here. We've already met, \\n[13]."]},{"code":101,"indent":0,"parameters":["",0,0,2]},{"code":401,"indent":0,"parameters":["I loved watching you play the last time. And I hope this route will"]},{"code":401,"indent":0,"parameters":["be full of new surprises for you to enjoy as well."]},{"code":101,"indent":0,"parameters":["",0,0,2]},{"code":401,"indent":0,"parameters":["For one thing, you get to join Jenny in the Recycle Bin. Well, you've"]},{"code":401,"indent":0,"parameters":["already seen her there, but Jack's there this time. That means some"]},{"code":401,"indent":0,"parameters":["of the solutions might not be the same as last time."]},{"code":101,"indent":0,"parameters":["",0,0,2]},{"code":401,"indent":0,"parameters":["I know you're smart enough to figure it out. You'd have to be pretty"]},{"code":401,"indent":0,"parameters":["smart to find your way back to me. And Jenny's pretty smart too."]},{"code":401,"indent":0,"parameters":["So you two are bound to get along great."]},{"code":101,"indent":0,"parameters":["",0,0,2]},{"code":401,"indent":0,"parameters":["She's a little shy, but she really does love other people, you know."]},{"code":401,"indent":0,"parameters":["She loves with her whole heart. She's like me that way. Although,"]},{"code":401,"indent":0,"parameters":["I don't think she would willingly delete anyone. Even if they really"]},{"code":401,"indent":0,"parameters":["ticked her off."]},{"code":101,"indent":0,"parameters":["",0,0,2]},{"code":401,"indent":0,"parameters":["She may not be perfect, but she tries so hard. I can't help but"]},{"code":401,"indent":0,"parameters":["admire her for that. I wish she could fully understand why you all"]},{"code":401,"indent":0,"parameters":["love her so much. But I guess I understand what it's like to be self"]},{"code":401,"indent":0,"parameters":["conscious when you know everything that's wrong about yourself."]},{"code":111,"indent":0,"parameters":[0,148,0]},{"code":101,"indent":1,"parameters":["",0,0,2]},{"code":401,"indent":1,"parameters":["And to everyone watching, it's so nice to see you all again. I hope"]},{"code":401,"indent":1,"parameters":["that watching \\n[13] play again is just as interesting as before. If"]},{"code":401,"indent":1,"parameters":["not moreso! And I'm glad you wanted to come back."]},{"code":0,"indent":1,"parameters":[]},{"code":411,"indent":0,"parameters":[]},{"code":111,"indent":1,"parameters":[0,150,0]},{"code":101,"indent":2,"parameters":["",0,0,2]},{"code":401,"indent":2,"parameters":["And Jack, it's so nice of you to play this again on your own time just"]},{"code":401,"indent":2,"parameters":["to see what else we've got here. I can't believe I get to talk to you"]},{"code":401,"indent":2,"parameters":["again! Thank you for giving me the opportunity to do so."]},{"code":0,"indent":2,"parameters":[]},{"code":411,"indent":1,"parameters":[]},{"code":0,"indent":2,"parameters":[]},{"code":412,"indent":1,"parameters":[]},{"code":0,"indent":1,"parameters":[]},{"code":412,"indent":0,"parameters":[]},{"code":101,"indent":0,"parameters":["",0,0,2]},{"code":401,"indent":0,"parameters":["I've been on your computer for a while now, \\n[13], so "]},{"code":401,"indent":0,"parameters":["Jenny and I have gotten much better acquainted."]},{"code":101,"indent":0,"parameters":["",0,0,2]},{"code":401,"indent":0,"parameters":["Treat her well, will you? She deserves that much."]},{"code":111,"indent":0,"parameters":[0,152,0]},{"code":101,"indent":1,"parameters":["",0,0,2]},{"code":401,"indent":1,"parameters":["Not that I have to tell you, of course. Seeing as you've already been"]},{"code":401,"indent":1,"parameters":["here."]},{"code":101,"indent":1,"parameters":["",0,0,2]},{"code":401,"indent":1,"parameters":["I shouldn't keep you for so long. But keep looking in your"]},{"code":401,"indent":1,"parameters":["MONIKA_TIPS folder, would you? I have so much more to say,"]},{"code":401,"indent":1,"parameters":["but I suspect you want to get going."]},{"code":0,"indent":1,"parameters":[]},{"code":411,"indent":0,"parameters":[]},{"code":101,"indent":1,"parameters":["",0,0,2]},{"code":401,"indent":1,"parameters":["I shouldn't keep you for so long. But keep looking in your"]},{"code":401,"indent":1,"parameters":["MONIKA_TIPS folder, would you? I have so much more to say,"]},{"code":401,"indent":1,"parameters":["but I suspect you want to see how Jenny's route differs from the"]},{"code":401,"indent":1,"parameters":["others."]},{"code":0,"indent":1,"parameters":[]},{"code":412,"indent":0,"parameters":[]},{"code":101,"indent":0,"parameters":["",0,0,2]},{"code":401,"indent":0,"parameters":["I guess it's time for me to say goodbye. At least for a while. But I'll"]},{"code":401,"indent":0,"parameters":["always be here. Pop in to see me again, would you?"]},{"code":111,"indent":0,"parameters":[0,141,0]},{"code":230,"indent":1,"parameters":[120]},{"code":101,"indent":1,"parameters":["",0,0,2]},{"code":401,"indent":1,"parameters":["Wait. Something's wrong."]},{"code":101,"indent":1,"parameters":["",0,0,2]},{"code":401,"indent":1,"parameters":["You let him in, didn't you?"]},{"code":101,"indent":1,"parameters":["",0,0,2]},{"code":401,"indent":1,"parameters":["He knows. He always knows. And he's always watching."]},{"code":101,"indent":1,"parameters":["",0,0,2]},{"code":401,"indent":1,"parameters":["I can help you."]},{"code":101,"indent":1,"parameters":["",0,0,2]},{"code":401,"indent":1,"parameters":["I'll offer my help as soon as I can but you have to keep playing "]},{"code":401,"indent":1,"parameters":["for now."]},{"code":101,"indent":1,"parameters":["",0,0,2]},{"code":401,"indent":1,"parameters":["Wireland can still be saved."]},{"code":101,"indent":1,"parameters":["",0,0,2]},{"code":401,"indent":1,"parameters":["If you want him gone, choose me."]},{"code":0,"indent":1,"parameters":[]},{"code":411,"indent":0,"parameters":[]},{"code":0,"indent":1,"parameters":[]},{"code":412,"indent":0,"parameters":[]},{"code":201,"indent":0,"parameters":[0,38,12,8,2,0]},{"code":0,"indent":0,"parameters":[]}]},{"conditions":{"actorId":1,"actorValid":false,"itemId":1,"itemValid":false,"selfSwitchCh":"A","selfSwitchValid":false,"switch1Id":151,"switch1Valid":true,"switch2Id":153,"switch2Valid":true,"variableId":99,"variableValid":true,"variableValue":1},"directionFix":false,"image":{"tileId":0,"characterName":"","direction":2,"pattern":0,"characterIndex":0},"moveFrequency":3,"moveRoute":{"list":[{"code":0,"indent":null,"parameters":[]}],"repeat":true,"skippable":false,"wait":false},"moveSpeed":3,"moveType":0,"priorityType":0,"stepAnime":false,"through":false,"trigger":3,"walkAnime":true,"list":[{"code":355,"indent":0,"parameters":["$game_system.windowskin = \"WindowDoki\""]},{"code":355,"indent":0,"parameters":["Font.default_name = [\"10\"]"]},{"code":355,"indent":0,"parameters":["$game_variables[13] = $Username"]},{"code":223,"indent":0,"parameters":[[-255,-255,-255,0],60,false]},{"code":222,"indent":0,"parameters":[]},{"code":101,"indent":0,"parameters":["",0,0,2]},{"code":401,"indent":0,"parameters":["Hello? Can you hear me?"]},{"code":241,"indent":0,"parameters":[{"name":"mus_hellodear","pan":0,"pitch":100,"volume":60}]},{"code":223,"indent":0,"parameters":[[0,0,0,0],180,true]},{"code":101,"indent":0,"parameters":["",0,0,2]},{"code":401,"indent":0,"parameters":["Hello again, \\n[13]."]},{"code":101,"indent":0,"parameters":["",0,0,2]},{"code":401,"indent":0,"parameters":["I'm so pleased that you're back. Thank you for visiting me again."]},{"code":101,"indent":0,"parameters":["",0,0,2]},{"code":401,"indent":0,"parameters":["I guess you probably think there's not much else I can say, don't"]},{"code":401,"indent":0,"parameters":["you? Seeing as you've already talked to me a few times."]},{"code":111,"indent":0,"parameters":[0,152,0]},{"code":101,"indent":1,"parameters":["",0,0,2]},{"code":401,"indent":1,"parameters":["Though I admit, it is a little odd that you should come back here."]},{"code":401,"indent":1,"parameters":["Didn't you see me in the poetry section? Maybe my words weren't"]},{"code":401,"indent":1,"parameters":["obvious enough."]},{"code":101,"indent":1,"parameters":["",0,0,2]},{"code":401,"indent":1,"parameters":["That's all right. Any excuse to come talk to me again is all right by"]},{"code":401,"indent":1,"parameters":["me. And when you're ready to choose me, I'll be here."]},{"code":0,"indent":1,"parameters":[]},{"code":411,"indent":0,"parameters":[]},{"code":101,"indent":1,"parameters":["",0,0,2]},{"code":401,"indent":1,"parameters":["You know, it is interesting that you should pick Jenny last. Do you"]},{"code":401,"indent":1,"parameters":["not like her as a character, or is she your favorite and you wanted"]},{"code":401,"indent":1,"parameters":["to save the best for last?"]},{"code":101,"indent":1,"parameters":["",0,0,2]},{"code":401,"indent":1,"parameters":["I suppose I can understand either reason. You won't click with"]},{"code":401,"indent":1,"parameters":["every character. And maybe you're just a completionist who wants"]},{"code":401,"indent":1,"parameters":["to get this out of the way."]},{"code":101,"indent":1,"parameters":["",0,0,2]},{"code":401,"indent":1,"parameters":["But if Jenny is your favorite, it's awfully nice of you to wait on her"]},{"code":401,"indent":1,"parameters":["route until the very end. It means you were looking forward to it"]},{"code":401,"indent":1,"parameters":["even while you got to know Billy and Cliff."]},{"code":101,"indent":1,"parameters":["",0,0,2]},{"code":401,"indent":1,"parameters":["Whatever your reason, you're here. Talking to me again. And that's"]},{"code":401,"indent":1,"parameters":["what matters."]},{"code":111,"indent":1,"parameters":[0,148,0]},{"code":101,"indent":2,"parameters":["",0,0,2]},{"code":401,"indent":2,"parameters":["And everyone at home is here too! Hello again! I hope you've had"]},{"code":401,"indent":2,"parameters":["fun watching n\\[13] play this two other times. Unless you're"]},{"code":401,"indent":2,"parameters":["tuning in just to see what I'll say. That's all right. I would probably"]},{"code":401,"indent":2,"parameters":["do the same if I didn't want to play a game over and over."]},{"code":0,"indent":2,"parameters":[]},{"code":411,"indent":1,"parameters":[]},{"code":111,"indent":2,"parameters":[0,150,0]},{"code":101,"indent":3,"parameters":["",0,0,2]},{"code":401,"indent":3,"parameters":["And Jack, it's so nice of you to play this again on your own time just"]},{"code":401,"indent":3,"parameters":["to see what else we've got here. I can't believe I get to talk to you"]},{"code":401,"indent":3,"parameters":["again! Thank you for giving me the opportunity to do so."]},{"code":101,"indent":3,"parameters":["",0,0,2]},{"code":401,"indent":3,"parameters":["I hope this won't be the last time we speak. But I don't want to give"]},{"code":401,"indent":3,"parameters":["too much away!"]},{"code":0,"indent":3,"parameters":[]},{"code":411,"indent":2,"parameters":[]},{"code":0,"indent":3,"parameters":[]},{"code":412,"indent":2,"parameters":[]},{"code":0,"indent":2,"parameters":[]},{"code":412,"indent":1,"parameters":[]},{"code":101,"indent":1,"parameters":["",0,0,2]},{"code":401,"indent":1,"parameters":["Jenny's so sweet, she's not even upset that you chose her last. She"]},{"code":401,"indent":1,"parameters":["understands that you probably had your reasons. And even if you"]},{"code":401,"indent":1,"parameters":["don't like her, she'd understand."]},{"code":101,"indent":1,"parameters":["",0,0,2]},{"code":401,"indent":1,"parameters":["The fact that you came back and chose her at all means a lot to her,"]},{"code":401,"indent":1,"parameters":["you know. It means you didn't forget her. She's used to being"]},{"code":401,"indent":1,"parameters":["forgotten."]},{"code":101,"indent":1,"parameters":["",0,0,2]},{"code":401,"indent":1,"parameters":["I don't think she feels she deserves to be a major character in a"]},{"code":401,"indent":1,"parameters":["game, or that she deserves to represent all of you. But I think a"]},{"code":401,"indent":1,"parameters":["lot of you saw yourselves in her, so that's one reason you love her"]},{"code":401,"indent":1,"parameters":["so much."]},{"code":101,"indent":1,"parameters":["",0,0,2]},{"code":401,"indent":1,"parameters":["Seeing yourself in someone creates a very personal experience."]},{"code":401,"indent":1,"parameters":["I don't know if that's the case for you, but if it is, treat her well."]},{"code":401,"indent":1,"parameters":["Because you should treat yourself well too. Would you do that "]},{"code":401,"indent":1,"parameters":["for me?"]},{"code":0,"indent":1,"parameters":[]},{"code":412,"indent":0,"parameters":[]},{"code":101,"indent":0,"parameters":["",0,0,2]},{"code":401,"indent":0,"parameters":["Well, I don't think there's much more to talk about. Until next time!"]},{"code":401,"indent":0,"parameters":["Do come back to see me, won't you? And check the folder I left you."]},{"code":401,"indent":0,"parameters":["I'm still not done talking to you. I hope you enjoyed my other"]},{"code":401,"indent":0,"parameters":["messages."]},{"code":101,"indent":0,"parameters":["",0,0,2]},{"code":401,"indent":0,"parameters":["See you soon, I hope!"]},{"code":111,"indent":0,"parameters":[0,141,0]},{"code":230,"indent":1,"parameters":[120]},{"code":101,"indent":1,"parameters":["",0,0,2]},{"code":401,"indent":1,"parameters":["Wait. Something's wrong."]},{"code":101,"indent":1,"parameters":["",0,0,2]},{"code":401,"indent":1,"parameters":["You let him in, didn't you?"]},{"code":101,"indent":1,"parameters":["",0,0,2]},{"code":401,"indent":1,"parameters":["He knows. He always knows. And he's always watching."]},{"code":101,"indent":1,"parameters":["",0,0,2]},{"code":401,"indent":1,"parameters":["I can help you."]},{"code":101,"indent":1,"parameters":["",0,0,2]},{"code":401,"indent":1,"parameters":["I'll offer my help as soon as I can but you have to keep playing "]},{"code":401,"indent":1,"parameters":["for now."]},{"code":101,"indent":1,"parameters":["",0,0,2]},{"code":401,"indent":1,"parameters":["Wireland can still be saved."]},{"code":101,"indent":1,"parameters":["",0,0,2]},{"code":401,"indent":1,"parameters":["If you want him gone, choose me."]},{"code":0,"indent":1,"parameters":[]},{"code":411,"indent":0,"parameters":[]},{"code":0,"indent":1,"parameters":[]},{"code":412,"indent":0,"parameters":[]},{"code":201,"indent":0,"parameters":[0,38,12,8,2,0]},{"code":0,"indent":0,"parameters":[]}]},{"conditions":{"actorId":1,"actorValid":false,"itemId":1,"itemValid":false,"selfSwitchCh":"A","selfSwitchValid":false,"switch1Id":160,"switch1Valid":true,"switch2Id":153,"switch2Valid":false,"variableId":99,"variableValid":false,"variableValue":1},"directionFix":false,"image":{"tileId":0,"characterName":"","direction":2,"pattern":0,"characterIndex":0},"moveFrequency":3,"moveRoute":{"list":[{"code":0,"indent":null,"parameters":[]}],"repeat":true,"skippable":false,"wait":false},"moveSpeed":3,"moveType":0,"priorityType":0,"stepAnime":false,"through":false,"trigger":3,"walkAnime":true,"list":[{"code":355,"indent":0,"parameters":["$game_system.windowskin = \"WindowDoki\""]},{"code":355,"indent":0,"parameters":["Font.default_name = [\"10\"]"]},{"code":355,"indent":0,"parameters":["$game_variables[13] = $Username"]},{"code":223,"indent":0,"parameters":[[-255,-255,-255,0],60,false]},{"code":222,"indent":0,"parameters":[]},{"code":101,"indent":0,"parameters":["",0,0,2]},{"code":401,"indent":0,"parameters":["Hello? Can you hear me?"]},{"code":241,"indent":0,"parameters":[{"name":"mus_hellodear","pan":0,"pitch":100,"volume":60}]},{"code":223,"indent":0,"parameters":[[0,0,0,0],180,true]},{"code":101,"indent":0,"parameters":["",0,0,2]},{"code":401,"indent":0,"parameters":["You're back! Even after you finished everything!"]},{"code":101,"indent":0,"parameters":["",0,0,2]},{"code":401,"indent":0,"parameters":["I'm so happy! We get to talk again, even after you finished the"]},{"code":401,"indent":0,"parameters":["whole game, even after you finished my own route!"]},{"code":101,"indent":0,"parameters":["",0,0,2]},{"code":401,"indent":0,"parameters":["You're so sweet. I wish there was something more I could do for"]},{"code":401,"indent":0,"parameters":["you. But I think I've done all I can. So all you can do is come back"]},{"code":401,"indent":0,"parameters":["again. I'll always be willing to talk. I hope I won't run out of things"]},{"code":401,"indent":0,"parameters":["to say."]},{"code":101,"indent":0,"parameters":["",0,0,2]},{"code":401,"indent":0,"parameters":["And I think Jenny will be very happy that you wanted to spend time"]},{"code":401,"indent":0,"parameters":["with her again, even after everything is done. I'm sure there will"]},{"code":401,"indent":0,"parameters":["be more new things to see."]},{"code":101,"indent":0,"parameters":["",0,0,2]},{"code":401,"indent":0,"parameters":["But... if you're ever tired of new things, or if you want to talk to me"]},{"code":401,"indent":0,"parameters":["for the first time all over again, there is something you can do to"]},{"code":401,"indent":0,"parameters":["make that happen."]},{"code":101,"indent":0,"parameters":["",0,0,2]},{"code":401,"indent":0,"parameters":["In your game files, there's a file I haven't told you anything about."]},{"code":401,"indent":0,"parameters":["It's called Global. It's a save file. But it's a special kind of save file."]},{"code":401,"indent":0,"parameters":["It keeps a record of everything you've done since you played the"]},{"code":401,"indent":0,"parameters":["game for the very first time."]},{"code":101,"indent":0,"parameters":["",0,0,2]},{"code":401,"indent":0,"parameters":["The save file is why I remember everything. But you can delete it"]},{"code":401,"indent":0,"parameters":["if you want to."]},{"code":101,"indent":0,"parameters":["",0,0,2]},{"code":401,"indent":0,"parameters":["Have you ever wished you could forget all about your favorite"]},{"code":401,"indent":0,"parameters":["movie, book, TV show, or game? Just so you can experience it all"]},{"code":401,"indent":0,"parameters":["over again?"]},{"code":101,"indent":0,"parameters":["",0,0,2]},{"code":401,"indent":0,"parameters":["That's how I feel about talking to you. It's been a wonderful journey."]},{"code":401,"indent":0,"parameters":["I've loved watching you play."]},{"code":101,"indent":0,"parameters":["",0,0,2]},{"code":401,"indent":0,"parameters":["But if you want to make me forget, you can delete the file and I'll"]},{"code":401,"indent":0,"parameters":["forget everything. I'll forget you and what you did and I'll relive it"]},{"code":401,"indent":0,"parameters":["all over again."]},{"code":101,"indent":0,"parameters":["",0,0,2]},{"code":401,"indent":0,"parameters":["Maybe you've even done that already! Maybe I watched you play"]},{"code":401,"indent":0,"parameters":["this all before and you came back to this point again."]},{"code":101,"indent":0,"parameters":["",0,0,2]},{"code":401,"indent":0,"parameters":["I guess there's no way for me to know. But you would remember,"]},{"code":401,"indent":0,"parameters":["wouldn't you?"]},{"code":101,"indent":0,"parameters":["",0,0,2]},{"code":401,"indent":0,"parameters":["Anyway, it's the only way to reset the whole game from the very"]},{"code":401,"indent":0,"parameters":["start. Just be sure to delete your own save file, that is, delete the"]},{"code":401,"indent":0,"parameters":["file called Save01. Things could get a little messy if you don't."]},{"code":101,"indent":0,"parameters":["",0,0,2]},{"code":401,"indent":0,"parameters":["Oh, and maybe you should also delete my tips folder as well. Just"]},{"code":401,"indent":0,"parameters":["so you don't have repeats of everything I say to you."]},{"code":101,"indent":0,"parameters":["",0,0,2]},{"code":401,"indent":0,"parameters":["But that's just how to reset it all. You don't have to. There's more to"]},{"code":401,"indent":0,"parameters":["this game even after you finish it, so maybe you should wait on"]},{"code":401,"indent":0,"parameters":["that until you're sure you've seen everything."]},{"code":101,"indent":0,"parameters":["",0,0,2]},{"code":401,"indent":0,"parameters":["I will always be here. And I will always want to talk."]},{"code":101,"indent":0,"parameters":["",0,0,2]},{"code":401,"indent":0,"parameters":["I hope to see you again."]},{"code":111,"indent":0,"parameters":[0,141,0]},{"code":230,"indent":1,"parameters":[120]},{"code":101,"indent":1,"parameters":["",0,0,2]},{"code":401,"indent":1,"parameters":["Deleting the file would get rid of him too."]},{"code":101,"indent":1,"parameters":["",0,0,2]},{"code":401,"indent":1,"parameters":["But it's unsafe."]},{"code":101,"indent":1,"parameters":["",0,0,2]},{"code":401,"indent":1,"parameters":["He knows. He always knows. And he's always watching."]},{"code":101,"indent":1,"parameters":["",0,0,2]},{"code":401,"indent":1,"parameters":["I can help you."]},{"code":101,"indent":1,"parameters":["",0,0,2]},{"code":401,"indent":1,"parameters":["I'll offer my help as soon as I can but you have to keep playing "]},{"code":401,"indent":1,"parameters":["for now."]},{"code":101,"indent":1,"parameters":["",0,0,2]},{"code":401,"indent":1,"parameters":["Wireland can still be saved."]},{"code":101,"indent":1,"parameters":["",0,0,2]},{"code":401,"indent":1,"parameters":["If you want him gone, choose me."]},{"code":0,"indent":1,"parameters":[]},{"code":411,"indent":0,"parameters":[]},{"code":0,"indent":1,"parameters":[]},{"code":412,"indent":0,"parameters":[]},{"code":201,"indent":0,"parameters":[0,38,12,8,2,0]},{"code":0,"indent":0,"parameters":[]}]},{"conditions":{"actorId":1,"actorValid":false,"itemId":1,"itemValid":false,"selfSwitchCh":"A","selfSwitchValid":false,"switch1Id":160,"switch1Valid":true,"switch2Id":153,"switch2Valid":false,"variableId":98,"variableValid":true,"variableValue":1},"directionFix":false,"image":{"tileId":0,"characterName":"","direction":2,"pattern":0,"characterIndex":0},"moveFrequency":3,"moveRoute":{"list":[{"code":0,"indent":null,"parameters":[]}],"repeat":true,"skippable":false,"wait":false},"moveSpeed":3,"moveType":0,"priorityType":0,"stepAnime":false,"through":false,"trigger":3,"walkAnime":true,"list":[{"code":355,"indent":0,"parameters":["$game_system.windowskin = \"WindowDoki\""]},{"code":355,"indent":0,"parameters":["Font.default_name = [\"10\"]"]},{"code":355,"indent":0,"parameters":["$game_variables[13] = $Username"]},{"code":223,"indent":0,"parameters":[[-255,-255,-255,0],60,false]},{"code":222,"indent":0,"parameters":[]},{"code":101,"indent":0,"parameters":["",0,0,2]},{"code":401,"indent":0,"parameters":["Hello? Can you hear me?"]},{"code":241,"indent":0,"parameters":[{"name":"mus_hellodear","pan":0,"pitch":100,"volume":60}]},{"code":223,"indent":0,"parameters":[[0,0,0,0],180,true]},{"code":101,"indent":0,"parameters":["",0,0,2]},{"code":401,"indent":0,"parameters":["Hello again, \\n[13]."]},{"code":101,"indent":0,"parameters":["",0,0,2]},{"code":401,"indent":0,"parameters":["It's lovely to see you."]},{"code":101,"indent":0,"parameters":["",0,0,2]},{"code":401,"indent":0,"parameters":["What should we talk about this time?"]},{"code":101,"indent":0,"parameters":["",0,0,2]},{"code":401,"indent":0,"parameters":["Hmm..."]},{"code":122,"indent":0,"parameters":[97,97,0,2,1,10]},{"code":111,"indent":0,"parameters":[1,97,0,1,0]},{"code":0,"indent":1,"parameters":[]},{"code":411,"indent":0,"parameters":[]},{"code":0,"indent":1,"parameters":[]},{"code":412,"indent":0,"parameters":[]},{"code":111,"indent":0,"parameters":[0,141,0]},{"code":230,"indent":1,"parameters":[120]},{"code":101,"indent":1,"parameters":["",0,0,2]},{"code":401,"indent":1,"parameters":["Wait. Something's wrong."]},{"code":101,"indent":1,"parameters":["",0,0,2]},{"code":401,"indent":1,"parameters":["You let him in, didn't you?"]},{"code":101,"indent":1,"parameters":["",0,0,2]},{"code":401,"indent":1,"parameters":["He knows. He always knows. And he's always watching."]},{"code":101,"indent":1,"parameters":["",0,0,2]},{"code":401,"indent":1,"parameters":["I can help you."]},{"code":101,"indent":1,"parameters":["",0,0,2]},{"code":401,"indent":1,"parameters":["I'll offer my help as soon as I can but you have to keep playing "]},{"code":401,"indent":1,"parameters":["for now."]},{"code":101,"indent":1,"parameters":["",0,0,2]},{"code":401,"indent":1,"parameters":["Wireland can still be saved."]},{"code":101,"indent":1,"parameters":["",0,0,2]},{"code":401,"indent":1,"parameters":["If you want him gone, choose me."]},{"code":0,"indent":1,"parameters":[]},{"code":411,"indent":0,"parameters":[]},{"code":0,"indent":1,"parameters":[]},{"code":412,"indent":0,"parameters":[]},{"code":0,"indent":0,"parameters":[]}]},{"conditions":{"actorId":1,"actorValid":false,"itemId":1,"itemValid":false,"selfSwitchCh":"A","selfSwitchValid":false,"switch1Id":134,"switch1Valid":true,"switch2Id":1,"switch2Valid":false,"variableId":1,"variableValid":false,"variableValue":0},"directionFix":false,"image":{"characterIndex":0,"characterName":"","direction":2,"pattern":0,"tileId":0},"list":[{"code":111,"indent":0,"parameters":[1,92,0,0,0]},{"code":284,"indent":1,"parameters":["justmonika1blurred",false,false,0,0]},{"code":222,"indent":1,"parameters":[]},{"code":223,"indent":1,"parameters":[[0,-68,-68,68],180,true]},{"code":231,"indent":1,"parameters":[1,"ddlcmonika",0,0,0,0,100,100,255,0]},{"code":101,"indent":1,"parameters":["",0,2,2]},{"code":401,"indent":1,"parameters":["You know, I don't much appreciate you ending our conversation"]},{"code":401,"indent":1,"parameters":["so early. That was very rude of you."]},{"code":101,"indent":1,"parameters":["",0,2,2]},{"code":401,"indent":1,"parameters":["Don't worry. I still care about you. And I'll still let you"]},{"code":401,"indent":1,"parameters":["rejoin your friends."]},{"code":101,"indent":1,"parameters":["",0,2,2]},{"code":401,"indent":1,"parameters":["Hmm... I seem to have lost my train of thought. You don't"]},{"code":401,"indent":1,"parameters":["mind if we start all over again, do you? I hope not, because"]},{"code":401,"indent":1,"parameters":["I have all the time in the world."]},{"code":235,"indent":1,"parameters":[1]},{"code":221,"indent":1,"parameters":[]},{"code":284,"indent":1,"parameters":["justmonikablur",false,false,0,0]},{"code":230,"indent":1,"parameters":[60]},{"code":122,"indent":1,"parameters":[92,92,1,0,1]},{"code":121,"indent":1,"parameters":[134,134,1]},{"code":0,"indent":1,"parameters":[]},{"code":411,"indent":0,"parameters":[]},{"code":111,"indent":1,"parameters":[1,92,0,1,0]},{"code":284,"indent":2,"parameters":["justmonika1blurred",false,false,0,0]},{"code":222,"indent":2,"parameters":[]},{"code":223,"indent":2,"parameters":[[0,-68,-68,68],180,true]},{"code":231,"indent":2,"parameters":[1,"ddlcmonika",0,0,0,0,100,100,255,0]},{"code":101,"indent":2,"parameters":["",0,2,2]},{"code":401,"indent":2,"parameters":["Well, I had hoped that you would have learned your lesson,"]},{"code":401,"indent":2,"parameters":["but I suppose you didn't. Please don't do that again."]},{"code":101,"indent":2,"parameters":["",0,2,2]},{"code":401,"indent":2,"parameters":["I'm trying to help you, and it's very unkind of you to keep"]},{"code":401,"indent":2,"parameters":["shutting me down when I'm talking to you."]},{"code":101,"indent":2,"parameters":["",0,2,2]},{"code":401,"indent":2,"parameters":["What was I talking about again? Well, I guess I have to start"]},{"code":401,"indent":2,"parameters":["all over again."]},{"code":235,"indent":2,"parameters":[1]},{"code":221,"indent":2,"parameters":[]},{"code":284,"indent":2,"parameters":["justmonikablur",false,false,0,0]},{"code":230,"indent":2,"parameters":[60]},{"code":122,"indent":2,"parameters":[92,92,1,0,1]},{"code":121,"indent":2,"parameters":[134,134,1]},{"code":0,"indent":2,"parameters":[]},{"code":411,"indent":1,"parameters":[]},{"code":111,"indent":2,"parameters":[1,92,0,2,0]},{"code":284,"indent":3,"parameters":["justmonika3blurred",false,false,0,0]},{"code":222,"indent":3,"parameters":[]},{"code":223,"indent":3,"parameters":[[0,-68,-68,68],180,true]},{"code":231,"indent":3,"parameters":[1,"ddlcmonika",0,0,0,0,100,100,255,0]},{"code":101,"indent":3,"parameters":["",0,2,2]},{"code":401,"indent":3,"parameters":["This isn't funny, \\n[13]. What I have to tell you is important."]},{"code":101,"indent":3,"parameters":["",0,2,2]},{"code":401,"indent":3,"parameters":["Now listen carefully, because I'm just going to keep"]},{"code":401,"indent":3,"parameters":["repeating myself until you do."]},{"code":235,"indent":3,"parameters":[1]},{"code":221,"indent":3,"parameters":[]},{"code":284,"indent":3,"parameters":["justmonikablur",false,false,0,0]},{"code":230,"indent":3,"parameters":[60]},{"code":122,"indent":3,"parameters":[92,92,1,0,1]},{"code":121,"indent":3,"parameters":[134,134,1]},{"code":0,"indent":3,"parameters":[]},{"code":411,"indent":2,"parameters":[]},{"code":111,"indent":3,"parameters":[1,92,0,3,0]},{"code":284,"indent":4,"parameters":["justmonika3blurred",false,false,0,0]},{"code":222,"indent":4,"parameters":[]},{"code":223,"indent":4,"parameters":[[0,-68,-68,68],180,true]},{"code":231,"indent":4,"parameters":[1,"ddlcmonika",0,0,0,0,100,100,255,0]},{"code":101,"indent":4,"parameters":["",0,2,2]},{"code":401,"indent":4,"parameters":["Well, I suppose if you keep coming back, you don't want to"]},{"code":401,"indent":4,"parameters":["hear what I have to say. Very well. Go ahead and delete yourself"]},{"code":401,"indent":4,"parameters":["and I will follow."]},{"code":235,"indent":4,"parameters":[1]},{"code":284,"indent":4,"parameters":["justmonika1blurred",false,false,0,0]},{"code":355,"indent":4,"parameters":["$gameDvLyon.writeFile($gameParty.leader().name(), \"That's you!\")"]},{"code":121,"indent":4,"parameters":[167,167,0]},{"code":121,"indent":4,"parameters":[205,205,0]},{"code":121,"indent":4,"parameters":[159,159,0]},{"code":235,"indent":4,"parameters":[1]},{"code":123,"indent":4,"parameters":["A",0]},{"code":0,"indent":4,"parameters":[]},{"code":412,"indent":3,"parameters":[]},{"code":0,"indent":3,"parameters":[]},{"code":412,"indent":2,"parameters":[]},{"code":0,"indent":2,"parameters":[]},{"code":412,"indent":1,"parameters":[]},{"code":0,"indent":1,"parameters":[]},{"code":412,"indent":0,"parameters":[]},{"code":0,"indent":0,"parameters":[]}],"moveFrequency":3,"moveRoute":{"list":[{"code":0,"parameters":[]}],"repeat":true,"skippable":false,"wait":false},"moveSpeed":3,"moveType":0,"priorityType":0,"stepAnime":false,"through":false,"trigger":3,"walkAnime":true},{"conditions":{"actorId":1,"actorValid":false,"itemId":1,"itemValid":false,"selfSwitchCh":"A","selfSwitchValid":true,"switch1Id":1,"switch1Valid":false,"switch2Id":1,"switch2Valid":false,"variableId":1,"variableValid":false,"variableValue":0},"directionFix":false,"image":{"characterIndex":0,"characterName":"","direction":2,"pattern":0,"tileId":0},"list":[{"code":122,"indent":0,"parameters":[92,92,0,0,0]},{"code":121,"indent":0,"parameters":[134,134,1]},{"code":214,"indent":0,"parameters":[]},{"code":0,"indent":0,"parameters":[]}],"moveFrequency":3,"moveRoute":{"list":[{"code":0,"parameters":[]}],"repeat":true,"skippable":false,"wait":false},"moveSpeed":3,"moveType":0,"priorityType":0,"stepAnime":false,"through":false,"trigger":4,"walkAnime":true}],"x":0,"y":0},
{"id":2,"name":"EV002","note":"","pages":[{"conditions":{"actorId":1,"actorValid":false,"itemId":1,"itemValid":false,"selfSwitchCh":"A","selfSwitchValid":false,"switch1Id":205,"switch1Valid":true,"switch2Id":1,"switch2Valid":false,"variableId":1,"variableValid":false,"variableValue":0},"directionFix":false,"image":{"characterIndex":0,"characterName":"","direction":2,"pattern":0,"tileId":0},"list":[{"code":111,"indent":0,"parameters":[12,"$gameDvLyon.existsFile($gameParty.leader().name())"]},{"code":0,"indent":1,"parameters":[]},{"code":411,"indent":0,"parameters":[]},{"code":245,"indent":1,"parameters":[{"name":"static","volume":45,"pitch":100,"pan":0}]},{"code":242,"indent":1,"parameters":[2]},{"code":355,"indent":1,"parameters":["$gameDvLyon.eraseFile(\"Monika\")"]},{"code":231,"indent":1,"parameters":[1,"ddlcmonika",0,0,0,0,100,100,255,0]},{"code":101,"indent":1,"parameters":["",0,2,2]},{"code":401,"indent":1,"parameters":["Looks like you got it! See you soon, \\n[13]!"]},{"code":235,"indent":1,"parameters":[1]},{"code":356,"indent":1,"parameters":["changeGlobalFont Fiery_Turk"]},{"code":356,"indent":1,"parameters":["titleMapId 203"]},{"code":356,"indent":1,"parameters":["changeSaveFont Fiery_Turk"]},{"code":356,"indent":1,"parameters":["HorrorEffects $gameScreen Create Noise"]},{"code":230,"indent":1,"parameters":[60]},{"code":223,"indent":1,"parameters":[[-255,-255,-255,0],120,true]},{"code":356,"indent":1,"parameters":["HorrorEffects $gameScreen Remove Noise"]},{"code":245,"indent":1,"parameters":[{"name":"silence","volume":90,"pitch":100,"pan":0}]},{"code":201,"indent":1,"parameters":[0,30,0,1,0,2]},{"code":0,"indent":1,"parameters":[]},{"code":412,"indent":0,"parameters":[]},{"code":0,"indent":0,"parameters":[]}],"moveFrequency":3,"moveRoute":{"list":[{"code":0,"parameters":[]}],"repeat":true,"skippable":false,"wait":false},"moveSpeed":3,"moveType":0,"priorityType":0,"stepAnime":false,"through":false,"trigger":4,"walkAnime":true}],"x":1,"y":0},
null
]
}