{
"autoplayBgm":false,"autoplayBgs":false,"battleback1Name":"","battleback2Name":"","bgm":{"name":"","pan":0,"pitch":100,"volume":100},"bgs":{"name":"","pan":0,"pitch":100,"volume":80},"disableDashing":false,"displayName":"","encounterList":[],"encounterStep":30,"height":15,"note":"<all restrict: 6>","parallaxLoopX":false,"parallaxLoopY":true,"parallaxName":"pl_003","parallaxShow":true,"parallaxSx":0,"parallaxSy":-3,"scrollType":0,"specifyBattleback":false,"tilesetId":2,"width":20,
"data":[0,0,0,0,0,0,0,0,0,0,0,0,0,0,0,0,0,0,0,0,0,0,0,0,0,0,0,0,0,0,0,0,0,0,6259,6257,6269,0,6267,6246,0,0,0,0,0,0,0,0,0,0,0,0,0,0,6256,7282,7286,0,7283,6240,0,6259,6257,6257,6257,6269,3242,6267,6257,6257,6257,6261,0,0,6256,7288,7292,0,7289,6240,0,6256,7282,7282,7282,7286,3232,7283,7282,7282,7282,6265,6257,6257,6255,6269,1553,1553,1553,6264,0,6256,7288,7288,7288,7292,3244,7289,7288,7288,7288,8147,8146,8146,8150,1552,6267,6257,6269,0,0,6268,1553,1552,1553,1553,1553,1553,1553,1553,0,8153,8152,1552,1552,1553,8159,0,0,0,0,8159,1553,1553,1552,1552,1553,6270,0,1553,1553,1553,1553,0,1553,1553,6270,0,0,0,0,0,8159,1553,1553,1553,1553,1553,1553,1553,1553,1553,1553,1553,1553,1553,1553,1553,0,0,0,0,6270,1552,1552,1553,1553,1553,1553,1553,1553,0,1553,1553,1552,1552,1553,8159,0,0,0,0,1553,1553,1553,1552,1552,1553,1553,1553,1553,1553,1553,1553,1553,1553,1553,6266,0,0,0,0,6266,1553,1553,1552,1552,1553,1553,1553,1553,6259,6269,1552,1552,0,1553,6256,0,0,0,0,6265,6257,6257,6261,1553,1553,6259,6257,6257,6263,0,6267,6257,6257,6257,6263,0,0,0,0,0,0,0,6265,6257,6257,6263,0,0,0,0,0,0,0,0,0,0,0,0,0,0,0,0,0,0,0,0,0,0,0,0,0,0,0,0,0,0,0,0,0,0,0,0,0,0,0,0,0,0,0,0,0,0,0,0,0,0,0,0,0,0,0,0,0,0,0,0,0,0,0,0,0,0,0,0,0,0,0,0,0,0,0,0,0,0,0,0,0,0,0,0,0,0,0,0,0,0,0,0,0,0,0,0,0,0,0,0,0,0,0,0,0,0,0,0,0,0,0,0,0,0,0,0,0,0,0,0,0,0,0,0,0,0,0,0,0,0,0,0,0,0,0,0,0,0,0,0,0,0,0,0,0,0,0,0,0,0,0,0,0,0,0,0,0,0,0,0,0,0,0,0,0,0,0,0,0,0,0,0,0,0,0,0,0,0,0,0,0,0,0,0,0,0,0,0,0,0,0,0,0,0,0,0,0,0,0,0,0,0,0,0,0,0,0,0,0,0,0,0,0,0,0,0,0,0,0,0,0,0,0,0,0,0,0,0,0,0,0,0,0,0,0,0,0,0,0,0,0,0,0,0,0,0,0,0,0,0,0,0,0,0,0,0,0,0,0,0,0,0,0,0,0,0,0,0,0,0,0,0,0,0,0,0,0,0,0,0,0,0,0,0,0,0,0,0,0,0,0,0,0,0,0,0,0,0,0,0,0,0,0,0,0,0,0,0,0,0,0,0,0,0,0,0,0,0,0,0,0,0,0,0,0,0,0,0,0,0,0,0,0,0,0,0,0,0,0,0,0,0,0,0,0,0,0,0,0,0,0,0,0,0,0,0,0,0,0,0,0,0,0,0,0,0,0,0,0,0,0,0,0,0,0,0,0,0,0,0,0,0,0,0,0,0,0,0,0,0,0,0,0,0,0,0,0,0,0,0,0,0,0,0,0,0,0,0,0,0,0,0,0,0,0,0,0,0,0,0,0,0,0,0,0,0,0,0,0,0,0,0,0,0,0,0,0,0,0,0,0,0,0,0,0,0,0,0,0,0,0,0,0,0,0,0,0,0,0,0,0,0,0,0,0,0,0,0,0,0,0,0,0,0,0,0,0,0,0,0,0,0,0,0,0,0,0,0,0,0,0,0,0,0,0,0,0,0,0,0,0,0,0,0,0,0,0,0,0,0,0,0,0,0,0,0,0,0,0,0,0,0,0,0,0,0,0,0,0,0,0,0,0,0,0,0,0,0,0,0,0,0,0,0,0,0,0,0,0,0,0,0,0,0,0,0,0,0,0,0,0,0,0,0,0,0,0,0,0,0,0,0,0,0,0,0,0,0,0,0,0,0,0,0,0,0,0,0,0,0,0,0,0,0,0,0,0,0,0,0,0,0,0,0,0,0,0,0,0,0,0,0,0,0,0,0,0,0,0,0,0,0,0,0,0,0,0,0,0,0,0,0,0,0,0,0,0,0,0,0,0,0,0,0,0,0,0,0,0,0,0,0,0,0,0,0,0,0,0,0,0,0,0,0,0,0,0,0,0,0,0,0,0,0,0,0,0,0,0,0,0,0,0,0,0,0,0,0,0,0,0,0,0,0,0,0,0,0,0,0,0,0,0,0,0,0,0,0,0,483,0,0,0,443,616,617,0,0,0,0,0,0,0,0,0,0,0,40,0,0,0,0,0,0,624,625,0,0,0,0,0,535,0,0,0,0,603,0,0,0,0,0,0,0,632,633,0,24,0,0,543,0,0,0,776,613,780,0,0,0,0,0,0,784,785,786,787,788,0,0,0,0,0,0,0,787,623,0,0,0,0,0,0,487,776,777,778,779,780,0,0,0,33,0,0,776,613,780,0,0,0,0,0,0,768,769,770,771,772,0,0,0,0,0,0,611,613,615,0,0,0,0,0,0,0,0,0,0,0,0,0,0,0,0,0,0,0,0,0,0,0,0,0,0,0,0,0,0,0,0,0,0,0,0,0,0,0,491,0,0,0,0,0,0,0,0,0,0,0,0,0,0,0,0,0,0,0,0,0,0,0,0,0,0,0,0,0,0,0,0,0,0,0,0,0,0,0,0,0,0,0,0,0,0,0,0,0,0,0,0,0,0,0,0,0,0,0,0,0,0,0,0,0,0,0,0,0,0,0,0,0,0,0,0,0,0,0,0,0,0,0,0,0,0,0,0,0,0,0,0,0,0,0,0,0,0,0,0,0,0,0,0,0,0,0,0,0,0,0,0,0,0,0,0,0,0,0,0,0,0,0,0,0,0,0,0,0,0,0,0,0,0,0,0,0,0,0,0,0,1536,1536,0,0,0,0,0,0,5,0,0,0,0,0,0,1536,1536,1536,5,0,0,1536,0,1536,1536,0,0,1536,5,1536,1536,1536,0,0,0,1536,1536,0,1536,1536,1536,0,0,1536,0,1536,1536,0,1536,0,0,1536,1536,1536,1536,1541,0,0,1536,1536,0,0,0,1536,0,0,0,0,0,1536,1536,0,0,0,0,1536,0,0,1536,1536,0,0,0,0,1536,0,0,0,0,0,0,0,0,0,0,0,0,0,0,0,0,0,0,0,1536,0,0,0,0,0,0,0,0,1536,0,0,0,0,0,1536,0,0,0,0,0,0,0,0,0,0,0,0,0,0,0,0,0,0,0,1536,0,0,0,0,1536,0,0,0,0,0,0,0,0,1536,1536,0,0,1536,1536,1536,0,0,0,0,1536,1536,1536,1536,0,0,1536,1536,1536,1536,0,1536,1536,1536,1536,1536,0,0,0,0,0,0,0,1536,1536,1536,1536,0,0,0,0,0,0,0,0,0,0,0,0,0,0,0,0,0,0,0,0,0,0,0,0,0,0,0,0,0,0,0,0,0,0,0,0,0,0,0,0,0,0,0,0,0,0,0,0,0,0,0,0,0,0,0,0,0,0,0,0,0,0,0,0,0,0,0,0,0,0,0,0,0,0,0,0,0,0,0,0,0,0,0,0,0,0,0,0,0,0,0,0,0,0,0,0,0,0,0,0,0,0,0,0,0,0,0,0,0,6,6,0,0,0,0,0,0,0,0,0,0,0,0,0,6,6,6,0,0,0,6,0,6,6,0,0,6,0,6,6,6,0,0,0,6,6,0,6,6,6,0,0,6,0,6,6,0,6,0,0,6,6,6,6,6,0,0,6,6,0,0,0,6,0,0,0,0,0,6,6,0,0,0,0,6,0,0,6,6,0,0,0,0,6,0,0,0,0,0,0,0,0,0,0,0,0,0,0,0,0,0,0,0,6,0,0,0,0,0,0,0,0,6,0,0,0,0,0,6,0,0,0,0,0,0,0,0,0,0,0,0,0,0,0,0,0,0,0,6,0,0,0,0,6,0,0,0,0,0,0,0,0,6,6,0,0,6,6,6,0,0,0,0,6,6,6,6,0,0,6,6,6,6,0,6,6,6,6,6,0,0,0,0,0,0,0,6,6,6,6,0,0,0,0,0,0,0,0,0,0,0,0,0,0,0,0,0,0,0,0,0,0,0,0,0,0,0,0,0,0,0],
"events":[
null,
{"id":1,"name":"Bedroom Door","note":"","pages":[{"conditions":{"actorId":1,"actorValid":false,"itemId":1,"itemValid":false,"selfSwitchCh":"A","selfSwitchValid":false,"switch1Id":1,"switch1Valid":false,"switch2Id":1,"switch2Valid":false,"variableId":1,"variableValid":false,"variableValue":0},"directionFix":false,"image":{"tileId":0,"characterName":"","direction":2,"pattern":0,"characterIndex":0},"moveFrequency":3,"moveRoute":{"list":[{"code":0,"indent":null,"parameters":[]}],"repeat":true,"skippable":false,"wait":false},"moveSpeed":3,"moveType":0,"priorityType":1,"stepAnime":false,"through":false,"trigger":1,"walkAnime":true,"list":[{"code":250,"indent":0,"parameters":[{"name":"Open1","pan":0,"pitch":100,"volume":80}]},{"code":201,"indent":0,"parameters":[0,7,8,5,2,0]},{"code":0,"indent":0,"parameters":[]}]}],"x":1,"y":10},
{"id":2,"name":"EV002","note":"","pages":[{"conditions":{"actorId":1,"actorValid":false,"itemId":1,"itemValid":false,"selfSwitchCh":"A","selfSwitchValid":false,"switch1Id":1,"switch1Valid":false,"switch2Id":1,"switch2Valid":false,"variableId":1,"variableValid":false,"variableValue":0},"directionFix":false,"image":{"tileId":0,"characterName":"","direction":2,"pattern":0,"characterIndex":0},"moveFrequency":3,"moveRoute":{"list":[{"code":0,"indent":null,"parameters":[]}],"repeat":true,"skippable":false,"wait":false},"moveSpeed":3,"moveType":0,"priorityType":1,"stepAnime":false,"through":false,"trigger":0,"walkAnime":true,"list":[{"code":101,"indent":0,"parameters":["1fc_jack1",2,0,2]},{"code":401,"indent":0,"parameters":["Ah yes, my favorite half plant again."]},{"code":0,"indent":0,"parameters":[]}]}],"x":16,"y":11},
{"id":3,"name":"EV003","note":"","pages":[{"conditions":{"actorId":1,"actorValid":false,"itemId":1,"itemValid":false,"selfSwitchCh":"A","selfSwitchValid":false,"switch1Id":1,"switch1Valid":false,"switch2Id":1,"switch2Valid":false,"variableId":1,"variableValid":false,"variableValue":0},"directionFix":false,"image":{"tileId":0,"characterName":"","direction":2,"pattern":0,"characterIndex":0},"moveFrequency":3,"moveRoute":{"list":[{"code":0,"indent":null,"parameters":[]}],"repeat":true,"skippable":false,"wait":false},"moveSpeed":3,"moveType":0,"priorityType":1,"stepAnime":false,"through":false,"trigger":0,"walkAnime":true,"list":[{"code":201,"indent":0,"parameters":[0,3,8,11,8,0]},{"code":0,"indent":0,"parameters":[]}]}],"x":17,"y":3},
{"id":4,"name":"Bathroom Door","note":"","pages":[{"conditions":{"actorId":1,"actorValid":false,"itemId":1,"itemValid":false,"selfSwitchCh":"A","selfSwitchValid":false,"switch1Id":1,"switch1Valid":false,"switch2Id":1,"switch2Valid":false,"variableId":1,"variableValid":false,"variableValue":0},"directionFix":false,"image":{"tileId":0,"characterName":"!$Door3_Sideways","direction":2,"pattern":1,"characterIndex":0},"moveFrequency":3,"moveRoute":{"list":[{"code":0,"indent":null,"parameters":[]}],"repeat":true,"skippable":false,"wait":false},"moveSpeed":3,"moveType":0,"priorityType":1,"stepAnime":false,"through":false,"trigger":1,"walkAnime":false,"list":[{"code":250,"indent":0,"parameters":[{"name":"Open1","pan":0,"pitch":100,"volume":80}]},{"code":201,"indent":0,"parameters":[0,5,7,6,4,0]},{"code":0,"indent":0,"parameters":[]}]}],"x":15,"y":4},
{"id":5,"name":"Bathroom Door","note":"","pages":[{"conditions":{"actorId":1,"actorValid":false,"itemId":1,"itemValid":false,"selfSwitchCh":"A","selfSwitchValid":false,"switch1Id":1,"switch1Valid":false,"switch2Id":1,"switch2Valid":false,"variableId":1,"variableValid":false,"variableValue":0},"directionFix":false,"image":{"tileId":0,"characterName":"!$Door3_UpsideDown","direction":2,"pattern":1,"characterIndex":0},"moveFrequency":3,"moveRoute":{"list":[{"code":0,"indent":null,"parameters":[]}],"repeat":true,"skippable":false,"wait":false},"moveSpeed":3,"moveType":0,"priorityType":1,"stepAnime":false,"through":false,"trigger":1,"walkAnime":false,"list":[{"code":250,"indent":0,"parameters":[{"name":"Open1","pan":0,"pitch":100,"volume":80}]},{"code":201,"indent":0,"parameters":[0,5,15,5,2,0]},{"code":0,"indent":0,"parameters":[]}]}],"x":8,"y":6},
{"id":6,"name":"EV006","note":"","pages":[{"conditions":{"actorId":1,"actorValid":false,"itemId":1,"itemValid":false,"selfSwitchCh":"A","selfSwitchValid":false,"switch1Id":1,"switch1Valid":false,"switch2Id":1,"switch2Valid":false,"variableId":1,"variableValid":false,"variableValue":0},"directionFix":false,"image":{"tileId":0,"characterName":"","direction":2,"pattern":0,"characterIndex":0},"moveFrequency":3,"moveRoute":{"list":[{"code":0,"indent":null,"parameters":[]}],"repeat":true,"skippable":false,"wait":false},"moveSpeed":3,"moveType":0,"priorityType":1,"stepAnime":false,"through":false,"trigger":0,"walkAnime":true,"list":[{"code":101,"indent":0,"parameters":["1fc_jack1",4,0,2]},{"code":401,"indent":0,"parameters":["Folded towels won't help. Which is a shame. I spent ages"]},{"code":401,"indent":0,"parameters":["folding them."]},{"code":0,"indent":0,"parameters":[]}]}],"x":9,"y":6},
{"id":7,"name":"EV007","note":"","pages":[{"conditions":{"actorId":1,"actorValid":false,"itemId":1,"itemValid":false,"selfSwitchCh":"A","selfSwitchValid":false,"switch1Id":1,"switch1Valid":false,"switch2Id":1,"switch2Valid":false,"variableId":1,"variableValid":false,"variableValue":0},"directionFix":false,"image":{"tileId":0,"characterName":"","direction":2,"pattern":0,"characterIndex":0},"moveFrequency":3,"moveRoute":{"list":[{"code":0,"indent":null,"parameters":[]}],"repeat":true,"skippable":false,"wait":false},"moveSpeed":3,"moveType":0,"priorityType":1,"stepAnime":false,"through":false,"trigger":0,"walkAnime":true,"list":[{"code":101,"indent":0,"parameters":["1fc_jack2",15,0,2]},{"code":401,"indent":0,"parameters":["Did the toaster move or did the bread move the toaster?"]},{"code":101,"indent":0,"parameters":["1fc_jack2",2,0,2]},{"code":401,"indent":0,"parameters":["...Ahh, THERE are those heebies I've been waiting for."]},{"code":0,"indent":0,"parameters":[]}]}],"x":6,"y":6},
{"id":8,"name":"EV008","note":"","pages":[{"conditions":{"actorId":1,"actorValid":false,"itemId":1,"itemValid":false,"selfSwitchCh":"A","selfSwitchValid":false,"switch1Id":1,"switch1Valid":false,"switch2Id":1,"switch2Valid":false,"variableId":1,"variableValid":false,"variableValue":0},"directionFix":false,"image":{"tileId":0,"characterName":"","direction":2,"pattern":0,"characterIndex":0},"moveFrequency":3,"moveRoute":{"list":[{"code":0,"indent":null,"parameters":[]}],"repeat":true,"skippable":false,"wait":false},"moveSpeed":3,"moveType":0,"priorityType":1,"stepAnime":false,"through":false,"trigger":0,"walkAnime":true,"list":[{"code":101,"indent":0,"parameters":["1fc_jack1",2,0,2]},{"code":401,"indent":0,"parameters":["Ah yes, my favorite half plant again."]},{"code":0,"indent":0,"parameters":[]}]}],"x":18,"y":3},
{"id":9,"name":"EV009","note":"","pages":[{"conditions":{"actorId":1,"actorValid":false,"itemId":1,"itemValid":false,"selfSwitchCh":"A","selfSwitchValid":false,"switch1Id":1,"switch1Valid":false,"switch2Id":1,"switch2Valid":false,"variableId":1,"variableValid":false,"variableValue":0},"directionFix":false,"image":{"tileId":0,"characterName":"","direction":2,"pattern":0,"characterIndex":0},"moveFrequency":3,"moveRoute":{"list":[{"code":0,"indent":null,"parameters":[]}],"repeat":true,"skippable":false,"wait":false},"moveSpeed":3,"moveType":0,"priorityType":1,"stepAnime":false,"through":false,"trigger":0,"walkAnime":true,"list":[{"code":101,"indent":0,"parameters":["1fc_jack1",2,0,2]},{"code":401,"indent":0,"parameters":["Looks like it's time... to get out of here, I guess."]},{"code":0,"indent":0,"parameters":[]}]}],"x":2,"y":8},
{"id":10,"name":"EV010","note":"","pages":[{"conditions":{"actorId":1,"actorValid":false,"itemId":1,"itemValid":false,"selfSwitchCh":"A","selfSwitchValid":false,"switch1Id":1,"switch1Valid":false,"switch2Id":1,"switch2Valid":false,"variableId":1,"variableValid":false,"variableValue":0},"directionFix":false,"image":{"tileId":0,"characterName":"","direction":2,"pattern":0,"characterIndex":0},"moveFrequency":3,"moveRoute":{"list":[{"code":0,"indent":null,"parameters":[]}],"repeat":true,"skippable":false,"wait":false},"moveSpeed":3,"moveType":0,"priorityType":0,"stepAnime":false,"through":false,"trigger":4,"walkAnime":true,"list":[{"code":111,"indent":0,"parameters":[3,0,1]},{"code":123,"indent":1,"parameters":["A",0]},{"code":0,"indent":1,"parameters":[]},{"code":412,"indent":0,"parameters":[]},{"code":0,"indent":0,"parameters":[]}]},{"conditions":{"actorId":1,"actorValid":false,"itemId":1,"itemValid":false,"selfSwitchCh":"A","selfSwitchValid":true,"switch1Id":1,"switch1Valid":false,"switch2Id":1,"switch2Valid":false,"variableId":1,"variableValid":false,"variableValue":0},"directionFix":false,"image":{"tileId":0,"characterName":"","direction":2,"pattern":0,"characterIndex":0},"moveFrequency":3,"moveRoute":{"list":[{"code":0,"indent":null,"parameters":[]}],"repeat":true,"skippable":false,"wait":false},"moveSpeed":3,"moveType":0,"priorityType":0,"stepAnime":false,"through":false,"trigger":3,"walkAnime":true,"list":[{"code":241,"indent":0,"parameters":[{"name":"","pan":0,"pitch":100,"volume":100}]},{"code":223,"indent":0,"parameters":[[0,-255,-255,0],1,true]},{"code":101,"indent":0,"parameters":["",0,1,1]},{"code":401,"indent":0,"parameters":["\\c[18]\\a[c]YOU REALLY THINK I'D LET YOU GO?"]},{"code":101,"indent":0,"parameters":["",0,1,1]},{"code":401,"indent":0,"parameters":["\\c[18]\\a[c]YOU REALLY THOUGHT YOU COULD FUCK WITH ME AND GET"]},{"code":401,"indent":0,"parameters":["AWAY WITH IT?"]},{"code":101,"indent":0,"parameters":["",0,1,1]},{"code":401,"indent":0,"parameters":["\\c[18]\\a[c]THIS GAME IS MINE."]},{"code":101,"indent":0,"parameters":["",0,1,1]},{"code":401,"indent":0,"parameters":["\\c[18]\\a[c]AND THERE'S NOTHING YOU CAN DO ABOUT IT."]},{"code":355,"indent":0,"parameters":["msgbox(\"Ý̵͜͠O҉͏̵U̶͏ ̵̨͟͏̢W̸̛͠Į̕͞Ļ̧̛̕L̷̡̢͘͢ ̕Ņ̶̶́E͏͏V̨̛̀͠E̸̕͝R̢̀́͢͠ "]},{"code":655,"indent":0,"parameters":["̵̢̀É̸͘҉S̵̨C̷͟À̴͜͜͜P̡̀͘͝͡Ȩ҉\")"]},{"code":355,"indent":0,"parameters":["$titlename = \"ALWAYS WATCHING\""]},{"code":655,"indent":0,"parameters":["call = Change_title.new"]},{"code":121,"indent":0,"parameters":[142,142,0]},{"code":355,"indent":0,"parameters":["SceneManager.exit"]},{"code":0,"indent":0,"parameters":[]}]}],"x":0,"y":0},
{"id":11,"name":"EV011","note":"","pages":[{"conditions":{"actorId":1,"actorValid":false,"itemId":1,"itemValid":false,"selfSwitchCh":"A","selfSwitchValid":false,"switch1Id":143,"switch1Valid":true,"switch2Id":1,"switch2Valid":false,"variableId":1,"variableValid":false,"variableValue":0},"directionFix":false,"image":{"tileId":0,"characterName":"","direction":2,"pattern":0,"characterIndex":0},"moveFrequency":3,"moveRoute":{"list":[{"code":0,"indent":null,"parameters":[]}],"repeat":true,"skippable":false,"wait":false},"moveSpeed":3,"moveType":0,"priorityType":0,"stepAnime":false,"through":false,"trigger":4,"walkAnime":true,"list":[{"code":230,"indent":0,"parameters":[600]},{"code":111,"indent":0,"parameters":[3,60,1]},{"code":250,"indent":1,"parameters":[{"name":"static","pan":0,"pitch":100,"volume":100}]},{"code":231,"indent":1,"parameters":[1,"anti6",0,0,0,0,100,100,255,0]},{"code":230,"indent":1,"parameters":[15]},{"code":235,"indent":1,"parameters":[1]},{"code":0,"indent":1,"parameters":[]},{"code":411,"indent":0,"parameters":[]},{"code":111,"indent":1,"parameters":[3,240,1]},{"code":250,"indent":2,"parameters":[{"name":"static","pan":0,"pitch":100,"volume":80}]},{"code":231,"indent":2,"parameters":[1,"anti5",0,0,0,0,100,100,255,0]},{"code":230,"indent":2,"parameters":[15]},{"code":235,"indent":2,"parameters":[1]},{"code":0,"indent":2,"parameters":[]},{"code":411,"indent":1,"parameters":[]},{"code":111,"indent":2,"parameters":[3,480,1]},{"code":250,"indent":3,"parameters":[{"name":"static","pan":0,"pitch":100,"volume":70}]},{"code":231,"indent":3,"parameters":[1,"anti4",0,0,0,0,100,100,255,0]},{"code":230,"indent":3,"parameters":[15]},{"code":235,"indent":3,"parameters":[1]},{"code":0,"indent":3,"parameters":[]},{"code":411,"indent":2,"parameters":[]},{"code":111,"indent":3,"parameters":[3,600,1]},{"code":250,"indent":4,"parameters":[{"name":"static","pan":0,"pitch":100,"volume":50}]},{"code":231,"indent":4,"parameters":[1,"anti3",0,0,0,0,100,100,255,0]},{"code":230,"indent":4,"parameters":[15]},{"code":235,"indent":4,"parameters":[1]},{"code":0,"indent":4,"parameters":[]},{"code":411,"indent":3,"parameters":[]},{"code":111,"indent":4,"parameters":[3,900,1]},{"code":250,"indent":5,"parameters":[{"name":"static","pan":0,"pitch":100,"volume":35}]},{"code":231,"indent":5,"parameters":[1,"anti2",0,0,0,0,100,100,255,0]},{"code":230,"indent":5,"parameters":[15]},{"code":235,"indent":5,"parameters":[1]},{"code":0,"indent":5,"parameters":[]},{"code":411,"indent":4,"parameters":[]},{"code":111,"indent":5,"parameters":[3,901,0]},{"code":250,"indent":6,"parameters":[{"name":"static","pan":0,"pitch":100,"volume":15}]},{"code":231,"indent":6,"parameters":[1,"anti1",0,0,0,0,100,100,255,0]},{"code":230,"indent":6,"parameters":[15]},{"code":235,"indent":6,"parameters":[1]},{"code":0,"indent":6,"parameters":[]},{"code":411,"indent":5,"parameters":[]},{"code":0,"indent":6,"parameters":[]},{"code":412,"indent":5,"parameters":[]},{"code":0,"indent":5,"parameters":[]},{"code":412,"indent":4,"parameters":[]},{"code":0,"indent":4,"parameters":[]},{"code":412,"indent":3,"parameters":[]},{"code":0,"indent":3,"parameters":[]},{"code":412,"indent":2,"parameters":[]},{"code":0,"indent":2,"parameters":[]},{"code":412,"indent":1,"parameters":[]},{"code":0,"indent":1,"parameters":[]},{"code":412,"indent":0,"parameters":[]},{"code":0,"indent":0,"parameters":[]}]}],"x":19,"y":0},
null
]
}