{
"autoplayBgm":false,"autoplayBgs":false,"battleback1Name":"","battleback2Name":"","bgm":{"name":"","pan":0,"pitch":100,"volume":100},"bgs":{"name":"","pan":0,"pitch":100,"volume":80},"disableDashing":false,"displayName":"","encounterList":[],"encounterStep":30,"height":15,"note":"<all restrict: 6>","parallaxLoopX":false,"parallaxLoopY":false,"parallaxName":"Byteon","parallaxShow":true,"parallaxSx":0,"parallaxSy":3,"scrollType":0,"specifyBattleback":false,"tilesetId":2,"width":20,
"data":[0,0,0,0,0,0,0,0,0,0,0,0,0,0,0,0,0,0,0,0,0,0,0,0,0,0,0,0,0,0,0,0,0,0,0,0,0,0,0,0,0,0,6259,6257,6257,6257,6257,6257,6257,6261,0,6259,6257,6257,6257,6257,6261,0,0,0,0,0,6256,7906,7910,0,0,0,7907,6265,6257,6263,7906,7906,7906,7906,6265,6261,0,0,0,0,6256,7912,7916,0,0,0,7913,7907,7906,7910,7912,7912,7912,7912,8051,6256,0,0,0,0,6256,0,0,0,0,0,0,7913,7912,7916,1604,1604,1604,1604,8057,6256,0,0,0,0,6256,0,0,0,0,0,0,0,0,1604,1604,1604,1604,1604,1604,6256,0,0,0,0,6256,0,0,0,0,6267,6257,6247,6257,6261,1604,1604,1604,1604,1604,6256,0,0,0,0,6256,0,0,0,0,7907,7906,6256,0,6256,1604,1604,1604,1604,1604,6256,0,0,0,0,6256,0,0,0,0,7913,7912,6256,0,6256,1600,1600,1600,1600,1600,6256,0,0,0,0,6256,0,0,0,0,0,0,6256,0,6256,1600,1600,1600,1600,1600,6256,0,0,0,0,6256,0,0,0,0,0,0,6256,0,6265,6257,6257,6257,6257,6257,6263,0,0,0,0,6265,6257,6269,0,0,6267,6257,6263,0,0,0,0,0,0,0,0,0,0,0,0,0,0,0,0,0,0,0,0,0,0,0,0,0,0,0,0,0,0,0,0,0,0,0,0,0,0,0,0,0,0,0,0,0,0,0,0,0,0,4160,4160,4160,4160,4160,4160,4160,4160,4160,4160,4160,4160,4160,4160,4160,4160,4160,4160,4160,4160,4160,4160,4160,4160,4160,4160,4160,4160,4160,4160,4172,4188,4188,4188,4188,4188,4188,4168,4160,4160,4160,4160,0,0,0,0,0,0,0,0,4204,0,0,0,0,0,0,4200,4168,4160,4160,4160,0,0,0,0,0,0,0,0,0,0,0,0,0,0,0,0,4176,4160,4160,4160,0,0,0,0,0,0,0,0,0,0,0,0,0,0,0,0,4176,4160,4160,4160,0,3042,3028,3028,3028,3028,3046,0,0,0,0,0,0,0,0,0,4176,4160,4160,4160,0,3024,3008,3008,3008,3008,3008,3028,3028,0,0,0,0,0,0,0,4176,4160,4160,4160,0,3024,3008,3008,3012,0,0,0,0,0,0,0,0,0,0,0,4176,4160,4160,4160,0,3024,3008,3008,3032,0,0,0,4202,0,0,0,0,0,0,0,4176,4160,4160,4160,0,3024,3008,3008,3032,0,0,0,4186,0,0,0,0,0,0,0,4176,4160,4160,4160,0,3024,3008,3008,3010,3028,3044,0,4184,0,0,0,0,0,0,0,4176,4160,4160,4160,0,3024,3008,3008,3008,3008,3032,0,4184,0,0,0,0,0,0,0,4176,4160,4160,4160,0,0,0,3016,3012,0,0,0,4162,4180,4180,4180,4180,4180,4180,4180,4161,4160,4160,4160,4160,4160,4160,4160,4160,4160,4160,4160,4160,4160,4160,4160,4160,4160,4160,4160,4160,4160,4160,4160,4160,4160,4160,4160,4160,4160,4160,4160,4160,4160,4160,4160,4160,4160,4160,4160,4160,4160,0,0,0,0,0,0,0,0,0,0,0,0,0,0,0,0,0,0,0,0,0,0,0,0,0,0,0,0,0,0,0,0,0,0,0,0,0,0,0,0,0,0,0,0,0,0,0,0,0,0,0,0,0,0,0,0,0,0,0,0,0,0,0,0,0,0,0,0,0,0,0,0,0,0,0,0,0,0,0,0,0,0,0,0,0,0,0,0,458,0,0,0,0,0,0,0,0,0,0,0,0,0,0,0,0,0,0,0,0,0,0,0,0,0,0,0,0,0,0,0,0,0,0,0,0,0,0,0,0,0,0,0,0,0,0,0,0,0,0,0,0,0,0,0,0,0,0,0,0,0,0,0,0,0,0,0,0,0,0,0,0,0,0,242,0,0,0,0,0,0,0,0,0,0,0,0,0,0,0,0,0,0,0,0,0,0,0,0,226,0,0,0,0,86,87,208,209,0,0,0,0,0,0,0,0,0,0,0,0,0,0,0,0,0,0,0,0,0,0,0,0,0,0,0,0,0,0,0,0,0,0,0,0,0,0,0,0,0,0,0,0,0,0,0,0,0,0,0,0,0,0,0,0,0,0,0,0,0,0,0,0,0,0,0,0,0,0,0,0,0,0,0,0,0,0,0,0,0,0,0,0,0,0,0,0,0,0,0,0,0,0,0,0,0,0,0,0,0,0,0,0,0,0,0,0,0,0,0,0,0,0,0,0,0,0,0,0,0,0,0,0,0,0,0,0,0,0,0,0,0,0,0,0,0,0,0,0,0,0,0,0,0,0,0,0,0,0,0,0,0,0,0,0,0,0,0,0,0,0,0,0,0,0,205,206,219,220,221,0,0,0,0,0,14,15,0,0,0,0,0,0,0,0,0,0,227,228,229,204,0,0,0,387,22,23,504,486,0,0,0,0,0,0,316,0,235,236,237,466,0,0,0,395,426,427,427,0,0,0,0,0,0,0,324,0,0,0,0,0,0,0,0,0,0,0,0,0,0,0,0,0,0,0,234,0,0,0,0,0,0,0,0,0,0,0,0,0,0,0,0,0,0,0,242,315,0,0,217,218,0,0,0,0,78,79,200,201,0,0,0,0,0,0,250,0,0,0,225,483,0,0,0,0,285,285,285,285,0,0,0,0,0,0,0,0,0,0,0,491,0,0,0,0,0,0,0,0,0,0,0,0,0,0,213,214,0,0,0,70,0,0,0,0,0,0,0,0,0,0,0,0,0,0,0,0,0,0,0,0,0,0,0,0,0,0,0,0,0,0,0,0,0,0,0,0,0,0,0,0,0,0,0,0,0,0,0,0,0,0,0,0,0,0,0,0,0,0,0,0,0,0,0,0,0,0,0,0,0,0,0,0,0,0,0,0,0,0,0,0,0,0,0,0,0,0,0,0,0,0,0,0,0,0,0,0,0,0,0,0,0,0,0,0,0,0,0,0,0,0,0,0,0,0,0,0,0,0,0,0,0,0,0,0,0,0,0,0,0,0,0,0,0,0,0,0,0,0,0,0,0,0,0,0,0,0,0,0,0,0,0,0,0,0,1536,1536,1536,1536,1536,1536,0,0,1536,0,0,0,0,0,0,0,0,0,0,0,1536,0,0,0,0,1536,1536,1536,1536,1536,1536,1536,1536,1536,1536,0,0,0,0,1536,1536,0,0,0,0,0,0,0,0,0,0,0,0,0,1536,0,0,0,0,1536,0,0,0,0,1792,1536,1536,1536,1536,0,0,0,0,0,1536,0,0,0,0,1536,1536,0,0,0,1536,0,0,0,1536,0,0,0,0,0,1536,0,0,0,0,1536,1536,0,0,0,1536,1536,0,0,1536,0,1536,1536,1536,1536,1536,0,0,0,0,1536,0,0,0,0,0,1536,1536,0,1536,0,0,0,0,0,1536,0,0,0,0,1536,0,0,0,0,0,0,1536,0,1536,1536,1536,1536,1536,1536,1536,0,0,0,0,1536,1536,1792,0,0,1792,1536,1536,0,0,0,0,0,0,0,0,0,0,0,0,0,1536,1536,1536,1536,1536,1536,0,0,0,0,0,0,0,0,0,0,0,0,0,0,0,0,0,0,0,0,0,0,0,0,0,0,0,0,0,0,0,0,0,0,0,0,0,0,0,0,0,0,0,0,0,0,0,0,0,0,0,0,0,0,0,0,0,0,0,0,0,0,0,0,0,0,0,0,0,0,0,0,0,0,0,0,0,0,0,0,0,0,0,0,0,0,0,0,0,0,0,0,0,0,0,0,0,0,0,0,0,0,0,0,0,0,0,0,0,0,0,0,0,0,6,6,6,6,6,6,0,0,6,0,0,0,0,0,0,0,0,0,0,0,6,0,0,0,0,6,6,6,6,6,6,6,6,6,6,0,0,0,0,6,6,0,0,0,0,0,0,0,0,0,0,0,0,0,6,0,0,0,0,6,0,0,0,0,7,6,6,6,6,0,0,0,0,0,6,0,0,0,0,6,6,0,0,0,6,0,0,0,6,0,0,0,0,0,6,0,0,0,0,6,6,0,0,0,6,6,0,0,6,0,6,6,6,6,6,0,0,0,0,6,0,0,0,0,0,6,6,0,6,0,0,0,0,0,6,0,0,0,0,6,0,0,0,0,0,0,6,0,6,6,6,6,6,6,6,0,0,0,0,6,6,7,0,0,7,6,6,0,0,0,0,0,0,0,0,0,0,0,0,0,6,6,6,6,6,6,0,0,0,0,0,0,0,0,0,0,0,0,0,0,0,0,0,0,0,0,0,0,0,0,0,0,0,0,0,0,0],
"events":[
null,
{"id":1,"name":"EV001","note":"","pages":[{"conditions":{"actorId":1,"actorValid":false,"itemId":1,"itemValid":false,"selfSwitchCh":"A","selfSwitchValid":false,"switch1Id":1,"switch1Valid":false,"switch2Id":1,"switch2Valid":false,"variableId":1,"variableValid":false,"variableValue":0},"directionFix":false,"image":{"tileId":0,"characterName":"","direction":2,"pattern":0,"characterIndex":0},"moveFrequency":3,"moveRoute":{"list":[{"code":0,"indent":null,"parameters":[]}],"repeat":true,"skippable":false,"wait":false},"moveSpeed":3,"moveType":0,"priorityType":1,"stepAnime":false,"through":false,"trigger":0,"walkAnime":true,"list":[{"code":0,"indent":0,"parameters":[]}]}],"x":7,"y":12},
{"id":2,"name":"EV002","note":"","pages":[{"conditions":{"actorId":1,"actorValid":false,"itemId":1,"itemValid":false,"selfSwitchCh":"A","selfSwitchValid":false,"switch1Id":1,"switch1Valid":false,"switch2Id":1,"switch2Valid":false,"variableId":1,"variableValid":false,"variableValue":0},"directionFix":false,"image":{"tileId":0,"characterName":"","direction":2,"pattern":0,"characterIndex":0},"moveFrequency":3,"moveRoute":{"list":[{"code":0,"indent":null,"parameters":[]}],"repeat":true,"skippable":false,"wait":false},"moveSpeed":3,"moveType":0,"priorityType":1,"stepAnime":false,"through":false,"trigger":0,"walkAnime":true,"list":[{"code":0,"indent":0,"parameters":[]}]}],"x":4,"y":12},
{"id":3,"name":"EV003","note":"","pages":[{"conditions":{"actorId":1,"actorValid":false,"itemId":1,"itemValid":false,"selfSwitchCh":"A","selfSwitchValid":false,"switch1Id":1,"switch1Valid":false,"switch2Id":1,"switch2Valid":false,"variableId":200,"variableValid":true,"variableValue":6},"directionFix":false,"image":{"characterIndex":0,"characterName":"","direction":2,"pattern":0,"tileId":0},"list":[{"code":111,"indent":0,"parameters":[1,200,0,7,1]},{"code":214,"indent":1,"parameters":[]},{"code":0,"indent":1,"parameters":[]},{"code":411,"indent":0,"parameters":[]},{"code":111,"indent":1,"parameters":[1,199,0,14,0]},{"code":123,"indent":2,"parameters":["A",0]},{"code":0,"indent":2,"parameters":[]},{"code":412,"indent":1,"parameters":[]},{"code":0,"indent":1,"parameters":[]},{"code":412,"indent":0,"parameters":[]},{"code":0,"indent":0,"parameters":[]}],"moveFrequency":3,"moveRoute":{"list":[{"code":0,"parameters":[]}],"repeat":true,"skippable":false,"wait":false},"moveSpeed":3,"moveType":0,"priorityType":0,"stepAnime":false,"through":false,"trigger":4,"walkAnime":true},{"conditions":{"actorId":1,"actorValid":false,"itemId":1,"itemValid":false,"selfSwitchCh":"A","selfSwitchValid":true,"switch1Id":1,"switch1Valid":false,"switch2Id":1,"switch2Valid":false,"variableId":1,"variableValid":false,"variableValue":0},"directionFix":false,"image":{"tileId":42,"characterName":"","characterIndex":0,"direction":2,"pattern":0},"list":[{"code":0,"indent":0,"parameters":[]}],"moveFrequency":3,"moveRoute":{"list":[{"code":0,"parameters":[]}],"repeat":true,"skippable":false,"wait":false},"moveSpeed":3,"moveType":0,"priorityType":0,"stepAnime":false,"through":false,"trigger":0,"walkAnime":true}],"x":8,"y":4},
null,
null,
{"id":6,"name":"EV006","note":"","pages":[{"conditions":{"actorId":1,"actorValid":false,"itemId":1,"itemValid":false,"selfSwitchCh":"A","selfSwitchValid":false,"switch1Id":1,"switch1Valid":false,"switch2Id":1,"switch2Valid":false,"variableId":1,"variableValid":false,"variableValue":0},"directionFix":false,"image":{"tileId":310,"characterName":"","direction":2,"pattern":0,"characterIndex":0},"moveFrequency":3,"moveRoute":{"list":[{"code":0,"indent":null,"parameters":[]}],"repeat":true,"skippable":false,"wait":false},"moveSpeed":3,"moveType":0,"priorityType":1,"stepAnime":false,"through":false,"trigger":0,"walkAnime":false,"list":[{"code":101,"indent":0,"parameters":["1fc_jack1",0,0,2]},{"code":401,"indent":0,"parameters":["So this would be \\fiyour\\fi super awesome lamp, right?"]},{"code":101,"indent":0,"parameters":["2fc_billy1",10,0,2]},{"code":401,"indent":0,"parameters":["You give \\fieverything\\fi nicknames, don't you?"]},{"code":101,"indent":0,"parameters":["1fc_jack1",3,0,2]},{"code":401,"indent":0,"parameters":["Wouldn't be me if I didn't!"]},{"code":0,"indent":0,"parameters":[]}]}],"x":6,"y":9},
{"id":7,"name":"EV007","note":"","pages":[{"conditions":{"actorId":1,"actorValid":false,"itemId":1,"itemValid":false,"selfSwitchCh":"A","selfSwitchValid":false,"switch1Id":1,"switch1Valid":false,"switch2Id":1,"switch2Valid":false,"variableId":1,"variableValid":false,"variableValue":0},"directionFix":false,"image":{"tileId":302,"characterName":"","direction":2,"pattern":0,"characterIndex":0},"moveFrequency":3,"moveRoute":{"list":[{"code":0,"indent":null,"parameters":[]}],"repeat":true,"skippable":false,"wait":false},"moveSpeed":3,"moveType":0,"priorityType":1,"stepAnime":false,"through":true,"trigger":0,"walkAnime":false,"list":[{"code":108,"indent":0,"parameters":["<prelfx = light4>"]},{"code":0,"indent":0,"parameters":[]}]}],"x":6,"y":8},
{"id":8,"name":"EV008","note":"","pages":[{"conditions":{"actorId":1,"actorValid":false,"itemId":1,"itemValid":false,"selfSwitchCh":"A","selfSwitchValid":false,"switch1Id":1,"switch1Valid":false,"switch2Id":1,"switch2Valid":false,"variableId":1,"variableValid":false,"variableValue":0},"directionFix":false,"image":{"tileId":0,"characterName":"","direction":2,"pattern":0,"characterIndex":0},"moveFrequency":3,"moveRoute":{"list":[{"code":0,"indent":null,"parameters":[]}],"repeat":true,"skippable":false,"wait":false},"moveSpeed":3,"moveType":0,"priorityType":1,"stepAnime":false,"through":false,"trigger":0,"walkAnime":true,"list":[{"code":0,"indent":0,"parameters":[]}]}],"x":7,"y":7},
{"id":9,"name":"EV009","note":"","pages":[{"conditions":{"actorId":1,"actorValid":false,"itemId":1,"itemValid":false,"selfSwitchCh":"A","selfSwitchValid":false,"switch1Id":1,"switch1Valid":false,"switch2Id":1,"switch2Valid":false,"variableId":1,"variableValid":false,"variableValue":0},"directionFix":false,"image":{"tileId":0,"characterName":"","direction":2,"pattern":0,"characterIndex":0},"moveFrequency":3,"moveRoute":{"list":[{"code":0,"indent":null,"parameters":[]}],"repeat":true,"skippable":false,"wait":false},"moveSpeed":3,"moveType":0,"priorityType":0,"stepAnime":false,"through":false,"trigger":0,"walkAnime":true,"list":[{"code":101,"indent":0,"parameters":["4fc_cliffgreen1",2,0,2]},{"code":401,"indent":0,"parameters":["Oooh, a burger!! Man, burgers sound so good right now."]},{"code":101,"indent":0,"parameters":["1fc_jack1",5,0,2]},{"code":401,"indent":0,"parameters":["There's no cheese on it."]},{"code":101,"indent":0,"parameters":["2fc_billy1",3,0,2]},{"code":401,"indent":0,"parameters":["That's because cheese on burgers is disgusting. It's like"]},{"code":401,"indent":0,"parameters":["vile, nasty, melted glop that no amount of picking at it"]},{"code":401,"indent":0,"parameters":["will fully remove."]},{"code":101,"indent":0,"parameters":["4fc_cliffgreen2",6,0,2]},{"code":401,"indent":0,"parameters":["You don't like cheeseburgers??"]},{"code":101,"indent":0,"parameters":["2fc_billy1",3,0,2]},{"code":401,"indent":0,"parameters":["They're disgusting. Cheese is fine on its own but in"]},{"code":401,"indent":0,"parameters":["burgers, it's just nasty."]},{"code":101,"indent":0,"parameters":["3fc_jenny1",2,0,2]},{"code":401,"indent":0,"parameters":["Let's not pick on each other about food preference. I'm"]},{"code":401,"indent":0,"parameters":["sure everyone dislikes something most people like."]},{"code":101,"indent":0,"parameters":["4fc_cliffgreen1",4,0,2]},{"code":401,"indent":0,"parameters":["I don't like most seafood, so I guess I understand."]},{"code":101,"indent":0,"parameters":["2fc_billy1",9,0,2]},{"code":401,"indent":0,"parameters":["Well that's not helpful; seafood is gross."]},{"code":101,"indent":0,"parameters":["3fc_jenny2",4,0,2]},{"code":401,"indent":0,"parameters":["I'm not much of a fan myself."]},{"code":101,"indent":0,"parameters":["1fc_jack1",2,0,2]},{"code":401,"indent":0,"parameters":["Okay, I could forgive not liking cheese but not liking"]},{"code":401,"indent":0,"parameters":["cheese and seafood? Now you've crossed a line."]},{"code":101,"indent":0,"parameters":["2fc_billy1",0,0,2]},{"code":401,"indent":0,"parameters":["My favorite pizza topping is pineapple."]},{"code":101,"indent":0,"parameters":["1fc_jack2",3,0,2]},{"code":401,"indent":0,"parameters":["..."]},{"code":101,"indent":0,"parameters":["1fc_jack1",2,0,2]},{"code":401,"indent":0,"parameters":["You're on thin ice."]},{"code":0,"indent":0,"parameters":[]}]}],"x":13,"y":8},
{"id":10,"name":"EV010","note":"","pages":[{"conditions":{"actorId":1,"actorValid":false,"itemId":1,"itemValid":false,"selfSwitchCh":"A","selfSwitchValid":false,"switch1Id":1,"switch1Valid":false,"switch2Id":1,"switch2Valid":false,"variableId":1,"variableValid":false,"variableValue":0},"directionFix":true,"image":{"tileId":323,"characterName":"","direction":2,"pattern":0,"characterIndex":0},"moveFrequency":3,"moveRoute":{"list":[{"code":0,"indent":null,"parameters":[]}],"repeat":true,"skippable":false,"wait":false},"moveSpeed":3,"moveType":0,"priorityType":1,"stepAnime":false,"through":false,"trigger":0,"walkAnime":false,"list":[{"code":101,"indent":0,"parameters":["1fc_jack1",4,0,0]},{"code":401,"indent":0,"parameters":["You have a chair just like mine? Awww..."]},{"code":101,"indent":0,"parameters":["2fc_billy1",10,0,0]},{"code":401,"indent":0,"parameters":["What \"awww?\" Those chairs are really comfy!"]},{"code":101,"indent":0,"parameters":["2fc_billy1",3,0,2]},{"code":401,"indent":0,"parameters":["What, would you prefer that I sit on something really"]},{"code":401,"indent":0,"parameters":["uncomfortable?"]},{"code":101,"indent":0,"parameters":["1fc_jack1",4,0,2]},{"code":401,"indent":0,"parameters":["No no, it's fine. I just thought it was a cu--"]},{"code":101,"indent":0,"parameters":["2fc_billy2",5,0,2]},{"code":401,"indent":0,"parameters":["..."]},{"code":101,"indent":0,"parameters":["1fc_jack2",0,0,2]},{"code":401,"indent":0,"parameters":["--uurious coincidence. That's all. Yep."]},{"code":0,"indent":0,"parameters":[]}]}],"x":4,"y":9},
null,
{"id":12,"name":"EV012","note":"","pages":[{"conditions":{"actorId":1,"actorValid":false,"itemId":1,"itemValid":false,"selfSwitchCh":"A","selfSwitchValid":false,"switch1Id":1,"switch1Valid":false,"switch2Id":1,"switch2Valid":false,"variableId":1,"variableValid":false,"variableValue":0},"directionFix":false,"image":{"tileId":471,"characterName":"","direction":2,"pattern":0,"characterIndex":0},"moveFrequency":3,"moveRoute":{"list":[{"code":0,"indent":null,"parameters":[]}],"repeat":true,"skippable":false,"wait":false},"moveSpeed":3,"moveType":0,"priorityType":1,"stepAnime":false,"through":false,"trigger":0,"walkAnime":true,"list":[{"code":101,"indent":0,"parameters":["2fc_billy1",2,0,2]},{"code":401,"indent":0,"parameters":["Uhh... yeah. I have a kitchen sink. It's like any other"]},{"code":401,"indent":0,"parameters":["sink. It exists."]},{"code":101,"indent":0,"parameters":["3fc_jenny1",0,0,2]},{"code":401,"indent":0,"parameters":["It's a nice sink."]},{"code":101,"indent":0,"parameters":["2fc_billy1",9,0,2]},{"code":401,"indent":0,"parameters":["Thanks... I guess."]},{"code":0,"indent":0,"parameters":[]}]}],"x":14,"y":5},
null,
null,
null,
{"id":16,"name":"EV016","note":"","pages":[{"conditions":{"actorId":1,"actorValid":false,"itemId":1,"itemValid":false,"selfSwitchCh":"A","selfSwitchValid":false,"switch1Id":1,"switch1Valid":false,"switch2Id":1,"switch2Valid":false,"variableId":1,"variableValid":false,"variableValue":0},"directionFix":false,"image":{"tileId":193,"characterName":"","direction":2,"pattern":0,"characterIndex":0},"moveFrequency":3,"moveRoute":{"list":[{"code":0,"indent":null,"parameters":[]}],"repeat":true,"skippable":false,"wait":false},"moveSpeed":3,"moveType":0,"priorityType":1,"stepAnime":false,"through":false,"trigger":0,"walkAnime":true,"list":[{"code":108,"indent":0,"parameters":["MOVE 0, -12"]},{"code":108,"indent":0,"parameters":["<Sprite Offset: +0, -16>"]},{"code":101,"indent":0,"parameters":["3fc_jenny1",2,0,2]},{"code":401,"indent":0,"parameters":["Wow, Billy, that's a big stack of dishes."]},{"code":101,"indent":0,"parameters":["2fc_billy1",10,0,2]},{"code":401,"indent":0,"parameters":["Notice they're all \\ficlean\\fi. I do wash things up,"]},{"code":401,"indent":0,"parameters":["you know. Sometimes. When Kara doesn't come by."]},{"code":101,"indent":0,"parameters":["1fc_jack1",2,0,2]},{"code":401,"indent":0,"parameters":["Is there anything you do that she doesn't do?"]},{"code":101,"indent":0,"parameters":["2fc_billy2",10,0,2]},{"code":401,"indent":0,"parameters":["...Well, there's... matching my socks when my laundry's"]},{"code":401,"indent":0,"parameters":["done! That's something."]},{"code":101,"indent":0,"parameters":["4fc_cliffgreen1",4,0,2]},{"code":401,"indent":0,"parameters":["That's true, it \\fiis\\fi something..."]},{"code":0,"indent":0,"parameters":[]}]}],"x":15,"y":5},
{"id":17,"name":"EV017","note":"","pages":[{"conditions":{"actorId":1,"actorValid":false,"itemId":1,"itemValid":false,"selfSwitchCh":"A","selfSwitchValid":false,"switch1Id":1,"switch1Valid":false,"switch2Id":1,"switch2Valid":false,"variableId":1,"variableValid":false,"variableValue":0},"directionFix":false,"image":{"tileId":129,"characterName":"","direction":2,"pattern":0,"characterIndex":0},"moveFrequency":3,"moveRoute":{"list":[{"code":0,"indent":null,"parameters":[]}],"repeat":true,"skippable":false,"wait":false},"moveSpeed":3,"moveType":0,"priorityType":1,"stepAnime":false,"through":false,"trigger":0,"walkAnime":true,"list":[{"code":108,"indent":0,"parameters":["MOVE 0, -8"]},{"code":101,"indent":0,"parameters":["3fc_jenny1",0,0,2]},{"code":401,"indent":0,"parameters":["Who gave you those toys?"]},{"code":101,"indent":0,"parameters":["2fc_billy1",3,0,2]},{"code":401,"indent":0,"parameters":["Who says I didn't just throw them away on my own??"]},{"code":101,"indent":0,"parameters":["4fc_cliffgreen1",6,0,2]},{"code":401,"indent":0,"parameters":["Wait, you're throwing these away? These are still in"]},{"code":401,"indent":0,"parameters":["really good condition."]},{"code":101,"indent":0,"parameters":["2fc_billy2",10,0,2]},{"code":401,"indent":0,"parameters":["You want them, Cliff?"]},{"code":101,"indent":0,"parameters":["4fc_cliffgreen1",4,0,2]},{"code":401,"indent":0,"parameters":["Well, if I could take them out of Wireland, I would."]},{"code":401,"indent":0,"parameters":["Willa would probably love them."]},{"code":101,"indent":0,"parameters":["3fc_jenny1",0,0,2]},{"code":401,"indent":0,"parameters":["Your little sister?"]},{"code":101,"indent":0,"parameters":["4fc_cliffgreen1",1,0,2]},{"code":401,"indent":0,"parameters":["Yep!"]},{"code":101,"indent":0,"parameters":["2fc_billy1",2,0,2]},{"code":401,"indent":0,"parameters":["Well, if you can figure out how to do it, you're more"]},{"code":401,"indent":0,"parameters":["than welcome to them."]},{"code":101,"indent":0,"parameters":["1fc_jack2",15,0,2]},{"code":401,"indent":0,"parameters":["...So wait, back to the original question... who gave these"]},{"code":401,"indent":0,"parameters":["to you?"]},{"code":101,"indent":0,"parameters":["2fc_billy1",6,0,2]},{"code":401,"indent":0,"parameters":["NO COMMENT."]},{"code":0,"indent":0,"parameters":[]}]}],"x":16,"y":6},
null,
{"id":19,"name":"EV019","note":"","pages":[{"conditions":{"actorId":1,"actorValid":false,"itemId":1,"itemValid":false,"selfSwitchCh":"A","selfSwitchValid":false,"switch1Id":1,"switch1Valid":false,"switch2Id":1,"switch2Valid":false,"variableId":1,"variableValid":false,"variableValue":0},"directionFix":false,"image":{"tileId":0,"characterName":"","direction":2,"pattern":0,"characterIndex":0},"moveFrequency":3,"moveRoute":{"list":[{"code":0,"indent":null,"parameters":[]}],"repeat":true,"skippable":false,"wait":false},"moveSpeed":3,"moveType":0,"priorityType":0,"stepAnime":false,"through":false,"trigger":1,"walkAnime":true,"list":[{"code":242,"indent":0,"parameters":[1]},{"code":201,"indent":0,"parameters":[0,75,23,14,8,0]},{"code":241,"indent":0,"parameters":[{"name":"mus_heartbyte","pan":0,"pitch":100,"volume":60}]},{"code":0,"indent":0,"parameters":[]}]}],"x":5,"y":12},
{"id":20,"name":"EV020","note":"","pages":[{"conditions":{"actorId":1,"actorValid":false,"itemId":1,"itemValid":false,"selfSwitchCh":"A","selfSwitchValid":false,"switch1Id":1,"switch1Valid":false,"switch2Id":1,"switch2Valid":false,"variableId":1,"variableValid":false,"variableValue":0},"directionFix":false,"image":{"tileId":0,"characterName":"","direction":2,"pattern":0,"characterIndex":0},"moveFrequency":3,"moveRoute":{"list":[{"code":0,"indent":null,"parameters":[]}],"repeat":true,"skippable":false,"wait":false},"moveSpeed":3,"moveType":0,"priorityType":0,"stepAnime":false,"through":false,"trigger":1,"walkAnime":true,"list":[{"code":242,"indent":0,"parameters":[1]},{"code":201,"indent":0,"parameters":[0,75,23,14,8,0]},{"code":241,"indent":0,"parameters":[{"name":"mus_heartbyte","pan":0,"pitch":100,"volume":60}]},{"code":0,"indent":0,"parameters":[]}]}],"x":6,"y":12},
{"id":21,"name":"EV021","note":"","pages":[{"conditions":{"actorId":1,"actorValid":false,"itemId":1,"itemValid":false,"selfSwitchCh":"A","selfSwitchValid":false,"switch1Id":1,"switch1Valid":false,"switch2Id":1,"switch2Valid":false,"variableId":1,"variableValid":false,"variableValue":0},"directionFix":false,"image":{"tileId":0,"characterName":"!Door3","direction":2,"pattern":1,"characterIndex":5},"moveFrequency":3,"moveRoute":{"list":[{"code":0,"indent":null,"parameters":[]}],"repeat":true,"skippable":false,"wait":false},"moveSpeed":3,"moveType":0,"priorityType":1,"stepAnime":false,"through":false,"trigger":1,"walkAnime":true,"list":[{"code":250,"indent":0,"parameters":[{"name":"Open1","pan":0,"pitch":100,"volume":80}]},{"code":201,"indent":0,"parameters":[0,116,9,9,8,0]},{"code":0,"indent":0,"parameters":[]}]}],"x":10,"y":5},
{"id":22,"name":"EV022","note":"","pages":[{"conditions":{"actorId":1,"actorValid":false,"itemId":1,"itemValid":false,"selfSwitchCh":"A","selfSwitchValid":false,"switch1Id":1,"switch1Valid":false,"switch2Id":1,"switch2Valid":false,"variableId":1,"variableValid":false,"variableValue":0},"directionFix":false,"image":{"tileId":0,"characterName":"","direction":2,"pattern":0,"characterIndex":0},"moveFrequency":3,"moveRoute":{"list":[{"code":0,"indent":null,"parameters":[]}],"repeat":true,"skippable":false,"wait":false},"moveSpeed":3,"moveType":0,"priorityType":0,"stepAnime":false,"through":false,"trigger":0,"walkAnime":true,"list":[{"code":101,"indent":0,"parameters":["4fc_cliffgreen1",2,0,2]},{"code":401,"indent":0,"parameters":["Hey, bagels! I love bagels!"]},{"code":101,"indent":0,"parameters":["3fc_jenny2",3,0,2]},{"code":401,"indent":0,"parameters":["Really? You always struck me as a donut kind of guy."]},{"code":101,"indent":0,"parameters":["4fc_cliffgreen1",0,0,2]},{"code":401,"indent":0,"parameters":["Oh, I am. Definitely. But a bagel with some jam or cream"]},{"code":401,"indent":0,"parameters":["cheese is amazing."]},{"code":101,"indent":0,"parameters":["1fc_jack1",0,0,2]},{"code":401,"indent":0,"parameters":["How come you've got a plate of bagels sitting out,"]},{"code":401,"indent":0,"parameters":["anyway?"]},{"code":101,"indent":0,"parameters":["2fc_billy1",4,0,2]},{"code":401,"indent":0,"parameters":["Oh, I made them myself. Baking's kinda fun sometimes."]},{"code":101,"indent":0,"parameters":["4fc_cliffgreen1",4,0,2]},{"code":401,"indent":0,"parameters":["Baking? You don't bake bagels."]},{"code":101,"indent":0,"parameters":["2fc_billy2",6,0,2]},{"code":401,"indent":0,"parameters":["And now you're the expert on bagels?"]},{"code":101,"indent":0,"parameters":["4fc_cliffgreen1",0,0,2]},{"code":401,"indent":0,"parameters":["Well, I wouldn't call myself an expert, but I've made a"]},{"code":401,"indent":0,"parameters":["few. It's really cool to watch the dough cooking in the"]},{"code":401,"indent":0,"parameters":["boiling water."]},{"code":101,"indent":0,"parameters":["2fc_billy1",3,0,2]},{"code":401,"indent":0,"parameters":["That's impossible!"]},{"code":101,"indent":0,"parameters":["4fc_cliffgreen2",8,0,2]},{"code":401,"indent":0,"parameters":["Why?"]},{"code":101,"indent":0,"parameters":["2fc_billy2",10,0,2]},{"code":401,"indent":0,"parameters":["They would have to float!"]},{"code":101,"indent":0,"parameters":["4fc_cliffgreen2",10,0,2]},{"code":401,"indent":0,"parameters":["So?"]},{"code":101,"indent":0,"parameters":["2fc_billy1",2,0,2]},{"code":401,"indent":0,"parameters":["So they would just get waterlogged and sink to the"]},{"code":401,"indent":0,"parameters":["bottom!"]},{"code":101,"indent":0,"parameters":["4fc_cliffgreen1",4,0,2]},{"code":401,"indent":0,"parameters":["Well, French fries float."]},{"code":101,"indent":0,"parameters":["2fc_billy1",10,0,2]},{"code":401,"indent":0,"parameters":["That's because they're fried in oil. Oil floats on water!"]},{"code":101,"indent":0,"parameters":["4fc_cliffgreen1",4,0,2]},{"code":401,"indent":0,"parameters":["Exactly, so if French fries float in oil and oil floats on water,"]},{"code":401,"indent":0,"parameters":["then French fries are going to float on water."]},{"code":101,"indent":0,"parameters":["2fc_billy1",3,0,2]},{"code":401,"indent":0,"parameters":["But we're not talking about French fries, we're talking"]},{"code":401,"indent":0,"parameters":["about bread dough."]},{"code":101,"indent":0,"parameters":["4fc_cliffgreen1",0,0,2]},{"code":401,"indent":0,"parameters":["Well I'm just telling you, baking has nothing to do with how"]},{"code":401,"indent":0,"parameters":["they're cooked. They boil the water in a big vat and the"]},{"code":401,"indent":0,"parameters":["water cooks the dough while it floats."]},{"code":101,"indent":0,"parameters":["2fc_billy1",3,0,2]},{"code":401,"indent":0,"parameters":["That would be poaching! You don't poach dough, they're"]},{"code":401,"indent":0,"parameters":["not called poachels, they're bagels; they're baked, get it?"]},{"code":101,"indent":0,"parameters":["4fc_cliffgreen2",8,0,2]},{"code":401,"indent":0,"parameters":["If it's not boiled in water, it's just a roll with a hole."]},{"code":101,"indent":0,"parameters":["2fc_billy2",6,0,2]},{"code":401,"indent":0,"parameters":["Oh yeah? Well think about this: if you drop dough into a"]},{"code":401,"indent":0,"parameters":["lake, even if it's a boiling lake, it's just going to sink to the"]},{"code":401,"indent":0,"parameters":["bottom. Now a dough\\finut\\fi, yes, that would stay buoyant for"]},{"code":401,"indent":0,"parameters":["maybe an hour but only because it's been fried in oil."]},{"code":101,"indent":0,"parameters":["3fc_jenny1",4,0,2]},{"code":401,"indent":0,"parameters":["Umm..."]},{"code":101,"indent":0,"parameters":["4fc_cliffgreen2",12,0,2]},{"code":401,"indent":0,"parameters":["Maybe we should talk about something else."]},{"code":101,"indent":0,"parameters":["2fc_billy2",5,0,2]},{"code":401,"indent":0,"parameters":["For once, I agree with you."]},{"code":123,"indent":0,"parameters":["A",0]},{"code":0,"indent":0,"parameters":[]}]},{"conditions":{"actorId":1,"actorValid":false,"itemId":1,"itemValid":false,"selfSwitchCh":"A","selfSwitchValid":true,"switch1Id":1,"switch1Valid":false,"switch2Id":1,"switch2Valid":false,"variableId":1,"variableValid":false,"variableValue":0},"directionFix":false,"image":{"characterIndex":0,"characterName":"","direction":2,"pattern":0,"tileId":0},"list":[{"code":101,"indent":0,"parameters":["2fc_billy2",5,0,2]},{"code":401,"indent":0,"parameters":["Oh no. We're not starting this again."]},{"code":0,"indent":0,"parameters":[]}],"moveFrequency":3,"moveRoute":{"list":[{"code":0,"parameters":[]}],"repeat":true,"skippable":false,"wait":false},"moveSpeed":3,"moveType":0,"priorityType":0,"stepAnime":false,"through":false,"trigger":0,"walkAnime":true}],"x":15,"y":8},
{"id":23,"name":"EV023","note":"","pages":[{"conditions":{"actorId":1,"actorValid":false,"itemId":1,"itemValid":false,"selfSwitchCh":"A","selfSwitchValid":false,"switch1Id":1,"switch1Valid":false,"switch2Id":1,"switch2Valid":false,"variableId":1,"variableValid":false,"variableValue":0},"directionFix":false,"image":{"tileId":0,"characterName":"","direction":2,"pattern":0,"characterIndex":0},"moveFrequency":3,"moveRoute":{"list":[{"code":0,"indent":null,"parameters":[]}],"repeat":true,"skippable":false,"wait":false},"moveSpeed":3,"moveType":0,"priorityType":1,"stepAnime":false,"through":false,"trigger":0,"walkAnime":true,"list":[{"code":101,"indent":0,"parameters":["1fc_jack1",4,0,0]},{"code":401,"indent":0,"parameters":["Awww, what a cute turtle!"]},{"code":101,"indent":0,"parameters":["4fc_cliffgreen1",4,0,0]},{"code":401,"indent":0,"parameters":["Turtle?? I smell Anti nearby..."]},{"code":101,"indent":0,"parameters":["2fc_billy1",10,0,0]},{"code":401,"indent":0,"parameters":["Noooo, that's MY turtle."]},{"code":101,"indent":0,"parameters":["2fc_billy1",4,0,0]},{"code":401,"indent":0,"parameters":["Her name is Bubbles."]},{"code":101,"indent":0,"parameters":["3fc_jenny1",0,0,0]},{"code":401,"indent":0,"parameters":["Aww, that's a really cute name!"]},{"code":101,"indent":0,"parameters":["1fc_jack1",2,0,0]},{"code":401,"indent":0,"parameters":["Yeah, unusually cute for you, Billy."]},{"code":101,"indent":0,"parameters":["fc_billy_blushing",2,0,0]},{"code":401,"indent":0,"parameters":["...Look, FRAN named her, okay??"]},{"code":101,"indent":0,"parameters":["3fc_jenny1",3,0,0]},{"code":401,"indent":0,"parameters":["That's also really sweet."]},{"code":0,"indent":0,"parameters":[]}]}],"x":4,"y":11},
{"id":24,"name":"EV024","note":"","pages":[{"conditions":{"actorId":1,"actorValid":false,"itemId":1,"itemValid":false,"selfSwitchCh":"A","selfSwitchValid":false,"switch1Id":1,"switch1Valid":false,"switch2Id":1,"switch2Valid":false,"variableId":1,"variableValid":false,"variableValue":0},"directionFix":false,"image":{"tileId":0,"characterName":"","direction":2,"pattern":0,"characterIndex":0},"moveFrequency":3,"moveRoute":{"list":[{"code":0,"indent":null,"parameters":[]}],"repeat":true,"skippable":false,"wait":false},"moveSpeed":3,"moveType":0,"priorityType":1,"stepAnime":false,"through":false,"trigger":0,"walkAnime":true,"list":[{"code":101,"indent":0,"parameters":["1fc_jack1",4,0,0]},{"code":401,"indent":0,"parameters":["Awww, what a cute turtle!"]},{"code":101,"indent":0,"parameters":["4fc_cliffgreen1",4,0,0]},{"code":401,"indent":0,"parameters":["Turtle?? I smell Anti nearby..."]},{"code":101,"indent":0,"parameters":["2fc_billy1",10,0,0]},{"code":401,"indent":0,"parameters":["Noooo, that's MY turtle."]},{"code":101,"indent":0,"parameters":["2fc_billy1",4,0,0]},{"code":401,"indent":0,"parameters":["Her name is Bubbles."]},{"code":101,"indent":0,"parameters":["3fc_jenny1",0,0,0]},{"code":401,"indent":0,"parameters":["Aww, that's a really cute name!"]},{"code":101,"indent":0,"parameters":["1fc_jack1",2,0,0]},{"code":401,"indent":0,"parameters":["Yeah, unusually cute for you, Billy."]},{"code":101,"indent":0,"parameters":["fc_billy_blushing",2,0,0]},{"code":401,"indent":0,"parameters":["...Look, FRAN named her, okay??"]},{"code":101,"indent":0,"parameters":["3fc_jenny1",3,0,0]},{"code":401,"indent":0,"parameters":["That's also really sweet."]},{"code":0,"indent":0,"parameters":[]}]}],"x":3,"y":11},
{"id":25,"name":"EV025","note":"","pages":[{"conditions":{"actorId":1,"actorValid":false,"itemId":1,"itemValid":false,"selfSwitchCh":"A","selfSwitchValid":false,"switch1Id":1,"switch1Valid":false,"switch2Id":1,"switch2Valid":false,"variableId":1,"variableValid":false,"variableValue":0},"directionFix":false,"image":{"tileId":0,"characterName":"","direction":2,"pattern":0,"characterIndex":0},"moveFrequency":3,"moveRoute":{"list":[{"code":0,"indent":null,"parameters":[]}],"repeat":true,"skippable":false,"wait":false},"moveSpeed":3,"moveType":0,"priorityType":1,"stepAnime":false,"through":false,"trigger":0,"walkAnime":true,"list":[{"code":101,"indent":0,"parameters":["1fc_jack1",8,0,0]},{"code":401,"indent":0,"parameters":["Heeeeeey, Billy! Do you have 90 minutes??"]},{"code":101,"indent":0,"parameters":["2fc_billy1",10,0,0]},{"code":401,"indent":0,"parameters":["Ugh, is your memory made of Swiss cheese?? I was"]},{"code":401,"indent":0,"parameters":["THERE."]},{"code":0,"indent":0,"parameters":[]}]}],"x":7,"y":9},
{"id":26,"name":"EV026","note":"","pages":[{"conditions":{"actorId":1,"actorValid":false,"itemId":1,"itemValid":false,"selfSwitchCh":"A","selfSwitchValid":false,"switch1Id":1,"switch1Valid":false,"switch2Id":1,"switch2Valid":false,"variableId":1,"variableValid":false,"variableValue":0},"directionFix":false,"image":{"tileId":0,"characterName":"","direction":2,"pattern":0,"characterIndex":0},"moveFrequency":3,"moveRoute":{"list":[{"code":0,"indent":null,"parameters":[]}],"repeat":true,"skippable":false,"wait":false},"moveSpeed":3,"moveType":0,"priorityType":1,"stepAnime":false,"through":false,"trigger":0,"walkAnime":true,"list":[{"code":101,"indent":0,"parameters":["1fc_jack1",2,0,0]},{"code":401,"indent":0,"parameters":["You water this thing? You're not so irresponsible after"]},{"code":401,"indent":0,"parameters":["all, I see."]},{"code":101,"indent":0,"parameters":["2fc_billy1",0,0,0]},{"code":401,"indent":0,"parameters":["Actually it's plastic."]},{"code":101,"indent":0,"parameters":["4fc_cliffgreen1",4,0,0]},{"code":401,"indent":0,"parameters":["Not even to clean it?"]},{"code":101,"indent":0,"parameters":["2fc_billy1",2,0,0]},{"code":401,"indent":0,"parameters":["...Okay, only THEN do I water it."]},{"code":0,"indent":0,"parameters":[]}]}],"x":8,"y":10},
{"id":27,"name":"EV027","note":"","pages":[{"conditions":{"actorId":1,"actorValid":false,"itemId":1,"itemValid":false,"selfSwitchCh":"A","selfSwitchValid":false,"switch1Id":1,"switch1Valid":false,"switch2Id":1,"switch2Valid":false,"variableId":1,"variableValid":false,"variableValue":0},"directionFix":false,"image":{"tileId":0,"characterName":"","direction":2,"pattern":0,"characterIndex":0},"moveFrequency":3,"moveRoute":{"list":[{"code":0,"indent":null,"parameters":[]}],"repeat":true,"skippable":false,"wait":false},"moveSpeed":3,"moveType":0,"priorityType":1,"stepAnime":false,"through":false,"trigger":0,"walkAnime":true,"list":[{"code":101,"indent":0,"parameters":["4fc_cliffgreen1",4,0,2]},{"code":401,"indent":0,"parameters":["There's a \\filot\\fi of ice cream in there."]},{"code":101,"indent":0,"parameters":["2fc_billy1",2,0,2]},{"code":401,"indent":0,"parameters":["I'm a kid; what do you expect?"]},{"code":101,"indent":0,"parameters":["3fc_jenny1",0,0,2]},{"code":401,"indent":0,"parameters":["At least you have some vegetables in here too."]},{"code":101,"indent":0,"parameters":["2fc_billy1",4,0,2]},{"code":401,"indent":0,"parameters":["Amen to that. I'm super thankful baby carrots are"]},{"code":401,"indent":0,"parameters":["counted among them."]},{"code":101,"indent":0,"parameters":["4fc_cliffgreen2",1,0,2]},{"code":401,"indent":0,"parameters":["So's... wait, that's sauerkraut!"]},{"code":101,"indent":0,"parameters":["2fc_billy1",3,0,2]},{"code":401,"indent":0,"parameters":["And?"]},{"code":101,"indent":0,"parameters":["4fc_cliffgreen1",4,0,2]},{"code":401,"indent":0,"parameters":["It's just, I dunno... unusual to see in a kid-stocked"]},{"code":401,"indent":0,"parameters":["fridge?"]},{"code":101,"indent":0,"parameters":["2fc_billy1",10,0,2]},{"code":401,"indent":0,"parameters":["Look, did I graciously invite you all into my home so"]},{"code":401,"indent":0,"parameters":["you could judge my taste in food??"]},{"code":101,"indent":0,"parameters":["1fc_jack2",2,0,2]},{"code":401,"indent":0,"parameters":["Nope... nope, sorry."]},{"code":0,"indent":0,"parameters":[]}]}],"x":12,"y":5},
{"id":28,"name":"EV028","note":"","pages":[{"conditions":{"actorId":1,"actorValid":false,"itemId":1,"itemValid":false,"selfSwitchCh":"A","selfSwitchValid":false,"switch1Id":1,"switch1Valid":false,"switch2Id":1,"switch2Valid":false,"variableId":1,"variableValid":false,"variableValue":0},"directionFix":false,"image":{"tileId":0,"characterName":"","direction":2,"pattern":0,"characterIndex":0},"moveFrequency":3,"moveRoute":{"list":[{"code":0,"indent":null,"parameters":[]}],"repeat":true,"skippable":false,"wait":false},"moveSpeed":3,"moveType":0,"priorityType":1,"stepAnime":false,"through":false,"trigger":0,"walkAnime":true,"list":[{"code":101,"indent":0,"parameters":["1fc_jack1",1,0,2]},{"code":401,"indent":0,"parameters":["It's an electric cooker. As much as I love mine--"]},{"code":101,"indent":0,"parameters":["2fc_billy1",10,0,2]},{"code":401,"indent":0,"parameters":["Look, you have a really weird relationship with your"]},{"code":401,"indent":0,"parameters":["cooker. Mine's a strictly professional one, thank you"]},{"code":401,"indent":0,"parameters":["very much."]},{"code":101,"indent":0,"parameters":["1fc_jack1",3,0,2]},{"code":401,"indent":0,"parameters":["If you keep being this impersonal with yours, it might"]},{"code":401,"indent":0,"parameters":["accidentally set you on fire one of these days."]},{"code":101,"indent":0,"parameters":["2fc_billy1",2,0,2]},{"code":401,"indent":0,"parameters":["I'm glad it's not sentient, otherwise I'd have to throw"]},{"code":401,"indent":0,"parameters":["you out for giving it ideas..."]},{"code":0,"indent":0,"parameters":[]}]}],"x":13,"y":5},
{"id":29,"name":"EV029","note":"","pages":[{"conditions":{"actorId":1,"actorValid":false,"itemId":1,"itemValid":false,"selfSwitchCh":"A","selfSwitchValid":false,"switch1Id":1,"switch1Valid":false,"switch2Id":1,"switch2Valid":false,"variableId":1,"variableValid":false,"variableValue":0},"directionFix":false,"image":{"tileId":0,"characterName":"","direction":2,"pattern":0,"characterIndex":0},"moveFrequency":3,"moveRoute":{"list":[{"code":0,"indent":null,"parameters":[]}],"repeat":true,"skippable":false,"wait":false},"moveSpeed":3,"moveType":0,"priorityType":1,"stepAnime":false,"through":false,"trigger":0,"walkAnime":true,"list":[{"code":101,"indent":0,"parameters":["1fc_jack1",3,0,2]},{"code":401,"indent":0,"parameters":["Figures you wouldn't make your bed in the morning."]},{"code":101,"indent":0,"parameters":["2fc_billy1",2,0,2]},{"code":401,"indent":0,"parameters":["Who would? You're just going to get back into it at night"]},{"code":401,"indent":0,"parameters":["again. Or if you're taking a midday nap."]},{"code":101,"indent":0,"parameters":["4fc_cliffgreen1",4,0,2]},{"code":401,"indent":0,"parameters":["That's my philosophy on beds too. My mom's, on the"]},{"code":401,"indent":0,"parameters":["other hand, seems to have come into conflict with that."]},{"code":101,"indent":0,"parameters":["1fc_jack1",2,0,2]},{"code":401,"indent":0,"parameters":["Who won?"]},{"code":101,"indent":0,"parameters":["4fc_cliffgreen1",6,0,2]},{"code":401,"indent":0,"parameters":["Take a guess..."]},{"code":0,"indent":0,"parameters":[]}]}],"x":3,"y":6},
{"id":30,"name":"EV030","note":"","pages":[{"conditions":{"actorId":1,"actorValid":false,"itemId":1,"itemValid":false,"selfSwitchCh":"A","selfSwitchValid":false,"switch1Id":1,"switch1Valid":false,"switch2Id":1,"switch2Valid":false,"variableId":1,"variableValid":false,"variableValue":0},"directionFix":false,"image":{"tileId":0,"characterName":"","direction":2,"pattern":0,"characterIndex":0},"moveFrequency":3,"moveRoute":{"list":[{"code":0,"indent":null,"parameters":[]}],"repeat":true,"skippable":false,"wait":false},"moveSpeed":3,"moveType":0,"priorityType":1,"stepAnime":false,"through":false,"trigger":0,"walkAnime":true,"list":[{"code":101,"indent":0,"parameters":["1fc_jack1",3,0,2]},{"code":401,"indent":0,"parameters":["Figures you wouldn't make your bed in the morning."]},{"code":101,"indent":0,"parameters":["2fc_billy1",2,0,2]},{"code":401,"indent":0,"parameters":["Who would? You're just going to get back into it at night"]},{"code":401,"indent":0,"parameters":["again. Or if you're taking a midday nap."]},{"code":101,"indent":0,"parameters":["4fc_cliffgreen1",4,0,2]},{"code":401,"indent":0,"parameters":["That's my philosophy on beds too. My mom's, on the"]},{"code":401,"indent":0,"parameters":["other hand, seems to have come into conflict with that."]},{"code":101,"indent":0,"parameters":["1fc_jack1",2,0,2]},{"code":401,"indent":0,"parameters":["Who won?"]},{"code":101,"indent":0,"parameters":["4fc_cliffgreen1",6,0,2]},{"code":401,"indent":0,"parameters":["Take a guess..."]},{"code":0,"indent":0,"parameters":[]}]}],"x":3,"y":5},
{"id":31,"name":"EV031","note":"","pages":[{"conditions":{"actorId":1,"actorValid":false,"itemId":1,"itemValid":false,"selfSwitchCh":"A","selfSwitchValid":false,"switch1Id":1,"switch1Valid":false,"switch2Id":1,"switch2Valid":false,"variableId":1,"variableValid":false,"variableValue":0},"directionFix":false,"image":{"tileId":0,"characterName":"","direction":2,"pattern":0,"characterIndex":0},"moveFrequency":3,"moveRoute":{"list":[{"code":0,"indent":null,"parameters":[]}],"repeat":true,"skippable":false,"wait":false},"moveSpeed":3,"moveType":0,"priorityType":1,"stepAnime":false,"through":false,"trigger":0,"walkAnime":true,"list":[{"code":101,"indent":0,"parameters":["1fc_jack1",1,0,2]},{"code":401,"indent":0,"parameters":["Nice view!"]},{"code":101,"indent":0,"parameters":["2fc_billy1",0,0,2]},{"code":401,"indent":0,"parameters":["Uh, thanks. It's Byte'on."]},{"code":101,"indent":0,"parameters":["1fc_jack1",3,0,2]},{"code":401,"indent":0,"parameters":["Well that's good; I'd be shocked if I saw anything else"]},{"code":401,"indent":0,"parameters":["out there!"]},{"code":101,"indent":0,"parameters":["4fc_cliffgreen1",4,0,2]},{"code":401,"indent":0,"parameters":["Like Oz? Or Narnia? Or--"]},{"code":101,"indent":0,"parameters":["2fc_billy1",10,0,2]},{"code":401,"indent":0,"parameters":["I don't know what you guys were expecting, okay??"]},{"code":401,"indent":0,"parameters":["It's freaking Wireland! I just meant that you've"]},{"code":401,"indent":0,"parameters":["already seen it, so it shouldn't be surprising!"]},{"code":101,"indent":0,"parameters":["1fc_jack1",4,0,2]},{"code":401,"indent":0,"parameters":["Sorry, Billy; but I mean, sometimes, it just takes seeing"]},{"code":401,"indent":0,"parameters":["something from a different angle to give you a new"]},{"code":401,"indent":0,"parameters":["appreciation of it."]},{"code":101,"indent":0,"parameters":["2fc_billy1",3,0,2]},{"code":401,"indent":0,"parameters":["..."]},{"code":101,"indent":0,"parameters":["2fc_billy1",2,0,2]},{"code":401,"indent":0,"parameters":["Okay, first of all, that was deep. Really. But second of"]},{"code":401,"indent":0,"parameters":["all, I'm so sorry Wireland's already boring to you."]},{"code":101,"indent":0,"parameters":["1fc_jack1",2,0,2]},{"code":401,"indent":0,"parameters":["Oh trust me, it's not boring. It just keeps surprising me,"]},{"code":401,"indent":0,"parameters":["that's all."]},{"code":0,"indent":0,"parameters":[]}]}],"x":6,"y":4},
{"id":32,"name":"EV032","note":"","pages":[{"conditions":{"actorId":1,"actorValid":false,"itemId":1,"itemValid":false,"selfSwitchCh":"A","selfSwitchValid":false,"switch1Id":1,"switch1Valid":false,"switch2Id":1,"switch2Valid":false,"variableId":1,"variableValid":false,"variableValue":0},"directionFix":false,"image":{"tileId":0,"characterName":"","direction":2,"pattern":0,"characterIndex":0},"moveFrequency":3,"moveRoute":{"list":[{"code":0,"indent":null,"parameters":[]}],"repeat":true,"skippable":false,"wait":false},"moveSpeed":3,"moveType":0,"priorityType":1,"stepAnime":false,"through":false,"trigger":0,"walkAnime":true,"list":[{"code":101,"indent":0,"parameters":["1fc_jack1",1,0,2]},{"code":401,"indent":0,"parameters":["Nice view!"]},{"code":101,"indent":0,"parameters":["2fc_billy1",0,0,2]},{"code":401,"indent":0,"parameters":["Uh, thanks. It's Byte'on."]},{"code":101,"indent":0,"parameters":["1fc_jack1",3,0,2]},{"code":401,"indent":0,"parameters":["Well that's good; I'd be shocked if I saw anything else"]},{"code":401,"indent":0,"parameters":["out there!"]},{"code":101,"indent":0,"parameters":["4fc_cliffgreen1",4,0,2]},{"code":401,"indent":0,"parameters":["Like Oz? Or Narnia? Or--"]},{"code":101,"indent":0,"parameters":["2fc_billy1",10,0,2]},{"code":401,"indent":0,"parameters":["I don't know what you guys were expecting, okay??"]},{"code":401,"indent":0,"parameters":["It's freaking Wireland! I just meant that you've"]},{"code":401,"indent":0,"parameters":["already seen it, so it shouldn't be surprising!"]},{"code":101,"indent":0,"parameters":["1fc_jack1",4,0,2]},{"code":401,"indent":0,"parameters":["Sorry, Billy; but I mean, sometimes, it just takes seeing"]},{"code":401,"indent":0,"parameters":["something from a different angle to give you a new"]},{"code":401,"indent":0,"parameters":["appreciation of it."]},{"code":101,"indent":0,"parameters":["2fc_billy1",3,0,2]},{"code":401,"indent":0,"parameters":["..."]},{"code":101,"indent":0,"parameters":["2fc_billy1",2,0,2]},{"code":401,"indent":0,"parameters":["Okay, first of all, that was deep. Really. But second of"]},{"code":401,"indent":0,"parameters":["all, I'm so sorry Wireland's already boring to you."]},{"code":101,"indent":0,"parameters":["1fc_jack1",2,0,2]},{"code":401,"indent":0,"parameters":["Oh trust me, it's not boring. It just keeps surprising me,"]},{"code":401,"indent":0,"parameters":["that's all."]},{"code":0,"indent":0,"parameters":[]}]}],"x":5,"y":4},
{"id":33,"name":"EV033","note":"","pages":[{"conditions":{"actorId":1,"actorValid":false,"itemId":1,"itemValid":false,"selfSwitchCh":"A","selfSwitchValid":false,"switch1Id":1,"switch1Valid":false,"switch2Id":1,"switch2Valid":false,"variableId":1,"variableValid":false,"variableValue":0},"directionFix":false,"image":{"tileId":0,"characterName":"","direction":2,"pattern":0,"characterIndex":0},"moveFrequency":3,"moveRoute":{"list":[{"code":0,"indent":null,"parameters":[]}],"repeat":true,"skippable":false,"wait":false},"moveSpeed":3,"moveType":0,"priorityType":1,"stepAnime":false,"through":false,"trigger":0,"walkAnime":true,"list":[{"code":101,"indent":0,"parameters":["1fc_jack1",1,0,2]},{"code":401,"indent":0,"parameters":["Nice view!"]},{"code":101,"indent":0,"parameters":["2fc_billy1",0,0,2]},{"code":401,"indent":0,"parameters":["Uh, thanks. It's Byte'on."]},{"code":101,"indent":0,"parameters":["1fc_jack1",3,0,2]},{"code":401,"indent":0,"parameters":["Well that's good; I'd be shocked if I saw anything else"]},{"code":401,"indent":0,"parameters":["out there!"]},{"code":101,"indent":0,"parameters":["4fc_cliffgreen1",4,0,2]},{"code":401,"indent":0,"parameters":["Like Oz? Or Narnia? Or--"]},{"code":101,"indent":0,"parameters":["2fc_billy1",10,0,2]},{"code":401,"indent":0,"parameters":["I don't know what you guys were expecting, okay??"]},{"code":401,"indent":0,"parameters":["It's freaking Wireland! I just meant that you've"]},{"code":401,"indent":0,"parameters":["already seen it, so it shouldn't be surprising!"]},{"code":101,"indent":0,"parameters":["1fc_jack1",4,0,2]},{"code":401,"indent":0,"parameters":["Sorry, Billy; but I mean, sometimes, it just takes seeing"]},{"code":401,"indent":0,"parameters":["something from a different angle to give you a new"]},{"code":401,"indent":0,"parameters":["appreciation of it."]},{"code":101,"indent":0,"parameters":["2fc_billy1",3,0,2]},{"code":401,"indent":0,"parameters":["..."]},{"code":101,"indent":0,"parameters":["2fc_billy1",2,0,2]},{"code":401,"indent":0,"parameters":["Okay, first of all, that was deep. Really. But second of"]},{"code":401,"indent":0,"parameters":["all, I'm so sorry Wireland's already boring to you."]},{"code":101,"indent":0,"parameters":["1fc_jack1",2,0,2]},{"code":401,"indent":0,"parameters":["Oh trust me, it's not boring. It just keeps surprising me,"]},{"code":401,"indent":0,"parameters":["that's all."]},{"code":0,"indent":0,"parameters":[]}]},{"conditions":{"actorId":1,"actorValid":false,"itemId":1,"itemValid":false,"selfSwitchCh":"A","selfSwitchValid":false,"switch1Id":1,"switch1Valid":false,"switch2Id":1,"switch2Valid":false,"variableId":57,"variableValid":true,"variableValue":12},"directionFix":false,"image":{"tileId":877,"characterName":"","direction":2,"pattern":0,"characterIndex":0},"moveFrequency":3,"moveRoute":{"list":[{"code":0,"indent":null,"parameters":[]}],"repeat":true,"skippable":false,"wait":false},"moveSpeed":3,"moveType":0,"priorityType":1,"stepAnime":false,"through":false,"trigger":0,"walkAnime":true,"list":[{"code":0,"indent":0,"parameters":[]}]}],"x":7,"y":4},
{"id":34,"name":"EV034","note":"","pages":[{"conditions":{"actorId":1,"actorValid":false,"itemId":1,"itemValid":false,"selfSwitchCh":"A","selfSwitchValid":false,"switch1Id":1,"switch1Valid":false,"switch2Id":1,"switch2Valid":false,"variableId":1,"variableValid":false,"variableValue":0},"directionFix":false,"image":{"tileId":0,"characterName":"","direction":2,"pattern":0,"characterIndex":0},"moveFrequency":3,"moveRoute":{"list":[{"code":0,"indent":null,"parameters":[]}],"repeat":true,"skippable":false,"wait":false},"moveSpeed":3,"moveType":0,"priorityType":1,"stepAnime":false,"through":false,"trigger":0,"walkAnime":true,"list":[{"code":101,"indent":0,"parameters":["1fc_jack1",1,0,2]},{"code":401,"indent":0,"parameters":["What's in the drawers?"]},{"code":101,"indent":0,"parameters":["4fc_cliffgreen1",8,0,2]},{"code":401,"indent":0,"parameters":["Drawers, I'm guessing."]},{"code":101,"indent":0,"parameters":["2fc_billy1",6,0,2]},{"code":401,"indent":0,"parameters":["Hey!!"]},{"code":101,"indent":0,"parameters":["2fc_billy1",2,0,2]},{"code":401,"indent":0,"parameters":["It's shirts, okay??"]},{"code":111,"indent":0,"parameters":[1,200,0,6,0]},{"code":111,"indent":1,"parameters":[1,199,0,14,0]},{"code":101,"indent":2,"parameters":["1fc_jack1",2,0,2]},{"code":401,"indent":2,"parameters":["So why do you have cake on your dresser?"]},{"code":101,"indent":2,"parameters":["2fc_billy1",9,0,2]},{"code":401,"indent":2,"parameters":["Umm... it might be my birthday."]},{"code":101,"indent":2,"parameters":["1fc_jack1",0,0,2]},{"code":401,"indent":2,"parameters":["No way! Wait, how do you have a birthday?"]},{"code":101,"indent":2,"parameters":["2fc_billy1",10,0,2]},{"code":401,"indent":2,"parameters":["It's the day Happy Wheels was released. I'm 9 again"]},{"code":401,"indent":2,"parameters":["this year. Woohoo."]},{"code":101,"indent":2,"parameters":["1fc_jack1",1,0,2]},{"code":401,"indent":2,"parameters":["Well happy birthday, Billy!"]},{"code":101,"indent":2,"parameters":["2fc_billy1",9,0,2]},{"code":401,"indent":2,"parameters":["Thanks. I guess."]},{"code":0,"indent":2,"parameters":[]},{"code":412,"indent":1,"parameters":[]},{"code":0,"indent":1,"parameters":[]},{"code":412,"indent":0,"parameters":[]},{"code":0,"indent":0,"parameters":[]}]}],"x":8,"y":5},
{"id":35,"name":"EV035","note":"","pages":[{"conditions":{"actorId":1,"actorValid":false,"itemId":1,"itemValid":false,"selfSwitchCh":"A","selfSwitchValid":false,"switch1Id":1,"switch1Valid":false,"switch2Id":1,"switch2Valid":false,"variableId":1,"variableValid":false,"variableValue":0},"directionFix":false,"image":{"tileId":0,"characterName":"","direction":2,"pattern":0,"characterIndex":0},"moveFrequency":3,"moveRoute":{"list":[{"code":0,"indent":null,"parameters":[]}],"repeat":true,"skippable":false,"wait":false},"moveSpeed":3,"moveType":0,"priorityType":0,"stepAnime":false,"through":false,"trigger":0,"walkAnime":true,"list":[{"code":101,"indent":0,"parameters":["4fc_cliffgreen1",2,0,2]},{"code":401,"indent":0,"parameters":["Books, huh? What kinds of books are you reading?"]},{"code":101,"indent":0,"parameters":["2fc_billy1",6,0,2]},{"code":401,"indent":0,"parameters":["Wait, I don't have my bookmark and--"]},{"code":101,"indent":0,"parameters":["3fc_jenny1",2,0,2]},{"code":401,"indent":0,"parameters":["Watership Down? Kind of heavy for a kid's book..."]},{"code":101,"indent":0,"parameters":["4fc_cliffgreen1",6,0,2]},{"code":401,"indent":0,"parameters":["I SOBBED, man!!"]},{"code":0,"indent":0,"parameters":[]}]}],"x":16,"y":8},
{"id":36,"name":"EV036","note":"","pages":[{"conditions":{"actorId":1,"actorValid":false,"itemId":1,"itemValid":false,"selfSwitchCh":"A","selfSwitchValid":false,"switch1Id":1,"switch1Valid":false,"switch2Id":1,"switch2Valid":false,"variableId":1,"variableValid":false,"variableValue":0},"directionFix":false,"image":{"tileId":0,"characterName":"","direction":2,"pattern":0,"characterIndex":0},"moveFrequency":3,"moveRoute":{"list":[{"code":0,"indent":null,"parameters":[]}],"repeat":true,"skippable":false,"wait":false},"moveSpeed":3,"moveType":0,"priorityType":0,"stepAnime":false,"through":false,"trigger":0,"walkAnime":true,"list":[{"code":101,"indent":0,"parameters":["1fc_jack1",1,0,2]},{"code":401,"indent":0,"parameters":["Fruit drinks? What flavours? They look delicious!"]},{"code":101,"indent":0,"parameters":["2fc_billy1",13,0,2]},{"code":401,"indent":0,"parameters":["Blood and Pine Sol."]},{"code":101,"indent":0,"parameters":["1fc_jack1",15,0,2]},{"code":401,"indent":0,"parameters":["...???!!!?!?!!?"]},{"code":101,"indent":0,"parameters":["2fc_billy1",3,0,2]},{"code":401,"indent":0,"parameters":["Okay, it's actually orange and red Hawaiian punch. I like"]},{"code":401,"indent":0,"parameters":["to mix them, okay??"]},{"code":101,"indent":0,"parameters":["1fc_jack1",4,0,2]},{"code":401,"indent":0,"parameters":["Ohhhh, okay. You had me really concerned there for a"]},{"code":401,"indent":0,"parameters":["second, Billy."]},{"code":101,"indent":0,"parameters":["2fc_billy1",10,0,2]},{"code":401,"indent":0,"parameters":["\\fiThis\\fi from the man who impaled me on spikes"]},{"code":401,"indent":0,"parameters":["hundreds of times."]},{"code":101,"indent":0,"parameters":["1fc_jack1",2,0,2]},{"code":401,"indent":0,"parameters":["Hey, when your death ISN'T my fault, that's all the"]},{"code":401,"indent":0,"parameters":["reason in the world to be worried about you."]},{"code":0,"indent":0,"parameters":[]}]}],"x":14,"y":8},
{"id":37,"name":"EV037","note":"","pages":[{"conditions":{"actorId":1,"actorValid":false,"itemId":1,"itemValid":false,"selfSwitchCh":"A","selfSwitchValid":false,"switch1Id":1,"switch1Valid":false,"switch2Id":1,"switch2Valid":false,"variableId":1,"variableValid":false,"variableValue":0},"directionFix":false,"image":{"tileId":0,"characterName":"","direction":2,"pattern":0,"characterIndex":0},"moveFrequency":3,"moveRoute":{"list":[{"code":0,"indent":null,"parameters":[]}],"repeat":true,"skippable":false,"wait":false},"moveSpeed":3,"moveType":0,"priorityType":1,"stepAnime":false,"through":false,"trigger":0,"walkAnime":true,"list":[{"code":101,"indent":0,"parameters":["4fc_cliffgreen1",11,0,2]},{"code":401,"indent":0,"parameters":["What's this a jar of? It's all shiny!"]},{"code":101,"indent":0,"parameters":["2fc_billy1",13,0,2]},{"code":401,"indent":0,"parameters":["My hopes and dreams."]},{"code":101,"indent":0,"parameters":["4fc_cliffgreen1",6,0,2]},{"code":401,"indent":0,"parameters":["..."]},{"code":101,"indent":0,"parameters":["2fc_billy1",2,0,2]},{"code":401,"indent":0,"parameters":["I'm kidding. It's a glitter jar."]},{"code":0,"indent":0,"parameters":[]}]}],"x":3,"y":9},
{"id":38,"name":"EV038","note":"","pages":[{"conditions":{"actorId":1,"actorValid":false,"itemId":1,"itemValid":false,"selfSwitchCh":"A","selfSwitchValid":false,"switch1Id":1,"switch1Valid":false,"switch2Id":1,"switch2Valid":false,"variableId":1,"variableValid":false,"variableValue":0},"directionFix":false,"image":{"tileId":0,"characterName":"","direction":2,"pattern":0,"characterIndex":0},"moveFrequency":3,"moveRoute":{"list":[{"code":0,"indent":null,"parameters":[]}],"repeat":true,"skippable":false,"wait":false},"moveSpeed":3,"moveType":0,"priorityType":1,"stepAnime":false,"through":false,"trigger":0,"walkAnime":true,"list":[{"code":101,"indent":0,"parameters":["3fc_jenny1",0,0,2]},{"code":401,"indent":0,"parameters":["Do you watch a lot of TV, Billy?"]},{"code":101,"indent":0,"parameters":["2fc_billy1",0,0,2]},{"code":401,"indent":0,"parameters":["Sometimes. Mostly just YouTube videos, though."]},{"code":101,"indent":0,"parameters":["1fc_jack1",4,0,2]},{"code":401,"indent":0,"parameters":["Any chance they're my videos?"]},{"code":101,"indent":0,"parameters":["2fc_billy1",13,0,2]},{"code":401,"indent":0,"parameters":["Only sometimes. I usually watch Good Mythical Morning,"]},{"code":401,"indent":0,"parameters":["but I tune into your channel when I need to sleep."]},{"code":101,"indent":0,"parameters":["1fc_jack1",15,0,2]},{"code":401,"indent":0,"parameters":["Wha--?? But how do you...?"]},{"code":101,"indent":0,"parameters":["2fc_billy1",1,0,2]},{"code":401,"indent":0,"parameters":["Very well, thanks."]},{"code":0,"indent":0,"parameters":[]}]}],"x":4,"y":4},
{"id":39,"name":"EV039","note":"","pages":[{"conditions":{"actorId":1,"actorValid":false,"itemId":1,"itemValid":false,"selfSwitchCh":"A","selfSwitchValid":false,"switch1Id":1,"switch1Valid":false,"switch2Id":1,"switch2Valid":false,"variableId":57,"variableValid":true,"variableValue":12},"directionFix":false,"image":{"tileId":885,"characterName":"","direction":2,"pattern":0,"characterIndex":0},"moveFrequency":3,"moveRoute":{"list":[{"code":0,"indent":null,"parameters":[]}],"repeat":true,"skippable":false,"wait":false},"moveSpeed":3,"moveType":0,"priorityType":0,"stepAnime":false,"through":false,"trigger":0,"walkAnime":true,"list":[{"code":101,"indent":0,"parameters":["1fc_jack1",4,0,2]},{"code":401,"indent":0,"parameters":["Huh, I didn't know you were so festive."]},{"code":101,"indent":0,"parameters":["2fc_billy1",2,0,2]},{"code":401,"indent":0,"parameters":["Am I not allowed to like Christmas?"]},{"code":101,"indent":0,"parameters":["1fc_jack2",0,0,2]},{"code":401,"indent":0,"parameters":["No, I mean sure you can like it, but you always kinda"]},{"code":401,"indent":0,"parameters":["struck me as a... umm..."]},{"code":101,"indent":0,"parameters":["2fc_billy2",5,0,2]},{"code":401,"indent":0,"parameters":["Scrooge?"]},{"code":101,"indent":0,"parameters":["1fc_jack1",3,0,2]},{"code":401,"indent":0,"parameters":["Maybe a little."]},{"code":101,"indent":0,"parameters":["2fc_billy1",2,0,2]},{"code":401,"indent":0,"parameters":["Well surprise, I like it."]},{"code":0,"indent":0,"parameters":[]}]}],"x":7,"y":5},
{"id":40,"name":"EV040","note":"","pages":[{"conditions":{"actorId":1,"actorValid":false,"itemId":1,"itemValid":false,"selfSwitchCh":"A","selfSwitchValid":false,"switch1Id":1,"switch1Valid":false,"switch2Id":1,"switch2Valid":false,"variableId":57,"variableValid":true,"variableValue":12},"directionFix":false,"image":{"tileId":869,"characterName":"","direction":2,"pattern":0,"characterIndex":0},"moveFrequency":3,"moveRoute":{"list":[{"code":0,"indent":null,"parameters":[]}],"repeat":true,"skippable":false,"wait":false},"moveSpeed":3,"moveType":0,"priorityType":1,"stepAnime":false,"through":false,"trigger":0,"walkAnime":true,"list":[{"code":0,"indent":0,"parameters":[]}]}],"x":7,"y":3}
]
}