{
"autoplayBgm":false,"autoplayBgs":false,"battleback1Name":"","battleback2Name":"","bgm":{"name":"","pan":0,"pitch":100,"volume":100},"bgs":{"name":"","pan":0,"pitch":100,"volume":80},"disableDashing":false,"displayName":"","encounterList":[],"encounterStep":30,"height":15,"note":"<all restrict: 6>","parallaxLoopX":true,"parallaxLoopY":true,"parallaxName":"pl_007","parallaxShow":true,"parallaxSx":1,"parallaxSy":-1,"scrollType":0,"specifyBattleback":false,"tilesetId":10,"width":20,
"data":[0,0,0,0,0,0,0,0,0,0,0,0,0,0,0,0,0,0,0,0,0,0,0,0,0,0,0,0,0,0,0,0,0,0,0,0,0,0,0,0,0,0,0,0,0,6739,6737,6737,6737,6737,6737,6737,6737,6737,6737,6741,0,0,0,0,0,0,0,0,0,6736,5411,5410,5410,5410,5410,5410,5410,5410,5414,6736,0,0,0,0,0,0,0,0,0,6736,7866,7866,7870,5416,5416,5416,5416,5416,5420,6736,0,0,0,0,0,0,0,0,0,6736,1546,1546,1546,1546,1546,1546,1546,1546,1546,6736,0,0,0,0,0,0,0,0,0,6736,1546,1546,1546,1546,1546,1546,1546,1546,1546,6736,0,0,0,0,0,0,0,0,0,6736,1546,1546,1546,1546,1546,1546,1546,1546,1546,6748,0,0,0,0,0,0,0,0,0,6736,1546,1546,1546,1546,1546,1546,1546,1546,1546,7095,0,0,0,0,0,0,0,0,0,6736,1546,1546,1546,1546,1546,1546,1546,1546,1546,7101,0,0,0,0,0,0,0,0,0,6736,1546,1546,1546,1546,1546,1546,1546,1546,1546,1546,0,0,0,0,0,0,0,0,0,6745,6737,6737,6737,6737,6737,6737,6737,6737,6737,6749,0,0,0,0,0,0,0,0,0,0,0,0,0,0,0,0,0,0,0,0,0,0,0,0,0,0,0,0,0,0,0,0,0,0,0,0,0,0,0,0,0,0,0,0,0,0,0,0,0,0,0,0,0,0,0,0,0,0,0,0,0,0,0,0,0,0,0,0,0,0,0,0,0,0,0,0,0,0,0,0,0,0,0,0,0,0,0,0,0,0,0,0,0,0,0,0,0,0,0,0,0,0,0,0,0,0,0,0,0,0,0,0,0,0,0,0,0,0,0,0,0,0,0,0,0,0,0,0,0,0,0,0,0,0,0,0,0,0,0,0,0,0,0,0,0,0,0,0,0,0,0,0,0,0,0,0,0,0,0,0,0,0,0,0,0,0,0,0,0,0,0,0,0,0,0,0,0,0,0,0,0,0,0,0,0,0,0,0,0,0,0,0,0,0,0,0,0,0,0,0,0,0,0,0,0,0,0,0,0,0,0,0,0,0,0,0,0,0,0,0,0,0,0,0,0,0,0,0,0,0,0,0,0,0,0,0,0,0,0,0,0,0,0,0,0,0,0,0,0,0,0,0,0,0,0,0,0,0,0,0,0,0,0,0,0,0,0,0,0,0,0,0,0,0,0,0,0,0,0,0,0,0,0,0,0,0,0,0,0,0,0,0,0,0,0,0,0,0,0,0,0,0,0,0,0,0,0,0,0,0,0,0,0,0,0,0,0,0,0,0,0,0,0,0,0,0,0,0,0,0,0,0,0,0,0,0,0,0,0,0,0,0,0,0,0,0,0,0,0,0,0,0,0,0,0,0,0,0,0,0,0,0,0,0,0,0,0,0,0,0,0,0,0,0,0,0,0,0,0,0,0,0,0,0,0,0,0,0,0,0,0,0,0,0,0,0,0,0,0,0,0,0,0,0,0,0,0,0,0,0,0,0,0,0,0,0,0,0,0,0,0,0,0,0,0,0,0,0,0,0,0,0,0,0,0,0,0,0,0,0,0,0,0,0,0,0,0,0,0,0,0,0,0,0,0,0,0,0,0,0,0,0,0,0,0,0,0,0,0,0,0,0,0,0,0,0,0,0,648,0,0,0,0,0,0,0,0,0,0,0,0,0,0,0,0,0,0,0,656,0,0,0,0,0,0,0,0,0,0,0,0,0,0,0,0,0,0,0,0,0,0,0,0,0,0,0,0,0,0,0,0,0,0,0,0,0,0,0,0,0,0,0,0,0,0,0,0,0,0,0,0,0,0,0,0,0,0,0,0,0,0,0,0,0,0,0,0,0,0,0,0,0,0,0,0,0,0,0,0,0,0,0,0,0,0,0,0,0,0,0,0,0,0,0,0,0,0,0,0,0,0,0,0,0,0,0,0,0,0,0,0,0,0,0,0,0,0,0,0,0,0,0,0,0,0,0,0,0,0,0,0,0,0,0,0,0,0,0,0,0,0,0,0,0,0,0,0,0,0,0,0,0,0,0,0,0,0,0,0,0,0,0,0,0,0,0,0,0,0,0,0,0,0,0,0,0,0,0,0,0,0,0,0,0,0,0,0,0,0,0,0,0,0,0,0,0,0,0,0,0,0,0,0,0,0,0,0,0,0,0,0,0,0,0,0,0,0,0,0,0,0,0,0,0,0,0,0,0,0,0,0,0,0,161,0,0,0,161,0,0,0,0,0,0,0,0,0,0,0,0,245,246,247,169,0,0,192,169,118,0,0,0,0,0,0,0,0,0,0,0,253,254,255,0,0,0,184,554,48,0,0,0,0,0,0,0,0,0,0,0,0,0,0,173,76,0,0,0,119,0,0,0,0,0,0,0,0,0,0,0,0,0,0,181,84,0,0,0,0,0,0,0,0,0,0,0,0,0,0,0,0,0,0,0,92,0,0,0,0,0,0,0,0,0,0,0,0,0,0,0,0,0,0,0,0,0,0,0,0,0,0,0,0,0,0,0,0,0,0,0,0,0,0,0,0,0,0,0,0,0,0,0,0,0,0,0,0,0,0,0,0,0,0,0,0,0,0,0,0,0,0,0,0,0,0,0,0,0,0,0,0,0,0,0,0,0,0,0,0,0,0,0,0,0,0,0,0,0,0,0,0,0,0,0,0,0,0,0,0,0,0,0,0,0,0,0,0,0,0,0,0,0,0,0,0,0,0,0,0,0,0,0,0,0,0,0,0,0,0,0,0,0,0,0,0,0,0,0,0,0,0,0,0,0,0,0,0,0,0,0,0,0,0,0,0,0,0,0,0,0,0,0,0,0,0,0,0,0,0,1536,1536,1536,1536,1536,1536,1536,1536,1536,1536,1536,0,0,0,0,0,0,0,0,0,1536,1536,1536,1536,1536,1536,1536,0,0,1536,1536,0,0,0,0,0,0,0,0,0,1536,1536,1536,1536,1536,1536,1536,0,0,1536,1536,0,0,0,0,0,0,0,0,0,1536,1536,1536,1536,0,0,0,0,0,1536,1536,0,0,0,0,0,0,0,0,0,1536,0,0,0,0,0,0,0,0,1536,1536,0,0,0,0,0,1536,1536,1536,1536,1536,0,0,0,0,0,0,0,0,0,1536,0,0,0,0,0,1536,1536,1536,1536,1536,0,0,0,0,0,0,0,0,0,1536,0,0,0,0,0,1536,1536,1536,1536,1536,0,0,0,0,0,0,0,0,0,1536,0,0,0,0,0,0,0,0,0,1536,0,0,0,0,0,0,0,0,0,0,0,0,0,0,0,1536,1536,1536,1536,1536,1536,1536,1536,1536,1536,1536,1536,1536,1536,1536,0,0,0,0,0,0,0,0,0,0,0,0,0,0,0,0,0,0,0,0,0,0,0,0,0,0,0,0,0,0,0,0,0,0,0,0,0,0,0,0,0,0,0,0,0,0,0,0,0,0,0,0,0,0,0,0,0,0,0,0,0,0,0,0,0,0,0,0,0,0,0,0,0,0,0,0,0,0,0,0,0,0,0,0,0,0,0,0,0,0,0,0,0,0,0,0,0,0,0,0,0,0,0,0,0,0,0,0,0,6,6,6,6,6,6,6,6,6,6,6,0,0,0,0,0,0,0,0,0,6,6,6,6,6,6,6,6,6,6,6,0,0,0,0,0,0,0,0,0,6,6,6,6,6,6,6,6,6,6,6,0,0,0,0,0,0,0,0,0,6,6,6,6,0,0,0,0,0,6,6,0,0,0,0,0,0,0,0,0,6,0,0,0,0,0,0,0,0,6,6,0,0,0,0,0,6,6,6,6,6,0,0,0,0,0,6,0,0,0,6,0,0,0,0,0,6,6,6,6,6,0,0,0,0,0,0,0,0,0,6,0,0,0,0,0,6,6,6,6,6,0,0,0,0,0,0,0,0,0,6,0,0,0,0,0,0,0,0,0,6,0,0,0,0,0,0,0,0,0,0,0,0,0,0,0,6,6,6,6,6,6,6,6,6,6,6,6,6,6,6,0,0,0,0,0,0,0,0,0,0,0,0,0,0,0,0,0,0,0,0,0,0,0,0,0,0,0,0,0,0,0,0,0,0,0,0,0,0,0,0,0,0,0,0,0,0,0,0,0,0,0,0,0,0,0,0,0,0,0,0,0,0,0,0],
"events":[
null,
{"id":1,"name":"EV001","note":"","pages":[{"conditions":{"actorId":1,"actorValid":false,"itemId":1,"itemValid":false,"selfSwitchCh":"A","selfSwitchValid":false,"switch1Id":1,"switch1Valid":false,"switch2Id":1,"switch2Valid":false,"variableId":1,"variableValid":false,"variableValue":0},"directionFix":false,"image":{"tileId":0,"characterName":"","direction":2,"pattern":0,"characterIndex":0},"moveFrequency":3,"moveRoute":{"list":[{"code":0,"indent":null,"parameters":[]}],"repeat":true,"skippable":false,"wait":false},"moveSpeed":3,"moveType":0,"priorityType":1,"stepAnime":false,"through":false,"trigger":1,"walkAnime":true,"list":[{"code":201,"indent":0,"parameters":[0,26,11,34,0,0]},{"code":0,"indent":0,"parameters":[]}]}],"x":16,"y":10},
{"id":2,"name":"EV002","note":"","pages":[{"conditions":{"actorId":1,"actorValid":false,"itemId":1,"itemValid":false,"selfSwitchCh":"A","selfSwitchValid":false,"switch1Id":1,"switch1Valid":false,"switch2Id":1,"switch2Valid":false,"variableId":1,"variableValid":false,"variableValue":0},"directionFix":false,"image":{"tileId":76,"characterName":"","characterIndex":0,"direction":2,"pattern":0},"list":[{"code":0,"indent":0,"parameters":[]}],"moveFrequency":3,"moveRoute":{"list":[{"code":0,"parameters":[]}],"repeat":true,"skippable":false,"wait":false},"moveSpeed":3,"moveType":0,"priorityType":2,"stepAnime":false,"through":false,"trigger":0,"walkAnime":true}],"x":10,"y":6},
null,
{"id":4,"name":"Schneep","note":"","pages":[{"conditions":{"actorId":1,"actorValid":false,"itemId":1,"itemValid":false,"selfSwitchCh":"A","selfSwitchValid":false,"switch1Id":1,"switch1Valid":false,"switch2Id":1,"switch2Valid":false,"variableId":1,"variableValid":false,"variableValue":0},"directionFix":false,"image":{"tileId":0,"characterName":"spr_egos2","direction":6,"pattern":1,"characterIndex":6},"moveFrequency":3,"moveRoute":{"list":[{"code":0,"indent":null,"parameters":[]}],"repeat":true,"skippable":false,"wait":false},"moveSpeed":3,"moveType":0,"priorityType":2,"stepAnime":false,"through":false,"trigger":0,"walkAnime":true,"list":[{"code":0,"indent":0,"parameters":[]}]},{"conditions":{"actorId":1,"actorValid":false,"itemId":1,"itemValid":false,"selfSwitchCh":"A","selfSwitchValid":false,"switch1Id":1,"switch1Valid":false,"switch2Id":1,"switch2Valid":false,"variableId":23,"variableValid":true,"variableValue":6},"directionFix":false,"image":{"tileId":0,"characterName":"","direction":2,"pattern":1,"characterIndex":0},"moveFrequency":3,"moveRoute":{"list":[{"code":0,"indent":null,"parameters":[]}],"repeat":true,"skippable":false,"wait":false},"moveSpeed":3,"moveType":0,"priorityType":0,"stepAnime":false,"through":true,"trigger":0,"walkAnime":true,"list":[{"code":0,"indent":0,"parameters":[]}]}],"x":9,"y":8},
{"id":5,"name":"EV005","note":"","pages":[{"conditions":{"actorId":1,"actorValid":false,"itemId":1,"itemValid":false,"selfSwitchCh":"A","selfSwitchValid":false,"switch1Id":32,"switch1Valid":true,"switch2Id":1,"switch2Valid":false,"variableId":1,"variableValid":false,"variableValue":0},"directionFix":false,"image":{"tileId":0,"characterName":"","direction":2,"pattern":0,"characterIndex":0},"moveFrequency":3,"moveRoute":{"list":[{"code":0,"indent":null,"parameters":[]}],"repeat":true,"skippable":false,"wait":false},"moveSpeed":3,"moveType":0,"priorityType":0,"stepAnime":false,"through":false,"trigger":3,"walkAnime":true,"list":[{"code":205,"indent":0,"parameters":[-1,{"list":[{"code":2,"indent":null,"parameters":[]},{"code":2,"indent":null,"parameters":[]},{"code":0,"indent":null,"parameters":[]}],"repeat":false,"skippable":false,"wait":true}]},{"code":505,"indent":0,"parameters":[{"code":2,"indent":null,"parameters":[]}]},{"code":505,"indent":0,"parameters":[{"code":2,"indent":null,"parameters":[]}]},{"code":101,"indent":0,"parameters":["1fc_jack1",15,0,2]},{"code":401,"indent":0,"parameters":["BILLY!!"]},{"code":101,"indent":0,"parameters":["fc_altbillygown",2,0,2]},{"code":401,"indent":0,"parameters":["Get me out of here, guys! I can't take this any longer..."]},{"code":111,"indent":0,"parameters":[0,128,0]},{"code":101,"indent":1,"parameters":["fc_schneep1",0,0,2]},{"code":401,"indent":1,"parameters":["And that is why you are here, Billy. BECAUSE you cannot"]},{"code":401,"indent":1,"parameters":["take this any longer."]},{"code":0,"indent":1,"parameters":[]},{"code":411,"indent":0,"parameters":[]},{"code":101,"indent":1,"parameters":["fc_schneep1",0,0,2]},{"code":401,"indent":1,"parameters":["Und zhat iz vhy you are here, Billy. BECAUSE you cannot"]},{"code":401,"indent":1,"parameters":["take zhis any longer."]},{"code":0,"indent":1,"parameters":[]},{"code":412,"indent":0,"parameters":[]},{"code":101,"indent":0,"parameters":["3fc_jenny1",4,0,2]},{"code":401,"indent":0,"parameters":["I'm confused. Weren't you just showering like the"]},{"code":401,"indent":0,"parameters":["rest of us a few minutes ago?"]},{"code":101,"indent":0,"parameters":["fc_altbillygown",3,0,2]},{"code":401,"indent":0,"parameters":["I was. Then all of THIS happened and now I'm stuck here."]},{"code":101,"indent":0,"parameters":["4fc_cliffgreen1",5,0,2]},{"code":401,"indent":0,"parameters":["Stuck?"]},{"code":111,"indent":0,"parameters":[0,161,1]},{"code":121,"indent":1,"parameters":[200,200,1]},{"code":0,"indent":1,"parameters":[]},{"code":412,"indent":0,"parameters":[]},{"code":111,"indent":0,"parameters":[0,128,0]},{"code":101,"indent":1,"parameters":["fc_schneep1",0,0,2]},{"code":401,"indent":1,"parameters":["He is now one of my patients, you see, under my care"]},{"code":401,"indent":1,"parameters":["for the acute case of the tension that is hyper!"]},{"code":0,"indent":1,"parameters":[]},{"code":411,"indent":0,"parameters":[]},{"code":101,"indent":1,"parameters":["fc_schneep1",0,0,2]},{"code":401,"indent":1,"parameters":["He iz now one of mein patients, you see, under mein care"]},{"code":401,"indent":1,"parameters":["for zhe acute case of zhe tension zhat is hyper!"]},{"code":0,"indent":1,"parameters":[]},{"code":412,"indent":0,"parameters":[]},{"code":101,"indent":0,"parameters":["4fc_cliffgreen1",6,0,2]},{"code":401,"indent":0,"parameters":["Wait..."]},{"code":101,"indent":0,"parameters":["4fc_cliffgreen1",15,0,2]},{"code":401,"indent":0,"parameters":["...Hypertension??"]},{"code":205,"indent":0,"parameters":[4,{"list":[{"code":41,"indent":null,"parameters":["spr_egos",2]},{"code":0,"indent":null,"parameters":[]}],"repeat":false,"skippable":false,"wait":false}]},{"code":505,"indent":0,"parameters":[{"code":41,"indent":null,"parameters":["spr_egos",2]}]},{"code":111,"indent":0,"parameters":[0,128,0]},{"code":101,"indent":1,"parameters":["fc_schneep1",13,0,2]},{"code":401,"indent":1,"parameters":["Excuse me; YOU are not the one with the doctor's"]},{"code":401,"indent":1,"parameters":["license, ja? Let DOCTOR SCHNEEPLESTEIN do the"]},{"code":401,"indent":1,"parameters":["diagnosis, thank you very much."]},{"code":0,"indent":1,"parameters":[]},{"code":411,"indent":0,"parameters":[]},{"code":101,"indent":1,"parameters":["fc_schneep1",13,0,2]},{"code":401,"indent":1,"parameters":["Excuse me; YOU are not zhe one viff zhe doctah's"]},{"code":401,"indent":1,"parameters":["license, ja? Let Doctah SCHNEEPLESTEIN do zhe"]},{"code":401,"indent":1,"parameters":["diagnosis, zhank you very much."]},{"code":0,"indent":1,"parameters":[]},{"code":412,"indent":0,"parameters":[]},{"code":101,"indent":0,"parameters":["3fc_jenny1",15,0,2]},{"code":401,"indent":0,"parameters":["So Billy's here for high blood pressure?"]},{"code":205,"indent":0,"parameters":[4,{"list":[{"code":41,"indent":null,"parameters":["spr_egos2",6]},{"code":0,"indent":null,"parameters":[]}],"repeat":false,"skippable":false,"wait":false}]},{"code":505,"indent":0,"parameters":[{"code":41,"indent":null,"parameters":["spr_egos2",6]}]},{"code":111,"indent":0,"parameters":[0,128,0]},{"code":101,"indent":1,"parameters":["fc_schneep1",0,0,2]},{"code":401,"indent":1,"parameters":["If you are doubting me, then I shall show you!"]},{"code":0,"indent":1,"parameters":[]},{"code":411,"indent":0,"parameters":[]},{"code":101,"indent":1,"parameters":["fc_schneep1",0,0,2]},{"code":401,"indent":1,"parameters":["If you are doubting me, zhen I schall show you!"]},{"code":0,"indent":1,"parameters":[]},{"code":412,"indent":0,"parameters":[]},{"code":108,"indent":0,"parameters":["He leaves the desk and stands next to Billy"]},{"code":205,"indent":0,"parameters":[4,{"list":[{"code":41,"indent":null,"parameters":["spr_egos",2]},{"code":3,"indent":null,"parameters":[]},{"code":19,"indent":null,"parameters":[]},{"code":0,"indent":null,"parameters":[]}],"repeat":false,"skippable":false,"wait":false}]},{"code":505,"indent":0,"parameters":[{"code":41,"indent":null,"parameters":["spr_egos",2]}]},{"code":505,"indent":0,"parameters":[{"code":3,"indent":null,"parameters":[]}]},{"code":505,"indent":0,"parameters":[{"code":19,"indent":null,"parameters":[]}]},{"code":101,"indent":0,"parameters":["fc_altbillygown",3,0,2]},{"code":401,"indent":0,"parameters":["...That's my leg; what are you even doing?"]},{"code":111,"indent":0,"parameters":[0,128,0]},{"code":101,"indent":1,"parameters":["fc_schneep1",3,0,2]},{"code":401,"indent":1,"parameters":["The blood pressure is best taken from the legs!"]},{"code":0,"indent":1,"parameters":[]},{"code":411,"indent":0,"parameters":[]},{"code":101,"indent":1,"parameters":["fc_schneep1",3,0,2]},{"code":401,"indent":1,"parameters":["Zhe blood pressure iz best taken from zhe legs!"]},{"code":0,"indent":1,"parameters":[]},{"code":412,"indent":0,"parameters":[]},{"code":101,"indent":0,"parameters":["fc_altbillygown",2,0,2]},{"code":401,"indent":0,"parameters":["Jack, can we sue him?"]},{"code":101,"indent":0,"parameters":["4fc_cliffgreen1",5,0,2]},{"code":401,"indent":0,"parameters":["...Okay, it's not the best, but the calf IS a viable spot"]},{"code":401,"indent":0,"parameters":["to take a blood pressure reading, I'll give him that."]},{"code":101,"indent":0,"parameters":["fc_altbillygown",3,0,2]},{"code":401,"indent":0,"parameters":["Since when are you on HIS side?"]},{"code":101,"indent":0,"parameters":["4fc_cliffgreen1",5,0,2]},{"code":401,"indent":0,"parameters":["I'm not. But my parents are doctors, so..."]},{"code":205,"indent":0,"parameters":[4,{"list":[{"code":18,"indent":null,"parameters":[]},{"code":13,"indent":null,"parameters":[]},{"code":0,"indent":null,"parameters":[]}],"repeat":false,"skippable":false,"wait":false}]},{"code":505,"indent":0,"parameters":[{"code":18,"indent":null,"parameters":[]}]},{"code":505,"indent":0,"parameters":[{"code":13,"indent":null,"parameters":[]}]},{"code":111,"indent":0,"parameters":[0,128,0]},{"code":101,"indent":1,"parameters":["fc_schneep1",11,0,2]},{"code":401,"indent":1,"parameters":["Ah-ha! What did I tell you?"]},{"code":0,"indent":1,"parameters":[]},{"code":411,"indent":0,"parameters":[]},{"code":101,"indent":1,"parameters":["fc_schneep1",11,0,2]},{"code":401,"indent":1,"parameters":["Ah-ha! Vhat did I tell you?"]},{"code":0,"indent":1,"parameters":[]},{"code":412,"indent":0,"parameters":[]},{"code":101,"indent":0,"parameters":["1fc_jack1",15,0,2]},{"code":401,"indent":0,"parameters":["190 over 100??"]},{"code":101,"indent":0,"parameters":["4fc_cliffgreen1",15,0,2]},{"code":401,"indent":0,"parameters":["...Billy, is everything all right? You wanna talk about it?"]},{"code":101,"indent":0,"parameters":["fc_altbillygown",0,0,2]},{"code":401,"indent":0,"parameters":["Huh… that's a little higher than usual."]},{"code":101,"indent":0,"parameters":["4fc_cliffgreen1",7,0,2]},{"code":401,"indent":0,"parameters":["A LITTLE??"]},{"code":205,"indent":0,"parameters":[4,{"list":[{"code":41,"indent":null,"parameters":["spr_egos2",6]},{"code":0,"indent":null,"parameters":[]}],"repeat":false,"skippable":false,"wait":false}]},{"code":505,"indent":0,"parameters":[{"code":41,"indent":null,"parameters":["spr_egos2",6]}]},{"code":111,"indent":0,"parameters":[0,128,0]},{"code":101,"indent":1,"parameters":["fc_schneep1",11,0,2]},{"code":401,"indent":1,"parameters":["Ahh, so he admits it! And that is why you are the"]},{"code":401,"indent":1,"parameters":["admitted patient."]},{"code":101,"indent":1,"parameters":["fc_schneep1",1,0,2]},{"code":401,"indent":1,"parameters":["Heehee, get it? It is just a little bit of the doctor"]},{"code":401,"indent":1,"parameters":["humour."]},{"code":101,"indent":1,"parameters":["fc_altbillygown",6,0,2]},{"code":401,"indent":1,"parameters":["Nothing humorous about this. Just let me go!"]},{"code":101,"indent":1,"parameters":["fc_schneep1",6,0,2]},{"code":401,"indent":1,"parameters":["A very simple answer to your demands:"]},{"code":101,"indent":1,"parameters":["fc_schneep1",0,0,2]},{"code":401,"indent":1,"parameters":["Nein."]},{"code":0,"indent":1,"parameters":[]},{"code":411,"indent":0,"parameters":[]},{"code":101,"indent":1,"parameters":["fc_schneep1",11,0,2]},{"code":401,"indent":1,"parameters":["Ahh, so he admits it! Und zhat iz vhy you are zhe"]},{"code":401,"indent":1,"parameters":["admitted patient."]},{"code":101,"indent":1,"parameters":["fc_schneep1",1,0,2]},{"code":401,"indent":1,"parameters":["Heehee, get it? It iz just a little bit of zhe doctah"]},{"code":401,"indent":1,"parameters":["humour."]},{"code":101,"indent":1,"parameters":["fc_altbillygown",6,0,2]},{"code":401,"indent":1,"parameters":["Nothing humorous about this. Just let me go!"]},{"code":101,"indent":1,"parameters":["fc_schneep1",6,0,2]},{"code":401,"indent":1,"parameters":["A very simple answer to your demands:"]},{"code":101,"indent":1,"parameters":["fc_schneep1",0,0,2]},{"code":401,"indent":1,"parameters":["Nein."]},{"code":0,"indent":1,"parameters":[]},{"code":412,"indent":0,"parameters":[]},{"code":101,"indent":0,"parameters":["1fc_jack1",7,0,2]},{"code":401,"indent":0,"parameters":["I'm assuming that's \"no\" and we're not gonna"]},{"code":401,"indent":0,"parameters":["run off into the land of German puns here."]},{"code":111,"indent":0,"parameters":[0,128,0]},{"code":101,"indent":1,"parameters":["fc_schneep1",3,0,2]},{"code":401,"indent":1,"parameters":["Absolutely."]},{"code":0,"indent":1,"parameters":[]},{"code":411,"indent":0,"parameters":[]},{"code":101,"indent":1,"parameters":["fc_schneep1",3,0,2]},{"code":401,"indent":1,"parameters":["Abzolutely."]},{"code":0,"indent":1,"parameters":[]},{"code":412,"indent":0,"parameters":[]},{"code":108,"indent":0,"parameters":["Jack walks next to Schneep"]},{"code":101,"indent":0,"parameters":["1fc_jack2",3,0,2]},{"code":401,"indent":0,"parameters":["Look, we just needed to use the shower, Doc."]},{"code":111,"indent":0,"parameters":[0,128,0]},{"code":101,"indent":1,"parameters":["fc_schneep1",15,0,2]},{"code":401,"indent":1,"parameters":["DOCTOR Schneeplestein, thank you very much!"]},{"code":101,"indent":1,"parameters":["1fc_jack2",12,0,2]},{"code":401,"indent":1,"parameters":["Fine, DOCTOR. Now that we've done that, we REALLY"]},{"code":401,"indent":1,"parameters":["need to get going. In case you haven't noticed,"]},{"code":401,"indent":1,"parameters":["Wireland is at stake. You and everyone here is going"]},{"code":401,"indent":1,"parameters":["to DIE if we don't head out."]},{"code":0,"indent":1,"parameters":[]},{"code":411,"indent":0,"parameters":[]},{"code":101,"indent":1,"parameters":["fc_schneep1",15,0,2]},{"code":401,"indent":1,"parameters":["DOCTAH Schneeplestein, zhank you very much!"]},{"code":101,"indent":1,"parameters":["1fc_jack2",12,0,2]},{"code":401,"indent":1,"parameters":["Fine, DOCTAH. Now that we've done that, we REALLY"]},{"code":401,"indent":1,"parameters":["need to get going. In case you haven't noticed,"]},{"code":401,"indent":1,"parameters":["Wireland is at stake. You and everyone here is going"]},{"code":401,"indent":1,"parameters":["to DIE if we don't head out."]},{"code":0,"indent":1,"parameters":[]},{"code":412,"indent":0,"parameters":[]},{"code":205,"indent":0,"parameters":[4,{"list":[{"code":41,"indent":null,"parameters":["spr_egos",2]},{"code":0,"indent":null,"parameters":[]}],"repeat":false,"skippable":false,"wait":false}]},{"code":505,"indent":0,"parameters":[{"code":41,"indent":null,"parameters":["spr_egos",2]}]},{"code":111,"indent":0,"parameters":[0,128,0]},{"code":101,"indent":1,"parameters":["fc_schneep1",9,0,2]},{"code":401,"indent":1,"parameters":["And I think you are missing the fact that young Billy"]},{"code":401,"indent":1,"parameters":["here is in danger of death himself, ja? Do you have"]},{"code":401,"indent":1,"parameters":["any idea what tension of the hypers does to the"]},{"code":401,"indent":1,"parameters":["human heart??"]},{"code":101,"indent":1,"parameters":["1fc_jack1",7,0,2]},{"code":401,"indent":1,"parameters":["His heart is FINE, Schneep."]},{"code":101,"indent":1,"parameters":["fc_schneep1",13,0,2]},{"code":401,"indent":1,"parameters":["No, his \"haert\" is NOT fine."]},{"code":0,"indent":1,"parameters":[]},{"code":411,"indent":0,"parameters":[]},{"code":101,"indent":1,"parameters":["fc_schneep1",9,0,2]},{"code":401,"indent":1,"parameters":["Und I zhink you are missing zhe fact zhat young Billy"]},{"code":401,"indent":1,"parameters":["here is in danger of death himself, ja? Do you haff"]},{"code":401,"indent":1,"parameters":["any idea vhat tension of zhe hypers does to zhe"]},{"code":401,"indent":1,"parameters":["human haart??"]},{"code":101,"indent":1,"parameters":["1fc_jack1",7,0,2]},{"code":401,"indent":1,"parameters":["His heart is FINE, Schneep."]},{"code":101,"indent":1,"parameters":["fc_schneep1",13,0,2]},{"code":401,"indent":1,"parameters":["No, his \"haert\" iz NOT fine."]},{"code":0,"indent":1,"parameters":[]},{"code":412,"indent":0,"parameters":[]},{"code":101,"indent":0,"parameters":["4fc_cliffgreen1",13,0,2]},{"code":401,"indent":0,"parameters":["..."]},{"code":101,"indent":0,"parameters":["3fc_jenny1",9,0,2]},{"code":401,"indent":0,"parameters":["..."]},{"code":101,"indent":0,"parameters":["fc_altbillygown",14,0,2]},{"code":401,"indent":0,"parameters":["Pft--!!"]},{"code":101,"indent":0,"parameters":["3fc_jenny1",15,0,2]},{"code":401,"indent":0,"parameters":["..."]},{"code":101,"indent":0,"parameters":["fc_altbillygown",13,0,2]},{"code":401,"indent":0,"parameters":["Yeah, Jack, my \"haert\" isn’t feeling so good."]},{"code":101,"indent":0,"parameters":["1fc_jack1",6,0,2]},{"code":401,"indent":0,"parameters":["Can't you people just... ooorrgh... honestly..."]},{"code":401,"indent":0,"parameters":["feckin' STAER..."]},{"code":101,"indent":0,"parameters":["4fc_cliffgreen1",5,0,2]},{"code":401,"indent":0,"parameters":["...I wouldn't razz the accent, man."]},{"code":205,"indent":0,"parameters":[4,{"list":[{"code":41,"indent":null,"parameters":["spr_egos2",6]},{"code":0,"indent":null,"parameters":[]}],"repeat":false,"skippable":false,"wait":false}]},{"code":505,"indent":0,"parameters":[{"code":41,"indent":null,"parameters":["spr_egos2",6]}]},{"code":121,"indent":0,"parameters":[200,200,0]},{"code":111,"indent":0,"parameters":[0,128,0]},{"code":101,"indent":1,"parameters":["fc_schneep1",1,0,2]},{"code":401,"indent":1,"parameters":["And why not? He is CLEARLY out of his mind."]},{"code":101,"indent":1,"parameters":["1fc_jack2",5,0,2]},{"code":401,"indent":1,"parameters":["\"Und you also haff zhe accent, Doctah. Musn't you be"]},{"code":401,"indent":1,"parameters":["forgetting zhis, ja?\""]},{"code":101,"indent":1,"parameters":["fc_schneep1",0,0,2]},{"code":401,"indent":1,"parameters":["Dammit, it is the \"tush A\"!"]},{"code":0,"indent":1,"parameters":[]},{"code":411,"indent":0,"parameters":[]},{"code":101,"indent":1,"parameters":["fc_schneep1",1,0,2]},{"code":401,"indent":1,"parameters":["Und vhy not? He iz CLEARLY out of his mind."]},{"code":101,"indent":1,"parameters":["1fc_jack2",5,0,2]},{"code":401,"indent":1,"parameters":["\"Und you also haff zhe accent, Doctah. Musn't you be"]},{"code":401,"indent":1,"parameters":["forgetting zhis, ja?\""]},{"code":101,"indent":1,"parameters":["fc_schneep1",0,0,2]},{"code":401,"indent":1,"parameters":["Dammit, it is zhe \"tush A\"!"]},{"code":0,"indent":1,"parameters":[]},{"code":412,"indent":0,"parameters":[]},{"code":101,"indent":0,"parameters":["4fc_cliffgreen1",4,0,2]},{"code":401,"indent":0,"parameters":["Touché."]},{"code":101,"indent":0,"parameters":["fc_schneep1",11,0,2]},{"code":401,"indent":0,"parameters":["So you admit defeat??"]},{"code":101,"indent":0,"parameters":["3fc_jenny1",4,0,2]},{"code":401,"indent":0,"parameters":["This is going nowhere…"]},{"code":111,"indent":0,"parameters":[0,161,1]},{"code":121,"indent":1,"parameters":[200,200,1]},{"code":0,"indent":1,"parameters":[]},{"code":412,"indent":0,"parameters":[]},{"code":101,"indent":0,"parameters":["3fc_jenny1",6,0,2]},{"code":401,"indent":0,"parameters":["How about this: if we can prove that Billy's blood"]},{"code":401,"indent":0,"parameters":["pressure is normal, we can take him with us, right?"]},{"code":205,"indent":0,"parameters":[4,{"list":[{"code":41,"indent":null,"parameters":["spr_egos",2]},{"code":0,"indent":null,"parameters":[]}],"repeat":false,"skippable":false,"wait":false}]},{"code":505,"indent":0,"parameters":[{"code":41,"indent":null,"parameters":["spr_egos",2]}]},{"code":111,"indent":0,"parameters":[0,128,0]},{"code":101,"indent":1,"parameters":["fc_schneep1",10,0,2]},{"code":401,"indent":1,"parameters":["Ja. How are you proposing this?"]},{"code":101,"indent":1,"parameters":["3fc_jenny1",4,0,2]},{"code":401,"indent":1,"parameters":["Well…"]},{"code":101,"indent":1,"parameters":["3fc_jenny1",15,0,2]},{"code":401,"indent":1,"parameters":["Do you need any help around here?"]},{"code":101,"indent":1,"parameters":["fc_schneep1",10,0,2]},{"code":401,"indent":1,"parameters":["DO I?? Doctor Schneeplestein is in work up to my"]},{"code":401,"indent":1,"parameters":["teeny tiny eyeballs! I can use all the help I can get."]},{"code":0,"indent":1,"parameters":[]},{"code":411,"indent":0,"parameters":[]},{"code":101,"indent":1,"parameters":["fc_schneep1",10,0,2]},{"code":401,"indent":1,"parameters":["Ja. How are you proposing zhis?"]},{"code":101,"indent":1,"parameters":["3fc_jenny1",4,0,2]},{"code":401,"indent":1,"parameters":["Well…"]},{"code":101,"indent":1,"parameters":["3fc_jenny1",15,0,2]},{"code":401,"indent":1,"parameters":["Do you need any help around here?"]},{"code":101,"indent":1,"parameters":["fc_schneep1",10,0,2]},{"code":401,"indent":1,"parameters":["DO I?? Doctah Schneeplestein is in vork up to mein"]},{"code":401,"indent":1,"parameters":["teeny tiny eyeballs! I can use all zhe help I can get."]},{"code":0,"indent":1,"parameters":[]},{"code":412,"indent":0,"parameters":[]},{"code":101,"indent":0,"parameters":["3fc_jenny1",1,0,2]},{"code":401,"indent":0,"parameters":["Perfect! We'll help you out!"]},{"code":121,"indent":0,"parameters":[200,200,0]},{"code":101,"indent":0,"parameters":["1fc_jack2",15,0,2]},{"code":401,"indent":0,"parameters":["What??"]},{"code":205,"indent":0,"parameters":[4,{"list":[{"code":41,"indent":null,"parameters":["spr_egos2",6]},{"code":0,"indent":null,"parameters":[]}],"repeat":false,"skippable":false,"wait":false}]},{"code":505,"indent":0,"parameters":[{"code":41,"indent":null,"parameters":["spr_egos2",6]}]},{"code":111,"indent":0,"parameters":[0,128,0]},{"code":101,"indent":1,"parameters":["fc_schneep1",7,0,2]},{"code":401,"indent":1,"parameters":["Ahh, wunderbar! Wait riiiiight here."]},{"code":0,"indent":1,"parameters":[]},{"code":411,"indent":0,"parameters":[]},{"code":101,"indent":1,"parameters":["fc_schneep1",7,0,2]},{"code":401,"indent":1,"parameters":["Ahh, wunderbar! Vait riiiiight here."]},{"code":0,"indent":1,"parameters":[]},{"code":412,"indent":0,"parameters":[]},{"code":205,"indent":0,"parameters":[4,{"list":[{"code":29,"indent":null,"parameters":[5]},{"code":1,"indent":null,"parameters":[]},{"code":3,"indent":null,"parameters":[]},{"code":3,"indent":null,"parameters":[]},{"code":3,"indent":null,"parameters":[]},{"code":3,"indent":null,"parameters":[]},{"code":4,"indent":null,"parameters":[]},{"code":4,"indent":null,"parameters":[]},{"code":4,"indent":null,"parameters":[]},{"code":18,"indent":null,"parameters":[]},{"code":15,"indent":null,"parameters":[60]},{"code":1,"indent":null,"parameters":[]},{"code":1,"indent":null,"parameters":[]},{"code":1,"indent":null,"parameters":[]},{"code":2,"indent":null,"parameters":[]},{"code":1,"indent":null,"parameters":[]},{"code":18,"indent":null,"parameters":[]},{"code":0,"indent":null,"parameters":[]}],"repeat":false,"skippable":false,"wait":false}]},{"code":505,"indent":0,"parameters":[{"code":29,"indent":null,"parameters":[5]}]},{"code":505,"indent":0,"parameters":[{"code":1,"indent":null,"parameters":[]}]},{"code":505,"indent":0,"parameters":[{"code":3,"indent":null,"parameters":[]}]},{"code":505,"indent":0,"parameters":[{"code":3,"indent":null,"parameters":[]}]},{"code":505,"indent":0,"parameters":[{"code":3,"indent":null,"parameters":[]}]},{"code":505,"indent":0,"parameters":[{"code":3,"indent":null,"parameters":[]}]},{"code":505,"indent":0,"parameters":[{"code":4,"indent":null,"parameters":[]}]},{"code":505,"indent":0,"parameters":[{"code":4,"indent":null,"parameters":[]}]},{"code":505,"indent":0,"parameters":[{"code":4,"indent":null,"parameters":[]}]},{"code":505,"indent":0,"parameters":[{"code":18,"indent":null,"parameters":[]}]},{"code":505,"indent":0,"parameters":[{"code":15,"indent":null,"parameters":[60]}]},{"code":505,"indent":0,"parameters":[{"code":1,"indent":null,"parameters":[]}]},{"code":505,"indent":0,"parameters":[{"code":1,"indent":null,"parameters":[]}]},{"code":505,"indent":0,"parameters":[{"code":1,"indent":null,"parameters":[]}]},{"code":505,"indent":0,"parameters":[{"code":2,"indent":null,"parameters":[]}]},{"code":505,"indent":0,"parameters":[{"code":1,"indent":null,"parameters":[]}]},{"code":505,"indent":0,"parameters":[{"code":18,"indent":null,"parameters":[]}]},{"code":101,"indent":0,"parameters":["1fc_jack2",3,0,2]},{"code":401,"indent":0,"parameters":["Jenny, I don't know about this..."]},{"code":101,"indent":0,"parameters":["4fc_cliffgreen1",6,0,2]},{"code":401,"indent":0,"parameters":["And I'm not an expert here. It's not even my--"]},{"code":101,"indent":0,"parameters":["3fc_jenny1",5,0,2]},{"code":401,"indent":0,"parameters":["Shhhh, just play along..."]},{"code":111,"indent":0,"parameters":[0,128,0]},{"code":101,"indent":1,"parameters":["fc_schneep1",2,0,2]},{"code":401,"indent":1,"parameters":["Okay, before you begin working, I must interview you."]},{"code":401,"indent":1,"parameters":["You know how these stupid government regulations"]},{"code":401,"indent":1,"parameters":["are..."]},{"code":0,"indent":1,"parameters":[]},{"code":411,"indent":0,"parameters":[]},{"code":101,"indent":1,"parameters":["fc_schneep1",2,0,2]},{"code":401,"indent":1,"parameters":["Okay, before you begin vorking, I must interview you."]},{"code":401,"indent":1,"parameters":["You know how zhese stupid government regulations"]},{"code":401,"indent":1,"parameters":["are..."]},{"code":0,"indent":1,"parameters":[]},{"code":412,"indent":0,"parameters":[]},{"code":101,"indent":0,"parameters":["fc_schneep1",7,0,2]},{"code":401,"indent":0,"parameters":["Jack!"]},{"code":356,"indent":0,"parameters":["Follower StopChase"]},{"code":213,"indent":0,"parameters":[-1,1,false]},{"code":205,"indent":0,"parameters":[-1,{"list":[{"code":14,"indent":null,"parameters":[0,0]},{"code":0,"indent":null,"parameters":[]}],"repeat":false,"skippable":false,"wait":true}]},{"code":505,"indent":0,"parameters":[{"code":14,"indent":null,"parameters":[0,0]}]},{"code":101,"indent":0,"parameters":["1fc_jack2",2,0,2]},{"code":401,"indent":0,"parameters":["Me first??"]},{"code":356,"indent":0,"parameters":["Follower Chase"]},{"code":111,"indent":0,"parameters":[0,128,0]},{"code":101,"indent":1,"parameters":["fc_schneep1",3,0,2]},{"code":401,"indent":1,"parameters":["Have you ever had the pox of chicken?"]},{"code":101,"indent":1,"parameters":["1fc_jack2",2,0,2]},{"code":401,"indent":1,"parameters":["Uhhh--"]},{"code":101,"indent":1,"parameters":["fc_schneep1",0,0,2]},{"code":401,"indent":1,"parameters":["And do you still hate the sound of the heart beating?"]},{"code":101,"indent":1,"parameters":["1fc_jack2",7,0,2]},{"code":401,"indent":1,"parameters":["Uhhh--"]},{"code":101,"indent":1,"parameters":["fc_schneep1",2,0,2]},{"code":401,"indent":1,"parameters":["What is your blood type?"]},{"code":101,"indent":1,"parameters":["1fc_jack2",3,0,2]},{"code":401,"indent":1,"parameters":["Uhhh--"]},{"code":101,"indent":1,"parameters":["fc_schneep1",7,0,2]},{"code":401,"indent":1,"parameters":["Can you work weekends and holidays?"]},{"code":101,"indent":1,"parameters":["1fc_jack2",0,0,2]},{"code":401,"indent":1,"parameters":["Well that might be--"]},{"code":101,"indent":1,"parameters":["fc_schneep1",7,0,2]},{"code":401,"indent":1,"parameters":["You're hired!!"]},{"code":101,"indent":1,"parameters":["1fc_jack2",15,0,2]},{"code":401,"indent":1,"parameters":["...Oooookay??"]},{"code":101,"indent":1,"parameters":["fc_schneep1",2,0,2]},{"code":401,"indent":1,"parameters":["Here, you will need this book. It contains all the smartsy"]},{"code":401,"indent":1,"parameters":["things you will need to do this job. Viel glück!"]},{"code":0,"indent":1,"parameters":[]},{"code":411,"indent":0,"parameters":[]},{"code":101,"indent":1,"parameters":["fc_schneep1",3,0,2]},{"code":401,"indent":1,"parameters":["Haff you ever had zhe pox of chicken?"]},{"code":101,"indent":1,"parameters":["1fc_jack2",2,0,2]},{"code":401,"indent":1,"parameters":["Uhhh--"]},{"code":101,"indent":1,"parameters":["fc_schneep1",0,0,2]},{"code":401,"indent":1,"parameters":["Und do you schtill hate zhe sound of zhe haart beating?"]},{"code":101,"indent":1,"parameters":["1fc_jack2",7,0,2]},{"code":401,"indent":1,"parameters":["Uhhh--"]},{"code":101,"indent":1,"parameters":["fc_schneep1",2,0,2]},{"code":401,"indent":1,"parameters":["Vhat iz your blood type?"]},{"code":101,"indent":1,"parameters":["1fc_jack2",3,0,2]},{"code":401,"indent":1,"parameters":["Uhhh--"]},{"code":101,"indent":1,"parameters":["fc_schneep1",7,0,2]},{"code":401,"indent":1,"parameters":["Can you vork veekends und holidays?"]},{"code":101,"indent":1,"parameters":["1fc_jack2",0,0,2]},{"code":401,"indent":1,"parameters":["Well that might be--"]},{"code":101,"indent":1,"parameters":["fc_schneep1",7,0,2]},{"code":401,"indent":1,"parameters":["You're hired!!"]},{"code":101,"indent":1,"parameters":["1fc_jack2",15,0,2]},{"code":401,"indent":1,"parameters":["...Oooookay??"]},{"code":111,"indent":1,"parameters":[0,161,1]},{"code":121,"indent":2,"parameters":[200,200,1]},{"code":0,"indent":2,"parameters":[]},{"code":412,"indent":1,"parameters":[]},{"code":101,"indent":1,"parameters":["fc_schneep1",2,0,2]},{"code":401,"indent":1,"parameters":["Here, you vill need zhis book. It contains all zhe smartsy"]},{"code":401,"indent":1,"parameters":["things you vill need to do zhis job. Viel glück!"]},{"code":0,"indent":1,"parameters":[]},{"code":412,"indent":0,"parameters":[]},{"code":126,"indent":0,"parameters":[16,0,0,1]},{"code":250,"indent":0,"parameters":[{"name":"Item1","pan":0,"pitch":100,"volume":80}]},{"code":101,"indent":0,"parameters":["",0,1,2]},{"code":401,"indent":0,"parameters":["\\c[23]You got Schneep's medical book."]},{"code":108,"indent":0,"parameters":["Schneep starts walking back to his desk; halfway there, Cliff "]},{"code":408,"indent":0,"parameters":["interrupts"]},{"code":121,"indent":0,"parameters":[200,200,0]},{"code":101,"indent":0,"parameters":["4fc_cliffgreen1",4,0,2]},{"code":401,"indent":0,"parameters":["What about us?? My answers are no, no, B-positive, and"]},{"code":401,"indent":0,"parameters":["not with my current class schedule. Do I pass?"]},{"code":111,"indent":0,"parameters":[0,128,0]},{"code":101,"indent":1,"parameters":["fc_schneep1",1,0,2]},{"code":401,"indent":1,"parameters":["You would've passed anyway. It is merely political"]},{"code":401,"indent":1,"parameters":["bullshortcake."]},{"code":101,"indent":1,"parameters":["fc_altbillygown",2,0,2]},{"code":401,"indent":1,"parameters":["...Thanks for that one, Evie."]},{"code":101,"indent":1,"parameters":["fc_schneep1",0,0,2]},{"code":401,"indent":1,"parameters":["Anyway, off with you! I must prepare for the surgery."]},{"code":101,"indent":1,"parameters":["1fc_jack2",7,0,2]},{"code":401,"indent":1,"parameters":["What surgery?"]},{"code":205,"indent":1,"parameters":[4,{"list":[{"code":41,"indent":null,"parameters":["spr_egos",2]},{"code":0,"indent":null,"parameters":[]}],"repeat":false,"skippable":false,"wait":false}]},{"code":505,"indent":1,"parameters":[{"code":41,"indent":null,"parameters":["spr_egos",2]}]},{"code":101,"indent":1,"parameters":["fc_schneep1",11,0,2]},{"code":401,"indent":1,"parameters":["If this motherflubber is going to be getting the out of"]},{"code":401,"indent":1,"parameters":["here with you all, then I must be operating soon."]},{"code":101,"indent":1,"parameters":["4fc_cliffgreen1",7,0,2]},{"code":401,"indent":1,"parameters":["What??"]},{"code":101,"indent":1,"parameters":["fc_schneep1",15,0,2]},{"code":401,"indent":1,"parameters":["It is the only way!"]},{"code":0,"indent":1,"parameters":[]},{"code":411,"indent":0,"parameters":[]},{"code":101,"indent":1,"parameters":["fc_schneep1",1,0,2]},{"code":401,"indent":1,"parameters":["You vould've passed anyvay. It iz merely political"]},{"code":401,"indent":1,"parameters":["bullshortcake."]},{"code":101,"indent":1,"parameters":["fc_altbillygown",2,0,2]},{"code":401,"indent":1,"parameters":["...Thanks for that one, Evie."]},{"code":101,"indent":1,"parameters":["fc_schneep1",0,0,2]},{"code":401,"indent":1,"parameters":["Anyvey, off viff you! I must prepare for zhe surgery."]},{"code":101,"indent":1,"parameters":["1fc_jack2",7,0,2]},{"code":401,"indent":1,"parameters":["What surgery?"]},{"code":205,"indent":1,"parameters":[4,{"list":[{"code":41,"indent":null,"parameters":["spr_egos",2]},{"code":0,"indent":null,"parameters":[]}],"repeat":false,"skippable":false,"wait":false}]},{"code":505,"indent":1,"parameters":[{"code":41,"indent":null,"parameters":["spr_egos",2]}]},{"code":101,"indent":1,"parameters":["fc_schneep1",11,0,2]},{"code":401,"indent":1,"parameters":["If zhis mozzerflubber is going to be getting zhe out of"]},{"code":401,"indent":1,"parameters":["here viff you all, zhen I must be operating soon."]},{"code":101,"indent":1,"parameters":["4fc_cliffgreen1",7,0,2]},{"code":401,"indent":1,"parameters":["What??"]},{"code":101,"indent":1,"parameters":["fc_schneep1",15,0,2]},{"code":401,"indent":1,"parameters":["It is zhe only vay!"]},{"code":0,"indent":1,"parameters":[]},{"code":412,"indent":0,"parameters":[]},{"code":205,"indent":0,"parameters":[4,{"list":[{"code":2,"indent":null,"parameters":[]},{"code":2,"indent":null,"parameters":[]},{"code":2,"indent":null,"parameters":[]},{"code":4,"indent":null,"parameters":[]},{"code":4,"indent":null,"parameters":[]},{"code":18,"indent":null,"parameters":[]},{"code":0,"indent":null,"parameters":[]}],"repeat":false,"skippable":false,"wait":false}]},{"code":505,"indent":0,"parameters":[{"code":2,"indent":null,"parameters":[]}]},{"code":505,"indent":0,"parameters":[{"code":2,"indent":null,"parameters":[]}]},{"code":505,"indent":0,"parameters":[{"code":2,"indent":null,"parameters":[]}]},{"code":505,"indent":0,"parameters":[{"code":4,"indent":null,"parameters":[]}]},{"code":505,"indent":0,"parameters":[{"code":4,"indent":null,"parameters":[]}]},{"code":505,"indent":0,"parameters":[{"code":18,"indent":null,"parameters":[]}]},{"code":108,"indent":0,"parameters":["Schneep fully returns to his desk"]},{"code":101,"indent":0,"parameters":["fc_altbillygown",7,0,2]},{"code":401,"indent":0,"parameters":["Guys... please hurry. He's insane."]},{"code":101,"indent":0,"parameters":["1fc_jack1",6,0,2]},{"code":401,"indent":0,"parameters":["We kinda know, Billy."]},{"code":242,"indent":0,"parameters":[2]},{"code":205,"indent":0,"parameters":[-1,{"list":[{"code":3,"indent":null,"parameters":[]},{"code":3,"indent":null,"parameters":[]},{"code":0,"indent":null,"parameters":[]}],"repeat":false,"skippable":false,"wait":true}]},{"code":505,"indent":0,"parameters":[{"code":3,"indent":null,"parameters":[]}]},{"code":505,"indent":0,"parameters":[{"code":3,"indent":null,"parameters":[]}]},{"code":201,"indent":0,"parameters":[0,26,11,34,0,0]},{"code":121,"indent":0,"parameters":[33,33,0]},{"code":0,"indent":0,"parameters":[]}]},{"conditions":{"actorId":1,"actorValid":false,"itemId":1,"itemValid":false,"selfSwitchCh":"A","selfSwitchValid":false,"switch1Id":32,"switch1Valid":true,"switch2Id":143,"switch2Valid":true,"variableId":1,"variableValid":false,"variableValue":0},"directionFix":false,"image":{"tileId":0,"characterName":"","direction":2,"pattern":0,"characterIndex":0},"moveFrequency":3,"moveRoute":{"list":[{"code":0,"indent":null,"parameters":[]}],"repeat":true,"skippable":false,"wait":false},"moveSpeed":3,"moveType":0,"priorityType":0,"stepAnime":false,"through":false,"trigger":3,"walkAnime":true,"list":[{"code":205,"indent":0,"parameters":[-1,{"list":[{"code":2,"indent":null,"parameters":[]},{"code":2,"indent":null,"parameters":[]},{"code":0,"indent":null,"parameters":[]}],"repeat":false,"skippable":false,"wait":true}]},{"code":505,"indent":0,"parameters":[{"code":2,"indent":null,"parameters":[]}]},{"code":505,"indent":0,"parameters":[{"code":2,"indent":null,"parameters":[]}]},{"code":101,"indent":0,"parameters":["1fc_jack1",15,0,2]},{"code":401,"indent":0,"parameters":["BILLY!!"]},{"code":101,"indent":0,"parameters":["fc_altbillygown",2,0,2]},{"code":401,"indent":0,"parameters":["Get me out of here, guys! I can't take this any longer..."]},{"code":101,"indent":0,"parameters":["fc_schneep1",0,0,2]},{"code":401,"indent":0,"parameters":["Deshalb bist du nun unter meiner Gewalt. Damit ich dein"]},{"code":401,"indent":0,"parameters":["Leiden beenden kann."]},{"code":101,"indent":0,"parameters":["3fc_jenny1",4,0,2]},{"code":401,"indent":0,"parameters":["I'm confused. Weren't you just showering like the"]},{"code":401,"indent":0,"parameters":["rest of us a few minutes ago?"]},{"code":101,"indent":0,"parameters":["fc_altbillygown",3,0,2]},{"code":401,"indent":0,"parameters":["I was. Then all of THIS happened and now I'm stuck here."]},{"code":101,"indent":0,"parameters":["4fc_cliffgreen1",5,0,2]},{"code":401,"indent":0,"parameters":["Stuck?"]},{"code":101,"indent":0,"parameters":["fc_schneep1",0,0,2]},{"code":401,"indent":0,"parameters":["Sein Körper und seine Seele gehören jetzt mir; er ist eine"]},{"code":401,"indent":0,"parameters":["laufende Zeitbombe die jede Sekunde explodieren wird."]},{"code":101,"indent":0,"parameters":["4fc_cliffgreen1",6,0,2]},{"code":401,"indent":0,"parameters":["Wait..."]},{"code":101,"indent":0,"parameters":["4fc_cliffgreen1",15,0,2]},{"code":401,"indent":0,"parameters":["...Hypertension??"]},{"code":205,"indent":0,"parameters":[4,{"list":[{"code":41,"indent":null,"parameters":["spr_egos",2]},{"code":0,"indent":null,"parameters":[]}],"repeat":false,"skippable":false,"wait":false}]},{"code":505,"indent":0,"parameters":[{"code":41,"indent":null,"parameters":["spr_egos",2]}]},{"code":101,"indent":0,"parameters":["fc_schneep1",13,0,2]},{"code":401,"indent":0,"parameters":["Du denkst wohl du weißt alles besser als ich, hm? Du"]},{"code":401,"indent":0,"parameters":["naiver Idiot."]},{"code":101,"indent":0,"parameters":["3fc_jenny1",15,0,2]},{"code":401,"indent":0,"parameters":["So Billy's here for high blood pressure?"]},{"code":205,"indent":0,"parameters":[4,{"list":[{"code":41,"indent":null,"parameters":["spr_egos2",6]},{"code":0,"indent":null,"parameters":[]}],"repeat":false,"skippable":false,"wait":false}]},{"code":505,"indent":0,"parameters":[{"code":41,"indent":null,"parameters":["spr_egos2",6]}]},{"code":101,"indent":0,"parameters":["fc_schneep1",0,0,2]},{"code":401,"indent":0,"parameters":["Ich werde euch eure Augen ausreißen und es euch zeigen,"]},{"code":401,"indent":0,"parameters":["wenn ich muss!"]},{"code":108,"indent":0,"parameters":["He leaves the desk and stands next to Billy"]},{"code":205,"indent":0,"parameters":[4,{"list":[{"code":41,"indent":null,"parameters":["spr_egos",2]},{"code":3,"indent":null,"parameters":[]},{"code":19,"indent":null,"parameters":[]},{"code":0,"indent":null,"parameters":[]}],"repeat":false,"skippable":false,"wait":false}]},{"code":505,"indent":0,"parameters":[{"code":41,"indent":null,"parameters":["spr_egos",2]}]},{"code":505,"indent":0,"parameters":[{"code":3,"indent":null,"parameters":[]}]},{"code":505,"indent":0,"parameters":[{"code":19,"indent":null,"parameters":[]}]},{"code":101,"indent":0,"parameters":["fc_altbillygown",3,0,2]},{"code":401,"indent":0,"parameters":["...That's my leg; what are you even doing?"]},{"code":101,"indent":0,"parameters":["fc_schneep1",3,0,2]},{"code":401,"indent":0,"parameters":["Du brauchst deine Beine nicht zum Leben, dennoch werde"]},{"code":401,"indent":0,"parameters":["ich sie benutzen, um zu sehen wieso du noch lebst."]},{"code":101,"indent":0,"parameters":["fc_altbillygown",2,0,2]},{"code":401,"indent":0,"parameters":["Jack, can we sue him?"]},{"code":101,"indent":0,"parameters":["4fc_cliffgreen1",5,0,2]},{"code":401,"indent":0,"parameters":["...Okay, it's not the best, but the calf IS a viable spot"]},{"code":401,"indent":0,"parameters":["to take a blood pressure reading, I'll give him that."]},{"code":101,"indent":0,"parameters":["fc_altbillygown",3,0,2]},{"code":401,"indent":0,"parameters":["Since when are you on HIS side?"]},{"code":101,"indent":0,"parameters":["4fc_cliffgreen1",5,0,2]},{"code":401,"indent":0,"parameters":["I'm not. But my parents are doctors, so..."]},{"code":205,"indent":0,"parameters":[4,{"list":[{"code":18,"indent":null,"parameters":[]},{"code":13,"indent":null,"parameters":[]},{"code":0,"indent":null,"parameters":[]}],"repeat":false,"skippable":false,"wait":false}]},{"code":505,"indent":0,"parameters":[{"code":18,"indent":null,"parameters":[]}]},{"code":505,"indent":0,"parameters":[{"code":13,"indent":null,"parameters":[]}]},{"code":101,"indent":0,"parameters":["fc_schneep1",11,0,2]},{"code":401,"indent":0,"parameters":["Ich hab es euch ja gesagt, ihr Schwachköpfe!"]},{"code":101,"indent":0,"parameters":["1fc_jack1",15,0,2]},{"code":401,"indent":0,"parameters":["190 over 100??"]},{"code":101,"indent":0,"parameters":["4fc_cliffgreen1",15,0,2]},{"code":401,"indent":0,"parameters":["...Billy, is everything all right? You wanna talk about it?"]},{"code":101,"indent":0,"parameters":["fc_altbillygown",0,0,2]},{"code":401,"indent":0,"parameters":["Huh… that's a little higher than usual."]},{"code":101,"indent":0,"parameters":["4fc_cliffgreen1",7,0,2]},{"code":401,"indent":0,"parameters":["A LITTLE??"]},{"code":205,"indent":0,"parameters":[4,{"list":[{"code":41,"indent":null,"parameters":["spr_egos2",6]},{"code":0,"indent":null,"parameters":[]}],"repeat":false,"skippable":false,"wait":false}]},{"code":505,"indent":0,"parameters":[{"code":41,"indent":null,"parameters":["spr_egos2",6]}]},{"code":101,"indent":0,"parameters":["fc_schneep1",11,0,2]},{"code":401,"indent":0,"parameters":["Du tappst direkt in meine Falle. Deshalb wirst du niemals"]},{"code":401,"indent":0,"parameters":["entkommen."]},{"code":101,"indent":0,"parameters":["fc_schneep1",1,0,2]},{"code":401,"indent":0,"parameters":["Schaut diesem Doktor zu, während er euch auslacht. "]},{"code":101,"indent":0,"parameters":["fc_altbillygown",6,0,2]},{"code":401,"indent":0,"parameters":["Nothing humorous about this. Just let me go!"]},{"code":101,"indent":0,"parameters":["fc_schneep1",6,0,2]},{"code":401,"indent":0,"parameters":["Ich werde es so schmerzhaft wie nur möglich machen:"]},{"code":101,"indent":0,"parameters":["fc_schneep1",0,0,2]},{"code":401,"indent":0,"parameters":["Nein."]},{"code":101,"indent":0,"parameters":["1fc_jack1",7,0,2]},{"code":401,"indent":0,"parameters":["I'm assuming that's \"no\" and we're not gonna"]},{"code":401,"indent":0,"parameters":["run off into the land of German puns here."]},{"code":101,"indent":0,"parameters":["fc_schneep1",3,0,2]},{"code":401,"indent":0,"parameters":["Ich spreche bereits Deutsch, Idiot. Provozier mich nicht."]},{"code":108,"indent":0,"parameters":["Jack walks next to Schneep"]},{"code":101,"indent":0,"parameters":["1fc_jack2",3,0,2]},{"code":401,"indent":0,"parameters":["Look, we just needed to use the shower, Doc."]},{"code":101,"indent":0,"parameters":["fc_schneep1",15,0,2]},{"code":401,"indent":0,"parameters":["DOKTOR Schneeplestein ist was du mich nennen wirst,"]},{"code":401,"indent":0,"parameters":["falls du hier lebend rauskommen willst."]},{"code":101,"indent":0,"parameters":["1fc_jack2",12,0,2]},{"code":401,"indent":0,"parameters":["Fine, DOCTAH. Now that we've done that, we REALLY"]},{"code":401,"indent":0,"parameters":["need to get going. In case you haven't noticed,"]},{"code":401,"indent":0,"parameters":["Wireland is at stake. You and everyone here is going"]},{"code":401,"indent":0,"parameters":["to DIE if we don't head out."]},{"code":205,"indent":0,"parameters":[4,{"list":[{"code":41,"indent":null,"parameters":["spr_egos",2]},{"code":0,"indent":null,"parameters":[]}],"repeat":false,"skippable":false,"wait":false}]},{"code":505,"indent":0,"parameters":[{"code":41,"indent":null,"parameters":["spr_egos",2]}]},{"code":101,"indent":0,"parameters":["fc_schneep1",9,0,2]},{"code":401,"indent":0,"parameters":["Du bist so blind nicht zu sehen, dass Willhelm in meinen"]},{"code":401,"indent":0,"parameters":["Händen in Todesgefahr ist. Falls sein hoher Blutdruck"]},{"code":401,"indent":0,"parameters":["nicht sein Herz stoppt, werde ich es."]},{"code":101,"indent":0,"parameters":["1fc_jack1",7,0,2]},{"code":401,"indent":0,"parameters":["His heart is FINE, Schneep."]},{"code":101,"indent":0,"parameters":["fc_schneep1",13,0,2]},{"code":401,"indent":0,"parameters":["Du bist so ignorant gegenüber der menschlichen"]},{"code":401,"indent":0,"parameters":["Anatomie. Lass es mich dir anhand deiner eigenen"]},{"code":401,"indent":0,"parameters":["Organe lehren."]},{"code":101,"indent":0,"parameters":["4fc_cliffgreen1",13,0,2]},{"code":401,"indent":0,"parameters":["..."]},{"code":101,"indent":0,"parameters":["3fc_jenny1",9,0,2]},{"code":401,"indent":0,"parameters":["..."]},{"code":108,"indent":0,"parameters":["Need new \"gonna burst out laughing\" face here for Billy"]},{"code":101,"indent":0,"parameters":["fc_altbillygown",14,0,2]},{"code":401,"indent":0,"parameters":["Pft--!!"]},{"code":101,"indent":0,"parameters":["3fc_jenny1",15,0,2]},{"code":401,"indent":0,"parameters":["..."]},{"code":101,"indent":0,"parameters":["fc_altbillygown",13,0,2]},{"code":401,"indent":0,"parameters":["Yeah, Jack, my \"haert\" isn’t feeling so good."]},{"code":101,"indent":0,"parameters":["1fc_jack1",6,0,2]},{"code":401,"indent":0,"parameters":["Billy, I swear to fluff..."]},{"code":101,"indent":0,"parameters":["4fc_cliffgreen1",5,0,2]},{"code":401,"indent":0,"parameters":["...I wouldn't razz the accent, man."]},{"code":205,"indent":0,"parameters":[4,{"list":[{"code":41,"indent":null,"parameters":["spr_egos2",6]},{"code":0,"indent":null,"parameters":[]}],"repeat":false,"skippable":false,"wait":false}]},{"code":505,"indent":0,"parameters":[{"code":41,"indent":null,"parameters":["spr_egos2",6]}]},{"code":101,"indent":0,"parameters":["fc_schneep1",1,0,2]},{"code":401,"indent":0,"parameters":["Ich sollte dich ebenfalls unter meine eigene “Pflege”"]},{"code":401,"indent":0,"parameters":["bringen."]},{"code":101,"indent":0,"parameters":["1fc_jack2",5,0,2]},{"code":401,"indent":0,"parameters":["\"Und you also haff zhe accent, Doctah. Musn't you be"]},{"code":401,"indent":0,"parameters":["forgetting zhis, ja?\""]},{"code":101,"indent":0,"parameters":["fc_schneep1",0,0,2]},{"code":401,"indent":0,"parameters":["Ich werde dich für einen Moment denken lassen, dass du"]},{"code":401,"indent":0,"parameters":["gewonnen hast."]},{"code":101,"indent":0,"parameters":["4fc_cliffgreen1",4,0,2]},{"code":401,"indent":0,"parameters":["Touché."]},{"code":101,"indent":0,"parameters":["fc_schneep1",11,0,2]},{"code":401,"indent":0,"parameters":["Der Moment ist vorbei."]},{"code":101,"indent":0,"parameters":["3fc_jenny1",4,0,2]},{"code":401,"indent":0,"parameters":["This is going nowhere…"]},{"code":108,"indent":0,"parameters":["Jenny walks over to Schneep if she can. If she can't, Jack steps out "]},{"code":408,"indent":0,"parameters":["of her way"]},{"code":101,"indent":0,"parameters":["3fc_jenny1",6,0,2]},{"code":401,"indent":0,"parameters":["How about this: if we can prove that Billy's blood"]},{"code":401,"indent":0,"parameters":["pressure is normal, we can take him with us, right?"]},{"code":205,"indent":0,"parameters":[4,{"list":[{"code":41,"indent":null,"parameters":["spr_egos",2]},{"code":0,"indent":null,"parameters":[]}],"repeat":false,"skippable":false,"wait":false}]},{"code":505,"indent":0,"parameters":[{"code":41,"indent":null,"parameters":["spr_egos",2]}]},{"code":101,"indent":0,"parameters":["fc_schneep1",10,0,2]},{"code":401,"indent":0,"parameters":["Alles was ihr vorschlägt wird ignoriert werden. Versucht"]},{"code":401,"indent":0,"parameters":["es nicht."]},{"code":101,"indent":0,"parameters":["3fc_jenny1",4,0,2]},{"code":401,"indent":0,"parameters":["Well…"]},{"code":108,"indent":0,"parameters":["Jenny turns to look at Jack and maybe Cliff or Billy, then turns back "]},{"code":408,"indent":0,"parameters":["to Schneep"]},{"code":101,"indent":0,"parameters":["3fc_jenny1",15,0,2]},{"code":401,"indent":0,"parameters":["Do you need any help around here?"]},{"code":101,"indent":0,"parameters":["fc_schneep1",10,0,2]},{"code":401,"indent":0,"parameters":["Ich brauche eigentlich keine Hilfe, um meine Pläne zu"]},{"code":401,"indent":0,"parameters":["verwirklichen, aber ich gönne dir den Spaß, wenn es dich"]},{"code":401,"indent":0,"parameters":["zum Schweigen bringt."]},{"code":101,"indent":0,"parameters":["3fc_jenny1",1,0,2]},{"code":401,"indent":0,"parameters":["Perfect! We'll help you out!"]},{"code":101,"indent":0,"parameters":["1fc_jack2",15,0,2]},{"code":401,"indent":0,"parameters":["What??"]},{"code":205,"indent":0,"parameters":[4,{"list":[{"code":41,"indent":null,"parameters":["spr_egos2",6]},{"code":0,"indent":null,"parameters":[]}],"repeat":false,"skippable":false,"wait":false}]},{"code":505,"indent":0,"parameters":[{"code":41,"indent":null,"parameters":["spr_egos2",6]}]},{"code":101,"indent":0,"parameters":["fc_schneep1",7,0,2]},{"code":401,"indent":0,"parameters":["Erlaubt mir den Vertrag zu holen."]},{"code":108,"indent":0,"parameters":["Schneep runs off to his desk"]},{"code":205,"indent":0,"parameters":[4,{"list":[{"code":29,"indent":null,"parameters":[5]},{"code":1,"indent":null,"parameters":[]},{"code":3,"indent":null,"parameters":[]},{"code":3,"indent":null,"parameters":[]},{"code":3,"indent":null,"parameters":[]},{"code":3,"indent":null,"parameters":[]},{"code":4,"indent":null,"parameters":[]},{"code":4,"indent":null,"parameters":[]},{"code":4,"indent":null,"parameters":[]},{"code":18,"indent":null,"parameters":[]},{"code":15,"indent":null,"parameters":[60]},{"code":1,"indent":null,"parameters":[]},{"code":1,"indent":null,"parameters":[]},{"code":1,"indent":null,"parameters":[]},{"code":2,"indent":null,"parameters":[]},{"code":1,"indent":null,"parameters":[]},{"code":18,"indent":null,"parameters":[]},{"code":0,"indent":null,"parameters":[]}],"repeat":false,"skippable":false,"wait":false}]},{"code":505,"indent":0,"parameters":[{"code":29,"indent":null,"parameters":[5]}]},{"code":505,"indent":0,"parameters":[{"code":1,"indent":null,"parameters":[]}]},{"code":505,"indent":0,"parameters":[{"code":3,"indent":null,"parameters":[]}]},{"code":505,"indent":0,"parameters":[{"code":3,"indent":null,"parameters":[]}]},{"code":505,"indent":0,"parameters":[{"code":3,"indent":null,"parameters":[]}]},{"code":505,"indent":0,"parameters":[{"code":3,"indent":null,"parameters":[]}]},{"code":505,"indent":0,"parameters":[{"code":4,"indent":null,"parameters":[]}]},{"code":505,"indent":0,"parameters":[{"code":4,"indent":null,"parameters":[]}]},{"code":505,"indent":0,"parameters":[{"code":4,"indent":null,"parameters":[]}]},{"code":505,"indent":0,"parameters":[{"code":18,"indent":null,"parameters":[]}]},{"code":505,"indent":0,"parameters":[{"code":15,"indent":null,"parameters":[60]}]},{"code":505,"indent":0,"parameters":[{"code":1,"indent":null,"parameters":[]}]},{"code":505,"indent":0,"parameters":[{"code":1,"indent":null,"parameters":[]}]},{"code":505,"indent":0,"parameters":[{"code":1,"indent":null,"parameters":[]}]},{"code":505,"indent":0,"parameters":[{"code":2,"indent":null,"parameters":[]}]},{"code":505,"indent":0,"parameters":[{"code":1,"indent":null,"parameters":[]}]},{"code":505,"indent":0,"parameters":[{"code":18,"indent":null,"parameters":[]}]},{"code":101,"indent":0,"parameters":["1fc_jack2",3,0,2]},{"code":401,"indent":0,"parameters":["Jenny, I don't know about this..."]},{"code":101,"indent":0,"parameters":["4fc_cliffgreen1",6,0,2]},{"code":401,"indent":0,"parameters":["And I'm not an expert here. It's not even my--"]},{"code":101,"indent":0,"parameters":["3fc_jenny1",5,0,2]},{"code":401,"indent":0,"parameters":["Shhhh, just play along..."]},{"code":108,"indent":0,"parameters":["Schneep comes back"]},{"code":101,"indent":0,"parameters":["fc_schneep1",2,0,2]},{"code":401,"indent":0,"parameters":["Ich werde nun mit den Riten beginnen. Wenn all dies"]},{"code":401,"indent":0,"parameters":["vorbei ist, wird alles was euch gehört mein sein."]},{"code":101,"indent":0,"parameters":["fc_schneep1",7,0,2]},{"code":401,"indent":0,"parameters":["Jack!"]},{"code":213,"indent":0,"parameters":[-1,1,false]},{"code":205,"indent":0,"parameters":[-1,{"list":[{"code":14,"indent":null,"parameters":[0,0]},{"code":0,"indent":null,"parameters":[]}],"repeat":false,"skippable":false,"wait":true}]},{"code":505,"indent":0,"parameters":[{"code":14,"indent":null,"parameters":[0,0]}]},{"code":101,"indent":0,"parameters":["1fc_jack2",2,0,2]},{"code":401,"indent":0,"parameters":["Me first??"]},{"code":101,"indent":0,"parameters":["fc_schneep1",3,0,2]},{"code":401,"indent":0,"parameters":["Hat dich die Pest und/oder Pestilenz jemals in die Knien"]},{"code":401,"indent":0,"parameters":["gebracht?"]},{"code":101,"indent":0,"parameters":["1fc_jack2",2,0,2]},{"code":401,"indent":0,"parameters":["Uhhh--"]},{"code":101,"indent":0,"parameters":["fc_schneep1",0,0,2]},{"code":401,"indent":0,"parameters":["Bringt dich das Geräusch deiner eigenen Sterblichkeit"]},{"code":401,"indent":0,"parameters":["zum Rande des Wahnsinns?"]},{"code":101,"indent":0,"parameters":["1fc_jack2",7,0,2]},{"code":401,"indent":0,"parameters":["Uhhh--"]},{"code":101,"indent":0,"parameters":["fc_schneep1",2,0,2]},{"code":401,"indent":0,"parameters":["Falls ich dich aufschneiden sollte, was würde mich da"]},{"code":401,"indent":0,"parameters":["erwarten?"]},{"code":101,"indent":0,"parameters":["1fc_jack2",3,0,2]},{"code":401,"indent":0,"parameters":["Uhhh--"]},{"code":101,"indent":0,"parameters":["fc_schneep1",7,0,2]},{"code":401,"indent":0,"parameters":["Wirst du mein Sklave sein, für alle Ewigkeit?"]},{"code":101,"indent":0,"parameters":["1fc_jack2",0,0,2]},{"code":401,"indent":0,"parameters":["Well that might be--"]},{"code":101,"indent":0,"parameters":["fc_schneep1",7,0,2]},{"code":401,"indent":0,"parameters":["Ihr gehört nun mir."]},{"code":101,"indent":0,"parameters":["1fc_jack2",15,0,2]},{"code":401,"indent":0,"parameters":["...Oooookay??"]},{"code":101,"indent":0,"parameters":["fc_schneep1",2,0,2]},{"code":401,"indent":0,"parameters":["Nimmt dieses Buch. Es wird euer Lebensblut durch die"]},{"code":401,"indent":0,"parameters":["Seiten aussaugen und den Vertrag besiegeln. Viel Glück!"]},{"code":126,"indent":0,"parameters":[16,0,0,1]},{"code":250,"indent":0,"parameters":[{"name":"Item1","pan":0,"pitch":100,"volume":80}]},{"code":101,"indent":0,"parameters":["",0,1,2]},{"code":401,"indent":0,"parameters":["You got Schneep's medical book."]},{"code":108,"indent":0,"parameters":["Schneep starts walking back to his desk; halfway there, Cliff "]},{"code":408,"indent":0,"parameters":["interrupts"]},{"code":101,"indent":0,"parameters":["4fc_cliffgreen1",4,0,2]},{"code":401,"indent":0,"parameters":["What about us?? My answers are no, no, B-positive, and"]},{"code":401,"indent":0,"parameters":["not with my current class schedule. Do I pass?"]},{"code":101,"indent":0,"parameters":["fc_schneep1",1,0,2]},{"code":401,"indent":0,"parameters":["Ihr wurdet mein, sobald ihr durch diese Türen gegangen"]},{"code":401,"indent":0,"parameters":["seid. Das alles hier ist zur Schau."]},{"code":101,"indent":0,"parameters":["fc_altbillygown",2,0,2]},{"code":401,"indent":0,"parameters":["...Thanks for that one, Evie."]},{"code":101,"indent":0,"parameters":["fc_schneep1",0,0,2]},{"code":401,"indent":0,"parameters":["Verschwindet. Ich muss Willhelm für seinen Tod"]},{"code":401,"indent":0,"parameters":["vorbereiten."]},{"code":101,"indent":0,"parameters":["1fc_jack2",7,0,2]},{"code":401,"indent":0,"parameters":["What surgery?"]},{"code":205,"indent":0,"parameters":[4,{"list":[{"code":41,"indent":null,"parameters":["spr_egos",2]},{"code":0,"indent":null,"parameters":[]}],"repeat":false,"skippable":false,"wait":false}]},{"code":505,"indent":0,"parameters":[{"code":41,"indent":null,"parameters":["spr_egos",2]}]},{"code":101,"indent":0,"parameters":["fc_schneep1",11,0,2]},{"code":401,"indent":0,"parameters":["Ich bin offensichtlich kein echter Doktor. Jede Operation"]},{"code":401,"indent":0,"parameters":["wird in seinen automatischen Untergang resultieren."]},{"code":101,"indent":0,"parameters":["4fc_cliffgreen1",7,0,2]},{"code":401,"indent":0,"parameters":["What??"]},{"code":101,"indent":0,"parameters":["fc_schneep1",15,0,2]},{"code":401,"indent":0,"parameters":["Es ist eure Schuld, dass das hier passiert."]},{"code":205,"indent":0,"parameters":[4,{"list":[{"code":2,"indent":null,"parameters":[]},{"code":2,"indent":null,"parameters":[]},{"code":2,"indent":null,"parameters":[]},{"code":4,"indent":null,"parameters":[]},{"code":4,"indent":null,"parameters":[]},{"code":18,"indent":null,"parameters":[]},{"code":0,"indent":null,"parameters":[]}],"repeat":false,"skippable":false,"wait":false}]},{"code":505,"indent":0,"parameters":[{"code":2,"indent":null,"parameters":[]}]},{"code":505,"indent":0,"parameters":[{"code":2,"indent":null,"parameters":[]}]},{"code":505,"indent":0,"parameters":[{"code":2,"indent":null,"parameters":[]}]},{"code":505,"indent":0,"parameters":[{"code":4,"indent":null,"parameters":[]}]},{"code":505,"indent":0,"parameters":[{"code":4,"indent":null,"parameters":[]}]},{"code":505,"indent":0,"parameters":[{"code":18,"indent":null,"parameters":[]}]},{"code":108,"indent":0,"parameters":["Schneep fully returns to his desk"]},{"code":101,"indent":0,"parameters":["fc_altbillygown",7,0,2]},{"code":401,"indent":0,"parameters":["Guys... please hurry. He's insane."]},{"code":101,"indent":0,"parameters":["1fc_jack1",6,0,2]},{"code":401,"indent":0,"parameters":["We kinda know, Billy."]},{"code":205,"indent":0,"parameters":[-1,{"list":[{"code":3,"indent":null,"parameters":[]},{"code":3,"indent":null,"parameters":[]},{"code":0,"indent":null,"parameters":[]}],"repeat":false,"skippable":false,"wait":true}]},{"code":505,"indent":0,"parameters":[{"code":3,"indent":null,"parameters":[]}]},{"code":505,"indent":0,"parameters":[{"code":3,"indent":null,"parameters":[]}]},{"code":201,"indent":0,"parameters":[0,26,11,34,0,0]},{"code":121,"indent":0,"parameters":[33,33,0]},{"code":0,"indent":0,"parameters":[]}]},{"conditions":{"actorId":1,"actorValid":false,"itemId":1,"itemValid":false,"selfSwitchCh":"A","selfSwitchValid":false,"switch1Id":33,"switch1Valid":true,"switch2Id":1,"switch2Valid":false,"variableId":1,"variableValid":false,"variableValue":0},"directionFix":false,"image":{"tileId":0,"characterName":"","direction":2,"pattern":0,"characterIndex":0},"moveFrequency":3,"moveRoute":{"list":[{"code":0,"indent":null,"parameters":[]}],"repeat":true,"skippable":false,"wait":false},"moveSpeed":3,"moveType":0,"priorityType":0,"stepAnime":false,"through":false,"trigger":3,"walkAnime":true,"list":[{"code":111,"indent":0,"parameters":[0,128,0]},{"code":101,"indent":1,"parameters":["fc_schneep1",2,0,2]},{"code":401,"indent":1,"parameters":["Ah! You are back! You work fast!"]},{"code":101,"indent":1,"parameters":["1fc_jack1",5,0,2]},{"code":401,"indent":1,"parameters":["Ah... actually we're not done yet."]},{"code":101,"indent":1,"parameters":["fc_schneep1",0,0,2]},{"code":401,"indent":1,"parameters":["Then why are you standing here chewing the cat"]},{"code":401,"indent":1,"parameters":["with me??"]},{"code":101,"indent":1,"parameters":["3fc_jenny1",2,0,2]},{"code":401,"indent":1,"parameters":["Uh... you mean chewing the fat?"]},{"code":101,"indent":1,"parameters":["fc_schneep1",15,0,2]},{"code":401,"indent":1,"parameters":["It doesn't matter what you are chewing, you are not"]},{"code":401,"indent":1,"parameters":["done with my task!"]},{"code":0,"indent":1,"parameters":[]},{"code":411,"indent":0,"parameters":[]},{"code":101,"indent":1,"parameters":["fc_schneep1",2,0,2]},{"code":401,"indent":1,"parameters":["Ah! You are back! You vork fast!"]},{"code":101,"indent":1,"parameters":["1fc_jack1",5,0,2]},{"code":401,"indent":1,"parameters":["Ah... actually we're not done yet."]},{"code":101,"indent":1,"parameters":["fc_schneep1",0,0,2]},{"code":401,"indent":1,"parameters":["Zen vhy are you standing here chewing ze cat viff me??"]},{"code":101,"indent":1,"parameters":["3fc_jenny1",2,0,2]},{"code":401,"indent":1,"parameters":["Uh... you mean chewing the fat?"]},{"code":101,"indent":1,"parameters":["fc_schneep1",15,0,2]},{"code":401,"indent":1,"parameters":["It doesn't matter vhat you are chewing, you are not"]},{"code":401,"indent":1,"parameters":["done viff mein task!"]},{"code":0,"indent":1,"parameters":[]},{"code":412,"indent":0,"parameters":[]},{"code":101,"indent":0,"parameters":["4fc_cliffgreen1",6,0,2]},{"code":401,"indent":0,"parameters":["Yeah, we should go. See you soon, Billy. I hope."]},{"code":201,"indent":0,"parameters":[0,26,11,34,6,0]},{"code":0,"indent":0,"parameters":[]}]},{"conditions":{"actorId":1,"actorValid":false,"itemId":1,"itemValid":false,"selfSwitchCh":"A","selfSwitchValid":false,"switch1Id":33,"switch1Valid":true,"switch2Id":143,"switch2Valid":true,"variableId":1,"variableValid":false,"variableValue":0},"directionFix":false,"image":{"tileId":0,"characterName":"","direction":2,"pattern":0,"characterIndex":0},"moveFrequency":3,"moveRoute":{"list":[{"code":0,"indent":null,"parameters":[]}],"repeat":true,"skippable":false,"wait":false},"moveSpeed":3,"moveType":0,"priorityType":0,"stepAnime":false,"through":false,"trigger":3,"walkAnime":true,"list":[{"code":101,"indent":0,"parameters":["fc_schneep1",2,0,2]},{"code":401,"indent":0,"parameters":["Ihr Narren, das Ritual ist noch nicht komplett."]},{"code":101,"indent":0,"parameters":["1fc_jack1",5,0,2]},{"code":401,"indent":0,"parameters":["Ah... actually we're not done yet."]},{"code":101,"indent":0,"parameters":["fc_schneep1",0,0,2]},{"code":401,"indent":0,"parameters":["Hört auf mich anzusprechen. Ich muss den Spruch in"]},{"code":401,"indent":0,"parameters":["Ruhe vollenden."]},{"code":101,"indent":0,"parameters":["3fc_jenny1",2,0,2]},{"code":401,"indent":0,"parameters":["Uh... you mean chewing the fat?"]},{"code":101,"indent":0,"parameters":["fc_schneep1",15,0,2]},{"code":401,"indent":0,"parameters":["Verschwindet, oder ich werde eure Organe als Dekoration"]},{"code":401,"indent":0,"parameters":["und Labor-Material verwenden!"]},{"code":101,"indent":0,"parameters":["4fc_cliffgreen1",6,0,2]},{"code":401,"indent":0,"parameters":["Yeah, we should go. See you soon, Billy. I hope."]},{"code":201,"indent":0,"parameters":[0,26,11,34,6,0]},{"code":0,"indent":0,"parameters":[]}]},{"conditions":{"actorId":1,"actorValid":false,"itemId":1,"itemValid":false,"selfSwitchCh":"A","selfSwitchValid":false,"switch1Id":1,"switch1Valid":false,"switch2Id":1,"switch2Valid":false,"variableId":23,"variableValid":true,"variableValue":6},"directionFix":false,"image":{"tileId":0,"characterName":"","direction":2,"pattern":0,"characterIndex":0},"moveFrequency":3,"moveRoute":{"list":[{"code":0,"indent":null,"parameters":[]}],"repeat":true,"skippable":false,"wait":false},"moveSpeed":3,"moveType":0,"priorityType":0,"stepAnime":false,"through":false,"trigger":3,"walkAnime":true,"list":[{"code":205,"indent":0,"parameters":[-1,{"list":[{"code":2,"indent":null,"parameters":[]},{"code":2,"indent":null,"parameters":[]},{"code":0,"indent":null,"parameters":[]}],"repeat":false,"skippable":false,"wait":true}]},{"code":505,"indent":0,"parameters":[{"code":2,"indent":null,"parameters":[]}]},{"code":505,"indent":0,"parameters":[{"code":2,"indent":null,"parameters":[]}]},{"code":101,"indent":0,"parameters":["1fc_jack1",7,0,2]},{"code":401,"indent":0,"parameters":["Schneep! We've taken care of the patients, so let US"]},{"code":401,"indent":0,"parameters":["examine Billy and--"]},{"code":230,"indent":0,"parameters":[30]},{"code":213,"indent":0,"parameters":[-1,8,false]},{"code":101,"indent":0,"parameters":["1fc_jack1",6,0,2]},{"code":401,"indent":0,"parameters":["Oh god, no..."]},{"code":101,"indent":0,"parameters":["4fc_cliffgreen1",15,0,2]},{"code":401,"indent":0,"parameters":["He must've taken him in early!"]},{"code":101,"indent":0,"parameters":["1fc_jack2",12,0,2]},{"code":401,"indent":0,"parameters":["Looks like we have no choice but to break him out of"]},{"code":401,"indent":0,"parameters":["here by force."]},{"code":101,"indent":0,"parameters":["4fc_cliffgreen2",1,0,2]},{"code":401,"indent":0,"parameters":["You're really determined to save Billy, of all people..."]},{"code":101,"indent":0,"parameters":["1fc_jack1",3,0,2]},{"code":401,"indent":0,"parameters":["What can I say? The little dumbass grows on you."]},{"code":101,"indent":0,"parameters":["4fc_cliffgreen1",8,0,2]},{"code":401,"indent":0,"parameters":["Good point."]},{"code":111,"indent":0,"parameters":[0,161,1]},{"code":121,"indent":1,"parameters":[200,200,1]},{"code":0,"indent":1,"parameters":[]},{"code":412,"indent":0,"parameters":[]},{"code":101,"indent":0,"parameters":["4fc_cliffgreen1",15,0,2]},{"code":401,"indent":0,"parameters":["But what are we gonna do? We can't just barge in there!"]},{"code":401,"indent":0,"parameters":["Schneep's got scalpels! And he's crazy enough to throw"]},{"code":401,"indent":0,"parameters":["them at us, I'm guessing!"]},{"code":101,"indent":0,"parameters":["3fc_jenny1",6,0,2]},{"code":401,"indent":0,"parameters":["I think we need to find something in here we can use."]},{"code":401,"indent":0,"parameters":["If we can just make Schneep THINK that Billy's blood"]},{"code":401,"indent":0,"parameters":["pressure has dropped..."]},{"code":101,"indent":0,"parameters":["4fc_cliffgreen2",1,0,2]},{"code":401,"indent":0,"parameters":["You wanna break his current sphygmomanometer?"]},{"code":101,"indent":0,"parameters":["1fc_jack2",15,0,2]},{"code":401,"indent":0,"parameters":["..."]},{"code":101,"indent":0,"parameters":["3fc_jenny1",15,0,2]},{"code":401,"indent":0,"parameters":["..."]},{"code":101,"indent":0,"parameters":["4fc_cliffgreen1",10,0,2]},{"code":401,"indent":0,"parameters":["...I mean, that's what it's called."]},{"code":101,"indent":0,"parameters":["1fc_jack1",6,0,2]},{"code":401,"indent":0,"parameters":["Too many letters. And I think he'd notice if it was broken."]},{"code":101,"indent":0,"parameters":["4fc_cliffgreen2",1,0,2]},{"code":401,"indent":0,"parameters":["So what, we just making him take one of his own pills?"]},{"code":101,"indent":0,"parameters":["1fc_jack2",9,0,2]},{"code":401,"indent":0,"parameters":["..."]},{"code":101,"indent":0,"parameters":["3fc_jenny1",1,0,2]},{"code":401,"indent":0,"parameters":["..."]},{"code":101,"indent":0,"parameters":["4fc_cliffgreen1",14,0,2]},{"code":401,"indent":0,"parameters":["...Actually, that would probably work better."]},{"code":101,"indent":0,"parameters":["4fc_cliffgreen1",4,0,2]},{"code":401,"indent":0,"parameters":["I normally wouldn't suggest just handing out strange"]},{"code":401,"indent":0,"parameters":["pills to people, buuuuuut... kind of an emergency."]},{"code":101,"indent":0,"parameters":["3fc_jenny1",0,0,2]},{"code":401,"indent":0,"parameters":["Absolutely agreed."]},{"code":101,"indent":0,"parameters":["1fc_jack1",1,0,2]},{"code":401,"indent":0,"parameters":["Let's not waste any time then."]},{"code":201,"indent":0,"parameters":[0,26,11,34,6,0]},{"code":121,"indent":0,"parameters":[200,200,0]},{"code":122,"indent":0,"parameters":[24,24,1,0,1]},{"code":0,"indent":0,"parameters":[]}]},{"conditions":{"actorId":1,"actorValid":false,"itemId":1,"itemValid":false,"selfSwitchCh":"A","selfSwitchValid":false,"switch1Id":34,"switch1Valid":false,"switch2Id":1,"switch2Valid":false,"variableId":24,"variableValid":true,"variableValue":1},"directionFix":false,"image":{"tileId":0,"characterName":"","direction":2,"pattern":0,"characterIndex":0},"moveFrequency":3,"moveRoute":{"list":[{"code":0,"indent":null,"parameters":[]}],"repeat":true,"skippable":false,"wait":false},"moveSpeed":3,"moveType":0,"priorityType":0,"stepAnime":false,"through":false,"trigger":0,"walkAnime":true,"list":[{"code":0,"indent":0,"parameters":[]}]}],"x":5,"y":2},
{"id":6,"name":"EV006","note":"","pages":[{"conditions":{"actorId":1,"actorValid":false,"itemId":1,"itemValid":false,"selfSwitchCh":"A","selfSwitchValid":false,"switch1Id":34,"switch1Valid":false,"switch2Id":1,"switch2Valid":false,"variableId":24,"variableValid":true,"variableValue":1},"directionFix":false,"image":{"tileId":0,"characterName":"","direction":2,"pattern":0,"characterIndex":0},"moveFrequency":3,"moveRoute":{"list":[{"code":0,"indent":null,"parameters":[]}],"repeat":true,"skippable":false,"wait":false},"moveSpeed":3,"moveType":0,"priorityType":1,"stepAnime":false,"through":false,"trigger":0,"walkAnime":true,"list":[{"code":101,"indent":0,"parameters":["1fc_jack1",1,0,2]},{"code":401,"indent":0,"parameters":["Hey, there's a brand new cuff in here!"]},{"code":101,"indent":0,"parameters":["3fc_jenny1",2,0,2]},{"code":401,"indent":0,"parameters":["Is it on, or is that just a sticker?"]},{"code":101,"indent":0,"parameters":["fc_altcliff3",2,0,2]},{"code":401,"indent":0,"parameters":["Just a sticker. And with the perfect blood pressure"]},{"code":401,"indent":0,"parameters":["reading to boot."]},{"code":101,"indent":0,"parameters":["fc_jenny2",6,0,2]},{"code":401,"indent":0,"parameters":["We're ready to go. Jack? Cliff? Let's go save Billy."]},{"code":101,"indent":0,"parameters":["fc_altcliff4",6,0,2]},{"code":401,"indent":0,"parameters":["Awwww yeah!"]},{"code":122,"indent":0,"parameters":[24,24,1,0,1]},{"code":0,"indent":0,"parameters":[]}]},{"conditions":{"actorId":1,"actorValid":false,"itemId":1,"itemValid":false,"selfSwitchCh":"A","selfSwitchValid":false,"switch1Id":1,"switch1Valid":false,"switch2Id":1,"switch2Valid":false,"variableId":24,"variableValid":true,"variableValue":2},"directionFix":false,"image":{"tileId":0,"characterName":"","direction":2,"pattern":0,"characterIndex":0},"moveFrequency":3,"moveRoute":{"list":[{"code":0,"indent":null,"parameters":[]}],"repeat":true,"skippable":false,"wait":false},"moveSpeed":3,"moveType":0,"priorityType":1,"stepAnime":false,"through":false,"trigger":0,"walkAnime":true,"list":[{"code":0,"indent":0,"parameters":[]}]}],"x":1,"y":3},
{"id":7,"name":"EV007","note":"","pages":[{"conditions":{"actorId":1,"actorValid":false,"itemId":1,"itemValid":false,"selfSwitchCh":"A","selfSwitchValid":false,"switch1Id":1,"switch1Valid":false,"switch2Id":1,"switch2Valid":false,"variableId":1,"variableValid":false,"variableValue":0},"directionFix":false,"image":{"tileId":93,"characterName":"","direction":2,"pattern":0,"characterIndex":0},"moveFrequency":3,"moveRoute":{"list":[{"code":0,"indent":null,"parameters":[]}],"repeat":true,"skippable":false,"wait":false},"moveSpeed":3,"moveType":0,"priorityType":0,"stepAnime":false,"through":true,"trigger":0,"walkAnime":true,"list":[{"code":0,"indent":0,"parameters":[]}]},{"conditions":{"actorId":1,"actorValid":false,"itemId":1,"itemValid":false,"selfSwitchCh":"A","selfSwitchValid":false,"switch1Id":1,"switch1Valid":false,"switch2Id":1,"switch2Valid":false,"variableId":23,"variableValid":true,"variableValue":6},"directionFix":false,"image":{"tileId":92,"characterName":"","direction":2,"pattern":0,"characterIndex":0},"moveFrequency":3,"moveRoute":{"list":[{"code":0,"indent":null,"parameters":[]}],"repeat":true,"skippable":false,"wait":false},"moveSpeed":3,"moveType":0,"priorityType":0,"stepAnime":false,"through":false,"trigger":0,"walkAnime":true,"list":[{"code":0,"indent":0,"parameters":[]}]}],"x":10,"y":8},
{"id":8,"name":"EV008","note":"","pages":[{"conditions":{"actorId":1,"actorValid":false,"itemId":1,"itemValid":false,"selfSwitchCh":"A","selfSwitchValid":false,"switch1Id":1,"switch1Valid":false,"switch2Id":1,"switch2Valid":false,"variableId":1,"variableValid":false,"variableValue":0},"directionFix":false,"image":{"tileId":85,"characterName":"","direction":2,"pattern":0,"characterIndex":0},"moveFrequency":3,"moveRoute":{"list":[{"code":0,"indent":null,"parameters":[]}],"repeat":true,"skippable":false,"wait":false},"moveSpeed":3,"moveType":0,"priorityType":1,"stepAnime":false,"through":false,"trigger":0,"walkAnime":true,"list":[{"code":0,"indent":0,"parameters":[]}]},{"conditions":{"actorId":1,"actorValid":false,"itemId":1,"itemValid":false,"selfSwitchCh":"A","selfSwitchValid":false,"switch1Id":1,"switch1Valid":false,"switch2Id":1,"switch2Valid":false,"variableId":23,"variableValid":true,"variableValue":6},"directionFix":false,"image":{"tileId":84,"characterName":"","direction":2,"pattern":0,"characterIndex":0},"moveFrequency":3,"moveRoute":{"list":[{"code":0,"indent":null,"parameters":[]}],"repeat":true,"skippable":false,"wait":false},"moveSpeed":3,"moveType":0,"priorityType":0,"stepAnime":false,"through":true,"trigger":0,"walkAnime":true,"list":[{"code":0,"indent":0,"parameters":[]}]},{"conditions":{"actorId":1,"actorValid":false,"itemId":1,"itemValid":false,"selfSwitchCh":"A","selfSwitchValid":false,"switch1Id":143,"switch1Valid":true,"switch2Id":1,"switch2Valid":false,"variableId":1,"variableValid":false,"variableValue":0},"directionFix":false,"image":{"tileId":220,"characterName":"","direction":2,"pattern":0,"characterIndex":0},"moveFrequency":3,"moveRoute":{"list":[{"code":0,"indent":null,"parameters":[]}],"repeat":true,"skippable":false,"wait":false},"moveSpeed":3,"moveType":0,"priorityType":1,"stepAnime":false,"through":false,"trigger":0,"walkAnime":true,"list":[{"code":0,"indent":0,"parameters":[]}]},{"conditions":{"actorId":1,"actorValid":false,"itemId":1,"itemValid":false,"selfSwitchCh":"A","selfSwitchValid":false,"switch1Id":143,"switch1Valid":true,"switch2Id":1,"switch2Valid":false,"variableId":23,"variableValid":true,"variableValue":6},"directionFix":false,"image":{"tileId":84,"characterName":"","direction":2,"pattern":0,"characterIndex":0},"moveFrequency":3,"moveRoute":{"list":[{"code":0,"indent":null,"parameters":[]}],"repeat":true,"skippable":false,"wait":false},"moveSpeed":3,"moveType":0,"priorityType":0,"stepAnime":false,"through":true,"trigger":0,"walkAnime":true,"list":[{"code":0,"indent":0,"parameters":[]}]}],"x":10,"y":7},
null,
null,
{"id":11,"name":"EV011","note":"","pages":[{"conditions":{"actorId":1,"actorValid":false,"itemId":1,"itemValid":false,"selfSwitchCh":"A","selfSwitchValid":false,"switch1Id":1,"switch1Valid":false,"switch2Id":1,"switch2Valid":false,"variableId":1,"variableValid":false,"variableValue":0},"directionFix":false,"image":{"tileId":0,"characterName":"","direction":2,"pattern":0,"characterIndex":0},"moveFrequency":3,"moveRoute":{"list":[{"code":0,"indent":null,"parameters":[]}],"repeat":true,"skippable":false,"wait":false},"moveSpeed":3,"moveType":0,"priorityType":0,"stepAnime":false,"through":false,"trigger":4,"walkAnime":true,"list":[{"code":111,"indent":0,"parameters":[3,0,1]},{"code":123,"indent":1,"parameters":["A",0]},{"code":0,"indent":1,"parameters":[]},{"code":412,"indent":0,"parameters":[]},{"code":0,"indent":0,"parameters":[]}]},{"conditions":{"actorId":1,"actorValid":false,"itemId":1,"itemValid":false,"selfSwitchCh":"A","selfSwitchValid":true,"switch1Id":1,"switch1Valid":false,"switch2Id":1,"switch2Valid":false,"variableId":1,"variableValid":false,"variableValue":0},"directionFix":false,"image":{"tileId":0,"characterName":"","direction":2,"pattern":0,"characterIndex":0},"moveFrequency":3,"moveRoute":{"list":[{"code":0,"indent":null,"parameters":[]}],"repeat":true,"skippable":false,"wait":false},"moveSpeed":3,"moveType":0,"priorityType":0,"stepAnime":false,"through":false,"trigger":3,"walkAnime":true,"list":[{"code":241,"indent":0,"parameters":[{"name":"","pan":0,"pitch":100,"volume":100}]},{"code":223,"indent":0,"parameters":[[0,-255,-255,0],1,true]},{"code":101,"indent":0,"parameters":["",0,1,1]},{"code":401,"indent":0,"parameters":["\\c[18]\\a[c]YOU REALLY THINK I'D LET YOU GO?"]},{"code":101,"indent":0,"parameters":["",0,1,1]},{"code":401,"indent":0,"parameters":["\\c[18]\\a[c]YOU REALLY THOUGHT YOU COULD FUCK WITH ME AND GET"]},{"code":401,"indent":0,"parameters":["AWAY WITH IT?"]},{"code":101,"indent":0,"parameters":["",0,1,1]},{"code":401,"indent":0,"parameters":["\\c[18]\\a[c]THIS GAME IS MINE."]},{"code":101,"indent":0,"parameters":["",0,1,1]},{"code":401,"indent":0,"parameters":["\\c[18]\\a[c]AND THERE'S NOTHING YOU CAN DO ABOUT IT."]},{"code":355,"indent":0,"parameters":["msgbox(\"Ý̵͜͠O҉͏̵U̶͏ ̵̨͟͏̢W̸̛͠Į̕͞Ļ̧̛̕L̷̡̢͘͢ ̕Ņ̶̶́E͏͏V̨̛̀͠E̸̕͝R̢̀́͢͠ "]},{"code":655,"indent":0,"parameters":["̵̢̀É̸͘҉S̵̨C̷͟À̴͜͜͜P̡̀͘͝͡Ȩ҉\")"]},{"code":355,"indent":0,"parameters":["$titlename = \"ALWAYS WATCHING\""]},{"code":655,"indent":0,"parameters":["call = Change_title.new"]},{"code":121,"indent":0,"parameters":[142,142,0]},{"code":355,"indent":0,"parameters":["SceneManager.exit"]},{"code":0,"indent":0,"parameters":[]}]}],"x":14,"y":0},
{"id":12,"name":"EV012","note":"","pages":[{"conditions":{"actorId":1,"actorValid":false,"itemId":1,"itemValid":false,"selfSwitchCh":"A","selfSwitchValid":false,"switch1Id":143,"switch1Valid":true,"switch2Id":1,"switch2Valid":false,"variableId":1,"variableValid":false,"variableValue":0},"directionFix":false,"image":{"tileId":0,"characterName":"","direction":2,"pattern":0,"characterIndex":0},"moveFrequency":3,"moveRoute":{"list":[{"code":0,"indent":null,"parameters":[]}],"repeat":true,"skippable":false,"wait":false},"moveSpeed":3,"moveType":0,"priorityType":0,"stepAnime":false,"through":false,"trigger":4,"walkAnime":true,"list":[{"code":230,"indent":0,"parameters":[600]},{"code":111,"indent":0,"parameters":[3,60,1]},{"code":250,"indent":1,"parameters":[{"name":"static","pan":0,"pitch":100,"volume":100}]},{"code":231,"indent":1,"parameters":[1,"anti6",0,0,0,0,100,100,255,0]},{"code":230,"indent":1,"parameters":[15]},{"code":235,"indent":1,"parameters":[1]},{"code":0,"indent":1,"parameters":[]},{"code":411,"indent":0,"parameters":[]},{"code":111,"indent":1,"parameters":[3,240,1]},{"code":250,"indent":2,"parameters":[{"name":"static","pan":0,"pitch":100,"volume":80}]},{"code":231,"indent":2,"parameters":[1,"anti5",0,0,0,0,100,100,255,0]},{"code":230,"indent":2,"parameters":[15]},{"code":235,"indent":2,"parameters":[1]},{"code":0,"indent":2,"parameters":[]},{"code":411,"indent":1,"parameters":[]},{"code":111,"indent":2,"parameters":[3,480,1]},{"code":250,"indent":3,"parameters":[{"name":"static","pan":0,"pitch":100,"volume":70}]},{"code":231,"indent":3,"parameters":[1,"anti4",0,0,0,0,100,100,255,0]},{"code":230,"indent":3,"parameters":[15]},{"code":235,"indent":3,"parameters":[1]},{"code":0,"indent":3,"parameters":[]},{"code":411,"indent":2,"parameters":[]},{"code":111,"indent":3,"parameters":[3,600,1]},{"code":250,"indent":4,"parameters":[{"name":"static","pan":0,"pitch":100,"volume":50}]},{"code":231,"indent":4,"parameters":[1,"anti3",0,0,0,0,100,100,255,0]},{"code":230,"indent":4,"parameters":[15]},{"code":235,"indent":4,"parameters":[1]},{"code":0,"indent":4,"parameters":[]},{"code":411,"indent":3,"parameters":[]},{"code":111,"indent":4,"parameters":[3,900,1]},{"code":250,"indent":5,"parameters":[{"name":"static","pan":0,"pitch":100,"volume":35}]},{"code":231,"indent":5,"parameters":[1,"anti2",0,0,0,0,100,100,255,0]},{"code":230,"indent":5,"parameters":[15]},{"code":235,"indent":5,"parameters":[1]},{"code":0,"indent":5,"parameters":[]},{"code":411,"indent":4,"parameters":[]},{"code":111,"indent":5,"parameters":[3,901,0]},{"code":250,"indent":6,"parameters":[{"name":"static","pan":0,"pitch":100,"volume":15}]},{"code":231,"indent":6,"parameters":[1,"anti1",0,0,0,0,100,100,255,0]},{"code":230,"indent":6,"parameters":[15]},{"code":235,"indent":6,"parameters":[1]},{"code":0,"indent":6,"parameters":[]},{"code":411,"indent":5,"parameters":[]},{"code":0,"indent":6,"parameters":[]},{"code":412,"indent":5,"parameters":[]},{"code":0,"indent":5,"parameters":[]},{"code":412,"indent":4,"parameters":[]},{"code":0,"indent":4,"parameters":[]},{"code":412,"indent":3,"parameters":[]},{"code":0,"indent":3,"parameters":[]},{"code":412,"indent":2,"parameters":[]},{"code":0,"indent":2,"parameters":[]},{"code":412,"indent":1,"parameters":[]},{"code":0,"indent":1,"parameters":[]},{"code":412,"indent":0,"parameters":[]},{"code":0,"indent":0,"parameters":[]}]}],"x":19,"y":0},
null
]
}