{
"autoplayBgm":false,"autoplayBgs":false,"battleback1Name":"","battleback2Name":"","bgm":{"name":"","pan":0,"pitch":100,"volume":90},"bgs":{"name":"","pan":0,"pitch":100,"volume":90},"disableDashing":false,"displayName":"","encounterList":[],"encounterStep":30,"height":15,"note":"<all restrict: 6>","parallaxLoopX":false,"parallaxLoopY":false,"parallaxName":"","parallaxShow":true,"parallaxSx":0,"parallaxSy":0,"scrollType":0,"specifyBattleback":false,"tilesetId":50,"width":20,
"data":[0,0,0,0,0,0,0,0,0,0,0,0,0,0,0,0,0,0,0,0,0,0,0,0,0,0,0,0,0,0,0,0,0,0,0,0,0,0,0,0,0,0,0,0,0,0,0,0,0,0,0,0,0,0,0,0,0,0,0,0,0,0,0,0,0,0,0,6835,6833,6833,6833,6833,6837,0,0,0,0,0,0,0,0,0,0,0,0,0,0,6832,7282,7282,7282,7282,6832,0,0,0,0,0,0,0,0,0,0,0,0,0,0,6832,7288,7288,7288,7288,6832,0,0,0,0,0,0,0,0,0,0,0,0,0,0,6832,1613,1613,1613,1613,6832,0,0,0,0,0,0,0,0,0,0,0,0,0,0,6832,1613,1613,1613,1613,6832,0,0,0,0,0,0,0,0,0,0,0,0,0,0,6832,1613,1613,1613,1613,6832,0,0,0,0,0,0,0,0,0,0,0,0,0,0,6832,1613,4107,4109,1613,6832,0,0,0,0,0,0,0,0,0,0,0,0,0,0,6832,1613,6835,6833,6833,6839,0,0,0,0,0,0,0,0,0,0,0,0,0,0,6844,1613,6844,0,0,0,0,0,0,0,0,0,0,0,0,0,0,0,0,0,0,0,0,0,0,0,0,0,0,0,0,0,0,0,0,0,0,0,0,0,0,0,0,0,0,0,0,0,0,0,0,0,0,0,0,0,0,0,0,0,0,0,0,0,0,0,0,0,0,0,0,0,0,0,0,0,0,0,0,0,0,0,0,0,0,0,0,0,0,0,0,0,0,0,0,0,0,0,0,0,0,0,0,0,0,0,0,0,0,0,0,0,0,0,0,0,0,0,0,0,0,0,0,0,0,0,0,0,0,0,0,0,0,0,0,0,0,0,0,0,0,0,0,0,0,0,0,0,0,0,0,0,0,0,0,0,0,0,0,0,0,0,0,0,0,0,0,0,0,0,0,0,0,0,0,0,0,0,0,0,0,0,0,0,0,0,0,0,0,0,0,0,0,0,0,0,0,0,0,0,0,0,0,0,0,0,0,0,0,0,0,0,0,0,0,0,0,0,0,0,0,0,0,0,0,0,0,0,0,0,0,0,0,0,0,0,0,0,0,0,0,0,0,0,0,0,0,0,0,0,0,0,0,0,0,0,0,0,0,0,0,0,0,0,0,0,0,0,0,0,0,0,0,0,0,0,0,0,0,0,0,0,0,0,0,0,0,0,0,0,0,0,0,0,0,0,0,0,0,0,0,0,0,0,0,0,0,0,0,0,0,0,0,0,0,0,0,0,0,0,0,0,0,0,0,0,0,0,0,0,0,0,0,0,0,0,0,0,0,0,0,0,0,0,0,0,0,0,0,0,0,0,0,0,0,0,0,0,0,0,0,0,0,0,0,0,0,0,0,0,0,0,0,0,0,0,0,0,0,0,0,0,0,0,0,0,0,0,0,0,0,0,0,0,0,0,0,0,0,0,0,0,0,0,0,0,0,0,0,0,0,0,0,0,0,0,0,0,0,0,0,0,0,0,0,0,0,0,0,0,0,0,0,0,0,0,0,0,0,0,0,0,0,0,0,0,0,0,0,0,0,0,0,0,0,0,0,0,0,0,0,0,0,0,0,0,0,0,0,0,0,0,0,0,0,0,0,0,0,0,0,0,0,0,0,0,0,0,0,0,0,0,0,0,0,0,0,0,0,0,0,0,0,0,0,0,0,0,0,0,0,0,0,0,0,0,0,0,0,0,0,0,0,0,0,0,0,0,0,0,0,0,0,0,0,0,0,0,0,0,0,0,0,0,0,0,0,0,0,0,0,0,0,0,0,0,0,0,0,0,0,0,0,0,0,0,0,0,0,0,0,0,0,0,0,0,0,0,0,0,0,0,0,0,0,0,0,0,0,0,0,0,0,0,0,0,0,0,0,0,0,0,0,0,0,0,0,0,0,0,0,0,0,0,0,0,0,0,0,0,0,0,0,0,0,0,0,0,0,0,0,0,0,0,0,0,0,0,0,0,0,0,0,0,0,0,0,0,0,0,0,0,0,0,0,0,0,0,0,0,0,0,0,0,0,0,0,0,0,0,0,0,0,0,0,0,0,0,0,0,0,0,0,0,0,0,0,0,0,0,0,0,0,0,0,0,0,0,0,0,0,0,0,0,0,0,0,0,0,0,0,0,0,0,0,0,0,0,0,0,0,0,0,0,0,0,0,0,0,0,0,0,0,0,0,0,0,0,0,0,0,0,0,0,0,0,0,0,0,0,0,0,0,0,0,0,0,0,0,0,0,0,0,0,0,0,0,0,0,0,0,0,0,0,0,0,0,0,0,0,0,0,0,0,0,0,0,0,0,0,0,0,0,0,0,0,0,0,0,0,0,0,0,0,0,0,0,0,0,0,0,0,0,0,0,0,0,0,0,0,0,0,0,0,0,0,0,0,0,0,0,0,0,0,0,0,0,0,0,0,0,0,0,0,0,0,0,0,0,0,0,0,0,0,0,0,0,0,0,0,0,0,0,0,0,0,0,0,0,0,0,0,0,0,0,0,0,0,0,0,0,0,0,0,0,0,0,0,0,0,0,0,0,0,0,0,0,0,0,0,0,0,0,0,0,0,0,0,0,0,0,0,0,0,0,0,0,0,0,0,0,0,0,0,0,0,0,0,0,0,0,0,0,0,0,0,0,0,0,0,0,0,0,0,0,0,0,0,0,0,0,0,0,0,0,0,0,0,0,0,0,0,0,0,0,0,0,0,0,0,0,0,0,0,0,0,0,0,0,0,0,0,0,0,0,0,0,0,0,0,0,0,0,0,0,0,0,0,0,0,0,0,0,0,0,0,0,0,0,0,0,0,0,0,0,0,0,0,0,0,0,0,0,0,0,0,0,0,0,0,0,0,0,0,0,0,0,0,0,0,0,0,0,0,0,0,0,0,0,0,0,0,0,0,0,0,0,0,0,0,0,0,0,0,0,0,0,0,0,0,0,0,0,0,0,0,0,0,0,0,0,0,0,0,0,0,0,0,0,0,0,0,0,0,0,0,0,0,0,0,0,0,0,0,0,0,0,0,0,0,0,0,0,0,0,0,0,0,0,0,0,0,0,0,0,0,0,0,0,0,0,0,0,0,0,0,0,0,0,0,0,0,0,0,0,0,0,0,0,0,0,0,0,0,0,0,0,0,0,0,0,0,0,0,0,0,0,0,0,0,0,0,0,0,0,0,0,0,0,0,0,0,0,0,0,0,0,0,0,0,0,0,0,0,0,0,0,0,0,0,0,0,0,0,0,0,0,0,0,0,0,0,0,0,0,0,0,0,0,0,0,0,0,0,0,0,0,0,0,0,0,0,0,0,0,0,0,0,0,0,0,0,0,0,0,0,0,0,0,0,0,0,0,0,0,0,0,0,0,0,0,0,0,0,0,0,0,0,0,0,0,0,0,0,0,0,0,0,0,0,0,0,0,0,0,0,0,0,0,0,0,0,0,0,0,0,0,0,0,0,0,0,0,0,0,0,0,0,0,0,0,0,0,0,0,0,0,0,0,0,0,0,0,0,0,0,0,0,0,0,0,0,0,0,0,0,0,0,0,0,0,0,0,0,0,0,0,0,0,0,0,0,0,0,0,0,0,0,0,0,0,0,0,0,0,0,0,0,0,0,0,0,0,0,0,0,0,0,0,0,6,6,6,6,6,6,0,0,0,0,0,0,0,0,0,0,0,0,0,0,6,0,0,0,0,6,0,0,0,0,0,0,0,0,0,0,0,0,0,0,6,0,0,0,0,6,0,0,0,0,0,0,0,0,0,0,0,0,0,0,6,0,0,0,0,6,0,0,0,0,0,0,0,0,0,0,0,0,0,0,6,0,0,0,0,6,0,0,0,0,0,0,0,0,0,0,0,0,0,0,6,0,6,6,6,6,0,0,0,0,0,0,0,0,0,0,0,0,0,0,6,0,6,0,0,0,0,0,0,0,0,0,0,0,0,0,0,0,0,0,0,0,0,0,0,0,0,0,0,0,0,0,0,0,0,0,0,0,0,0,0,0,0,0,0,0,0,0,0,0,0,0,0,0,0,0,0,0,0,0,0,0,0,0,0,0,0,0,0,0,0,0,0],
"events":[
null,
{"id":1,"name":"EV001","note":"","pages":[{"conditions":{"actorId":1,"actorValid":false,"itemId":1,"itemValid":false,"selfSwitchCh":"A","selfSwitchValid":false,"switch1Id":1,"switch1Valid":false,"switch2Id":1,"switch2Valid":false,"variableId":1,"variableValid":false,"variableValue":0},"directionFix":false,"image":{"tileId":322,"characterName":"","characterIndex":0,"direction":2,"pattern":0},"list":[{"code":108,"indent":0,"parameters":["<Sprite Offset: -11, +12>"]},{"code":0,"indent":0,"parameters":[]}],"moveFrequency":3,"moveRoute":{"list":[{"code":0,"parameters":[]}],"repeat":true,"skippable":false,"wait":false},"moveSpeed":3,"moveType":0,"priorityType":0,"stepAnime":false,"through":false,"trigger":0,"walkAnime":true}],"x":9,"y":4},
{"id":2,"name":"EV002","note":"","pages":[{"conditions":{"actorId":1,"actorValid":false,"itemId":1,"itemValid":false,"selfSwitchCh":"A","selfSwitchValid":false,"switch1Id":1,"switch1Valid":false,"switch2Id":1,"switch2Valid":false,"variableId":1,"variableValid":false,"variableValue":0},"directionFix":false,"image":{"tileId":322,"characterName":"","characterIndex":0,"direction":2,"pattern":0},"list":[{"code":108,"indent":0,"parameters":["<Sprite Offset: +11, +12>"]},{"code":0,"indent":0,"parameters":[]}],"moveFrequency":3,"moveRoute":{"list":[{"code":0,"parameters":[]}],"repeat":true,"skippable":false,"wait":false},"moveSpeed":3,"moveType":0,"priorityType":0,"stepAnime":false,"through":false,"trigger":0,"walkAnime":true}],"x":10,"y":4},
{"id":3,"name":"EV003","note":"","pages":[{"conditions":{"actorId":1,"actorValid":false,"itemId":1,"itemValid":false,"selfSwitchCh":"A","selfSwitchValid":false,"switch1Id":1,"switch1Valid":false,"switch2Id":1,"switch2Valid":false,"variableId":1,"variableValid":false,"variableValue":0},"directionFix":false,"image":{"characterIndex":0,"characterName":"","direction":2,"pattern":0,"tileId":0},"list":[{"code":201,"indent":0,"parameters":[0,169,14,6,0,0]},{"code":0,"indent":0,"parameters":[]}],"moveFrequency":3,"moveRoute":{"list":[{"code":0,"parameters":[]}],"repeat":true,"skippable":false,"wait":false},"moveSpeed":3,"moveType":0,"priorityType":1,"stepAnime":false,"through":false,"trigger":1,"walkAnime":true}],"x":8,"y":12},
{"id":4,"name":"EV004","note":"","pages":[{"conditions":{"actorId":15,"actorValid":false,"itemId":1,"itemValid":false,"selfSwitchCh":"A","selfSwitchValid":false,"switch1Id":1,"switch1Valid":false,"switch2Id":1,"switch2Valid":false,"variableId":1,"variableValid":false,"variableValue":0},"directionFix":false,"image":{"characterIndex":0,"characterName":"","direction":2,"pattern":0,"tileId":0},"list":[{"code":230,"indent":0,"parameters":[60]},{"code":111,"indent":0,"parameters":[4,15,0]},{"code":101,"indent":1,"parameters":["fc_annie",0,0,0]},{"code":401,"indent":1,"parameters":["I don't wanna be too critical here, but..."]},{"code":401,"indent":1,"parameters":["Could've sworn that there used to be, you"]},{"code":401,"indent":1,"parameters":["know... bathroom fixtures in here."]},{"code":101,"indent":1,"parameters":["1fc_jack2",15,0,0]},{"code":401,"indent":1,"parameters":["Oh yeah, you probably didn't see it. Sans"]},{"code":401,"indent":1,"parameters":["sold everything out of here, and that"]},{"code":401,"indent":1,"parameters":["everything included the tub, the toilet,"]},{"code":401,"indent":1,"parameters":["the sink..."]},{"code":101,"indent":1,"parameters":["fc_annie",9,0,0]},{"code":401,"indent":1,"parameters":["..."]},{"code":101,"indent":1,"parameters":["fc_annie",2,0,0]},{"code":401,"indent":1,"parameters":["I would complain if we were going to need,"]},{"code":401,"indent":1,"parameters":["say, the toilet, but that's probably not"]},{"code":401,"indent":1,"parameters":["necessary with Wirish food."]},{"code":101,"indent":1,"parameters":["1fc_jack1",7,0,0]},{"code":401,"indent":1,"parameters":["True, but we can't wash our hands after walking"]},{"code":401,"indent":1,"parameters":["through the kitchen. And goodness knows the"]},{"code":401,"indent":1,"parameters":["sink there isn't working either."]},{"code":101,"indent":1,"parameters":["fc_annie",0,0,0]},{"code":401,"indent":1,"parameters":["Just don't stick your fingers in your mouth"]},{"code":401,"indent":1,"parameters":["and you should be grand, okay?"]},{"code":101,"indent":1,"parameters":["1fc_jack2",0,0,0]},{"code":401,"indent":1,"parameters":["No promises, sadly. My repertoire of gestures"]},{"code":401,"indent":1,"parameters":["includes about a dozen ways for me to taste"]},{"code":401,"indent":1,"parameters":["where my hands have been... whether I"]},{"code":401,"indent":1,"parameters":["remember it or not."]},{"code":101,"indent":1,"parameters":["fc_annie",5,0,0]},{"code":401,"indent":1,"parameters":["Eww!"]},{"code":101,"indent":1,"parameters":["1fc_jack2",5,0,0]},{"code":401,"indent":1,"parameters":["Exactly. I'm surprised you don't remember"]},{"code":401,"indent":1,"parameters":["those moments."]},{"code":101,"indent":1,"parameters":["",5,0,0]},{"code":401,"indent":1,"parameters":["No, I do, and I wanted to forget about them."]},{"code":401,"indent":1,"parameters":["Thanks."]},{"code":123,"indent":1,"parameters":["A",0]},{"code":0,"indent":1,"parameters":[]},{"code":411,"indent":0,"parameters":[]},{"code":101,"indent":1,"parameters":["1fc_jack1",7,0,2]},{"code":401,"indent":1,"parameters":["...Unless Seán has mastered the art of"]},{"code":401,"indent":1,"parameters":["hiding in a completely empty room, I"]},{"code":401,"indent":1,"parameters":["doubt I'm going to find him or any"]},{"code":401,"indent":1,"parameters":["clues in here."]},{"code":123,"indent":1,"parameters":["B",0]},{"code":0,"indent":1,"parameters":[]},{"code":412,"indent":0,"parameters":[]},{"code":0,"indent":0,"parameters":[]}],"moveFrequency":3,"moveRoute":{"list":[{"code":0,"parameters":[]}],"repeat":true,"skippable":false,"wait":false},"moveSpeed":3,"moveType":0,"priorityType":1,"stepAnime":false,"through":false,"trigger":3,"walkAnime":true},{"conditions":{"actorId":1,"actorValid":false,"itemId":1,"itemValid":false,"selfSwitchCh":"A","selfSwitchValid":true,"switch1Id":1,"switch1Valid":false,"switch2Id":1,"switch2Valid":false,"variableId":1,"variableValid":false,"variableValue":0},"directionFix":false,"image":{"characterIndex":0,"characterName":"","direction":2,"pattern":0,"tileId":0},"list":[{"code":111,"indent":0,"parameters":[4,15,0]},{"code":0,"indent":1,"parameters":[]},{"code":411,"indent":0,"parameters":[]},{"code":101,"indent":1,"parameters":["1fc_jack1",7,0,2]},{"code":401,"indent":1,"parameters":["...Unless Seán has mastered the art of"]},{"code":401,"indent":1,"parameters":["hiding in a completely empty room, I"]},{"code":401,"indent":1,"parameters":["doubt I'm going to find him or any"]},{"code":401,"indent":1,"parameters":["clues in here."]},{"code":123,"indent":1,"parameters":["B",0]},{"code":0,"indent":1,"parameters":[]},{"code":412,"indent":0,"parameters":[]},{"code":0,"indent":0,"parameters":[]}],"moveFrequency":3,"moveRoute":{"list":[{"code":0,"parameters":[]}],"repeat":true,"skippable":false,"wait":false},"moveSpeed":3,"moveType":0,"priorityType":1,"stepAnime":false,"through":false,"trigger":0,"walkAnime":true},{"conditions":{"actorId":1,"actorValid":false,"itemId":1,"itemValid":false,"selfSwitchCh":"B","selfSwitchValid":true,"switch1Id":1,"switch1Valid":false,"switch2Id":1,"switch2Valid":false,"variableId":1,"variableValid":false,"variableValue":0},"directionFix":false,"image":{"characterIndex":0,"characterName":"","direction":2,"pattern":0,"tileId":0},"list":[{"code":0,"indent":0,"parameters":[]}],"moveFrequency":3,"moveRoute":{"list":[{"code":0,"parameters":[]}],"repeat":true,"skippable":false,"wait":false},"moveSpeed":3,"moveType":0,"priorityType":0,"stepAnime":false,"through":false,"trigger":0,"walkAnime":true}],"x":7,"y":3},
{"id":5,"name":"EV005","note":"","pages":[{"conditions":{"actorId":1,"actorValid":false,"itemId":1,"itemValid":false,"selfSwitchCh":"A","selfSwitchValid":false,"switch1Id":1,"switch1Valid":false,"switch2Id":1,"switch2Valid":false,"variableId":1,"variableValid":false,"variableValue":0},"directionFix":false,"image":{"characterIndex":0,"characterName":"","direction":2,"pattern":0,"tileId":0},"list":[{"code":111,"indent":0,"parameters":[4,15,0]},{"code":101,"indent":1,"parameters":["1fc_jack2",4,0,2]},{"code":401,"indent":1,"parameters":["Ohhhhh geez, we're still pretty high up..."]},{"code":101,"indent":1,"parameters":["fc_annie",0,0,2]},{"code":401,"indent":1,"parameters":["Don't see why that would've changed"]},{"code":401,"indent":1,"parameters":["considering the apartment hasn't moved."]},{"code":101,"indent":1,"parameters":["1fc_jack2",10,0,2]},{"code":401,"indent":1,"parameters":["I mean, it could have. Would we have known?"]},{"code":101,"indent":1,"parameters":["fc_annie",0,0,2]},{"code":401,"indent":1,"parameters":["...Yeah, you're right. It's not like there"]},{"code":401,"indent":1,"parameters":["would be any earth beneath us to have an"]},{"code":401,"indent":1,"parameters":["earthquake with."]},{"code":101,"indent":1,"parameters":["fc_annie",0,0,2]},{"code":401,"indent":1,"parameters":["But the view still looks the same, so"]},{"code":401,"indent":1,"parameters":["no, we haven't moved."]},{"code":101,"indent":1,"parameters":["1fc_jack2",15,0,2]},{"code":401,"indent":1,"parameters":["If you say so..."]},{"code":0,"indent":1,"parameters":[]},{"code":411,"indent":0,"parameters":[]},{"code":101,"indent":1,"parameters":["1fc_jack1",5,0,2]},{"code":401,"indent":1,"parameters":["Unfortunately this doesn't face toward any"]},{"code":401,"indent":1,"parameters":["solid ground. Otherwise I'd have had a good shot"]},{"code":401,"indent":1,"parameters":["of seeing him somewhere, maybe..."]},{"code":0,"indent":1,"parameters":[]},{"code":412,"indent":0,"parameters":[]},{"code":0,"indent":0,"parameters":[]}],"moveFrequency":3,"moveRoute":{"list":[{"code":0,"parameters":[]}],"repeat":true,"skippable":false,"wait":false},"moveSpeed":3,"moveType":0,"priorityType":1,"stepAnime":false,"through":false,"trigger":0,"walkAnime":true}],"x":9,"y":5},
{"id":6,"name":"EV006","note":"","pages":[{"conditions":{"actorId":1,"actorValid":false,"itemId":1,"itemValid":false,"selfSwitchCh":"A","selfSwitchValid":false,"switch1Id":1,"switch1Valid":false,"switch2Id":1,"switch2Valid":false,"variableId":1,"variableValid":false,"variableValue":0},"directionFix":false,"image":{"characterIndex":0,"characterName":"","direction":2,"pattern":0,"tileId":0},"list":[{"code":111,"indent":0,"parameters":[4,15,0]},{"code":101,"indent":1,"parameters":["1fc_jack2",4,0,2]},{"code":401,"indent":1,"parameters":["Ohhhhh geez, we're still pretty high up..."]},{"code":101,"indent":1,"parameters":["fc_annie",0,0,2]},{"code":401,"indent":1,"parameters":["Don't see why that would've changed"]},{"code":401,"indent":1,"parameters":["considering the apartment hasn't moved."]},{"code":101,"indent":1,"parameters":["1fc_jack2",10,0,2]},{"code":401,"indent":1,"parameters":["I mean, it could have. Would we have known?"]},{"code":101,"indent":1,"parameters":["fc_annie",0,0,2]},{"code":401,"indent":1,"parameters":["...Yeah, you're right. It's not like there"]},{"code":401,"indent":1,"parameters":["would be any earth beneath us to have an"]},{"code":401,"indent":1,"parameters":["earthquake with."]},{"code":101,"indent":1,"parameters":["fc_annie",0,0,2]},{"code":401,"indent":1,"parameters":["But the view still looks the same, so"]},{"code":401,"indent":1,"parameters":["no, we haven't moved."]},{"code":101,"indent":1,"parameters":["1fc_jack2",15,0,2]},{"code":401,"indent":1,"parameters":["If you say so..."]},{"code":0,"indent":1,"parameters":[]},{"code":411,"indent":0,"parameters":[]},{"code":101,"indent":1,"parameters":["1fc_jack1",5,0,2]},{"code":401,"indent":1,"parameters":["Unfortunately this doesn't face toward any"]},{"code":401,"indent":1,"parameters":["solid ground. Otherwise I'd have had a good shot"]},{"code":401,"indent":1,"parameters":["of seeing him somewhere, maybe..."]},{"code":0,"indent":1,"parameters":[]},{"code":412,"indent":0,"parameters":[]},{"code":0,"indent":0,"parameters":[]}],"moveFrequency":3,"moveRoute":{"list":[{"code":0,"parameters":[]}],"repeat":true,"skippable":false,"wait":false},"moveSpeed":3,"moveType":0,"priorityType":1,"stepAnime":false,"through":false,"trigger":0,"walkAnime":true}],"x":10,"y":5}
]
}