{
"autoplayBgm":false,"autoplayBgs":false,"battleback1Name":"","battleback2Name":"","bgm":{"name":"","pan":0,"pitch":100,"volume":100},"bgs":{"name":"","pan":0,"pitch":100,"volume":80},"disableDashing":false,"displayName":"","encounterList":[],"encounterStep":30,"height":15,"note":"<all restrict: 6>","parallaxLoopX":false,"parallaxLoopY":false,"parallaxName":"welcome0","parallaxShow":true,"parallaxSx":0,"parallaxSy":0,"scrollType":0,"specifyBattleback":false,"tilesetId":9,"width":20,
"data":[2384,2384,2384,2384,2384,2384,2384,2384,2384,2384,2384,2384,2384,2384,2384,2384,2384,2384,2384,2384,2384,2384,2384,2384,2384,2384,2384,2384,2384,2384,2384,2384,2384,2384,2384,2384,2384,2384,2384,2384,2384,2384,2384,2384,2384,2384,2384,2384,2384,2384,2384,2384,2384,2384,2384,2384,2384,2384,2384,2384,2384,2384,2384,2384,2384,2384,2384,2384,2384,2384,2384,2384,2384,2384,2384,2384,2384,2384,2384,2384,2384,2384,2384,2384,2384,2384,2384,2384,2384,2384,2384,2384,2384,2384,2384,2384,2384,2384,2384,2384,2384,2384,2384,2384,2384,2384,2384,2384,2384,2384,2384,2384,2384,2384,2384,2384,2384,2384,2384,2384,2384,2384,2384,2384,2384,2384,2384,2384,2384,2384,2384,2384,2384,2384,2384,2384,2384,2384,2384,2384,2384,2384,2384,2384,2384,2384,2384,2384,2384,2384,2384,2384,2384,2384,2384,2384,2384,2384,2384,2384,2384,2384,2384,2384,2384,2384,2384,2384,2384,2384,2384,2384,2384,2384,2384,2384,2384,2384,2384,2384,2384,2384,2384,2384,2384,2384,2384,2384,2384,2384,2384,2384,2384,2384,2384,2384,2384,2384,2384,2384,2384,2384,2384,2384,2384,2384,2384,2384,2384,2384,2384,2384,2384,2384,2384,2384,2384,2384,2384,2384,2384,2384,2384,2384,2384,2384,2384,2384,2384,2384,2384,2384,2384,2384,2384,2384,2384,2384,2384,2384,2384,2384,2384,2384,2384,2384,2384,2384,2384,2384,2384,2384,2384,2384,2384,2384,2384,2384,2384,2384,2384,2384,2384,2384,2384,2384,2384,2384,2384,2384,2384,2384,2384,2384,2384,2384,2384,2384,2384,2384,2384,2384,2384,2384,2384,2384,2384,2384,2384,2384,2384,2384,2384,2384,2384,2384,2384,2384,2384,2384,4304,4304,4304,4304,4304,4304,4304,4304,4304,4304,4304,4304,4304,4304,4304,4304,4304,4304,4304,4304,4304,4304,4304,4304,4304,4304,4304,4304,4304,4304,4304,4304,4304,4304,4304,4304,4304,4304,4304,4304,4304,4304,4304,4304,4304,4304,4304,4304,4304,4304,4304,4304,4304,4304,4304,4304,4304,4304,4304,4304,4304,4304,4304,4304,4304,4304,4304,4304,4304,4304,4304,4304,4304,4304,4304,4304,4304,4304,4304,4304,4304,4304,4304,4304,4304,4304,4304,4304,4304,4304,4304,4304,4304,4304,4304,4304,4304,4304,4304,4304,4304,4304,4304,4304,4304,4304,4304,4304,4304,4304,4304,4304,4304,4304,4304,4304,4304,4304,4304,4304,4304,4304,4304,4304,4304,4304,4304,4304,4304,4304,4304,4304,4304,4304,4304,4304,4304,4304,4304,4304,4304,4304,4304,4304,4304,4304,4304,4304,4304,4304,4304,4304,4304,4304,4304,4304,4304,4304,4304,4304,4304,4304,4304,4304,4304,4304,4304,4304,4304,4304,4304,4304,4304,4304,4304,4304,4304,4304,4304,4304,4304,4304,4304,4304,4304,4304,4304,4304,4304,4304,4304,4304,4304,4304,4304,4304,4304,4304,4304,4304,4304,4304,4304,4304,4304,4304,4304,4304,4304,4304,4304,4304,4304,4304,4304,4304,4304,4304,4304,4304,4304,4304,4304,4304,4304,4304,4304,4304,4304,4304,4304,4304,4304,4304,4304,4304,4304,4304,4304,4304,4304,4304,4304,4304,4304,4304,4304,4304,4304,4304,4304,4304,4304,4304,4304,4304,4304,4304,4304,4304,4304,4304,4304,4304,4304,4304,4304,4304,4304,4304,4304,4304,4304,4304,4304,4304,4304,4304,4304,4304,4304,4304,4304,4304,4304,4304,4304,4304,4304,4304,4304,4304,4304,4304,4304,4304,4304,4304,4304,4304,0,0,0,0,0,0,0,0,0,0,0,0,0,0,0,0,0,0,0,0,0,0,0,0,0,0,0,0,0,0,0,0,0,0,0,0,0,0,0,0,0,0,0,0,0,0,0,0,0,0,0,0,0,0,0,0,0,0,0,0,0,0,0,0,0,0,0,0,0,0,0,0,0,0,0,0,0,0,0,0,0,0,0,0,0,0,0,0,0,0,0,0,0,0,0,0,0,0,0,0,0,0,0,0,0,0,0,0,0,0,0,0,0,0,0,0,0,0,0,0,0,0,0,0,0,0,0,0,0,0,0,0,0,0,0,0,0,0,0,0,0,0,0,0,0,0,0,0,0,0,0,0,0,0,0,0,0,0,0,0,0,0,0,0,0,0,0,0,0,0,0,0,0,0,0,0,0,0,0,0,0,0,0,0,0,0,0,0,0,0,0,0,0,0,0,0,0,0,0,0,0,0,0,0,0,0,0,0,0,0,0,0,0,0,0,0,0,0,0,0,0,0,0,0,0,0,0,0,0,0,0,0,0,0,0,0,0,0,0,0,0,0,0,0,0,0,0,0,0,0,0,0,0,0,0,0,0,0,0,0,0,0,0,0,0,0,0,0,0,0,0,0,0,0,0,0,0,0,0,0,0,0,0,0,0,0,0,0,0,0,0,0,0,0,0,0,0,0,0,0,0,0,0,0,0,0,0,0,0,0,0,0,0,0,0,0,0,0,0,0,0,0,0,0,0,0,0,0,0,0,0,0,0,0,0,0,0,0,0,0,0,0,0,0,0,0,0,0,0,0,0,0,0,0,0,0,0,0,0,0,0,0,0,0,0,0,0,0,0,0,0,0,0,0,0,0,0,0,0,0,0,0,0,0,0,0,0,0,0,0,0,0,0,0,0,0,0,0,0,0,0,0,0,0,0,0,0,0,0,0,0,0,0,0,0,0,0,0,0,0,0,0,0,0,0,0,0,0,0,0,0,0,0,0,0,0,0,0,0,0,0,0,0,0,0,0,0,0,0,0,0,0,0,0,0,0,0,0,0,0,0,0,0,0,0,0,0,0,0,0,0,0,0,0,0,0,0,0,0,0,0,0,0,0,0,0,0,0,0,0,0,0,0,0,0,0,0,0,0,0,0,0,0,0,0,0,0,0,0,0,0,0,0,0,0,0,0,0,0,0,0,0,0,0,0,0,0,0,0,0,0,0,0,0,0,0,0,0,0,0,0,0,0,0,0,0,0,0,0,0,0,0,0,0,0,0,0,0,0,0,0,0,0,0,0,0,0,0,0,0,0,0,0,0,0,0,0,0,0,0,0,0,0,0,0,0,0,0,0,0,0,0,0,0,0,0,0,0,0,0,0,0,0,0,0,0,0,0,0,0,0,0,0,0,0,0,0,0,0,0,0,0,0,0,0,0,0,0,0,0,0,0,0,0,0,0,0,0,0,0,0,0,0,0,0,0,0,0,0,0,0,0,0,0,0,0,0,0,0,0,0,0,0,0,0,0,0,0,0,0,0,0,0,0,0,0,0,0,0,0,0,0,0,0,0,0,0,0,0,0,0,0,0,0,0,0,0,0,0,0,0,0,0,0,0,0,0,0,0,0,0,0,0,0,0,0,0,0,0,0,0,0,0,0,0,0,0,0,0,0,0,0,0,0,0,0,0,0,0,0,0,0,0,0,0,0,0,0,0,0,0,0,0,0,0,0,0,0,0,0,0,0,0,0,0,0,0,0,0,0,0,0,0,0,0,0,0,0,0,0,0,0,0,0,0,0,0,0,0,0,0,0,0,0,0,0,0,0,0,0,0,0,0,0,0,0,0,0,0,0,0,0,0,0,0,0,0,0,0,0,0,0,0,0,0,0,0,0,0,0,0,0,0,0,0,0,0,0,0,0,0,0,0,0,0,0,0,0,0,0,0,0,0,0,0,0,0,0,0,0,0,0,0,0,0,0,0,0,0,0,0,0,0,0,0,0,0,0,0,0,0,0,0,0,0,0,0,0,0,0,0,0,0,0,0,0,0,0,0,0,6,6,6,6,6,6,6,6,6,6,6,6,6,6,6,6,6,6,6,6,6,0,0,0,0,0,0,0,0,0,0,0,0,0,0,0,0,0,0,6,6,0,0,0,0,0,0,0,0,0,0,0,0,0,0,0,0,0,0,6,6,6,6,0,0,0,0,0,0,0,0,0,0,0,0,0,0,0,0,6,6,0,0,0,0,0,0,0,0,0,0,0,0,0,0,0,0,0,0,6,6,0,0,0,0,0,0,0,0,0,0,0,0,0,0,0,0,0,0,6,6,0,0,0,0,0,0,0,0,0,0,0,0,0,0,0,0,0,0,6,6,0,0,0,0,0,0,0,0,0,0,0,0,0,0,0,0,0,0,6,6,0,0,0,0,0,0,0,0,0,0,0,0,0,0,0,0,0,0,6,6,0,0,0,0,0,0,0,0,0,0,0,0,0,0,0,0,0,0,6,6,0,0,0,0,0,0,0,0,0,0,0,0,0,0,0,0,0,0,6,6,0,0,0,0,0,0,0,0,0,0,0,0,0,0,0,0,0,0,6,6,0,0,0,0,0,0,0,0,0,0,0,0,0,0,0,0,0,0,6,6,6,6,6,6,6,6,6,6,6,6,6,6,6,6,6,6,6,6,6,6,6,6,6,6,6,6,6,6,6,6,6,6,6,6,6,6,6,6,6],
"events":[
null,
{"id":1,"name":"EV001","note":"","pages":[{"conditions":{"actorId":1,"actorValid":false,"itemId":1,"itemValid":false,"selfSwitchCh":"A","selfSwitchValid":false,"switch1Id":1,"switch1Valid":false,"switch2Id":1,"switch2Valid":false,"variableId":1,"variableValid":false,"variableValue":0},"directionFix":false,"image":{"tileId":0,"characterName":"","direction":2,"pattern":0,"characterIndex":0},"moveFrequency":3,"moveRoute":{"list":[{"code":0,"indent":null,"parameters":[]}],"repeat":true,"skippable":false,"wait":false},"moveSpeed":3,"moveType":0,"priorityType":0,"stepAnime":false,"through":false,"trigger":3,"walkAnime":true,"list":[{"code":231,"indent":0,"parameters":[1,"welcome0",0,0,0,0,100,100,255,0]},{"code":230,"indent":0,"parameters":[60]},{"code":101,"indent":0,"parameters":["1fc_jack1",0,1,2]},{"code":401,"indent":0,"parameters":["Wow, this brings me back. I didn't know Wireland had"]},{"code":401,"indent":0,"parameters":["such older systems."]},{"code":231,"indent":0,"parameters":[1,"welcome1",0,0,0,0,100,100,255,0]},{"code":101,"indent":0,"parameters":["fc_connornpc",4,1,2]},{"code":401,"indent":0,"parameters":["This is not a particularly old model."]},{"code":101,"indent":0,"parameters":["1fc_jack2",15,1,2]},{"code":401,"indent":0,"parameters":["Really? Huh... since you live in a computer, I'd have"]},{"code":401,"indent":0,"parameters":["thought the graphics would be nicer."]},{"code":231,"indent":0,"parameters":[1,"welcome2",0,0,0,0,100,100,255,0]},{"code":101,"indent":0,"parameters":["1fc_jack2",3,1,2]},{"code":401,"indent":0,"parameters":["I also thought the startup screen wouldn't be so slow."]},{"code":101,"indent":0,"parameters":["fc_connornpc",2,1,2]},{"code":401,"indent":0,"parameters":["Sometimes they need a moment."]},{"code":230,"indent":0,"parameters":[60]},{"code":231,"indent":0,"parameters":[1,"welcome3",0,0,0,0,100,100,255,0]},{"code":230,"indent":0,"parameters":[2]},{"code":231,"indent":0,"parameters":[1,"welcome4",0,0,0,0,100,100,255,0]},{"code":230,"indent":0,"parameters":[2]},{"code":231,"indent":0,"parameters":[1,"welcome5",0,0,0,0,100,100,255,0]},{"code":230,"indent":0,"parameters":[60]},{"code":231,"indent":0,"parameters":[1,"welcome6",0,0,0,0,100,100,255,0]},{"code":230,"indent":0,"parameters":[5]},{"code":231,"indent":0,"parameters":[1,"welcome7",0,0,0,0,100,100,255,0]},{"code":230,"indent":0,"parameters":[15]},{"code":231,"indent":0,"parameters":[1,"welcome8",0,0,0,0,100,100,255,0]},{"code":230,"indent":0,"parameters":[2]},{"code":231,"indent":0,"parameters":[1,"welcome9",0,0,0,0,100,100,255,0]},{"code":230,"indent":0,"parameters":[2]},{"code":231,"indent":0,"parameters":[1,"welcome10",0,0,0,0,100,100,255,0]},{"code":230,"indent":0,"parameters":[30]},{"code":231,"indent":0,"parameters":[1,"welcome11",0,0,0,0,100,100,255,0]},{"code":230,"indent":0,"parameters":[200]},{"code":101,"indent":0,"parameters":["1fc_jack1",2,1,2]},{"code":401,"indent":0,"parameters":["They always get stuck on the last bar, don't they?"]},{"code":101,"indent":0,"parameters":["fc_connornpc",4,1,2]},{"code":401,"indent":0,"parameters":["I wouldn't know. I don't generally use computers, since I"]},{"code":401,"indent":0,"parameters":["can perform many of their functions myself."]},{"code":101,"indent":0,"parameters":["1fc_jack1",1,1,2]},{"code":401,"indent":0,"parameters":["Ah, okay. That must be convenient, having a computer"]},{"code":401,"indent":0,"parameters":["inside of your head."]},{"code":101,"indent":0,"parameters":["fc_connornpc",0,1,2]},{"code":401,"indent":0,"parameters":["It does make me good at chess."]},{"code":101,"indent":0,"parameters":["1fc_jack1",0,1,2]},{"code":401,"indent":0,"parameters":["Speaking of being good at things, how did you guess"]},{"code":401,"indent":0,"parameters":["Monika's password?"]},{"code":101,"indent":0,"parameters":["fc_connornpc",0,1,2]},{"code":401,"indent":0,"parameters":["I suspected she would have set the password in binary."]},{"code":401,"indent":0,"parameters":["Few people would be able to translate it without help,"]},{"code":401,"indent":0,"parameters":["but since she has some control over the files in her"]},{"code":401,"indent":0,"parameters":["game, she is fluent in binary."]},{"code":101,"indent":0,"parameters":["1fc_jack1",0,1,2]},{"code":401,"indent":0,"parameters":["I assume you are too."]},{"code":101,"indent":0,"parameters":["fc_connornpc",0,1,2]},{"code":401,"indent":0,"parameters":["Of course."]},{"code":101,"indent":0,"parameters":["1fc_jack1",0,1,2]},{"code":401,"indent":0,"parameters":["So what was her password?"]},{"code":101,"indent":0,"parameters":["fc_connornpc",0,1,2]},{"code":401,"indent":0,"parameters":["1234."]},{"code":101,"indent":0,"parameters":["1fc_jack2",15,1,2]},{"code":401,"indent":0,"parameters":["That's not a secure password."]},{"code":101,"indent":0,"parameters":["fc_connornpc",0,1,2]},{"code":401,"indent":0,"parameters":["In binary, it is."]},{"code":231,"indent":0,"parameters":[1,"welcome12",0,0,0,0,100,100,255,0]},{"code":284,"indent":0,"parameters":["hacker voice",false,false,0,0]},{"code":230,"indent":0,"parameters":[60]},{"code":250,"indent":0,"parameters":[{"name":"startup","pan":0,"pitch":100,"volume":80}]},{"code":230,"indent":0,"parameters":[120]},{"code":235,"indent":0,"parameters":[1]},{"code":230,"indent":0,"parameters":[60]},{"code":101,"indent":0,"parameters":["1fc_jack1",0,1,2]},{"code":401,"indent":0,"parameters":["Well, we're in. What do you think we should look at?"]},{"code":101,"indent":0,"parameters":["fc_connornpc",4,1,2]},{"code":401,"indent":0,"parameters":["There does appear to be a Notepad file open. Perhaps"]},{"code":401,"indent":0,"parameters":["that will give us some clues."]},{"code":205,"indent":0,"parameters":[-1,{"list":[{"code":29,"indent":null,"parameters":[6]},{"code":5,"indent":null,"parameters":[]},{"code":5,"indent":null,"parameters":[]},{"code":5,"indent":null,"parameters":[]},{"code":1,"indent":null,"parameters":[]},{"code":1,"indent":null,"parameters":[]},{"code":1,"indent":null,"parameters":[]},{"code":1,"indent":null},{"code":1,"indent":null},{"code":0,"indent":null,"parameters":[]}],"repeat":false,"skippable":true,"wait":true}]},{"code":505,"indent":0,"parameters":[{"code":29,"indent":null,"parameters":[6]}]},{"code":505,"indent":0,"parameters":[{"code":5,"indent":null,"parameters":[]}]},{"code":505,"indent":0,"parameters":[{"code":5,"indent":null,"parameters":[]}]},{"code":505,"indent":0,"parameters":[{"code":5,"indent":null,"parameters":[]}]},{"code":505,"indent":0,"parameters":[{"code":1,"indent":null,"parameters":[]}]},{"code":505,"indent":0,"parameters":[{"code":1,"indent":null,"parameters":[]}]},{"code":505,"indent":0,"parameters":[{"code":1,"indent":null,"parameters":[]}]},{"code":505,"indent":0,"parameters":[{"code":1,"indent":null}]},{"code":505,"indent":0,"parameters":[{"code":1,"indent":null}]},{"code":230,"indent":0,"parameters":[30]},{"code":250,"indent":0,"parameters":[{"name":"Mouse Click","pan":0,"pitch":100,"volume":80}]},{"code":284,"indent":0,"parameters":["notepad",false,false,0,0]},{"code":230,"indent":0,"parameters":[60]},{"code":101,"indent":0,"parameters":["1fc_jack2",3,1,2]},{"code":401,"indent":0,"parameters":["\"Log #43: Explosive deployment successful despite efforts"]},{"code":401,"indent":0,"parameters":["to subdue it. Mack still unaware of cause. Sources say"]},{"code":401,"indent":0,"parameters":["Jack has returned to Wireland, so he may be of so...\""]},{"code":101,"indent":0,"parameters":["fc_connornpc",4,1,2]},{"code":401,"indent":0,"parameters":["It appears they were interrupted mid-sentence."]},{"code":250,"indent":0,"parameters":[{"name":"Mouse Click","pan":0,"pitch":100,"volume":80}]},{"code":284,"indent":0,"parameters":["hacker voice",false,false,0,0]},{"code":101,"indent":0,"parameters":["fc_connornpc",4,1,2]},{"code":401,"indent":0,"parameters":["I think we should also check out the Codes."]},{"code":205,"indent":0,"parameters":[-1,{"list":[{"code":4,"indent":null,"parameters":[]},{"code":7,"indent":null,"parameters":[]},{"code":7,"indent":null,"parameters":[]},{"code":7,"indent":null,"parameters":[]},{"code":7,"indent":null,"parameters":[]},{"code":7,"indent":null,"parameters":[]},{"code":4,"indent":null,"parameters":[]},{"code":4,"indent":null,"parameters":[]},{"code":4,"indent":null},{"code":4,"indent":null},{"code":4,"indent":null},{"code":4,"indent":null},{"code":4,"indent":null},{"code":4,"indent":null},{"code":4,"indent":null},{"code":4,"indent":null},{"code":4,"indent":null},{"code":4,"indent":null},{"code":4,"indent":null},{"code":0,"indent":null,"parameters":[]}],"repeat":false,"skippable":true,"wait":true}]},{"code":505,"indent":0,"parameters":[{"code":4,"indent":null,"parameters":[]}]},{"code":505,"indent":0,"parameters":[{"code":7,"indent":null,"parameters":[]}]},{"code":505,"indent":0,"parameters":[{"code":7,"indent":null,"parameters":[]}]},{"code":505,"indent":0,"parameters":[{"code":7,"indent":null,"parameters":[]}]},{"code":505,"indent":0,"parameters":[{"code":7,"indent":null,"parameters":[]}]},{"code":505,"indent":0,"parameters":[{"code":7,"indent":null,"parameters":[]}]},{"code":505,"indent":0,"parameters":[{"code":4,"indent":null,"parameters":[]}]},{"code":505,"indent":0,"parameters":[{"code":4,"indent":null,"parameters":[]}]},{"code":505,"indent":0,"parameters":[{"code":4,"indent":null}]},{"code":505,"indent":0,"parameters":[{"code":4,"indent":null}]},{"code":505,"indent":0,"parameters":[{"code":4,"indent":null}]},{"code":505,"indent":0,"parameters":[{"code":4,"indent":null}]},{"code":505,"indent":0,"parameters":[{"code":4,"indent":null}]},{"code":505,"indent":0,"parameters":[{"code":4,"indent":null}]},{"code":505,"indent":0,"parameters":[{"code":4,"indent":null}]},{"code":505,"indent":0,"parameters":[{"code":4,"indent":null}]},{"code":505,"indent":0,"parameters":[{"code":4,"indent":null}]},{"code":505,"indent":0,"parameters":[{"code":4,"indent":null}]},{"code":505,"indent":0,"parameters":[{"code":4,"indent":null}]},{"code":230,"indent":0,"parameters":[30]},{"code":250,"indent":0,"parameters":[{"name":"Mouse Click","pan":0,"pitch":100,"volume":80}]},{"code":284,"indent":0,"parameters":["Codes",false,false,0,0]},{"code":101,"indent":0,"parameters":["1fc_jack2",3,1,2]},{"code":401,"indent":0,"parameters":["That's a lot of codes."]},{"code":101,"indent":0,"parameters":["fc_connornpc",4,1,2]},{"code":401,"indent":0,"parameters":["I'm sure at least one of them is important. The question"]},{"code":401,"indent":0,"parameters":["is, which one?"]},{"code":121,"indent":0,"parameters":[144,144,0]},{"code":223,"indent":0,"parameters":[[-255,-255,-255,0],30,true]},{"code":246,"indent":0,"parameters":[2]},{"code":322,"indent":0,"parameters":[1,"spr_possepticeye",1,"1fc_jack1",0,""]},{"code":129,"indent":0,"parameters":[14,0,0]},{"code":205,"indent":0,"parameters":[-1,{"list":[{"code":36,"indent":null,"parameters":[]},{"code":38,"indent":null,"parameters":[]},{"code":40,"indent":null,"parameters":[]},{"code":29,"indent":null,"parameters":[4]},{"code":31,"indent":null,"parameters":[]},{"code":0,"indent":null,"parameters":[]}],"repeat":false,"skippable":true,"wait":true}]},{"code":505,"indent":0,"parameters":[{"code":36,"indent":null,"parameters":[]}]},{"code":505,"indent":0,"parameters":[{"code":38,"indent":null,"parameters":[]}]},{"code":505,"indent":0,"parameters":[{"code":40,"indent":null,"parameters":[]}]},{"code":505,"indent":0,"parameters":[{"code":29,"indent":null,"parameters":[4]}]},{"code":505,"indent":0,"parameters":[{"code":31,"indent":null,"parameters":[]}]},{"code":201,"indent":0,"parameters":[0,125,17,6,6,2]},{"code":241,"indent":0,"parameters":[{"name":"mus_asbc","pan":0,"pitch":100,"volume":60}]},{"code":223,"indent":0,"parameters":[[-68,-68,-68,0],30,true]},{"code":101,"indent":0,"parameters":["1fc_jack1",6,0,2]},{"code":401,"indent":0,"parameters":["Great. I guess that's a dead end. Anti's probably long"]},{"code":401,"indent":0,"parameters":["gone by now."]},{"code":101,"indent":0,"parameters":["fc_connornpc",2,0,2]},{"code":401,"indent":0,"parameters":["I don't think so. The person who wrote this likely heard"]},{"code":401,"indent":0,"parameters":["us coming. It is possible they're still here."]},{"code":101,"indent":0,"parameters":["1fc_jack2",15,0,2]},{"code":401,"indent":0,"parameters":["You think so?"]},{"code":101,"indent":0,"parameters":["fc_connornpc",4,0,2]},{"code":401,"indent":0,"parameters":["We should search the area to make sure."]},{"code":121,"indent":0,"parameters":[77,77,0]},{"code":123,"indent":0,"parameters":["A",0]},{"code":0,"indent":0,"parameters":[]}]},{"conditions":{"actorId":1,"actorValid":false,"itemId":1,"itemValid":false,"selfSwitchCh":"A","selfSwitchValid":true,"switch1Id":1,"switch1Valid":false,"switch2Id":1,"switch2Valid":false,"variableId":1,"variableValid":false,"variableValue":0},"directionFix":false,"image":{"tileId":0,"characterName":"","direction":2,"pattern":0,"characterIndex":0},"moveFrequency":3,"moveRoute":{"list":[{"code":0,"indent":null,"parameters":[]}],"repeat":true,"skippable":false,"wait":false},"moveSpeed":3,"moveType":0,"priorityType":0,"stepAnime":false,"through":false,"trigger":0,"walkAnime":true,"list":[{"code":0,"indent":0,"parameters":[]}]}],"x":0,"y":0}
]
}