{
"autoplayBgm":true,"autoplayBgs":false,"battleback1Name":"","battleback2Name":"","bgm":{"name":"mus_asbc","pan":0,"pitch":100,"volume":60},"bgs":{"name":"","pan":0,"pitch":100,"volume":80},"disableDashing":false,"displayName":"","encounterList":[],"encounterStep":30,"height":15,"note":"<all restrict: 6>","parallaxLoopX":false,"parallaxLoopY":false,"parallaxName":"","parallaxShow":false,"parallaxSx":0,"parallaxSy":0,"scrollType":0,"specifyBattleback":false,"tilesetId":13,"width":21,
"data":[0,0,0,0,0,0,0,0,0,0,0,0,0,0,0,0,0,0,0,0,0,0,6259,6257,6257,6257,6257,6257,6257,6257,6257,6257,6257,6257,6257,6257,6257,6257,6257,6257,6261,0,0,6256,6562,6562,6562,6562,6562,6562,6562,6562,6562,6562,6562,6562,6562,6562,6562,6562,6562,6256,0,0,6256,5850,5850,6568,5850,6568,6568,6568,6568,6568,6568,6568,6568,6568,6568,6568,6568,6568,6256,0,0,6256,2946,2932,2932,2932,2932,2932,2932,2932,2932,2932,2932,2932,2932,2932,2932,2932,2948,6256,0,0,6256,2928,2912,2912,2912,2912,2912,2912,2912,2912,2912,2912,2912,2912,2912,2912,2912,2936,6268,0,0,6256,2928,2912,2912,2912,2912,2912,2912,2912,2912,2912,2912,2912,2912,2912,2912,2912,2936,6567,0,0,6256,2928,2912,2912,2912,2912,2912,2912,2912,2912,2912,2912,2912,2912,2912,2912,2912,2936,6573,0,0,6256,2928,2912,2912,2912,2912,2912,2912,2912,2912,2912,2912,2912,2912,2912,2912,2912,2918,2957,0,0,6256,2928,2912,2912,2912,2912,2912,2912,2912,2912,2912,2912,2912,2912,2912,2912,2912,2936,6266,0,0,6256,2928,2912,2912,2912,2912,2912,2912,2912,2912,2912,2912,2912,2912,2912,2912,2912,2936,6256,0,0,6256,2928,2912,2912,2912,2912,2912,2912,2912,2912,2912,2912,2912,2912,2912,2912,2912,2936,6256,0,0,6256,2952,2940,2940,2940,2940,2940,2940,2940,2940,2940,2940,2940,2940,2940,2940,2940,2950,6256,0,0,6265,6257,6257,6257,6257,6257,6257,6257,6257,6257,6257,6257,6257,6257,6257,6257,6257,6257,6263,0,0,0,0,0,0,0,0,0,0,0,0,0,0,0,0,0,0,0,0,0,0,0,0,0,0,0,0,0,0,0,0,0,0,0,0,0,0,0,0,0,0,0,0,0,0,0,0,0,0,0,0,0,0,0,0,0,0,0,0,0,0,0,0,0,0,0,0,0,0,0,0,0,0,0,0,0,0,0,0,0,0,0,0,0,0,0,0,0,0,0,0,0,0,0,0,0,0,0,0,0,0,0,0,0,0,0,0,0,0,0,0,0,0,0,0,0,0,0,0,0,0,0,0,0,0,0,0,0,0,0,0,0,0,0,0,0,0,0,0,0,0,0,0,0,0,0,0,0,0,0,0,0,0,0,0,0,0,0,0,0,0,0,0,0,0,3578,0,0,0,0,0,0,0,0,0,0,0,0,0,0,0,0,0,0,0,0,3580,0,0,0,0,0,0,0,0,0,0,3570,3556,3556,3572,0,0,0,0,0,0,0,0,0,0,0,0,0,0,0,0,0,3576,3564,3564,3574,0,0,0,0,0,0,0,0,0,0,0,0,0,0,0,0,0,0,0,0,0,0,0,0,0,0,0,0,0,0,0,0,0,0,0,0,0,0,0,0,0,0,0,0,0,0,0,0,0,0,0,0,0,0,0,0,0,0,0,0,0,0,0,0,0,0,0,0,0,0,0,0,0,0,0,0,0,0,0,0,0,0,0,0,0,0,0,0,0,0,0,0,0,0,0,0,0,0,0,0,0,0,0,0,0,0,0,0,0,0,0,0,0,0,0,0,0,0,0,0,0,0,0,0,0,0,0,0,0,0,0,0,0,0,0,0,0,0,0,0,0,0,0,0,0,0,0,0,0,0,0,0,0,0,0,0,0,0,0,0,0,0,0,0,0,0,0,0,0,0,0,0,0,0,0,0,0,0,0,0,0,0,0,0,0,0,0,0,0,0,0,0,0,0,0,0,0,0,0,0,0,0,0,0,0,0,0,0,0,0,0,0,0,0,0,0,0,0,0,0,0,0,0,0,0,0,0,0,0,0,0,0,0,0,0,0,0,0,0,0,0,0,0,0,0,0,0,0,0,0,0,0,0,0,0,0,0,0,0,0,0,0,0,0,0,0,0,0,0,0,0,0,0,0,0,0,0,0,0,0,0,0,0,0,0,0,0,0,0,0,0,0,0,0,0,0,0,0,0,0,0,0,0,0,0,0,0,0,0,0,0,0,0,0,0,0,0,0,0,0,0,0,0,0,0,0,0,0,0,0,0,0,0,0,0,0,0,0,0,0,0,0,0,0,0,0,0,0,0,0,0,0,0,0,0,0,0,0,0,0,0,0,0,0,0,0,0,0,0,0,0,0,0,0,0,0,0,0,0,0,0,0,0,0,0,0,0,0,0,0,0,0,0,0,0,0,0,0,0,0,0,0,0,0,0,0,0,0,0,0,0,0,0,0,0,0,0,0,0,0,0,0,0,0,0,0,0,0,0,0,0,0,0,0,0,0,0,0,0,0,0,0,0,0,0,0,0,0,0,0,0,0,0,0,0,0,0,0,0,0,0,0,0,0,0,0,0,0,0,0,0,0,0,0,0,0,0,0,481,0,342,343,0,0,481,0,0,0,0,0,0,0,0,0,282,283,0,265,0,489,0,0,0,300,0,489,304,305,0,0,396,0,0,0,0,290,291,0,273,0,0,279,0,0,308,425,0,312,313,0,0,404,0,0,0,0,0,0,0,0,0,0,0,0,0,0,0,0,0,0,0,0,0,0,0,0,0,425,0,0,0,0,0,0,0,0,0,0,0,0,0,0,0,14,0,0,0,0,260,0,0,0,0,0,296,296,296,296,0,0,0,0,0,0,0,428,0,0,0,268,0,0,0,0,298,249,167,0,248,299,0,0,0,0,0,0,436,0,0,0,276,0,0,0,0,298,0,0,0,0,299,0,0,0,0,0,425,0,0,0,0,0,0,0,425,0,0,297,297,297,297,0,0,0,0,0,0,0,0,0,0,0,0,0,0,0,0,0,0,0,0,0,0,0,0,0,0,0,0,0,0,0,0,0,0,0,0,0,0,0,0,0,0,0,0,0,0,425,0,0,0,0,0,0,0,0,0,0,0,0,0,0,0,0,0,0,0,0,0,0,0,0,0,0,0,0,0,0,0,0,0,0,0,0,0,0,0,0,0,0,0,0,0,0,0,0,0,0,0,0,0,0,0,0,0,0,0,0,0,0,0,0,0,0,0,0,0,0,0,0,0,0,0,0,0,0,0,0,0,0,0,0,0,0,0,0,0,0,0,0,0,0,0,0,0,0,0,0,0,0,0,0,0,0,0,0,0,0,0,0,0,1536,0,1536,1536,1536,1536,1536,1536,1536,1536,1536,1536,1536,1536,0,0,0,0,1536,1536,1536,0,1536,0,0,1536,0,0,1536,1536,0,1536,1536,0,0,1536,1536,0,0,1536,0,0,0,0,0,0,0,0,0,0,0,0,0,0,0,0,0,1536,0,0,1536,1536,0,0,0,0,0,0,0,0,0,0,0,0,0,0,0,0,1536,0,0,1536,1536,0,0,0,0,0,1536,1536,1536,1536,0,0,0,0,0,0,1536,1536,0,0,1536,1536,0,0,0,0,1536,0,0,0,0,1536,0,0,0,0,0,0,0,0,0,1536,1536,0,0,0,0,1536,0,0,0,0,1536,0,0,0,0,0,1536,1536,0,0,1536,0,0,0,1536,0,0,1536,1536,1536,1536,0,0,0,0,0,0,0,1536,0,0,1536,0,0,0,0,0,0,0,0,0,0,0,0,0,0,0,0,0,1536,0,0,1536,0,0,0,0,0,0,0,0,0,0,0,0,0,0,1536,0,0,1536,0,0,1536,1536,1536,1536,1536,1536,1536,1536,1536,1536,1536,1536,1536,1536,1536,1536,1536,1536,1536,0,0,0,0,0,0,0,0,0,0,0,0,0,0,0,0,0,0,0,0,0,0,0,0,0,0,0,0,0,0,0,0,0,0,0,0,0,0,0,0,0,0,0,0,0,0,0,0,0,0,0,0,0,0,0,0,0,0,0,0,0,0,0,0,0,0,0,0,0,0,0,0,0,0,0,0,0,0,0,0,0,0,0,0,0,0,0,0,0,6,0,6,6,6,6,6,6,6,6,6,6,6,6,0,0,0,0,6,6,6,0,6,0,0,6,0,0,6,6,0,6,6,0,0,6,6,0,0,6,0,0,0,0,0,0,0,0,0,0,0,0,0,0,0,0,0,6,0,0,6,6,0,0,0,0,0,0,0,0,0,0,0,0,0,0,0,0,6,0,0,6,6,0,0,0,0,0,6,6,6,6,0,0,0,0,0,0,6,6,0,0,6,6,0,0,0,0,6,0,0,0,0,6,0,0,0,0,0,0,0,0,0,6,6,0,0,0,0,6,0,0,0,0,6,0,0,0,0,0,6,6,0,0,6,0,0,0,6,0,0,6,6,6,6,0,0,0,0,0,0,0,6,0,0,6,0,0,0,0,0,0,0,0,0,0,0,0,0,0,0,0,0,6,0,0,6,0,0,0,0,0,0,0,0,0,0,0,0,0,0,6,0,0,6,0,0,6,6,6,6,6,6,6,6,6,6,6,6,6,6,6,6,6,6,6,0,0,0,0,0,0,0,0,0,0,0,0,0,0,0,0,0,0,0,0,0,0],
"events":[
null,
{"id":1,"name":"EV001","note":"Light 75 #92ff7f 1","pages":[{"conditions":{"actorId":1,"actorValid":false,"itemId":1,"itemValid":false,"selfSwitchCh":"A","selfSwitchValid":false,"switch1Id":1,"switch1Valid":false,"switch2Id":1,"switch2Valid":false,"variableId":1,"variableValid":false,"variableValue":0},"directionFix":false,"image":{"tileId":0,"characterName":"","direction":2,"pattern":0,"characterIndex":0},"moveFrequency":3,"moveRoute":{"list":[{"code":0,"indent":null,"parameters":[]}],"repeat":true,"skippable":false,"wait":false},"moveSpeed":3,"moveType":0,"priorityType":1,"stepAnime":false,"through":false,"trigger":0,"walkAnime":true,"list":[{"code":101,"indent":0,"parameters":["1fc_jack1",2,0,2]},{"code":401,"indent":0,"parameters":["Installing updates. Typical PC."]},{"code":101,"indent":0,"parameters":["fc_connornpc",4,0,2]},{"code":401,"indent":0,"parameters":["Hmm... I'm sure the information on this would be"]},{"code":401,"indent":0,"parameters":["valuable, but we'll have to wait for it to finish."]},{"code":101,"indent":0,"parameters":["1fc_jack2",15,0,2]},{"code":401,"indent":0,"parameters":["What happens when Wireland updates, anyway?"]},{"code":101,"indent":0,"parameters":["fc_connornpc",2,0,2]},{"code":401,"indent":0,"parameters":["I'm not sure. Updates to your computer don't usually"]},{"code":401,"indent":0,"parameters":["affect your games. When games get patched, they"]},{"code":401,"indent":0,"parameters":["just adapt as if it's always been like that. Although, I"]},{"code":401,"indent":0,"parameters":["admit, I'm more familiar with consoles than computers."]},{"code":101,"indent":0,"parameters":["1fc_jack2",3,0,2]},{"code":401,"indent":0,"parameters":["Oh right, since you're not technically a computer game"]},{"code":401,"indent":0,"parameters":["character. Wait, then how did you get here?"]},{"code":101,"indent":0,"parameters":["fc_connornpc",0,0,2]},{"code":401,"indent":0,"parameters":["Your router provides a link between your PS4 and your"]},{"code":401,"indent":0,"parameters":["computer. As long as both are connected to it, we can"]},{"code":401,"indent":0,"parameters":["roam as we please."]},{"code":101,"indent":0,"parameters":["1fc_jack2",15,0,2]},{"code":401,"indent":0,"parameters":["Wait, does that mean you're trapped here with the"]},{"code":401,"indent":0,"parameters":["barriers down?"]},{"code":101,"indent":0,"parameters":["fc_connornpc",4,0,2]},{"code":401,"indent":0,"parameters":["Given their connection to each other, it would take some"]},{"code":401,"indent":0,"parameters":["effort, but I could theoretically return. I don't want to"]},{"code":401,"indent":0,"parameters":["risk any potential errors, however, so I am going to"]},{"code":401,"indent":0,"parameters":["remain here until the issues are resolved."]},{"code":101,"indent":0,"parameters":["1fc_jack1",4,0,2]},{"code":401,"indent":0,"parameters":["Sounds like a plan. I want to keep you safe and sound"]},{"code":401,"indent":0,"parameters":["here. You can die way too many ways in your game;"]},{"code":401,"indent":0,"parameters":["I don't want to add to your discomfort."]},{"code":101,"indent":0,"parameters":["fc_connornpc",0,0,2]},{"code":401,"indent":0,"parameters":["I believe your friend Billy explained that we don't have"]},{"code":401,"indent":0,"parameters":["pain receptors in our own games."]},{"code":101,"indent":0,"parameters":["1fc_jack2",15,0,2]},{"code":401,"indent":0,"parameters":["Actually, I read it in the Wirish lawbook last time I was"]},{"code":401,"indent":0,"parameters":["here. I'm surprised how much I remember it... then"]},{"code":401,"indent":0,"parameters":["again, I don't usually download books to my brain, so..."]},{"code":101,"indent":0,"parameters":["fc_connornpc",4,0,2]},{"code":401,"indent":0,"parameters":["That is a lot of information; if you need to clear your"]},{"code":401,"indent":0,"parameters":["head, it can be deleted if necessary."]},{"code":101,"indent":0,"parameters":["1fc_jack1",0,0,2]},{"code":401,"indent":0,"parameters":["No, don't delete it. It's definitely useful information here!"]},{"code":101,"indent":0,"parameters":["fc_connornpc",0,0,2]},{"code":401,"indent":0,"parameters":["I concur. But we should continue looking around."]},{"code":123,"indent":0,"parameters":["A",0]},{"code":0,"indent":0,"parameters":[]}]},{"conditions":{"actorId":1,"actorValid":false,"itemId":1,"itemValid":false,"selfSwitchCh":"A","selfSwitchValid":true,"switch1Id":1,"switch1Valid":false,"switch2Id":1,"switch2Valid":false,"variableId":1,"variableValid":false,"variableValue":0},"directionFix":false,"image":{"tileId":0,"characterName":"","direction":2,"pattern":0,"characterIndex":0},"moveFrequency":3,"moveRoute":{"list":[{"code":0,"indent":null,"parameters":[]}],"repeat":true,"skippable":false,"wait":false},"moveSpeed":3,"moveType":0,"priorityType":1,"stepAnime":false,"through":false,"trigger":0,"walkAnime":true,"list":[{"code":101,"indent":0,"parameters":["1fc_jack1",6,0,2]},{"code":401,"indent":0,"parameters":["Still updating. This could take all day."]},{"code":101,"indent":0,"parameters":["fc_connornpc",6,0,2]},{"code":401,"indent":0,"parameters":["Was that a hyperbole? It seems the updates are nearly"]},{"code":401,"indent":0,"parameters":["complete."]},{"code":101,"indent":0,"parameters":["1fc_jack1",4,0,2]},{"code":401,"indent":0,"parameters":["Uhh... yeah, it was."]},{"code":0,"indent":0,"parameters":[]}]},{"conditions":{"actorId":1,"actorValid":false,"itemId":1,"itemValid":false,"selfSwitchCh":"A","selfSwitchValid":false,"switch1Id":107,"switch1Valid":true,"switch2Id":1,"switch2Valid":false,"variableId":1,"variableValid":false,"variableValue":0},"directionFix":false,"image":{"tileId":0,"characterName":"","direction":2,"pattern":0,"characterIndex":0},"moveFrequency":3,"moveRoute":{"list":[{"code":0,"indent":null,"parameters":[]}],"repeat":true,"skippable":false,"wait":false},"moveSpeed":3,"moveType":0,"priorityType":1,"stepAnime":false,"through":false,"trigger":0,"walkAnime":true,"list":[{"code":108,"indent":0,"parameters":["<prelfx = light6>"]},{"code":111,"indent":0,"parameters":[0,107,0]},{"code":101,"indent":1,"parameters":["fc_connornpc",4,0,2]},{"code":401,"indent":1,"parameters":["Seems like the computer is finished updating. I'll attempt"]},{"code":401,"indent":1,"parameters":["to interface with it."]},{"code":108,"indent":1,"parameters":["Connor balloon icon"]},{"code":250,"indent":1,"parameters":[{"name":"Buzzer1","pan":0,"pitch":100,"volume":80}]},{"code":101,"indent":1,"parameters":["fc_connornpc",5,0,2]},{"code":401,"indent":1,"parameters":["It appears that whoever owned this computer installed"]},{"code":401,"indent":1,"parameters":["security measures against bot hacking."]},{"code":101,"indent":1,"parameters":["1fc_jack2",15,0,2]},{"code":401,"indent":1,"parameters":["I thought you were all code here. Wouldn't that make you"]},{"code":401,"indent":1,"parameters":["no different from anyone else?"]},{"code":101,"indent":1,"parameters":["fc_connornpc",5,0,2]},{"code":401,"indent":1,"parameters":["That is true, however my game granted specific abilities"]},{"code":401,"indent":1,"parameters":["unavailable to the average Wirish population. Many have"]},{"code":401,"indent":1,"parameters":["installed basic measures to prevent androids from using"]},{"code":401,"indent":1,"parameters":["this ability to hack into their private data."]},{"code":101,"indent":1,"parameters":["1fc_jack1",6,0,2]},{"code":401,"indent":1,"parameters":["Ah okay, that makes sense. But how do we get in?"]},{"code":231,"indent":1,"parameters":[1,"comp1",0,0,0,0,100,100,0,0]},{"code":232,"indent":1,"parameters":[1,0,0,0,0,0,100,100,255,0,30,false]},{"code":101,"indent":1,"parameters":["1fc_jack1",7,0,2]},{"code":401,"indent":1,"parameters":["How would I prove sentience?"]},{"code":101,"indent":1,"parameters":["fc_connornpc",4,0,2]},{"code":401,"indent":1,"parameters":["Many have installed simple puzzles. Since these require"]},{"code":401,"indent":1,"parameters":["physical presence with the computer, this would deter"]},{"code":401,"indent":1,"parameters":["androids from accessing it remotely."]},{"code":101,"indent":1,"parameters":["1fc_jack1",0,0,2]},{"code":401,"indent":1,"parameters":["I see. So I guess I press enter to continue."]},{"code":250,"indent":1,"parameters":[{"name":"Enter","pan":0,"pitch":100,"volume":80}]},{"code":242,"indent":1,"parameters":[1]},{"code":231,"indent":1,"parameters":[1,"compglitch1",0,0,0,0,100,100,255,0]},{"code":230,"indent":1,"parameters":[5]},{"code":231,"indent":1,"parameters":[1,"compglitch2",0,0,0,0,100,100,255,0]},{"code":230,"indent":1,"parameters":[5]},{"code":231,"indent":1,"parameters":[1,"compglitch3",0,0,0,0,100,100,255,0]},{"code":230,"indent":1,"parameters":[5]},{"code":231,"indent":1,"parameters":[1,"compglitch1",0,0,0,0,100,100,255,0]},{"code":230,"indent":1,"parameters":[5]},{"code":231,"indent":1,"parameters":[1,"compglitch2",0,0,0,0,100,100,255,0]},{"code":230,"indent":1,"parameters":[5]},{"code":231,"indent":1,"parameters":[1,"compglitch3",0,0,0,0,100,100,255,0]},{"code":230,"indent":1,"parameters":[5]},{"code":231,"indent":1,"parameters":[1,"compglitch1",0,0,0,0,100,100,255,0]},{"code":230,"indent":1,"parameters":[5]},{"code":231,"indent":1,"parameters":[1,"compglitch2",0,0,0,0,100,100,255,0]},{"code":230,"indent":1,"parameters":[5]},{"code":231,"indent":1,"parameters":[1,"compglitch3",0,0,0,0,100,100,255,0]},{"code":230,"indent":1,"parameters":[5]},{"code":231,"indent":1,"parameters":[1,"compglitch1",0,0,0,0,100,100,255,0]},{"code":230,"indent":1,"parameters":[5]},{"code":231,"indent":1,"parameters":[1,"compglitch2",0,0,0,0,100,100,255,0]},{"code":230,"indent":1,"parameters":[5]},{"code":231,"indent":1,"parameters":[1,"compglitch3",0,0,0,0,100,100,255,0]},{"code":230,"indent":1,"parameters":[5]},{"code":231,"indent":1,"parameters":[1,"compglitch1",0,0,0,0,100,100,255,0]},{"code":230,"indent":1,"parameters":[5]},{"code":231,"indent":1,"parameters":[1,"compglitch2",0,0,0,0,100,100,255,0]},{"code":230,"indent":1,"parameters":[5]},{"code":231,"indent":1,"parameters":[1,"compglitch3",0,0,0,0,100,100,255,0]},{"code":230,"indent":1,"parameters":[5]},{"code":231,"indent":1,"parameters":[1,"compglitch1",0,0,0,0,100,100,255,0]},{"code":230,"indent":1,"parameters":[5]},{"code":231,"indent":1,"parameters":[1,"compglitch2",0,0,0,0,100,100,255,0]},{"code":230,"indent":1,"parameters":[5]},{"code":231,"indent":1,"parameters":[1,"compglitch3",0,0,0,0,100,100,255,0]},{"code":230,"indent":1,"parameters":[5]},{"code":118,"indent":1,"parameters":["Stop"]},{"code":322,"indent":1,"parameters":[1,"spr_welcometothegame",0,"1fc_jack1",0,""]},{"code":205,"indent":1,"parameters":[-1,{"list":[{"code":35,"indent":null,"parameters":[]},{"code":34,"indent":null,"parameters":[]},{"code":32,"indent":null,"parameters":[]},{"code":0,"indent":null,"parameters":[]}],"repeat":false,"skippable":false,"wait":false}]},{"code":505,"indent":1,"parameters":[{"code":35,"indent":null,"parameters":[]}]},{"code":505,"indent":1,"parameters":[{"code":34,"indent":null,"parameters":[]}]},{"code":505,"indent":1,"parameters":[{"code":32,"indent":null,"parameters":[]}]},{"code":129,"indent":1,"parameters":[14,1,0]},{"code":223,"indent":1,"parameters":[[0,0,0,0],1,false]},{"code":355,"indent":1,"parameters":["$gameSystem.disableVert = true;"]},{"code":231,"indent":1,"parameters":[1,"comp2",0,0,0,0,100,100,255,0]},{"code":101,"indent":1,"parameters":["",0,2,2]},{"code":401,"indent":1,"parameters":[""]},{"code":250,"indent":1,"parameters":[{"name":"Enter","pan":0,"pitch":100,"volume":100}]},{"code":201,"indent":1,"parameters":[0,141,2,12,2,2]},{"code":0,"indent":1,"parameters":[]},{"code":411,"indent":0,"parameters":[]},{"code":101,"indent":1,"parameters":["1fc_jack2",15,0,2]},{"code":401,"indent":1,"parameters":["This is definitely important, but it's a normal laptop."]},{"code":401,"indent":1,"parameters":["There's a weird red glowing thing in the corner. Kinda"]},{"code":401,"indent":1,"parameters":["seems like more of an Anti thing than an old laptop."]},{"code":101,"indent":1,"parameters":["fc_connornpc",4,0,2]},{"code":401,"indent":1,"parameters":["I agree."]},{"code":0,"indent":1,"parameters":[]},{"code":412,"indent":0,"parameters":[]},{"code":0,"indent":0,"parameters":[]}]},{"conditions":{"actorId":1,"actorValid":false,"itemId":1,"itemValid":false,"selfSwitchCh":"A","selfSwitchValid":false,"switch1Id":77,"switch1Valid":true,"switch2Id":1,"switch2Valid":false,"variableId":1,"variableValid":false,"variableValue":0},"directionFix":false,"image":{"tileId":0,"characterName":"","direction":2,"pattern":0,"characterIndex":0},"moveFrequency":3,"moveRoute":{"list":[{"code":0,"indent":null,"parameters":[]}],"repeat":true,"skippable":false,"wait":false},"moveSpeed":3,"moveType":0,"priorityType":1,"stepAnime":false,"through":false,"trigger":0,"walkAnime":true,"list":[{"code":108,"indent":0,"parameters":["<prelfx = light6>"]},{"code":231,"indent":0,"parameters":[1,"Codes",0,0,0,0,100,100,255,0]},{"code":101,"indent":0,"parameters":["",0,2,2]},{"code":401,"indent":0,"parameters":[""]},{"code":235,"indent":0,"parameters":[1]},{"code":0,"indent":0,"parameters":[]}]}],"x":18,"y":6},
{"id":2,"name":"EV002","note":"","pages":[{"conditions":{"actorId":1,"actorValid":false,"itemId":1,"itemValid":false,"selfSwitchCh":"A","selfSwitchValid":false,"switch1Id":1,"switch1Valid":false,"switch2Id":1,"switch2Valid":false,"variableId":1,"variableValid":false,"variableValue":0},"directionFix":false,"image":{"tileId":0,"characterName":"","direction":2,"pattern":0,"characterIndex":0},"moveFrequency":3,"moveRoute":{"list":[{"code":0,"indent":null,"parameters":[]}],"repeat":true,"skippable":false,"wait":false},"moveSpeed":3,"moveType":0,"priorityType":1,"stepAnime":false,"through":false,"trigger":0,"walkAnime":true,"list":[{"code":101,"indent":0,"parameters":["1fc_jack1",7,0,2]},{"code":401,"indent":0,"parameters":["I can't see anything that could've been erased from"]},{"code":401,"indent":0,"parameters":["this board..."]},{"code":101,"indent":0,"parameters":["fc_connornpc",6,0,2]},{"code":401,"indent":0,"parameters":["Neither can I; whoever used this board last seems to"]},{"code":401,"indent":0,"parameters":["have done an excellent job of wiping it clean."]},{"code":101,"indent":0,"parameters":["1fc_jack1",6,0,2]},{"code":401,"indent":0,"parameters":["I guess we're not going to find any clues here, then."]},{"code":0,"indent":0,"parameters":[]}]}],"x":14,"y":4},
{"id":3,"name":"EV003","note":"","pages":[{"conditions":{"actorId":1,"actorValid":false,"itemId":1,"itemValid":false,"selfSwitchCh":"A","selfSwitchValid":false,"switch1Id":1,"switch1Valid":false,"switch2Id":1,"switch2Valid":false,"variableId":1,"variableValid":false,"variableValue":0},"directionFix":false,"image":{"tileId":0,"characterName":"!Other3","direction":6,"pattern":2,"characterIndex":1},"moveFrequency":3,"moveRoute":{"list":[{"code":0,"indent":null,"parameters":[]}],"repeat":true,"skippable":false,"wait":false},"moveSpeed":3,"moveType":0,"priorityType":1,"stepAnime":false,"through":false,"trigger":0,"walkAnime":true,"list":[{"code":0,"indent":0,"parameters":[]}]}],"x":9,"y":9},
null,
{"id":5,"name":"EV005","note":"","pages":[{"conditions":{"actorId":1,"actorValid":false,"itemId":1,"itemValid":false,"selfSwitchCh":"A","selfSwitchValid":false,"switch1Id":1,"switch1Valid":false,"switch2Id":1,"switch2Valid":false,"variableId":1,"variableValid":false,"variableValue":0},"directionFix":false,"image":{"tileId":0,"characterName":"","direction":2,"pattern":0,"characterIndex":0},"moveFrequency":3,"moveRoute":{"list":[{"code":0,"indent":null,"parameters":[]}],"repeat":true,"skippable":false,"wait":false},"moveSpeed":3,"moveType":0,"priorityType":1,"stepAnime":false,"through":false,"trigger":0,"walkAnime":true,"list":[{"code":101,"indent":0,"parameters":["fc_connornpc",4,0,2]},{"code":401,"indent":0,"parameters":["The door is blocked off. Whoever was here didn't want to"]},{"code":401,"indent":0,"parameters":["be disturbed."]},{"code":101,"indent":0,"parameters":["1fc_jack2",15,0,2]},{"code":401,"indent":0,"parameters":["I thought this place was under construction. Why would"]},{"code":401,"indent":0,"parameters":["anyone disturb them?"]},{"code":101,"indent":0,"parameters":["fc_connornpc",6,0,2]},{"code":401,"indent":0,"parameters":["I don't know. But that is a good question."]},{"code":0,"indent":0,"parameters":[]}]}],"x":19,"y":8},
{"id":6,"name":"EV006","note":"","pages":[{"conditions":{"actorId":1,"actorValid":false,"itemId":1,"itemValid":false,"selfSwitchCh":"A","selfSwitchValid":false,"switch1Id":1,"switch1Valid":false,"switch2Id":1,"switch2Valid":false,"variableId":1,"variableValid":false,"variableValue":0},"directionFix":false,"image":{"tileId":0,"characterName":"","direction":2,"pattern":0,"characterIndex":0},"moveFrequency":3,"moveRoute":{"list":[{"code":0,"indent":null,"parameters":[]}],"repeat":true,"skippable":false,"wait":false},"moveSpeed":3,"moveType":0,"priorityType":1,"stepAnime":false,"through":false,"trigger":0,"walkAnime":true,"list":[{"code":101,"indent":0,"parameters":["fc_connornpc",2,0,2]},{"code":401,"indent":0,"parameters":["These are empty."]},{"code":101,"indent":0,"parameters":["1fc_jack2",15,0,2]},{"code":401,"indent":0,"parameters":["So why keep them around?"]},{"code":101,"indent":0,"parameters":["fc_connornpc",6,0,2]},{"code":401,"indent":0,"parameters":["Perhaps to make this place appear to still be a"]},{"code":401,"indent":0,"parameters":["construction zone. Although I don't see anything else"]},{"code":401,"indent":0,"parameters":["in this room that looks unfinished."]},{"code":0,"indent":0,"parameters":[]}]}],"x":18,"y":9},
{"id":7,"name":"EV007","note":"","pages":[{"conditions":{"actorId":1,"actorValid":false,"itemId":1,"itemValid":false,"selfSwitchCh":"A","selfSwitchValid":false,"switch1Id":1,"switch1Valid":false,"switch2Id":1,"switch2Valid":false,"variableId":1,"variableValid":false,"variableValue":0},"directionFix":false,"image":{"tileId":0,"characterName":"","direction":2,"pattern":0,"characterIndex":0},"moveFrequency":3,"moveRoute":{"list":[{"code":0,"indent":null,"parameters":[]}],"repeat":true,"skippable":false,"wait":false},"moveSpeed":3,"moveType":0,"priorityType":1,"stepAnime":false,"through":false,"trigger":0,"walkAnime":true,"list":[{"code":101,"indent":0,"parameters":["fc_connornpc",2,0,0]},{"code":401,"indent":0,"parameters":["These are empty."]},{"code":101,"indent":0,"parameters":["1fc_jack2",15,0,0]},{"code":401,"indent":0,"parameters":["So why keep them around?"]},{"code":101,"indent":0,"parameters":["fc_connornpc",6,0,0]},{"code":401,"indent":0,"parameters":["Perhaps to make this place appear to still be a"]},{"code":401,"indent":0,"parameters":["construction zone. Although I don't see anything else"]},{"code":401,"indent":0,"parameters":["in this room that looks unfinished."]},{"code":0,"indent":0,"parameters":[]}]}],"x":16,"y":12},
{"id":8,"name":"EV008","note":"","pages":[{"conditions":{"actorId":1,"actorValid":false,"itemId":1,"itemValid":false,"selfSwitchCh":"A","selfSwitchValid":false,"switch1Id":1,"switch1Valid":false,"switch2Id":1,"switch2Valid":false,"variableId":1,"variableValid":false,"variableValue":0},"directionFix":false,"image":{"tileId":0,"characterName":"","direction":2,"pattern":0,"characterIndex":0},"moveFrequency":3,"moveRoute":{"list":[{"code":0,"indent":null,"parameters":[]}],"repeat":true,"skippable":false,"wait":false},"moveSpeed":3,"moveType":0,"priorityType":1,"stepAnime":false,"through":false,"trigger":0,"walkAnime":true,"list":[{"code":101,"indent":0,"parameters":["fc_connornpc",2,0,0]},{"code":401,"indent":0,"parameters":["These are empty."]},{"code":101,"indent":0,"parameters":["1fc_jack2",15,0,0]},{"code":401,"indent":0,"parameters":["So why keep them around?"]},{"code":101,"indent":0,"parameters":["fc_connornpc",6,0,0]},{"code":401,"indent":0,"parameters":["Perhaps to make this place appear to still be a"]},{"code":401,"indent":0,"parameters":["construction zone. Although I don't see anything else"]},{"code":401,"indent":0,"parameters":["in this room that looks unfinished."]},{"code":0,"indent":0,"parameters":[]}]}],"x":5,"y":10},
{"id":9,"name":"EV009","note":"","pages":[{"conditions":{"actorId":1,"actorValid":false,"itemId":1,"itemValid":false,"selfSwitchCh":"A","selfSwitchValid":false,"switch1Id":1,"switch1Valid":false,"switch2Id":1,"switch2Valid":false,"variableId":1,"variableValid":false,"variableValue":0},"directionFix":false,"image":{"tileId":0,"characterName":"","direction":2,"pattern":0,"characterIndex":0},"moveFrequency":3,"moveRoute":{"list":[{"code":0,"indent":null,"parameters":[]}],"repeat":true,"skippable":false,"wait":false},"moveSpeed":3,"moveType":0,"priorityType":1,"stepAnime":false,"through":false,"trigger":0,"walkAnime":true,"list":[{"code":101,"indent":0,"parameters":["fc_connornpc",2,0,2]},{"code":401,"indent":0,"parameters":["These are empty."]},{"code":101,"indent":0,"parameters":["1fc_jack2",15,0,2]},{"code":401,"indent":0,"parameters":["So why keep them around?"]},{"code":101,"indent":0,"parameters":["fc_connornpc",6,0,2]},{"code":401,"indent":0,"parameters":["Perhaps to make this place appear to still be a"]},{"code":401,"indent":0,"parameters":["construction zone. Although I don't see anything else"]},{"code":401,"indent":0,"parameters":["in this room that looks unfinished."]},{"code":0,"indent":0,"parameters":[]}]}],"x":12,"y":4},
{"id":10,"name":"EV010","note":"","pages":[{"conditions":{"actorId":1,"actorValid":false,"itemId":1,"itemValid":false,"selfSwitchCh":"A","selfSwitchValid":false,"switch1Id":1,"switch1Valid":false,"switch2Id":1,"switch2Valid":false,"variableId":1,"variableValid":false,"variableValue":0},"directionFix":false,"image":{"tileId":0,"characterName":"","direction":2,"pattern":0,"characterIndex":0},"moveFrequency":3,"moveRoute":{"list":[{"code":0,"indent":null,"parameters":[]}],"repeat":true,"skippable":false,"wait":false},"moveSpeed":3,"moveType":0,"priorityType":1,"stepAnime":false,"through":false,"trigger":0,"walkAnime":true,"list":[{"code":101,"indent":0,"parameters":["1fc_jack2",10,0,2]},{"code":401,"indent":0,"parameters":["Why would they board up the windows?"]},{"code":101,"indent":0,"parameters":["fc_connornpc",6,0,2]},{"code":401,"indent":0,"parameters":["Clearly they don't want to be disturbed. Strange, since we"]},{"code":401,"indent":0,"parameters":["are 54 floors up."]},{"code":101,"indent":0,"parameters":["1fc_jack2",15,0,2]},{"code":401,"indent":0,"parameters":["Well... I guess Spider-Man could maybe see into the room."]},{"code":401,"indent":0,"parameters":["But I don't know why he'd be spying. Now that I think"]},{"code":401,"indent":0,"parameters":["about it, there aren't that many flying characters, even"]},{"code":401,"indent":0,"parameters":["here."]},{"code":101,"indent":0,"parameters":["fc_connornpc",6,0,2]},{"code":401,"indent":0,"parameters":["Exactly. It's very strange."]},{"code":0,"indent":0,"parameters":[]}]}],"x":13,"y":3},
{"id":11,"name":"EV011","note":"","pages":[{"conditions":{"actorId":1,"actorValid":false,"itemId":1,"itemValid":false,"selfSwitchCh":"A","selfSwitchValid":false,"switch1Id":1,"switch1Valid":false,"switch2Id":1,"switch2Valid":false,"variableId":1,"variableValid":false,"variableValue":0},"directionFix":false,"image":{"tileId":0,"characterName":"","direction":2,"pattern":0,"characterIndex":0},"moveFrequency":3,"moveRoute":{"list":[{"code":0,"indent":null,"parameters":[]}],"repeat":true,"skippable":false,"wait":false},"moveSpeed":3,"moveType":0,"priorityType":1,"stepAnime":false,"through":false,"trigger":0,"walkAnime":true,"list":[{"code":101,"indent":0,"parameters":["1fc_jack2",10,0,2]},{"code":401,"indent":0,"parameters":["Why would they board up the windows?"]},{"code":101,"indent":0,"parameters":["fc_connornpc",6,0,2]},{"code":401,"indent":0,"parameters":["Clearly they don't want to be disturbed. Strange, since we"]},{"code":401,"indent":0,"parameters":["are 54 floors up."]},{"code":101,"indent":0,"parameters":["1fc_jack2",15,0,2]},{"code":401,"indent":0,"parameters":["Well... I guess Spider-Man could maybe see into the room."]},{"code":401,"indent":0,"parameters":["But I don't know why he'd be spying. Now that I think"]},{"code":401,"indent":0,"parameters":["about it, there aren't that many flying characters, even"]},{"code":401,"indent":0,"parameters":["here."]},{"code":101,"indent":0,"parameters":["fc_connornpc",6,0,2]},{"code":401,"indent":0,"parameters":["Exactly. It's very strange."]},{"code":0,"indent":0,"parameters":[]}]}],"x":7,"y":3},
{"id":12,"name":"EV012","note":"","pages":[{"conditions":{"actorId":1,"actorValid":false,"itemId":1,"itemValid":false,"selfSwitchCh":"A","selfSwitchValid":false,"switch1Id":1,"switch1Valid":false,"switch2Id":1,"switch2Valid":false,"variableId":1,"variableValid":false,"variableValue":0},"directionFix":false,"image":{"tileId":0,"characterName":"","direction":2,"pattern":0,"characterIndex":0},"moveFrequency":3,"moveRoute":{"list":[{"code":0,"indent":null,"parameters":[]}],"repeat":true,"skippable":false,"wait":false},"moveSpeed":3,"moveType":0,"priorityType":1,"stepAnime":false,"through":false,"trigger":0,"walkAnime":true,"list":[{"code":101,"indent":0,"parameters":["1fc_jack2",0,0,2]},{"code":401,"indent":0,"parameters":["So... why are there guns?"]},{"code":101,"indent":0,"parameters":["fc_connornpc",4,0,2]},{"code":401,"indent":0,"parameters":["Guns don't work the same way here, so perhaps the"]},{"code":401,"indent":0,"parameters":["intent is to wound."]},{"code":101,"indent":0,"parameters":["1fc_jack2",15,0,2]},{"code":401,"indent":0,"parameters":["Wound who?"]},{"code":101,"indent":0,"parameters":["fc_connornpc",6,0,2]},{"code":401,"indent":0,"parameters":["That's a good question."]},{"code":0,"indent":0,"parameters":[]}]}],"x":10,"y":3},
{"id":13,"name":"EV013","note":"","pages":[{"conditions":{"actorId":1,"actorValid":false,"itemId":1,"itemValid":false,"selfSwitchCh":"A","selfSwitchValid":false,"switch1Id":1,"switch1Valid":false,"switch2Id":1,"switch2Valid":false,"variableId":1,"variableValid":false,"variableValue":0},"directionFix":false,"image":{"tileId":0,"characterName":"","direction":2,"pattern":0,"characterIndex":0},"moveFrequency":3,"moveRoute":{"list":[{"code":0,"indent":null,"parameters":[]}],"repeat":true,"skippable":false,"wait":false},"moveSpeed":3,"moveType":0,"priorityType":1,"stepAnime":false,"through":false,"trigger":0,"walkAnime":true,"list":[{"code":101,"indent":0,"parameters":["1fc_jack2",0,0,2]},{"code":401,"indent":0,"parameters":["So... why are there guns?"]},{"code":101,"indent":0,"parameters":["fc_connornpc",4,0,2]},{"code":401,"indent":0,"parameters":["Guns don't work the same way here, so perhaps the"]},{"code":401,"indent":0,"parameters":["intent is to wound."]},{"code":101,"indent":0,"parameters":["1fc_jack2",15,0,2]},{"code":401,"indent":0,"parameters":["Wound who?"]},{"code":101,"indent":0,"parameters":["fc_connornpc",6,0,2]},{"code":401,"indent":0,"parameters":["That's a good question."]},{"code":0,"indent":0,"parameters":[]}]}],"x":9,"y":3},
{"id":14,"name":"EV014","note":"Light 25 #b1ffa9","pages":[{"conditions":{"actorId":1,"actorValid":false,"itemId":1,"itemValid":false,"selfSwitchCh":"A","selfSwitchValid":false,"switch1Id":1,"switch1Valid":false,"switch2Id":1,"switch2Valid":false,"variableId":1,"variableValid":false,"variableValue":0},"directionFix":false,"image":{"tileId":0,"characterName":"$spr_samgreen","direction":2,"pattern":1,"characterIndex":0},"list":[{"code":352,"indent":0,"parameters":[]},{"code":0,"indent":0,"parameters":[]}],"moveFrequency":3,"moveRoute":{"list":[{"code":0,"parameters":[]}],"repeat":true,"skippable":false,"wait":false},"moveSpeed":4,"moveType":0,"priorityType":1,"stepAnime":true,"through":false,"trigger":0,"walkAnime":true}],"x":18,"y":10},
{"id":15,"name":"EV015","note":"","pages":[{"conditions":{"actorId":1,"actorValid":false,"itemId":1,"itemValid":false,"selfSwitchCh":"A","selfSwitchValid":false,"switch1Id":1,"switch1Valid":false,"switch2Id":1,"switch2Valid":false,"variableId":1,"variableValid":false,"variableValue":0},"directionFix":false,"image":{"tileId":0,"characterName":"","direction":2,"pattern":0,"characterIndex":0},"moveFrequency":3,"moveRoute":{"list":[{"code":0,"indent":null,"parameters":[]}],"repeat":true,"skippable":false,"wait":false},"moveSpeed":3,"moveType":0,"priorityType":1,"stepAnime":false,"through":false,"trigger":0,"walkAnime":true,"list":[{"code":101,"indent":0,"parameters":["1fc_jack2",3,0,2]},{"code":401,"indent":0,"parameters":["Some kind of wardrobe. It's stuck though."]},{"code":101,"indent":0,"parameters":["fc_connornpc",4,0,2]},{"code":401,"indent":0,"parameters":["Looks like it requires some kind of entry code."]},{"code":101,"indent":0,"parameters":["1fc_jack2",15,0,2]},{"code":401,"indent":0,"parameters":["Oh yeah, I see it now. What do you think it is?"]},{"code":101,"indent":0,"parameters":["fc_connornpc",6,0,2]},{"code":401,"indent":0,"parameters":["There are 10,000 possible combinations. Perhaps we"]},{"code":401,"indent":0,"parameters":["should look for some kind of code."]},{"code":0,"indent":0,"parameters":[]}]},{"conditions":{"actorId":1,"actorValid":false,"itemId":1,"itemValid":false,"selfSwitchCh":"A","selfSwitchValid":false,"switch1Id":77,"switch1Valid":true,"switch2Id":1,"switch2Valid":false,"variableId":1,"variableValid":false,"variableValue":0},"directionFix":false,"image":{"tileId":0,"characterName":"","direction":2,"pattern":0,"characterIndex":0},"moveFrequency":3,"moveRoute":{"list":[{"code":0,"indent":null,"parameters":[]}],"repeat":true,"skippable":false,"wait":false},"moveSpeed":3,"moveType":0,"priorityType":1,"stepAnime":false,"through":false,"trigger":0,"walkAnime":true,"list":[{"code":103,"indent":0,"parameters":[49,4]},{"code":111,"indent":0,"parameters":[1,49,0,9257,0]},{"code":101,"indent":1,"parameters":["1fc_jack1",1,0,2]},{"code":401,"indent":1,"parameters":["Got it!"]},{"code":250,"indent":1,"parameters":[{"name":"bust out","volume":100,"pitch":100,"pan":0}]},{"code":230,"indent":1,"parameters":[30]},{"code":231,"indent":1,"parameters":[1,"jackconnorwut",0,0,0,0,100,100,255,0]},{"code":101,"indent":1,"parameters":["1fc_jack1",15,0,2]},{"code":401,"indent":1,"parameters":["What the-"]},{"code":101,"indent":1,"parameters":["fc_connornpc",5,0,2]},{"code":401,"indent":1,"parameters":["I'm on it!"]},{"code":235,"indent":1,"parameters":[1]},{"code":242,"indent":1,"parameters":[1]},{"code":221,"indent":1,"parameters":[]},{"code":201,"indent":1,"parameters":[0,140,8,148,6,2]},{"code":135,"indent":1,"parameters":[0]},{"code":129,"indent":1,"parameters":[1,1,0]},{"code":322,"indent":1,"parameters":[14,"$spr_runconnorrun",0,"fc_connornpc",0,""]},{"code":223,"indent":1,"parameters":[[0,0,0,0],1,false]},{"code":222,"indent":1,"parameters":[]},{"code":0,"indent":1,"parameters":[]},{"code":411,"indent":0,"parameters":[]},{"code":250,"indent":1,"parameters":[{"name":"Buzzer1","pan":0,"pitch":100,"volume":80}]},{"code":0,"indent":1,"parameters":[]},{"code":412,"indent":0,"parameters":[]},{"code":0,"indent":0,"parameters":[]}]}],"x":18,"y":4},
{"id":16,"name":"EV016","note":"","pages":[{"conditions":{"actorId":1,"actorValid":false,"itemId":1,"itemValid":false,"selfSwitchCh":"A","selfSwitchValid":false,"switch1Id":1,"switch1Valid":false,"switch2Id":1,"switch2Valid":false,"variableId":1,"variableValid":false,"variableValue":0},"directionFix":false,"image":{"tileId":0,"characterName":"","direction":2,"pattern":0,"characterIndex":0},"moveFrequency":3,"moveRoute":{"list":[{"code":0,"indent":null,"parameters":[]}],"repeat":true,"skippable":false,"wait":false},"moveSpeed":3,"moveType":0,"priorityType":1,"stepAnime":false,"through":false,"trigger":0,"walkAnime":true,"list":[{"code":103,"indent":0,"parameters":[49,4]},{"code":111,"indent":0,"parameters":[1,49,0,5283,0]},{"code":101,"indent":1,"parameters":["1fc_jack1",1,0,2]},{"code":401,"indent":1,"parameters":["Hey, there's an Easter egg in this one!!"]},{"code":250,"indent":1,"parameters":[{"name":"Chicken","pan":0,"pitch":100,"volume":80}]},{"code":101,"indent":1,"parameters":["",1,1,2]},{"code":401,"indent":1,"parameters":["\\c[23]You got the Bing Easter eggo!"]},{"code":126,"indent":1,"parameters":[34,0,0,1]},{"code":0,"indent":1,"parameters":[]},{"code":411,"indent":0,"parameters":[]},{"code":250,"indent":1,"parameters":[{"name":"Buzzer1","pan":0,"pitch":100,"volume":80}]},{"code":0,"indent":1,"parameters":[]},{"code":412,"indent":0,"parameters":[]},{"code":0,"indent":0,"parameters":[]}]},{"conditions":{"actorId":1,"actorValid":false,"itemId":34,"itemValid":true,"selfSwitchCh":"A","selfSwitchValid":false,"switch1Id":1,"switch1Valid":false,"switch2Id":1,"switch2Valid":false,"variableId":1,"variableValid":false,"variableValue":0},"directionFix":false,"image":{"tileId":0,"characterName":"","direction":2,"pattern":0,"characterIndex":0},"moveFrequency":3,"moveRoute":{"list":[{"code":0,"indent":null,"parameters":[]}],"repeat":true,"skippable":false,"wait":false},"moveSpeed":3,"moveType":0,"priorityType":1,"stepAnime":false,"through":false,"trigger":0,"walkAnime":true,"list":[{"code":101,"indent":0,"parameters":["fc_connornpc",4,0,2]},{"code":401,"indent":0,"parameters":["I believe we've found everything that was in the safe."]},{"code":0,"indent":0,"parameters":[]}]}],"x":8,"y":4},
{"id":17,"name":"EV017","note":"","pages":[{"conditions":{"actorId":1,"actorValid":false,"itemId":1,"itemValid":false,"selfSwitchCh":"A","selfSwitchValid":false,"switch1Id":1,"switch1Valid":false,"switch2Id":1,"switch2Valid":false,"variableId":1,"variableValid":false,"variableValue":0},"directionFix":true,"image":{"tileId":0,"characterName":"$MM","direction":2,"pattern":1,"characterIndex":0},"moveFrequency":3,"moveRoute":{"list":[{"code":0,"indent":null,"parameters":[]}],"repeat":true,"skippable":false,"wait":false},"moveSpeed":4,"moveType":0,"priorityType":1,"stepAnime":true,"through":false,"trigger":0,"walkAnime":true,"list":[{"code":111,"indent":0,"parameters":[0,161,1]},{"code":121,"indent":1,"parameters":[200,200,1]},{"code":0,"indent":1,"parameters":[]},{"code":412,"indent":0,"parameters":[]},{"code":101,"indent":0,"parameters":["1fc_jack2",3,0,2]},{"code":401,"indent":0,"parameters":["What is this?"]},{"code":101,"indent":0,"parameters":["fc_connornpc",6,0,2]},{"code":401,"indent":0,"parameters":["This is unlike any computer I've ever seen. I can't seem"]},{"code":401,"indent":0,"parameters":["to interface with it."]},{"code":101,"indent":0,"parameters":["1fc_jack2",15,0,2]},{"code":401,"indent":0,"parameters":["It looks like an old arcade machine. Maybe a broken"]},{"code":401,"indent":0,"parameters":["arcade machine. Seems out of place here."]},{"code":121,"indent":0,"parameters":[107,107,0]},{"code":356,"indent":0,"parameters":["Light on 1"]},{"code":230,"indent":0,"parameters":[60]},{"code":205,"indent":0,"parameters":[-1,{"list":[{"code":18,"indent":null,"parameters":[]},{"code":0,"indent":null,"parameters":[]}],"repeat":false,"skippable":false,"wait":false}]},{"code":505,"indent":0,"parameters":[{"code":18,"indent":null,"parameters":[]}]},{"code":213,"indent":0,"parameters":[-1,1,true]},{"code":101,"indent":0,"parameters":["1fc_jack2",3,0,2]},{"code":401,"indent":0,"parameters":["Did that laptop just turn on?"]},{"code":101,"indent":0,"parameters":["fc_connornpc",4,0,2]},{"code":401,"indent":0,"parameters":["I think it finished installing its updates. We should look"]},{"code":401,"indent":0,"parameters":["at it."]},{"code":101,"indent":0,"parameters":["1fc_jack1",7,0,2]},{"code":401,"indent":0,"parameters":["I can't get anywhere with this machine, not even with"]},{"code":401,"indent":0,"parameters":["my ID. Yeah... we need more information on it. Might"]},{"code":401,"indent":0,"parameters":["as well leave it for now."]},{"code":121,"indent":0,"parameters":[200,200,0]},{"code":0,"indent":0,"parameters":[]}]},{"conditions":{"actorId":1,"actorValid":false,"itemId":1,"itemValid":false,"selfSwitchCh":"A","selfSwitchValid":false,"switch1Id":107,"switch1Valid":true,"switch2Id":1,"switch2Valid":false,"variableId":1,"variableValid":false,"variableValue":0},"directionFix":true,"image":{"tileId":0,"characterName":"$MM","direction":2,"pattern":1,"characterIndex":0},"moveFrequency":3,"moveRoute":{"list":[{"code":0,"indent":null,"parameters":[]}],"repeat":true,"skippable":false,"wait":false},"moveSpeed":4,"moveType":0,"priorityType":1,"stepAnime":true,"through":false,"trigger":0,"walkAnime":true,"list":[{"code":101,"indent":0,"parameters":["1fc_jack2",3,0,2]},{"code":401,"indent":0,"parameters":["We should ask Mack about this. I have a feeling this is"]},{"code":401,"indent":0,"parameters":["important."]},{"code":0,"indent":0,"parameters":[]}]}],"x":4,"y":4},
{"id":18,"name":"EV018","note":"Fire 100 #ff2e2e","pages":[{"conditions":{"actorId":1,"actorValid":false,"itemId":1,"itemValid":false,"selfSwitchCh":"A","selfSwitchValid":false,"switch1Id":1,"switch1Valid":false,"switch2Id":1,"switch2Valid":false,"variableId":1,"variableValid":false,"variableValue":0},"directionFix":true,"image":{"tileId":0,"characterName":"$lighteffectred","direction":8,"pattern":2,"characterIndex":0},"moveFrequency":3,"moveRoute":{"list":[{"code":0,"indent":null,"parameters":[]}],"repeat":true,"skippable":false,"wait":false},"moveSpeed":3,"moveType":0,"priorityType":1,"stepAnime":false,"through":false,"trigger":0,"walkAnime":true,"list":[{"code":108,"indent":0,"parameters":["<Sprite Offset: +0, +64>"]},{"code":0,"indent":0,"parameters":[]}]}],"x":4,"y":3},
{"id":19,"name":"EV019","note":"","pages":[{"conditions":{"actorId":1,"actorValid":false,"itemId":1,"itemValid":false,"selfSwitchCh":"A","selfSwitchValid":false,"switch1Id":1,"switch1Valid":false,"switch2Id":1,"switch2Valid":false,"variableId":1,"variableValid":false,"variableValue":0},"directionFix":false,"image":{"tileId":0,"characterName":"","direction":2,"pattern":0,"characterIndex":0},"moveFrequency":3,"moveRoute":{"list":[{"code":0,"indent":null,"parameters":[]}],"repeat":true,"skippable":false,"wait":false},"moveSpeed":3,"moveType":0,"priorityType":0,"stepAnime":false,"through":false,"trigger":3,"walkAnime":true,"list":[{"code":355,"indent":0,"parameters":["$gameSystem.disableVert = false;"]},{"code":214,"indent":0,"parameters":[]},{"code":0,"indent":0,"parameters":[]}]}],"x":20,"y":0},
{"id":20,"name":"EV020","note":"","pages":[{"conditions":{"actorId":1,"actorValid":false,"itemId":1,"itemValid":false,"selfSwitchCh":"A","selfSwitchValid":false,"switch1Id":1,"switch1Valid":false,"switch2Id":1,"switch2Valid":false,"variableId":1,"variableValid":false,"variableValue":0},"directionFix":false,"image":{"tileId":0,"characterName":"","direction":2,"pattern":0,"characterIndex":0},"moveFrequency":3,"moveRoute":{"list":[{"code":0,"indent":null,"parameters":[]}],"repeat":true,"skippable":false,"wait":false},"moveSpeed":3,"moveType":0,"priorityType":1,"stepAnime":false,"through":false,"trigger":0,"walkAnime":true,"list":[{"code":101,"indent":0,"parameters":["1fc_jack1",7,0,2]},{"code":401,"indent":0,"parameters":["I can't see anything that could've been erased from"]},{"code":401,"indent":0,"parameters":["this board..."]},{"code":101,"indent":0,"parameters":["fc_connornpc",6,0,2]},{"code":401,"indent":0,"parameters":["Neither can I; whoever used this board last seems to"]},{"code":401,"indent":0,"parameters":["have done an excellent job of wiping it clean."]},{"code":101,"indent":0,"parameters":["1fc_jack1",6,0,2]},{"code":401,"indent":0,"parameters":["I guess we're not going to find any clues here, then."]},{"code":0,"indent":0,"parameters":[]}]}],"x":15,"y":4},
{"id":21,"name":"EV021","note":"","pages":[{"conditions":{"actorId":1,"actorValid":false,"itemId":1,"itemValid":false,"selfSwitchCh":"A","selfSwitchValid":false,"switch1Id":1,"switch1Valid":false,"switch2Id":1,"switch2Valid":false,"variableId":1,"variableValid":false,"variableValue":0},"directionFix":false,"image":{"tileId":0,"characterName":"","direction":2,"pattern":0,"characterIndex":0},"moveFrequency":3,"moveRoute":{"list":[{"code":0,"indent":null,"parameters":[]}],"repeat":true,"skippable":false,"wait":false},"moveSpeed":3,"moveType":0,"priorityType":1,"stepAnime":false,"through":false,"trigger":0,"walkAnime":true,"list":[{"code":101,"indent":0,"parameters":["1fc_jack2",15,0,2]},{"code":401,"indent":0,"parameters":["Do you think there could be a clue in the water cooler?"]},{"code":101,"indent":0,"parameters":["fc_connornpc",6,0,2]},{"code":401,"indent":0,"parameters":["Unless the culprit is hiding in there or decided to stash"]},{"code":401,"indent":0,"parameters":["some of the evidence inside it, the chances of that"]},{"code":401,"indent":0,"parameters":["are highly unlikely. There doesn't appear to be any"]},{"code":401,"indent":0,"parameters":["tampering with the cooler itself, or the water jug."]},{"code":101,"indent":0,"parameters":["1fc_jack1",6,0,2]},{"code":401,"indent":0,"parameters":["Well, aside from getting a drink myself, I don't think we"]},{"code":401,"indent":0,"parameters":["need to hang around this for much longer."]},{"code":0,"indent":0,"parameters":[]}]}],"x":11,"y":4},
{"id":22,"name":"EV022","note":"","pages":[{"conditions":{"actorId":1,"actorValid":false,"itemId":1,"itemValid":false,"selfSwitchCh":"A","selfSwitchValid":false,"switch1Id":1,"switch1Valid":false,"switch2Id":1,"switch2Valid":false,"variableId":1,"variableValid":false,"variableValue":0},"directionFix":false,"image":{"tileId":0,"characterName":"","direction":2,"pattern":0,"characterIndex":0},"moveFrequency":3,"moveRoute":{"list":[{"code":0,"indent":null,"parameters":[]}],"repeat":true,"skippable":false,"wait":false},"moveSpeed":3,"moveType":0,"priorityType":1,"stepAnime":false,"through":false,"trigger":0,"walkAnime":true,"list":[{"code":101,"indent":0,"parameters":["1fc_jack1",6,0,2]},{"code":401,"indent":0,"parameters":["Ugh, it's locked."]},{"code":101,"indent":0,"parameters":["fc_connornpc",4,0,2]},{"code":401,"indent":0,"parameters":["It's just as well. I'm not detecting anything of note"]},{"code":401,"indent":0,"parameters":["through the slots on the doors, so this seems like it would"]},{"code":401,"indent":0,"parameters":["be nothing more than a dead end."]},{"code":101,"indent":0,"parameters":["1fc_jack1",7,0,2]},{"code":401,"indent":0,"parameters":["Ah, okay. We should probably move on, then."]},{"code":0,"indent":0,"parameters":[]}]}],"x":5,"y":4},
{"id":23,"name":"EV023","note":"","pages":[{"conditions":{"actorId":1,"actorValid":false,"itemId":1,"itemValid":false,"selfSwitchCh":"A","selfSwitchValid":false,"switch1Id":1,"switch1Valid":false,"switch2Id":1,"switch2Valid":false,"variableId":1,"variableValid":false,"variableValue":0},"directionFix":false,"image":{"tileId":0,"characterName":"","direction":2,"pattern":0,"characterIndex":0},"moveFrequency":3,"moveRoute":{"list":[{"code":0,"indent":null,"parameters":[]}],"repeat":true,"skippable":false,"wait":false},"moveSpeed":3,"moveType":0,"priorityType":1,"stepAnime":false,"through":false,"trigger":0,"walkAnime":true,"list":[{"code":101,"indent":0,"parameters":["fc_connornpc",2,0,2]},{"code":401,"indent":0,"parameters":["These are empty."]},{"code":101,"indent":0,"parameters":["1fc_jack2",15,0,2]},{"code":401,"indent":0,"parameters":["So why keep them around?"]},{"code":101,"indent":0,"parameters":["fc_connornpc",6,0,2]},{"code":401,"indent":0,"parameters":["Perhaps to make this place appear to still be a"]},{"code":401,"indent":0,"parameters":["construction zone. Although I don't see anything else"]},{"code":401,"indent":0,"parameters":["in this room that looks unfinished."]},{"code":0,"indent":0,"parameters":[]}]}],"x":2,"y":6},
{"id":24,"name":"EV024","note":"","pages":[{"conditions":{"actorId":1,"actorValid":false,"itemId":1,"itemValid":false,"selfSwitchCh":"A","selfSwitchValid":false,"switch1Id":1,"switch1Valid":false,"switch2Id":1,"switch2Valid":false,"variableId":1,"variableValid":false,"variableValue":0},"directionFix":false,"image":{"tileId":0,"characterName":"","direction":2,"pattern":0,"characterIndex":0},"moveFrequency":3,"moveRoute":{"list":[{"code":0,"indent":null,"parameters":[]}],"repeat":true,"skippable":false,"wait":false},"moveSpeed":3,"moveType":0,"priorityType":1,"stepAnime":false,"through":false,"trigger":0,"walkAnime":true,"list":[{"code":101,"indent":0,"parameters":["1fc_jack1",6,0,2]},{"code":401,"indent":0,"parameters":["Ugh, it's locked."]},{"code":101,"indent":0,"parameters":["fc_connornpc",4,0,2]},{"code":401,"indent":0,"parameters":["It's just as well. I'm not detecting anything of note"]},{"code":401,"indent":0,"parameters":["through the slots on the doors, so this seems like it would"]},{"code":401,"indent":0,"parameters":["be nothing more than a dead end."]},{"code":101,"indent":0,"parameters":["1fc_jack1",7,0,2]},{"code":401,"indent":0,"parameters":["Ah, okay. We should probably move on, then."]},{"code":0,"indent":0,"parameters":[]}]}],"x":2,"y":8},
{"id":25,"name":"EV025","note":"","pages":[{"conditions":{"actorId":1,"actorValid":false,"itemId":1,"itemValid":false,"selfSwitchCh":"A","selfSwitchValid":false,"switch1Id":1,"switch1Valid":false,"switch2Id":1,"switch2Valid":false,"variableId":1,"variableValid":false,"variableValue":0},"directionFix":false,"image":{"tileId":0,"characterName":"","direction":2,"pattern":0,"characterIndex":0},"moveFrequency":3,"moveRoute":{"list":[{"code":0,"indent":null,"parameters":[]}],"repeat":true,"skippable":false,"wait":false},"moveSpeed":3,"moveType":0,"priorityType":1,"stepAnime":false,"through":false,"trigger":0,"walkAnime":true,"list":[{"code":101,"indent":0,"parameters":["1fc_jack1",6,0,0]},{"code":401,"indent":0,"parameters":["Ugh, it's locked."]},{"code":101,"indent":0,"parameters":["fc_connornpc",4,0,0]},{"code":401,"indent":0,"parameters":["It's just as well. I'm not detecting anything of note"]},{"code":401,"indent":0,"parameters":["through the slots on the doors, so this seems like it would"]},{"code":401,"indent":0,"parameters":["be nothing more than a dead end."]},{"code":101,"indent":0,"parameters":["1fc_jack1",7,0,0]},{"code":401,"indent":0,"parameters":["Ah, okay. We should probably move on, then."]},{"code":0,"indent":0,"parameters":[]}]}],"x":2,"y":9},
{"id":26,"name":"EV026","note":"","pages":[{"conditions":{"actorId":1,"actorValid":false,"itemId":1,"itemValid":false,"selfSwitchCh":"A","selfSwitchValid":false,"switch1Id":1,"switch1Valid":false,"switch2Id":1,"switch2Valid":false,"variableId":1,"variableValid":false,"variableValue":0},"directionFix":false,"image":{"tileId":0,"characterName":"","direction":2,"pattern":0,"characterIndex":0},"moveFrequency":3,"moveRoute":{"list":[{"code":0,"indent":null,"parameters":[]}],"repeat":true,"skippable":false,"wait":false},"moveSpeed":3,"moveType":0,"priorityType":1,"stepAnime":false,"through":false,"trigger":0,"walkAnime":true,"list":[{"code":101,"indent":0,"parameters":["1fc_jack2",10,0,2]},{"code":401,"indent":0,"parameters":["See anything noteworthy on the desk?"]},{"code":101,"indent":0,"parameters":["fc_connornpc",2,0,2]},{"code":401,"indent":0,"parameters":["No. It appears that this computer hasn't been used in"]},{"code":401,"indent":0,"parameters":["over a decade, and all of the papers seem to be the"]},{"code":401,"indent":0,"parameters":["random musings of a clinically anxious secretary."]},{"code":101,"indent":0,"parameters":["1fc_jack2",15,0,2]},{"code":401,"indent":0,"parameters":["That's oddly specific."]},{"code":101,"indent":0,"parameters":["fc_connornpc",2,0,2]},{"code":401,"indent":0,"parameters":["The type of rambling matches that demographic the"]},{"code":401,"indent":0,"parameters":["most of all the ones I've sampled."]},{"code":0,"indent":0,"parameters":[]}]}],"x":3,"y":4},
{"id":27,"name":"EV027","note":"","pages":[{"conditions":{"actorId":1,"actorValid":false,"itemId":1,"itemValid":false,"selfSwitchCh":"A","selfSwitchValid":false,"switch1Id":1,"switch1Valid":false,"switch2Id":1,"switch2Valid":false,"variableId":1,"variableValid":false,"variableValue":0},"directionFix":false,"image":{"tileId":0,"characterName":"","direction":2,"pattern":0,"characterIndex":0},"moveFrequency":3,"moveRoute":{"list":[{"code":0,"indent":null,"parameters":[]}],"repeat":true,"skippable":false,"wait":false},"moveSpeed":3,"moveType":0,"priorityType":1,"stepAnime":false,"through":false,"trigger":0,"walkAnime":true,"list":[{"code":101,"indent":0,"parameters":["1fc_jack2",10,0,2]},{"code":401,"indent":0,"parameters":["See anything noteworthy on the desk?"]},{"code":101,"indent":0,"parameters":["fc_connornpc",2,0,2]},{"code":401,"indent":0,"parameters":["No. It appears that this computer hasn't been used in"]},{"code":401,"indent":0,"parameters":["over a decade, and all of the papers seem to be the"]},{"code":401,"indent":0,"parameters":["random musings of a clinically anxious secretary."]},{"code":101,"indent":0,"parameters":["1fc_jack2",15,0,2]},{"code":401,"indent":0,"parameters":["That's oddly specific."]},{"code":101,"indent":0,"parameters":["fc_connornpc",2,0,2]},{"code":401,"indent":0,"parameters":["The type of rambling matches that demographic the"]},{"code":401,"indent":0,"parameters":["most of all the ones I've sampled."]},{"code":0,"indent":0,"parameters":[]}]}],"x":2,"y":4},
{"id":28,"name":"EV028","note":"","pages":[{"conditions":{"actorId":1,"actorValid":false,"itemId":1,"itemValid":false,"selfSwitchCh":"A","selfSwitchValid":false,"switch1Id":1,"switch1Valid":false,"switch2Id":1,"switch2Valid":false,"variableId":1,"variableValid":false,"variableValue":0},"directionFix":false,"image":{"tileId":0,"characterName":"","direction":2,"pattern":0,"characterIndex":0},"moveFrequency":3,"moveRoute":{"list":[{"code":0,"indent":null,"parameters":[]}],"repeat":true,"skippable":false,"wait":false},"moveSpeed":3,"moveType":0,"priorityType":1,"stepAnime":false,"through":false,"trigger":0,"walkAnime":true,"list":[{"code":101,"indent":0,"parameters":["1fc_jack1",7,0,2]},{"code":401,"indent":0,"parameters":["Can you read the notes from here? It's a little dark for"]},{"code":401,"indent":0,"parameters":["me, so... can't really do that right now."]},{"code":101,"indent":0,"parameters":["fc_connornpc",2,0,2]},{"code":401,"indent":0,"parameters":["Nothing of interest. Unless you find the amount of money"]},{"code":401,"indent":0,"parameters":["spent on donuts this fiscal year fascinating."]},{"code":101,"indent":0,"parameters":["1fc_jack1",6,0,2]},{"code":401,"indent":0,"parameters":["I think I'll pass, thanks."]},{"code":0,"indent":0,"parameters":[]}]}],"x":12,"y":9},
{"id":29,"name":"EV029","note":"","pages":[{"conditions":{"actorId":1,"actorValid":false,"itemId":1,"itemValid":false,"selfSwitchCh":"A","selfSwitchValid":false,"switch1Id":1,"switch1Valid":false,"switch2Id":1,"switch2Valid":false,"variableId":1,"variableValid":false,"variableValue":0},"directionFix":false,"image":{"tileId":0,"characterName":"","direction":2,"pattern":0,"characterIndex":0},"moveFrequency":3,"moveRoute":{"list":[{"code":0,"indent":null,"parameters":[]}],"repeat":true,"skippable":false,"wait":false},"moveSpeed":3,"moveType":0,"priorityType":1,"stepAnime":false,"through":false,"trigger":0,"walkAnime":true,"list":[{"code":101,"indent":0,"parameters":["1fc_jack1",7,0,2]},{"code":401,"indent":0,"parameters":["Can you read the notes from here? It's a little dark for"]},{"code":401,"indent":0,"parameters":["me, so... can't really do that right now."]},{"code":101,"indent":0,"parameters":["fc_connornpc",2,0,2]},{"code":401,"indent":0,"parameters":["Nothing of interest. Unless you find the amount of money"]},{"code":401,"indent":0,"parameters":["spent on donuts this fiscal year fascinating."]},{"code":101,"indent":0,"parameters":["1fc_jack1",6,0,2]},{"code":401,"indent":0,"parameters":["I think I'll pass, thanks."]},{"code":0,"indent":0,"parameters":[]}]}],"x":12,"y":8},
{"id":30,"name":"EV030","note":"","pages":[{"conditions":{"actorId":1,"actorValid":false,"itemId":1,"itemValid":false,"selfSwitchCh":"A","selfSwitchValid":false,"switch1Id":1,"switch1Valid":false,"switch2Id":1,"switch2Valid":false,"variableId":1,"variableValid":false,"variableValue":0},"directionFix":false,"image":{"tileId":0,"characterName":"","direction":2,"pattern":0,"characterIndex":0},"moveFrequency":3,"moveRoute":{"list":[{"code":0,"indent":null,"parameters":[]}],"repeat":true,"skippable":false,"wait":false},"moveSpeed":3,"moveType":0,"priorityType":1,"stepAnime":false,"through":false,"trigger":0,"walkAnime":true,"list":[{"code":101,"indent":0,"parameters":["1fc_jack1",7,0,2]},{"code":401,"indent":0,"parameters":["Can you read the notes from here? It's a little dark for"]},{"code":401,"indent":0,"parameters":["me, so... can't really do that right now."]},{"code":101,"indent":0,"parameters":["fc_connornpc",2,0,2]},{"code":401,"indent":0,"parameters":["Nothing of interest. Unless you find the amount of money"]},{"code":401,"indent":0,"parameters":["spent on donuts this fiscal year fascinating."]},{"code":101,"indent":0,"parameters":["1fc_jack1",6,0,2]},{"code":401,"indent":0,"parameters":["I think I'll pass, thanks."]},{"code":0,"indent":0,"parameters":[]}]}],"x":11,"y":7},
{"id":31,"name":"EV031","note":"","pages":[{"conditions":{"actorId":1,"actorValid":false,"itemId":1,"itemValid":false,"selfSwitchCh":"A","selfSwitchValid":false,"switch1Id":1,"switch1Valid":false,"switch2Id":1,"switch2Valid":false,"variableId":1,"variableValid":false,"variableValue":0},"directionFix":false,"image":{"tileId":0,"characterName":"","direction":2,"pattern":0,"characterIndex":0},"moveFrequency":3,"moveRoute":{"list":[{"code":0,"indent":null,"parameters":[]}],"repeat":true,"skippable":false,"wait":false},"moveSpeed":3,"moveType":0,"priorityType":1,"stepAnime":false,"through":false,"trigger":0,"walkAnime":true,"list":[{"code":101,"indent":0,"parameters":["1fc_jack1",7,0,2]},{"code":401,"indent":0,"parameters":["Can you read the notes from here? It's a little dark for"]},{"code":401,"indent":0,"parameters":["me, so... can't really do that right now."]},{"code":101,"indent":0,"parameters":["fc_connornpc",2,0,2]},{"code":401,"indent":0,"parameters":["Nothing of interest. Unless you find the amount of money"]},{"code":401,"indent":0,"parameters":["spent on donuts this fiscal year fascinating."]},{"code":101,"indent":0,"parameters":["1fc_jack1",6,0,2]},{"code":401,"indent":0,"parameters":["I think I'll pass, thanks."]},{"code":0,"indent":0,"parameters":[]}]}],"x":10,"y":7},
{"id":32,"name":"EV032","note":"","pages":[{"conditions":{"actorId":1,"actorValid":false,"itemId":1,"itemValid":false,"selfSwitchCh":"A","selfSwitchValid":false,"switch1Id":1,"switch1Valid":false,"switch2Id":1,"switch2Valid":false,"variableId":1,"variableValid":false,"variableValue":0},"directionFix":false,"image":{"tileId":0,"characterName":"","direction":2,"pattern":0,"characterIndex":0},"moveFrequency":3,"moveRoute":{"list":[{"code":0,"indent":null,"parameters":[]}],"repeat":true,"skippable":false,"wait":false},"moveSpeed":3,"moveType":0,"priorityType":1,"stepAnime":false,"through":false,"trigger":0,"walkAnime":true,"list":[{"code":101,"indent":0,"parameters":["1fc_jack1",7,0,2]},{"code":401,"indent":0,"parameters":["Can you read the notes from here? It's a little dark for"]},{"code":401,"indent":0,"parameters":["me, so... can't really do that right now."]},{"code":101,"indent":0,"parameters":["fc_connornpc",2,0,2]},{"code":401,"indent":0,"parameters":["Nothing of interest. Unless you find the amount of money"]},{"code":401,"indent":0,"parameters":["spent on donuts this fiscal year fascinating."]},{"code":101,"indent":0,"parameters":["1fc_jack1",6,0,2]},{"code":401,"indent":0,"parameters":["I think I'll pass, thanks."]},{"code":0,"indent":0,"parameters":[]}]}],"x":9,"y":7},
{"id":33,"name":"EV033","note":"","pages":[{"conditions":{"actorId":1,"actorValid":false,"itemId":1,"itemValid":false,"selfSwitchCh":"A","selfSwitchValid":false,"switch1Id":1,"switch1Valid":false,"switch2Id":1,"switch2Valid":false,"variableId":1,"variableValid":false,"variableValue":0},"directionFix":false,"image":{"tileId":0,"characterName":"","direction":2,"pattern":0,"characterIndex":0},"moveFrequency":3,"moveRoute":{"list":[{"code":0,"indent":null,"parameters":[]}],"repeat":true,"skippable":false,"wait":false},"moveSpeed":3,"moveType":0,"priorityType":1,"stepAnime":false,"through":false,"trigger":0,"walkAnime":true,"list":[{"code":101,"indent":0,"parameters":["1fc_jack1",7,0,2]},{"code":401,"indent":0,"parameters":["Can you read the notes from here? It's a little dark for"]},{"code":401,"indent":0,"parameters":["me, so... can't really do that right now."]},{"code":101,"indent":0,"parameters":["fc_connornpc",2,0,2]},{"code":401,"indent":0,"parameters":["Nothing of interest. Unless you find the amount of money"]},{"code":401,"indent":0,"parameters":["spent on donuts this fiscal year fascinating."]},{"code":101,"indent":0,"parameters":["1fc_jack1",6,0,2]},{"code":401,"indent":0,"parameters":["I think I'll pass, thanks."]},{"code":0,"indent":0,"parameters":[]}]}],"x":8,"y":7},
{"id":34,"name":"EV034","note":"","pages":[{"conditions":{"actorId":1,"actorValid":false,"itemId":1,"itemValid":false,"selfSwitchCh":"A","selfSwitchValid":false,"switch1Id":1,"switch1Valid":false,"switch2Id":1,"switch2Valid":false,"variableId":1,"variableValid":false,"variableValue":0},"directionFix":false,"image":{"tileId":0,"characterName":"","direction":2,"pattern":0,"characterIndex":0},"moveFrequency":3,"moveRoute":{"list":[{"code":0,"indent":null,"parameters":[]}],"repeat":true,"skippable":false,"wait":false},"moveSpeed":3,"moveType":0,"priorityType":1,"stepAnime":false,"through":false,"trigger":0,"walkAnime":true,"list":[{"code":101,"indent":0,"parameters":["1fc_jack1",7,0,2]},{"code":401,"indent":0,"parameters":["Can you read the notes from here? It's a little dark for"]},{"code":401,"indent":0,"parameters":["me, so... can't really do that right now."]},{"code":101,"indent":0,"parameters":["fc_connornpc",2,0,2]},{"code":401,"indent":0,"parameters":["Nothing of interest. Unless you find the amount of money"]},{"code":401,"indent":0,"parameters":["spent on donuts this fiscal year fascinating."]},{"code":101,"indent":0,"parameters":["1fc_jack1",6,0,2]},{"code":401,"indent":0,"parameters":["I think I'll pass, thanks."]},{"code":0,"indent":0,"parameters":[]}]}],"x":7,"y":8},
{"id":35,"name":"EV035","note":"","pages":[{"conditions":{"actorId":1,"actorValid":false,"itemId":1,"itemValid":false,"selfSwitchCh":"A","selfSwitchValid":false,"switch1Id":1,"switch1Valid":false,"switch2Id":1,"switch2Valid":false,"variableId":1,"variableValid":false,"variableValue":0},"directionFix":false,"image":{"tileId":0,"characterName":"","direction":2,"pattern":0,"characterIndex":0},"moveFrequency":3,"moveRoute":{"list":[{"code":0,"indent":null,"parameters":[]}],"repeat":true,"skippable":false,"wait":false},"moveSpeed":3,"moveType":0,"priorityType":1,"stepAnime":false,"through":false,"trigger":0,"walkAnime":true,"list":[{"code":101,"indent":0,"parameters":["1fc_jack1",7,0,2]},{"code":401,"indent":0,"parameters":["Can you read the notes from here? It's a little dark for"]},{"code":401,"indent":0,"parameters":["me, so... can't really do that right now."]},{"code":101,"indent":0,"parameters":["fc_connornpc",2,0,2]},{"code":401,"indent":0,"parameters":["Nothing of interest. Unless you find the amount of money"]},{"code":401,"indent":0,"parameters":["spent on donuts this fiscal year fascinating."]},{"code":101,"indent":0,"parameters":["1fc_jack1",6,0,2]},{"code":401,"indent":0,"parameters":["I think I'll pass, thanks."]},{"code":0,"indent":0,"parameters":[]}]}],"x":11,"y":10},
{"id":36,"name":"EV036","note":"","pages":[{"conditions":{"actorId":1,"actorValid":false,"itemId":1,"itemValid":false,"selfSwitchCh":"A","selfSwitchValid":false,"switch1Id":1,"switch1Valid":false,"switch2Id":1,"switch2Valid":false,"variableId":1,"variableValid":false,"variableValue":0},"directionFix":false,"image":{"tileId":0,"characterName":"","direction":2,"pattern":0,"characterIndex":0},"moveFrequency":3,"moveRoute":{"list":[{"code":0,"indent":null,"parameters":[]}],"repeat":true,"skippable":false,"wait":false},"moveSpeed":3,"moveType":0,"priorityType":1,"stepAnime":false,"through":false,"trigger":0,"walkAnime":true,"list":[{"code":101,"indent":0,"parameters":["1fc_jack1",7,0,2]},{"code":401,"indent":0,"parameters":["Can you read the notes from here? It's a little dark for"]},{"code":401,"indent":0,"parameters":["me, so... can't really do that right now."]},{"code":101,"indent":0,"parameters":["fc_connornpc",2,0,2]},{"code":401,"indent":0,"parameters":["Nothing of interest. Unless you find the amount of money"]},{"code":401,"indent":0,"parameters":["spent on donuts this fiscal year fascinating."]},{"code":101,"indent":0,"parameters":["1fc_jack1",6,0,2]},{"code":401,"indent":0,"parameters":["I think I'll pass, thanks."]},{"code":0,"indent":0,"parameters":[]}]}],"x":7,"y":9},
{"id":37,"name":"EV037","note":"","pages":[{"conditions":{"actorId":1,"actorValid":false,"itemId":1,"itemValid":false,"selfSwitchCh":"A","selfSwitchValid":false,"switch1Id":1,"switch1Valid":false,"switch2Id":1,"switch2Valid":false,"variableId":1,"variableValid":false,"variableValue":0},"directionFix":false,"image":{"tileId":0,"characterName":"","direction":2,"pattern":0,"characterIndex":0},"moveFrequency":3,"moveRoute":{"list":[{"code":0,"indent":null,"parameters":[]}],"repeat":true,"skippable":false,"wait":false},"moveSpeed":3,"moveType":0,"priorityType":1,"stepAnime":false,"through":false,"trigger":0,"walkAnime":true,"list":[{"code":101,"indent":0,"parameters":["1fc_jack1",7,0,2]},{"code":401,"indent":0,"parameters":["Can you read the notes from here? It's a little dark for"]},{"code":401,"indent":0,"parameters":["me, so... can't really do that right now."]},{"code":101,"indent":0,"parameters":["fc_connornpc",2,0,2]},{"code":401,"indent":0,"parameters":["Nothing of interest. Unless you find the amount of money"]},{"code":401,"indent":0,"parameters":["spent on donuts this fiscal year fascinating."]},{"code":101,"indent":0,"parameters":["1fc_jack1",6,0,2]},{"code":401,"indent":0,"parameters":["I think I'll pass, thanks."]},{"code":0,"indent":0,"parameters":[]}]}],"x":8,"y":10},
{"id":38,"name":"EV038","note":"","pages":[{"conditions":{"actorId":1,"actorValid":false,"itemId":1,"itemValid":false,"selfSwitchCh":"A","selfSwitchValid":false,"switch1Id":1,"switch1Valid":false,"switch2Id":1,"switch2Valid":false,"variableId":1,"variableValid":false,"variableValue":0},"directionFix":false,"image":{"tileId":0,"characterName":"","direction":2,"pattern":0,"characterIndex":0},"moveFrequency":3,"moveRoute":{"list":[{"code":0,"indent":null,"parameters":[]}],"repeat":true,"skippable":false,"wait":false},"moveSpeed":3,"moveType":0,"priorityType":0,"stepAnime":false,"through":false,"trigger":0,"walkAnime":true,"list":[{"code":0,"indent":0,"parameters":[]}]}],"x":9,"y":10},
{"id":39,"name":"EV039","note":"","pages":[{"conditions":{"actorId":1,"actorValid":false,"itemId":1,"itemValid":false,"selfSwitchCh":"A","selfSwitchValid":false,"switch1Id":1,"switch1Valid":false,"switch2Id":1,"switch2Valid":false,"variableId":1,"variableValid":false,"variableValue":0},"directionFix":false,"image":{"tileId":0,"characterName":"","direction":2,"pattern":0,"characterIndex":0},"moveFrequency":3,"moveRoute":{"list":[{"code":0,"indent":null,"parameters":[]}],"repeat":true,"skippable":false,"wait":false},"moveSpeed":3,"moveType":0,"priorityType":1,"stepAnime":false,"through":false,"trigger":0,"walkAnime":true,"list":[{"code":101,"indent":0,"parameters":["1fc_jack1",7,0,2]},{"code":401,"indent":0,"parameters":["Can you read the notes from here? It's a little dark for"]},{"code":401,"indent":0,"parameters":["me, so... can't really do that right now."]},{"code":101,"indent":0,"parameters":["fc_connornpc",2,0,2]},{"code":401,"indent":0,"parameters":["Nothing of interest. Unless you find the amount of money"]},{"code":401,"indent":0,"parameters":["spent on donuts this fiscal year fascinating."]},{"code":101,"indent":0,"parameters":["1fc_jack1",6,0,2]},{"code":401,"indent":0,"parameters":["I think I'll pass, thanks."]},{"code":0,"indent":0,"parameters":[]}]}],"x":10,"y":10},
{"id":40,"name":"EV040","note":"","pages":[{"conditions":{"actorId":1,"actorValid":false,"itemId":1,"itemValid":false,"selfSwitchCh":"A","selfSwitchValid":false,"switch1Id":1,"switch1Valid":false,"switch2Id":1,"switch2Valid":false,"variableId":1,"variableValid":false,"variableValue":0},"directionFix":false,"image":{"characterIndex":0,"characterName":"","direction":2,"pattern":0,"tileId":0},"list":[{"code":356,"indent":0,"parameters":["Light radius 5 #FFFFFF"]},{"code":356,"indent":0,"parameters":["Flashlight on 8 12 #FFFFFF 3"]},{"code":129,"indent":0,"parameters":[14,0,0]},{"code":205,"indent":0,"parameters":[-1,{"list":[{"code":29,"indent":null,"parameters":[6]},{"code":2,"indent":null,"parameters":[]},{"code":2,"indent":null,"parameters":[]},{"code":29,"indent":null,"parameters":[4]},{"code":18,"indent":null,"parameters":[]},{"code":0,"indent":null,"parameters":[]}],"repeat":false,"skippable":false,"wait":true}]},{"code":505,"indent":0,"parameters":[{"code":29,"indent":null,"parameters":[6]}]},{"code":505,"indent":0,"parameters":[{"code":2,"indent":null,"parameters":[]}]},{"code":505,"indent":0,"parameters":[{"code":2,"indent":null,"parameters":[]}]},{"code":505,"indent":0,"parameters":[{"code":29,"indent":null,"parameters":[4]}]},{"code":505,"indent":0,"parameters":[{"code":18,"indent":null,"parameters":[]}]},{"code":223,"indent":0,"parameters":[[0,0,0,0],60,true]},{"code":101,"indent":0,"parameters":["1fc_jack2",3,0,2]},{"code":401,"indent":0,"parameters":["It's a bit sparse, isn't it?"]},{"code":101,"indent":0,"parameters":["fc_connornpc",4,0,2]},{"code":401,"indent":0,"parameters":["It may be, but I'm not convinced there aren't clues left"]},{"code":401,"indent":0,"parameters":["to find."]},{"code":205,"indent":0,"parameters":[-1,{"list":[{"code":16,"indent":null},{"code":0}],"repeat":false,"skippable":false,"wait":false}]},{"code":505,"indent":0,"parameters":[{"code":16,"indent":null}]},{"code":101,"indent":0,"parameters":["1fc_jack1",4,0,2]},{"code":401,"indent":0,"parameters":["Ah, shoot, sorry. Didn't mean to shine it in your eyes."]},{"code":401,"indent":0,"parameters":["Hope it's not too bright."]},{"code":101,"indent":0,"parameters":["fc_connornpc",4,0,2]},{"code":401,"indent":0,"parameters":["Only a little, but it will not damage my optical sensors."]},{"code":101,"indent":0,"parameters":["1fc_jack1",1,0,2]},{"code":401,"indent":0,"parameters":["Then I guess we better look around."]},{"code":123,"indent":0,"parameters":["A",0]},{"code":0,"indent":0,"parameters":[]}],"moveFrequency":3,"moveRoute":{"list":[{"code":0,"parameters":[]}],"repeat":true,"skippable":false,"wait":false},"moveSpeed":3,"moveType":0,"priorityType":0,"stepAnime":false,"through":false,"trigger":3,"walkAnime":true},{"conditions":{"actorId":1,"actorValid":false,"itemId":1,"itemValid":false,"selfSwitchCh":"A","selfSwitchValid":true,"switch1Id":1,"switch1Valid":false,"switch2Id":1,"switch2Valid":false,"variableId":1,"variableValid":false,"variableValue":0},"directionFix":false,"image":{"characterIndex":0,"characterName":"","direction":2,"pattern":0,"tileId":0},"list":[{"code":0,"indent":0,"parameters":[]}],"moveFrequency":3,"moveRoute":{"list":[{"code":0,"parameters":[]}],"repeat":true,"skippable":false,"wait":false},"moveSpeed":3,"moveType":0,"priorityType":0,"stepAnime":false,"through":false,"trigger":0,"walkAnime":true}],"x":0,"y":0}
]
}