{
"autoplayBgm":false,"autoplayBgs":false,"battleback1Name":"","battleback2Name":"","bgm":{"name":"","pan":0,"pitch":100,"volume":100},"bgs":{"name":"","pan":0,"pitch":100,"volume":80},"disableDashing":false,"displayName":"","encounterList":[],"encounterStep":30,"height":15,"note":"<tile lock parallax>\n<all restrict: 6>","parallaxLoopX":false,"parallaxLoopY":false,"parallaxName":"!pl_mod_001","parallaxShow":true,"parallaxSx":0,"parallaxSy":0,"scrollType":0,"specifyBattleback":false,"tilesetId":35,"width":21,
"data":[2816,2816,2816,2816,2816,2816,2816,2816,2816,2816,2816,2816,2816,2816,2816,2816,2816,2816,2816,2816,2816,2816,2816,2816,2816,2816,2816,2816,2816,2816,2816,2816,2816,2816,2816,2816,2816,2816,2816,2816,2816,2816,2816,2816,2816,2816,2816,2816,2816,2816,2816,2816,2816,2816,2816,2816,2816,2816,2816,2816,2816,2816,2816,2816,2816,2816,2816,2816,2816,2816,2816,2816,2816,2816,2816,2816,2816,2816,2816,2816,2816,2816,2816,2816,2816,2816,2816,2816,2816,2816,2816,2816,2816,2816,2816,2816,2816,2816,2816,2816,2816,2816,2816,2816,2816,2816,2816,2816,2816,2816,2816,2816,2816,2816,2816,2816,2816,2816,2816,2816,2816,2816,2816,2816,2816,2816,2816,2816,2816,2816,2816,2816,2816,2816,2816,2816,2816,2816,2816,2816,2816,2816,2816,2816,2816,2816,2816,2816,2816,2816,2816,2816,2816,2816,2816,2816,2816,2816,2816,2816,2816,2816,2816,2816,2816,2816,2816,2816,2816,2816,2816,2816,2816,2816,2816,2816,2816,2816,2816,2816,2816,2816,2816,2816,2816,2816,2816,2816,2816,2816,2816,2816,2816,2816,2816,2816,2816,2816,2816,2816,2816,2816,2816,2816,2816,2816,2816,2816,2816,2816,2816,2816,2816,2816,2816,2816,2816,2816,2816,2816,2816,2816,2816,2816,2816,2816,2816,2816,2816,2816,2816,2816,2816,2816,2816,2816,2816,2816,2816,2816,2816,2816,2816,2816,2816,2816,2816,2816,2816,2816,2816,2816,2816,2816,2816,2816,2816,2816,2816,2816,2816,2816,2816,2816,2816,2816,2816,2816,2816,2816,2816,2816,2816,2816,2816,2816,2816,2816,2816,2816,2816,2816,2816,2816,2816,2816,2816,2816,2816,2816,2816,2816,2816,2816,2816,2816,2816,2816,2816,2816,2816,2816,2816,2816,2816,2816,2816,2816,2816,2816,2816,2816,2816,2816,2816,0,0,0,0,0,0,0,0,0,0,0,0,0,0,0,0,0,0,0,0,0,0,0,0,0,0,0,0,0,0,0,0,0,0,0,0,0,0,0,0,0,0,0,0,0,0,0,0,0,0,0,0,0,0,0,0,0,0,0,0,0,0,0,0,0,0,0,0,0,0,0,0,0,0,0,0,0,0,0,0,0,0,0,0,0,0,0,0,0,0,0,0,0,0,0,0,0,0,0,0,0,0,0,0,0,0,0,0,0,0,0,0,0,0,0,0,0,0,0,0,0,0,0,0,0,0,0,0,0,0,0,0,0,0,0,0,0,0,0,0,0,0,0,0,0,0,0,0,0,0,0,0,0,0,0,0,0,0,0,0,0,0,0,0,0,0,0,0,0,0,0,0,0,0,0,0,0,0,0,0,0,0,0,0,0,0,0,0,0,0,0,0,0,0,0,0,0,0,0,0,0,0,0,0,0,0,0,0,0,0,0,0,0,0,0,0,0,0,0,0,0,0,0,0,0,0,0,0,0,0,0,0,0,0,0,0,0,0,0,0,0,0,0,0,0,0,0,0,0,0,0,0,0,0,0,0,0,0,0,0,0,0,0,0,0,0,0,0,0,0,0,0,0,0,0,0,0,0,0,0,0,0,0,0,0,0,0,0,0,0,0,0,0,0,0,0,0,0,0,0,0,0,0,0,0,0,0,0,0,0,0,0,0,0,0,0,0,0,0,0,0,0,0,0,0,0,0,0,0,0,0,0,0,0,0,0,0,0,0,0,0,0,0,0,0,0,0,0,0,0,0,0,0,0,0,0,0,0,0,0,0,0,0,0,0,0,0,0,0,0,0,0,0,0,0,0,0,0,0,0,0,0,0,0,0,0,0,0,0,0,0,0,0,0,0,0,0,0,0,0,0,0,0,0,0,0,0,0,0,0,0,0,0,0,0,0,0,0,0,0,0,0,0,0,0,0,0,0,0,0,0,0,0,0,0,0,0,0,0,0,0,0,0,0,0,0,0,0,0,0,0,0,0,0,0,0,0,0,0,0,0,0,0,0,0,0,0,0,0,0,0,0,0,0,0,0,0,0,0,0,0,0,0,0,0,0,0,0,0,0,0,0,0,0,0,0,0,0,0,0,0,0,0,0,0,0,0,0,0,0,0,0,0,0,0,0,0,0,0,0,0,0,0,0,0,0,0,0,0,0,0,0,0,0,0,0,0,0,0,0,0,0,0,0,0,0,0,0,0,0,0,0,0,0,0,0,0,0,0,0,0,0,0,0,0,0,0,0,0,0,0,0,0,0,0,0,0,0,0,0,0,0,0,0,0,0,0,0,0,0,0,0,0,0,0,0,0,0,0,0,0,0,0,0,0,0,0,0,0,0,0,0,0,0,0,0,0,0,0,0,0,0,0,0,0,0,0,0,0,0,0,0,0,0,0,0,0,0,0,0,0,0,0,0,0,0,0,0,0,0,0,0,0,0,0,0,0,0,0,0,0,0,0,0,0,0,0,0,0,0,0,0,0,0,0,0,0,0,0,0,0,0,0,0,0,0,0,0,0,0,0,0,0,0,0,0,0,0,0,0,0,0,0,0,0,0,0,0,0,0,0,0,0,0,0,0,0,0,0,0,0,0,0,0,0,0,0,0,0,0,0,0,0,0,0,0,0,0,0,0,0,0,0,0,0,0,0,0,0,0,0,0,0,0,0,0,0,0,0,0,0,0,0,0,0,0,0,0,0,0,0,0,0,0,0,0,0,0,0,0,0,0,0,0,0,0,0,0,0,0,0,0,0,0,0,0,0,0,0,0,0,0,0,0,0,0,0,0,0,0,0,0,0,0,0,0,0,0,0,0,0,0,0,0,0,0,0,0,0,0,0,0,0,0,0,0,0,0,0,0,0,0,0,0,0,0,0,0,0,0,0,0,0,0,0,0,0,0,0,0,0,0,0,0,0,0,0,0,0,0,0,0,0,0,0,0,0,0,0,0,0,0,0,0,0,0,0,0,0,0,0,0,0,0,0,0,0,0,0,0,0,0,0,0,0,0,0,0,0,0,0,0,0,0,0,0,0,0,0,0,0,0,0,0,0,0,0,0,0,0,0,0,0,0,0,0,0,0,0,0,0,0,0,0,0,0,0,0,0,0,0,0,0,0,0,0,0,0,0,0,0,0,0,0,0,0,0,0,0,0,0,0,0,0,0,0,0,0,0,0,0,0,0,0,0,0,0,0,0,0,0,0,0,0,0,0,0,0,0,0,0,0,0,0,0,0,0,0,0,0,0,0,0,0,0,0,0,0,0,0,0,0,0,0,0,0,0,0,0,0,0,1536,1536,1536,1536,1536,1536,1536,1536,1536,1536,1536,1536,1536,1536,1536,1536,1536,0,0,0,0,1536,0,0,0,0,0,0,0,0,0,0,0,0,0,0,0,1536,0,0,0,0,1536,0,0,0,0,0,0,0,0,0,0,0,0,0,0,0,1536,0,0,0,0,1536,1536,1536,1536,0,0,0,0,0,0,0,0,0,0,0,0,1536,0,0,0,0,1536,0,1536,1536,0,0,0,0,0,0,0,0,0,0,0,0,1536,0,0,0,0,1536,0,0,0,0,0,0,0,0,0,0,0,0,0,0,0,1536,0,0,0,0,1536,0,0,0,0,0,0,0,0,0,0,0,0,0,0,0,1536,0,0,0,0,1536,0,0,0,0,0,0,0,0,0,0,0,0,0,0,0,1536,0,0,0,0,1536,1536,1536,1536,1536,1536,1536,0,0,0,1536,1536,1536,1536,1536,1536,1536,0,0,0,0,0,0,0,0,0,0,1536,0,0,0,1536,0,0,0,0,0,0,0,0,0,0,0,0,0,0,0,0,1536,0,0,0,1536,0,0,0,0,0,0,0,0,0,0,0,0,0,0,0,0,0,0,0,0,0,0,0,0,0,0,0,0,0,0,0,0,0,0,0,0,0,0,0,0,0,0,0,0,0,0,0,0,0,0,0,0,0,0,0,0,0,0,0,0,0,0,0,0,0,0,0,0,0,0,0,0,0,0,0,0,0,0,0,0,0,0,0,0,0,0,0,0,0,0,0,0,0,0,6,6,6,6,6,6,6,6,6,6,6,6,6,6,6,6,6,0,0,0,0,6,0,0,0,0,0,0,0,0,0,0,0,0,0,0,0,6,0,0,0,0,6,0,0,0,0,0,0,0,0,0,0,0,0,0,0,0,6,0,0,0,0,6,6,6,6,0,0,0,0,0,0,0,0,0,0,0,0,6,0,0,0,0,6,0,6,6,0,0,0,0,0,0,0,0,0,0,0,0,6,0,0,0,0,6,0,0,0,0,0,0,0,0,0,0,0,0,0,0,0,6,0,0,0,0,6,0,0,0,0,0,0,0,0,0,0,0,0,0,0,0,6,0,0,0,0,6,0,0,0,0,0,0,0,0,0,0,0,0,0,0,0,6,0,0,0,0,6,6,6,6,6,6,6,0,0,0,6,6,6,6,6,6,6,0,0,0,0,0,0,0,0,0,0,6,0,0,0,6,0,0,0,0,0,0,0,0,0,0,0,0,0,0,0,0,6,0,0,0,6,0,0,0,0,0,0,0,0],
"events":[
null,
{"id":1,"name":"EV001","note":"","pages":[{"conditions":{"actorId":1,"actorValid":false,"itemId":1,"itemValid":false,"selfSwitchCh":"A","selfSwitchValid":false,"switch1Id":1,"switch1Valid":false,"switch2Id":1,"switch2Valid":false,"variableId":1,"variableValid":false,"variableValue":0},"directionFix":false,"image":{"tileId":0,"characterName":"$spr_samgreen","direction":2,"pattern":1,"characterIndex":0},"list":[{"code":352,"indent":0,"parameters":[]},{"code":0,"indent":0,"parameters":[]}],"moveFrequency":3,"moveRoute":{"list":[{"code":0,"parameters":[]}],"repeat":true,"skippable":false,"wait":false},"moveSpeed":4,"moveType":0,"priorityType":1,"stepAnime":true,"through":false,"trigger":0,"walkAnime":true}],"x":17,"y":5},
null,
{"id":3,"name":"EV003","note":"","pages":[{"conditions":{"actorId":1,"actorValid":false,"itemId":1,"itemValid":false,"selfSwitchCh":"A","selfSwitchValid":false,"switch1Id":1,"switch1Valid":false,"switch2Id":1,"switch2Valid":false,"variableId":1,"variableValid":false,"variableValue":0},"directionFix":false,"image":{"tileId":0,"characterName":"","direction":2,"pattern":0,"characterIndex":0},"moveFrequency":3,"moveRoute":{"list":[{"code":0,"indent":null,"parameters":[]}],"repeat":true,"skippable":false,"wait":false},"moveSpeed":3,"moveType":0,"priorityType":0,"stepAnime":false,"through":false,"trigger":3,"walkAnime":true,"list":[{"code":355,"indent":0,"parameters":["$gameDvLyon.addCheckpoint(9)"]},{"code":205,"indent":0,"parameters":[4,{"list":[{"code":4,"indent":null,"parameters":[]},{"code":4,"indent":null,"parameters":[]},{"code":4,"indent":null,"parameters":[]},{"code":4,"indent":null,"parameters":[]},{"code":4,"indent":null,"parameters":[]},{"code":0,"indent":null,"parameters":[]}],"repeat":false,"skippable":false,"wait":false}]},{"code":505,"indent":0,"parameters":[{"code":4,"indent":null,"parameters":[]}]},{"code":505,"indent":0,"parameters":[{"code":4,"indent":null,"parameters":[]}]},{"code":505,"indent":0,"parameters":[{"code":4,"indent":null,"parameters":[]}]},{"code":505,"indent":0,"parameters":[{"code":4,"indent":null,"parameters":[]}]},{"code":505,"indent":0,"parameters":[{"code":4,"indent":null,"parameters":[]}]},{"code":205,"indent":0,"parameters":[-1,{"list":[{"code":4,"indent":null,"parameters":[]},{"code":4,"indent":null,"parameters":[]},{"code":4,"indent":null,"parameters":[]},{"code":4,"indent":null,"parameters":[]},{"code":0,"indent":null,"parameters":[]}],"repeat":false,"skippable":false,"wait":true}]},{"code":505,"indent":0,"parameters":[{"code":4,"indent":null,"parameters":[]}]},{"code":505,"indent":0,"parameters":[{"code":4,"indent":null,"parameters":[]}]},{"code":505,"indent":0,"parameters":[{"code":4,"indent":null,"parameters":[]}]},{"code":505,"indent":0,"parameters":[{"code":4,"indent":null,"parameters":[]}]},{"code":101,"indent":0,"parameters":["fc_wjyellow",2,0,2]},{"code":401,"indent":0,"parameters":["My... my office!"]},{"code":205,"indent":0,"parameters":[4,{"list":[{"code":16,"indent":null,"parameters":[]},{"code":0,"indent":null,"parameters":[]}],"repeat":false,"skippable":false,"wait":true}]},{"code":505,"indent":0,"parameters":[{"code":16,"indent":null,"parameters":[]}]},{"code":101,"indent":0,"parameters":["fc_wjyellow",2,0,2]},{"code":401,"indent":0,"parameters":["Someone has... has blown up my office!"]},{"code":101,"indent":0,"parameters":["2fc_billy1",7,0,2]},{"code":401,"indent":0,"parameters":["This is bad."]},{"code":101,"indent":0,"parameters":["4fc_cliffgreen1",5,0,2]},{"code":401,"indent":0,"parameters":["Wait, hold the phone, I thought you were the most"]},{"code":401,"indent":0,"parameters":["powerful person here outside of Jack! If you didn't want"]},{"code":401,"indent":0,"parameters":["your office blown up, you probably could stop it from"]},{"code":401,"indent":0,"parameters":["happening!"]},{"code":101,"indent":0,"parameters":["fc_wjyellow",2,0,2]},{"code":401,"indent":0,"parameters":["Yes, yes. That's usually how it works. So the fact that"]},{"code":401,"indent":0,"parameters":["someone did..."]},{"code":101,"indent":0,"parameters":["3fc_jenny2",2,0,2]},{"code":401,"indent":0,"parameters":["You think someone's taking control?"]},{"code":101,"indent":0,"parameters":["fc_wjyellow",5,0,2]},{"code":401,"indent":0,"parameters":["It's the only explanation. Jack, you're more powerful"]},{"code":401,"indent":0,"parameters":["than I am, and if this person has already-"]},{"code":223,"indent":0,"parameters":[[-68,-68,-68,0],1,false]},{"code":241,"indent":0,"parameters":[{"name":"mus_theglitchbitch","pan":0,"pitch":100,"volume":60}]},{"code":250,"indent":0,"parameters":[{"name":"glitch","pan":0,"pitch":100,"volume":100}]},{"code":231,"indent":0,"parameters":[1,"g1",0,0,0,0,100,100,255,0]},{"code":230,"indent":0,"parameters":[5]},{"code":231,"indent":0,"parameters":[1,"g2",0,0,0,0,100,100,255,0]},{"code":230,"indent":0,"parameters":[5]},{"code":231,"indent":0,"parameters":[1,"g3",0,0,0,0,100,100,255,0]},{"code":230,"indent":0,"parameters":[5]},{"code":231,"indent":0,"parameters":[1,"g4",0,0,0,0,100,100,255,0]},{"code":230,"indent":0,"parameters":[5]},{"code":231,"indent":0,"parameters":[1,"g5",0,0,0,0,100,100,255,0]},{"code":230,"indent":0,"parameters":[5]},{"code":231,"indent":0,"parameters":[1,"g6",0,0,0,0,100,100,255,0]},{"code":230,"indent":0,"parameters":[5]},{"code":356,"indent":0,"parameters":["HorrorEffects $gameScreen Create Glitch"]},{"code":356,"indent":0,"parameters":["HorrorEffects $gameMap.event(4) Create TV"]},{"code":356,"indent":0,"parameters":["HorrorEffects $gameMap.event(4) Create Glitch"]},{"code":356,"indent":0,"parameters":["HorrorEffects $gameScreen Create Noise"]},{"code":355,"indent":0,"parameters":["$gameMap.event(4).setHorrorEffectToValue('glitch', 'offset', 50)"]},{"code":355,"indent":0,"parameters":["$gameMap.event(4).setHorrorEffectToValue('glitch', 'slices', 5)"]},{"code":250,"indent":0,"parameters":[{"name":"a_lookwhos","pan":0,"pitch":100,"volume":100}]},{"code":111,"indent":0,"parameters":[0,128,0]},{"code":101,"indent":1,"parameters":["",0,1,1]},{"code":401,"indent":1,"parameters":["\\c[18]WELL LOOK WHO'S HERE!!"]},{"code":0,"indent":1,"parameters":[]},{"code":411,"indent":0,"parameters":[]},{"code":356,"indent":1,"parameters":["changeSaveFont Glitch"]},{"code":101,"indent":1,"parameters":["",0,1,1]},{"code":401,"indent":1,"parameters":["<CENTER>\\Shake\\c[18]WELL LOOK WHO'S HERE!"]},{"code":0,"indent":1,"parameters":[]},{"code":412,"indent":0,"parameters":[]},{"code":251,"indent":0,"parameters":[]},{"code":235,"indent":0,"parameters":[1]},{"code":111,"indent":0,"parameters":[0,128,0]},{"code":356,"indent":1,"parameters":["changeSaveFont verdana"]},{"code":0,"indent":1,"parameters":[]},{"code":411,"indent":0,"parameters":[]},{"code":356,"indent":1,"parameters":["changeSaveFont Fiery_Turk"]},{"code":0,"indent":1,"parameters":[]},{"code":412,"indent":0,"parameters":[]},{"code":101,"indent":0,"parameters":["2fc_billy1",15,0,2]},{"code":401,"indent":0,"parameters":["What was that?"]},{"code":250,"indent":0,"parameters":[{"name":"glitch2","pan":0,"pitch":100,"volume":100}]},{"code":231,"indent":0,"parameters":[1,"g6",0,0,0,0,100,100,255,0]},{"code":230,"indent":0,"parameters":[5]},{"code":231,"indent":0,"parameters":[1,"g1",0,0,0,0,100,100,255,0]},{"code":230,"indent":0,"parameters":[5]},{"code":231,"indent":0,"parameters":[1,"g2",0,0,0,0,100,100,255,0]},{"code":230,"indent":0,"parameters":[5]},{"code":231,"indent":0,"parameters":[1,"g3",0,0,0,0,100,100,255,0]},{"code":230,"indent":0,"parameters":[5]},{"code":231,"indent":0,"parameters":[1,"g4",0,0,0,0,100,100,255,0]},{"code":230,"indent":0,"parameters":[5]},{"code":231,"indent":0,"parameters":[1,"g5",0,0,0,0,100,100,255,0]},{"code":230,"indent":0,"parameters":[5]},{"code":250,"indent":0,"parameters":[{"name":"a_didmiss","pan":0,"pitch":100,"volume":100}]},{"code":111,"indent":0,"parameters":[0,128,0]},{"code":101,"indent":1,"parameters":["",0,1,1]},{"code":401,"indent":1,"parameters":["\\c[18]HI THERE, JACK! DID YOU MISS ME?"]},{"code":0,"indent":1,"parameters":[]},{"code":411,"indent":0,"parameters":[]},{"code":356,"indent":1,"parameters":["changeSaveFont Glitch"]},{"code":101,"indent":1,"parameters":["",0,1,1]},{"code":401,"indent":1,"parameters":["<CENTER>\\Shake\\c[18]HI THERE, JACK!\\<br>"]},{"code":401,"indent":1,"parameters":["DID YOU MISS ME?"]},{"code":0,"indent":1,"parameters":[]},{"code":412,"indent":0,"parameters":[]},{"code":251,"indent":0,"parameters":[]},{"code":235,"indent":0,"parameters":[1]},{"code":111,"indent":0,"parameters":[0,128,0]},{"code":356,"indent":1,"parameters":["changeSaveFont verdana"]},{"code":0,"indent":1,"parameters":[]},{"code":411,"indent":0,"parameters":[]},{"code":356,"indent":1,"parameters":["changeSaveFont Fiery_Turk"]},{"code":0,"indent":1,"parameters":[]},{"code":412,"indent":0,"parameters":[]},{"code":101,"indent":0,"parameters":["1fc_jack1",12,0,2]},{"code":401,"indent":0,"parameters":["Anti."]},{"code":250,"indent":0,"parameters":[{"name":"glitch5","pan":0,"pitch":100,"volume":100}]},{"code":231,"indent":0,"parameters":[1,"g5",0,0,0,0,100,100,255,0]},{"code":230,"indent":0,"parameters":[5]},{"code":231,"indent":0,"parameters":[1,"g6",0,0,0,0,100,100,255,0]},{"code":230,"indent":0,"parameters":[5]},{"code":231,"indent":0,"parameters":[1,"g1",0,0,0,0,100,100,255,0]},{"code":230,"indent":0,"parameters":[5]},{"code":231,"indent":0,"parameters":[1,"g2",0,0,0,0,100,100,255,0]},{"code":230,"indent":0,"parameters":[5]},{"code":231,"indent":0,"parameters":[1,"g3",0,0,0,0,100,100,255,0]},{"code":230,"indent":0,"parameters":[5]},{"code":231,"indent":0,"parameters":[1,"g4",0,0,0,0,100,100,255,0]},{"code":230,"indent":0,"parameters":[5]},{"code":250,"indent":0,"parameters":[{"name":"a_always","pan":0,"pitch":100,"volume":100}]},{"code":111,"indent":0,"parameters":[0,128,0]},{"code":101,"indent":1,"parameters":["",0,1,1]},{"code":401,"indent":1,"parameters":["\\c[18]WHO DID YOU EXPECT? I TOLD YOU BEFORE THAT"]},{"code":401,"indent":1,"parameters":["I'M ALWAYS HERE. YOU CAN'T GET RID OF ME!!"]},{"code":0,"indent":1,"parameters":[]},{"code":411,"indent":0,"parameters":[]},{"code":356,"indent":1,"parameters":["changeSaveFont Glitch"]},{"code":101,"indent":1,"parameters":["",0,1,1]},{"code":401,"indent":1,"parameters":["<CENTER>\\Shake\\c[18]WHO DID YOU EXPECT?"]},{"code":401,"indent":1,"parameters":["I TOLD YOU BEFORE<br>"]},{"code":401,"indent":1,"parameters":["THAT I'M ALWAYS HERE. YOU"]},{"code":401,"indent":1,"parameters":["CAN'T<br> GET RID OF ME!"]},{"code":0,"indent":1,"parameters":[]},{"code":412,"indent":0,"parameters":[]},{"code":251,"indent":0,"parameters":[]},{"code":250,"indent":0,"parameters":[{"name":"a_anything","pan":0,"pitch":100,"volume":100}]},{"code":111,"indent":0,"parameters":[0,128,0]},{"code":101,"indent":1,"parameters":["",0,1,1]},{"code":401,"indent":1,"parameters":["\\c[18]AND YOU HAVEN'T SEEN ANYTHING YET!"]},{"code":0,"indent":1,"parameters":[]},{"code":411,"indent":0,"parameters":[]},{"code":356,"indent":1,"parameters":["changeSaveFont Glitch"]},{"code":101,"indent":1,"parameters":["",0,1,1]},{"code":401,"indent":1,"parameters":["<CENTER>\\Shake\\c[18]AND YOU HAVEN'T "]},{"code":401,"indent":1,"parameters":["SEEN ANYTHING YET!"]},{"code":0,"indent":1,"parameters":[]},{"code":412,"indent":0,"parameters":[]},{"code":251,"indent":0,"parameters":[]},{"code":250,"indent":0,"parameters":[{"name":"a_control","pan":0,"pitch":100,"volume":100}]},{"code":111,"indent":0,"parameters":[0,128,0]},{"code":101,"indent":1,"parameters":["",0,1,1]},{"code":401,"indent":1,"parameters":["\\c[18]\\a[c]FINALLY, I AM IN CONTROL OF WIRELAND! AND THERE IS"]},{"code":401,"indent":1,"parameters":["NOTHING YOU OR YOUR LITTLE FRIENDS CAN DO TO "]},{"code":401,"indent":1,"parameters":["STOP ME!!!"]},{"code":0,"indent":1,"parameters":[]},{"code":411,"indent":0,"parameters":[]},{"code":356,"indent":1,"parameters":["changeSaveFont Glitch"]},{"code":101,"indent":1,"parameters":["",0,1,1]},{"code":401,"indent":1,"parameters":["<CENTER>\\Shake\\c[18]FINALLY! I AM IN CONTROL OF WIRELAND! AND <br>THERE IS"]},{"code":401,"indent":1,"parameters":["NOTHING YOU OR YOUR LITTLE"]},{"code":401,"indent":1,"parameters":["<br>FRIENDS CAN DO TO STOP ME! "]},{"code":0,"indent":1,"parameters":[]},{"code":412,"indent":0,"parameters":[]},{"code":251,"indent":0,"parameters":[]},{"code":235,"indent":0,"parameters":[1]},{"code":250,"indent":0,"parameters":[{"name":"a_laugh1","pan":0,"pitch":100,"volume":90}]},{"code":111,"indent":0,"parameters":[0,128,0]},{"code":356,"indent":1,"parameters":["changeSaveFont verdana"]},{"code":0,"indent":1,"parameters":[]},{"code":411,"indent":0,"parameters":[]},{"code":356,"indent":1,"parameters":["changeSaveFont Fiery_Turk"]},{"code":0,"indent":1,"parameters":[]},{"code":412,"indent":0,"parameters":[]},{"code":101,"indent":0,"parameters":["fc_wjyellow",2,0,2]},{"code":401,"indent":0,"parameters":["Anti, why? Why are you doing this??"]},{"code":251,"indent":0,"parameters":[]},{"code":230,"indent":0,"parameters":[60]},{"code":235,"indent":0,"parameters":[1]},{"code":250,"indent":0,"parameters":[{"name":"glitch4","pan":0,"pitch":100,"volume":100}]},{"code":356,"indent":0,"parameters":["HorrorEffects $gameScreen Remove Glitch"]},{"code":356,"indent":0,"parameters":["HorrorEffects $gameMap.event(4) Remove TV"]},{"code":356,"indent":0,"parameters":["HorrorEffects $gameScreen Remove Noise"]},{"code":356,"indent":0,"parameters":["HorrorEffects $gameScreen Remove Glitch"]},{"code":231,"indent":0,"parameters":[1,"g1",0,0,0,0,100,100,255,0]},{"code":230,"indent":0,"parameters":[5]},{"code":231,"indent":0,"parameters":[1,"g2",0,0,0,0,100,100,255,0]},{"code":230,"indent":0,"parameters":[5]},{"code":231,"indent":0,"parameters":[1,"g3",0,0,0,0,100,100,255,0]},{"code":230,"indent":0,"parameters":[5]},{"code":231,"indent":0,"parameters":[1,"g4",0,0,0,0,100,100,255,0]},{"code":230,"indent":0,"parameters":[5]},{"code":231,"indent":0,"parameters":[1,"g5",0,0,0,0,100,100,255,0]},{"code":230,"indent":0,"parameters":[5]},{"code":231,"indent":0,"parameters":[1,"g6",0,0,0,0,100,100,255,0]},{"code":230,"indent":0,"parameters":[5]},{"code":235,"indent":0,"parameters":[1]},{"code":223,"indent":0,"parameters":[[0,0,0,0],1,false]},{"code":230,"indent":0,"parameters":[60]},{"code":101,"indent":0,"parameters":["4fc_cliffgreen2",2,0,2]},{"code":401,"indent":0,"parameters":["Looks like we're not going to get an explanation."]},{"code":101,"indent":0,"parameters":["fc_wjyellow",2,0,2]},{"code":401,"indent":0,"parameters":["Jack, I... I don't know what to do. You have to help me!"]},{"code":101,"indent":0,"parameters":["fc_wjyellow",2,0,2]},{"code":401,"indent":0,"parameters":["If he takes over Wireland, we're finished. All your games,"]},{"code":401,"indent":0,"parameters":["everyone here. They're all gone. Forever!"]},{"code":101,"indent":0,"parameters":["1fc_jack1",4,0,2]},{"code":401,"indent":0,"parameters":["Please, calm down. Of course I'll help you, Mack. I can't"]},{"code":401,"indent":0,"parameters":["just leave Wireland defenseless, not after everything"]},{"code":401,"indent":0,"parameters":["we've been through."]},{"code":101,"indent":0,"parameters":["fc_wjyellow",13,0,2]},{"code":401,"indent":0,"parameters":["Thank you. Thank you so much."]},{"code":101,"indent":0,"parameters":["3fc_jenny1",15,0,2]},{"code":401,"indent":0,"parameters":["So what can we do?"]},{"code":101,"indent":0,"parameters":["fc_wjyellow",5,0,2]},{"code":401,"indent":0,"parameters":["U-umm... look around. Maybe he left a clue as to where"]},{"code":401,"indent":0,"parameters":["he is or how he's doing this or where he'll strike next."]},{"code":101,"indent":0,"parameters":["1fc_jack1",1,0,2]},{"code":401,"indent":0,"parameters":["We can do that!"]},{"code":242,"indent":0,"parameters":[2]},{"code":221,"indent":0,"parameters":[]},{"code":129,"indent":0,"parameters":[2,1,0]},{"code":129,"indent":0,"parameters":[3,1,0]},{"code":129,"indent":0,"parameters":[4,1,0]},{"code":121,"indent":0,"parameters":[78,78,0]},{"code":222,"indent":0,"parameters":[]},{"code":101,"indent":0,"parameters":["1fc_jack1",5,0,2]},{"code":401,"indent":0,"parameters":["Well, now everyone's dispersed... I've never actually"]},{"code":401,"indent":0,"parameters":["investigated a crime scene. I wouldn't even know"]},{"code":401,"indent":0,"parameters":["where to start."]},{"code":101,"indent":0,"parameters":["fc_wjyellow",14,0,2]},{"code":401,"indent":0,"parameters":["Don't worry about that. I called in the best of the best."]},{"code":101,"indent":0,"parameters":["1fc_jack1",0,0,2]},{"code":401,"indent":0,"parameters":["Oh? Who is that?"]},{"code":231,"indent":0,"parameters":[4,"Conk",0,0,0,10,100,100,0,0]},{"code":232,"indent":0,"parameters":[4,0,0,0,0,0,100,100,255,0,30,true]},{"code":241,"indent":0,"parameters":[{"name":"mus_asbc","pan":0,"pitch":100,"volume":60}]},{"code":205,"indent":0,"parameters":[-1,{"list":[{"code":16,"indent":null,"parameters":[]},{"code":0,"indent":null,"parameters":[]}],"repeat":false,"skippable":false,"wait":false}]},{"code":505,"indent":0,"parameters":[{"code":16,"indent":null,"parameters":[]}]},{"code":203,"indent":0,"parameters":[8,0,9,14,8]},{"code":203,"indent":0,"parameters":[9,0,11,14,8]},{"code":205,"indent":0,"parameters":[9,{"list":[{"code":41,"indent":null,"parameters":["spr_dbh",4]},{"code":29,"indent":null,"parameters":[4]},{"code":4,"indent":null,"parameters":[]},{"code":4,"indent":null,"parameters":[]},{"code":4,"indent":null,"parameters":[]},{"code":0,"indent":null,"parameters":[]}],"repeat":false,"skippable":false,"wait":false}]},{"code":505,"indent":0,"parameters":[{"code":41,"indent":null,"parameters":["spr_dbh",4]}]},{"code":505,"indent":0,"parameters":[{"code":29,"indent":null,"parameters":[4]}]},{"code":505,"indent":0,"parameters":[{"code":4,"indent":null,"parameters":[]}]},{"code":505,"indent":0,"parameters":[{"code":4,"indent":null,"parameters":[]}]},{"code":505,"indent":0,"parameters":[{"code":4,"indent":null,"parameters":[]}]},{"code":205,"indent":0,"parameters":[8,{"list":[{"code":41,"indent":null,"parameters":["spr_dbh",0]},{"code":29,"indent":null,"parameters":[4]},{"code":4,"indent":null,"parameters":[]},{"code":4,"indent":null,"parameters":[]},{"code":4,"indent":null,"parameters":[]},{"code":0,"indent":null,"parameters":[]}],"repeat":false,"skippable":false,"wait":false}]},{"code":505,"indent":0,"parameters":[{"code":41,"indent":null,"parameters":["spr_dbh",0]}]},{"code":505,"indent":0,"parameters":[{"code":29,"indent":null,"parameters":[4]}]},{"code":505,"indent":0,"parameters":[{"code":4,"indent":null,"parameters":[]}]},{"code":505,"indent":0,"parameters":[{"code":4,"indent":null,"parameters":[]}]},{"code":505,"indent":0,"parameters":[{"code":4,"indent":null,"parameters":[]}]},{"code":250,"indent":0,"parameters":[{"name":"cnr_asbcl","pan":0,"pitch":100,"volume":90}]},{"code":101,"indent":0,"parameters":["fc_connornpc",0,0,2]},{"code":401,"indent":0,"parameters":["Hello. My name is Connor. I am the android sent by"]},{"code":401,"indent":0,"parameters":["Cyberlife."]},{"code":251,"indent":0,"parameters":[]},{"code":232,"indent":0,"parameters":[4,0,0,0,0,10,100,100,0,0,30,true]},{"code":235,"indent":0,"parameters":[4]},{"code":213,"indent":0,"parameters":[-1,4,false]},{"code":205,"indent":0,"parameters":[-1,{"list":[{"code":29,"indent":null,"parameters":[5]},{"code":41,"indent":null,"parameters":["spr_jackspression1",4]},{"code":33,"indent":null,"parameters":[]},{"code":0,"indent":null,"parameters":[]}],"repeat":false,"skippable":false,"wait":false}]},{"code":505,"indent":0,"parameters":[{"code":29,"indent":null,"parameters":[5]}]},{"code":505,"indent":0,"parameters":[{"code":41,"indent":null,"parameters":["spr_jackspression1",4]}]},{"code":505,"indent":0,"parameters":[{"code":33,"indent":null,"parameters":[]}]},{"code":101,"indent":0,"parameters":["1fc_jack1",10,0,0]},{"code":401,"indent":0,"parameters":["It... he... IT'S YOU!! MY BOY!!"]},{"code":101,"indent":0,"parameters":["fc_connornpc",0,0,0]},{"code":401,"indent":0,"parameters":["You must be Jack. I was hoping to get to meet you."]},{"code":101,"indent":0,"parameters":["fc_connornpc",5,0,0]},{"code":401,"indent":0,"parameters":["Though I suppose we could have met under better"]},{"code":401,"indent":0,"parameters":["circumstances."]},{"code":101,"indent":0,"parameters":["2fc_billy1",2,0,0]},{"code":401,"indent":0,"parameters":["No kidding."]},{"code":101,"indent":0,"parameters":["fc_hankmarkus",0,0,0]},{"code":401,"indent":0,"parameters":["Wow. This place looks like shit."]},{"code":205,"indent":0,"parameters":[-1,{"list":[{"code":34,"indent":null,"parameters":[]},{"code":41,"indent":null,"parameters":["spr_jackspression1",2]},{"code":29,"indent":null,"parameters":[4]},{"code":0,"indent":null,"parameters":[]}],"repeat":false,"skippable":false,"wait":false}]},{"code":505,"indent":0,"parameters":[{"code":34,"indent":null,"parameters":[]}]},{"code":505,"indent":0,"parameters":[{"code":41,"indent":null,"parameters":["spr_jackspression1",2]}]},{"code":505,"indent":0,"parameters":[{"code":29,"indent":null,"parameters":[4]}]},{"code":101,"indent":0,"parameters":["1fc_jack1",2,0,0]},{"code":401,"indent":0,"parameters":["I guess Evie's broken. Figures."]},{"code":101,"indent":0,"parameters":["fc_connornpc",6,0,0]},{"code":401,"indent":0,"parameters":["It looks like there's been a serious disturbance. Allow me"]},{"code":401,"indent":0,"parameters":["to look around and try to find the source."]},{"code":101,"indent":0,"parameters":["4fc_cliffgreen1",3,0,0]},{"code":401,"indent":0,"parameters":["Wow, a real investigation with Connor and Hank? This is"]},{"code":401,"indent":0,"parameters":["the best day ever!!"]},{"code":205,"indent":0,"parameters":[-1,{"list":[{"code":41,"indent":null,"parameters":["spr_possepticeye",1]},{"code":0,"indent":null,"parameters":[]}],"repeat":false,"skippable":false,"wait":false}]},{"code":505,"indent":0,"parameters":[{"code":41,"indent":null,"parameters":["spr_possepticeye",1]}]},{"code":101,"indent":0,"parameters":["1fc_jack1",0,0,0]},{"code":401,"indent":0,"parameters":["So what can I do?"]},{"code":101,"indent":0,"parameters":["fc_connornpc",5,0,0]},{"code":401,"indent":0,"parameters":["Take a look around the room. It is possible that we might"]},{"code":401,"indent":0,"parameters":["miss something. Just have everyone tell you what they"]},{"code":401,"indent":0,"parameters":["find too and relay it to me."]},{"code":101,"indent":0,"parameters":["1fc_jack1",1,0,0]},{"code":401,"indent":0,"parameters":["Got it!"]},{"code":221,"indent":0,"parameters":[]},{"code":205,"indent":0,"parameters":[8,{"list":[{"code":37,"indent":null,"parameters":[]},{"code":39,"indent":null,"parameters":[]},{"code":0,"indent":null,"parameters":[]}],"repeat":false,"skippable":false,"wait":false}]},{"code":505,"indent":0,"parameters":[{"code":37,"indent":null,"parameters":[]}]},{"code":505,"indent":0,"parameters":[{"code":39,"indent":null,"parameters":[]}]},{"code":205,"indent":0,"parameters":[9,{"list":[{"code":37,"indent":null,"parameters":[]},{"code":39,"indent":null,"parameters":[]},{"code":0,"indent":null,"parameters":[]}],"repeat":false,"skippable":false,"wait":false}]},{"code":505,"indent":0,"parameters":[{"code":37,"indent":null,"parameters":[]}]},{"code":505,"indent":0,"parameters":[{"code":39,"indent":null,"parameters":[]}]},{"code":203,"indent":0,"parameters":[10,0,11,5,8]},{"code":203,"indent":0,"parameters":[8,0,17,0,0]},{"code":121,"indent":0,"parameters":[200,200,0]},{"code":121,"indent":0,"parameters":[68,68,0]},{"code":222,"indent":0,"parameters":[]},{"code":123,"indent":0,"parameters":["A",0]},{"code":0,"indent":0,"parameters":[]}]},{"conditions":{"actorId":1,"actorValid":false,"itemId":1,"itemValid":false,"selfSwitchCh":"A","selfSwitchValid":true,"switch1Id":1,"switch1Valid":false,"switch2Id":1,"switch2Valid":false,"variableId":1,"variableValid":false,"variableValue":0},"directionFix":false,"image":{"tileId":0,"characterName":"","direction":2,"pattern":0,"characterIndex":0},"moveFrequency":3,"moveRoute":{"list":[{"code":0,"indent":null,"parameters":[]}],"repeat":true,"skippable":false,"wait":false},"moveSpeed":3,"moveType":0,"priorityType":0,"stepAnime":false,"through":false,"trigger":0,"walkAnime":true,"list":[{"code":0,"indent":0,"parameters":[]}]}],"x":20,"y":0},
{"id":4,"name":"Mack","note":"","pages":[{"conditions":{"actorId":1,"actorValid":false,"itemId":1,"itemValid":false,"selfSwitchCh":"A","selfSwitchValid":false,"switch1Id":1,"switch1Valid":false,"switch2Id":1,"switch2Valid":false,"variableId":1,"variableValid":false,"variableValue":0},"directionFix":false,"image":{"tileId":0,"characterName":"spr_mack","direction":8,"pattern":1,"characterIndex":4},"moveFrequency":3,"moveRoute":{"list":[{"code":0,"indent":null,"parameters":[]}],"repeat":true,"skippable":false,"wait":false},"moveSpeed":5,"moveType":0,"priorityType":1,"stepAnime":false,"through":true,"trigger":0,"walkAnime":true,"list":[{"code":0,"indent":0,"parameters":[]}]},{"conditions":{"actorId":1,"actorValid":false,"itemId":1,"itemValid":false,"selfSwitchCh":"A","selfSwitchValid":false,"switch1Id":68,"switch1Valid":true,"switch2Id":1,"switch2Valid":false,"variableId":1,"variableValid":false,"variableValue":0},"directionFix":false,"image":{"tileId":0,"characterName":"","direction":2,"pattern":0,"characterIndex":0},"moveFrequency":3,"moveRoute":{"list":[{"code":0,"indent":null,"parameters":[]}],"repeat":true,"skippable":false,"wait":false},"moveSpeed":3,"moveType":0,"priorityType":0,"stepAnime":false,"through":false,"trigger":0,"walkAnime":true,"list":[{"code":0,"indent":0,"parameters":[]}]}],"x":10,"y":13},
{"id":5,"name":"EV005","note":"","pages":[{"conditions":{"actorId":1,"actorValid":false,"itemId":1,"itemValid":false,"selfSwitchCh":"A","selfSwitchValid":false,"switch1Id":78,"switch1Valid":true,"switch2Id":1,"switch2Valid":false,"variableId":1,"variableValid":false,"variableValue":0},"directionFix":false,"image":{"tileId":0,"characterName":"spr_possepticeye","direction":2,"pattern":1,"characterIndex":2},"moveFrequency":3,"moveRoute":{"list":[{"code":0,"indent":null,"parameters":[]}],"repeat":true,"skippable":false,"wait":false},"moveSpeed":3,"moveType":0,"priorityType":1,"stepAnime":false,"through":false,"trigger":0,"walkAnime":true,"list":[{"code":101,"indent":0,"parameters":["1fc_jack1",4,0,2]},{"code":401,"indent":0,"parameters":["Notice anything?"]},{"code":101,"indent":0,"parameters":["2fc_billy1",0,0,2]},{"code":401,"indent":0,"parameters":["The mug and the glass on the table were blown back and"]},{"code":401,"indent":0,"parameters":["smashed against the wall and on the floor. But the table"]},{"code":401,"indent":0,"parameters":["itself isn't damaged. Like... at all."]},{"code":101,"indent":0,"parameters":["1fc_jack2",3,0,2]},{"code":401,"indent":0,"parameters":["No damage?"]},{"code":101,"indent":0,"parameters":["2fc_billy1",3,0,2]},{"code":401,"indent":0,"parameters":["Yeah. And what's more, if the console had been blown"]},{"code":401,"indent":0,"parameters":["back by the explosion, why isn't the table dented or"]},{"code":401,"indent":0,"parameters":["anything where the console hit it?"]},{"code":101,"indent":0,"parameters":["1fc_jack1",6,0,2]},{"code":401,"indent":0,"parameters":["That's... a good question."]},{"code":101,"indent":0,"parameters":["2fc_billy1",0,0,2]},{"code":401,"indent":0,"parameters":["Yeah. It's almost like the console blocked it from being"]},{"code":401,"indent":0,"parameters":["damaged, but you'd think getting hit with it would make"]},{"code":401,"indent":0,"parameters":["some mark."]},{"code":101,"indent":0,"parameters":["1fc_jack1",0,0,2]},{"code":401,"indent":0,"parameters":["Well it's a good observation."]},{"code":101,"indent":0,"parameters":["2fc_billy1",2,0,2]},{"code":401,"indent":0,"parameters":["Uhh, thanks I guess."]},{"code":122,"indent":0,"parameters":[35,35,1,0,1]},{"code":123,"indent":0,"parameters":["A",0]},{"code":0,"indent":0,"parameters":[]}]},{"conditions":{"actorId":1,"actorValid":false,"itemId":1,"itemValid":false,"selfSwitchCh":"A","selfSwitchValid":true,"switch1Id":1,"switch1Valid":false,"switch2Id":1,"switch2Valid":false,"variableId":1,"variableValid":false,"variableValue":0},"directionFix":false,"image":{"tileId":0,"characterName":"spr_possepticeye","direction":2,"pattern":1,"characterIndex":2},"moveFrequency":3,"moveRoute":{"list":[{"code":0,"indent":null,"parameters":[]}],"repeat":true,"skippable":false,"wait":false},"moveSpeed":3,"moveType":0,"priorityType":1,"stepAnime":false,"through":false,"trigger":0,"walkAnime":true,"list":[{"code":101,"indent":0,"parameters":["2fc_billy1",3,0,2]},{"code":401,"indent":0,"parameters":["If the console was blown back onto the table, why doesn't"]},{"code":401,"indent":0,"parameters":["the table have a scratch on it?"]},{"code":101,"indent":0,"parameters":["1fc_jack2",3,0,2]},{"code":401,"indent":0,"parameters":["No idea."]},{"code":0,"indent":0,"parameters":[]}]},{"conditions":{"actorId":1,"actorValid":false,"itemId":1,"itemValid":false,"selfSwitchCh":"A","selfSwitchValid":false,"switch1Id":69,"switch1Valid":true,"switch2Id":1,"switch2Valid":false,"variableId":1,"variableValid":false,"variableValue":0},"directionFix":false,"image":{"tileId":0,"characterName":"","direction":2,"pattern":0,"characterIndex":0},"moveFrequency":3,"moveRoute":{"list":[{"code":0,"indent":null,"parameters":[]}],"repeat":true,"skippable":false,"wait":false},"moveSpeed":3,"moveType":0,"priorityType":0,"stepAnime":false,"through":false,"trigger":0,"walkAnime":true,"list":[{"code":0,"indent":0,"parameters":[]}]}],"x":3,"y":6},
{"id":6,"name":"Cliff","note":"","pages":[{"conditions":{"actorId":1,"actorValid":false,"itemId":1,"itemValid":false,"selfSwitchCh":"A","selfSwitchValid":false,"switch1Id":78,"switch1Valid":true,"switch2Id":1,"switch2Valid":false,"variableId":1,"variableValid":false,"variableValue":0},"directionFix":false,"image":{"tileId":0,"characterName":"spr_possepticeye","direction":2,"pattern":1,"characterIndex":5},"moveFrequency":3,"moveRoute":{"list":[{"code":0,"indent":null,"parameters":[]}],"repeat":true,"skippable":false,"wait":false},"moveSpeed":3,"moveType":0,"priorityType":1,"stepAnime":false,"through":false,"trigger":0,"walkAnime":true,"list":[{"code":101,"indent":0,"parameters":["1fc_jack1",0,0,0]},{"code":401,"indent":0,"parameters":["What are you looking at over here?"]},{"code":101,"indent":0,"parameters":["4fc_cliffgreen1",10,0,0]},{"code":401,"indent":0,"parameters":["The window on the door. It's not quite right."]},{"code":101,"indent":0,"parameters":["1fc_jack2",15,0,0]},{"code":401,"indent":0,"parameters":["Not quite right how?"]},{"code":101,"indent":0,"parameters":["4fc_cliffgreen1",5,0,0]},{"code":401,"indent":0,"parameters":["Hmm... Uhh, c'mon outside the office."]},{"code":101,"indent":0,"parameters":["1fc_jack2",15,0,0]},{"code":401,"indent":0,"parameters":["Okay..."]},{"code":201,"indent":0,"parameters":[0,113,11,5,4,0]},{"code":101,"indent":0,"parameters":["1fc_jack2",3,0,2]},{"code":401,"indent":0,"parameters":["So what am I looking at?"]},{"code":101,"indent":0,"parameters":["4fc_cliffgreen1",5,0,2]},{"code":401,"indent":0,"parameters":["The glass from the door. It's all over the place here. But"]},{"code":401,"indent":0,"parameters":["there aren't any shards inside."]},{"code":101,"indent":0,"parameters":["1fc_jack1",5,0,2]},{"code":401,"indent":0,"parameters":["Well yeah, it probably shattered with the explosion."]},{"code":101,"indent":0,"parameters":["4fc_cliffgreen1",10,0,2]},{"code":401,"indent":0,"parameters":["No, I don't think so. No ash on them. No ash on the door."]},{"code":401,"indent":0,"parameters":["Anti deliberately broke it."]},{"code":101,"indent":0,"parameters":["1fc_jack2",1,0,2]},{"code":401,"indent":0,"parameters":["Wait... could he have done that to look like a break-in?"]},{"code":101,"indent":0,"parameters":["4fc_cliffgreen2",2,0,2]},{"code":401,"indent":0,"parameters":["I guess that makes sense but... that means he got in"]},{"code":401,"indent":0,"parameters":["another way and smashed the glass from the inside."]},{"code":101,"indent":0,"parameters":["1fc_jack2",15,0,2]},{"code":401,"indent":0,"parameters":["Why go to that trouble and then reveal yourself right"]},{"code":401,"indent":0,"parameters":["away? If someone broke in, it could be anyone, but I"]},{"code":401,"indent":0,"parameters":["mean... he made it pretty clear it was him."]},{"code":101,"indent":0,"parameters":["4fc_cliffgreen2",1,0,2]},{"code":401,"indent":0,"parameters":["I'm not sure."]},{"code":101,"indent":0,"parameters":["1fc_jack1",0,0,2]},{"code":401,"indent":0,"parameters":["Well thanks, that was really useful."]},{"code":101,"indent":0,"parameters":["4fc_cliffgreen1",4,0,2]},{"code":401,"indent":0,"parameters":["It was nothing, really. Just noticed it, that's all."]},{"code":201,"indent":0,"parameters":[0,124,10,13,4,0]},{"code":122,"indent":0,"parameters":[35,35,1,0,1]},{"code":123,"indent":0,"parameters":["A",0]},{"code":0,"indent":0,"parameters":[]}]},{"conditions":{"actorId":1,"actorValid":false,"itemId":1,"itemValid":false,"selfSwitchCh":"A","selfSwitchValid":true,"switch1Id":1,"switch1Valid":false,"switch2Id":1,"switch2Valid":false,"variableId":1,"variableValid":false,"variableValue":0},"directionFix":false,"image":{"tileId":0,"characterName":"spr_possepticeye","direction":2,"pattern":1,"characterIndex":5},"moveFrequency":3,"moveRoute":{"list":[{"code":0,"indent":null,"parameters":[]}],"repeat":true,"skippable":false,"wait":false},"moveSpeed":3,"moveType":0,"priorityType":1,"stepAnime":false,"through":false,"trigger":0,"walkAnime":true,"list":[{"code":101,"indent":0,"parameters":["4fc_cliffgreen1",13,0,0]},{"code":401,"indent":0,"parameters":["Why would Anti break the glass here to make it look like"]},{"code":401,"indent":0,"parameters":["a break-in and then reveal himself later?"]},{"code":101,"indent":0,"parameters":["1fc_jack2",15,0,0]},{"code":401,"indent":0,"parameters":["I have no idea."]},{"code":0,"indent":0,"parameters":[]}]},{"conditions":{"actorId":1,"actorValid":false,"itemId":1,"itemValid":false,"selfSwitchCh":"A","selfSwitchValid":false,"switch1Id":69,"switch1Valid":true,"switch2Id":1,"switch2Valid":false,"variableId":1,"variableValid":false,"variableValue":0},"directionFix":false,"image":{"tileId":0,"characterName":"","direction":2,"pattern":0,"characterIndex":0},"moveFrequency":3,"moveRoute":{"list":[{"code":0,"indent":null,"parameters":[]}],"repeat":true,"skippable":false,"wait":false},"moveSpeed":3,"moveType":0,"priorityType":0,"stepAnime":false,"through":false,"trigger":0,"walkAnime":true,"list":[{"code":0,"indent":0,"parameters":[]}]}],"x":10,"y":14},
{"id":7,"name":"Jenny","note":"","pages":[{"conditions":{"actorId":1,"actorValid":false,"itemId":1,"itemValid":false,"selfSwitchCh":"A","selfSwitchValid":false,"switch1Id":78,"switch1Valid":true,"switch2Id":1,"switch2Valid":false,"variableId":1,"variableValid":false,"variableValue":0},"directionFix":false,"image":{"tileId":0,"characterName":"spr_possepticeye","direction":4,"pattern":1,"characterIndex":7},"moveFrequency":3,"moveRoute":{"list":[{"code":0,"indent":null,"parameters":[]}],"repeat":true,"skippable":false,"wait":false},"moveSpeed":3,"moveType":0,"priorityType":1,"stepAnime":false,"through":false,"trigger":0,"walkAnime":true,"list":[{"code":101,"indent":0,"parameters":["1fc_jack1",4,0,2]},{"code":401,"indent":0,"parameters":["So what do you think could have happened in here?"]},{"code":101,"indent":0,"parameters":["3fc_jenny1",4,0,2]},{"code":401,"indent":0,"parameters":["I'm not sure. Just looking at this control panel, it seems"]},{"code":401,"indent":0,"parameters":["off to me."]},{"code":101,"indent":0,"parameters":["1fc_jack1",5,0,2]},{"code":401,"indent":0,"parameters":["Off how?"]},{"code":101,"indent":0,"parameters":["3fc_jenny1",4,0,2]},{"code":401,"indent":0,"parameters":["Well... I'm not a detective but I noticed that the control"]},{"code":401,"indent":0,"parameters":["panel is broken rather cleanly. Like someone cut it with"]},{"code":401,"indent":0,"parameters":["something. And if it was that close to the explosion, there"]},{"code":401,"indent":0,"parameters":["would be ash on it, right?"]},{"code":101,"indent":0,"parameters":["1fc_jack2",1,0,2]},{"code":401,"indent":0,"parameters":["That's a keen observation. You think Anti might have"]},{"code":401,"indent":0,"parameters":["moved the panel before setting off the bomb?"]},{"code":101,"indent":0,"parameters":["3fc_jenny1",2,0,2]},{"code":401,"indent":0,"parameters":["I really don't know what to think. I mean I love mystery"]},{"code":401,"indent":0,"parameters":["games, but they're about as close as I've been to a real"]},{"code":401,"indent":0,"parameters":["investigation."]},{"code":101,"indent":0,"parameters":["1fc_jack1",0,0,2]},{"code":401,"indent":0,"parameters":["Well yeah but I think it's a good observation anyway."]},{"code":101,"indent":0,"parameters":["3fc_jenny1",0,0,2]},{"code":401,"indent":0,"parameters":["Thanks."]},{"code":122,"indent":0,"parameters":[35,35,1,0,1]},{"code":123,"indent":0,"parameters":["A",0]},{"code":0,"indent":0,"parameters":[]}]},{"conditions":{"actorId":1,"actorValid":false,"itemId":1,"itemValid":false,"selfSwitchCh":"A","selfSwitchValid":true,"switch1Id":1,"switch1Valid":false,"switch2Id":1,"switch2Valid":false,"variableId":1,"variableValid":false,"variableValue":0},"directionFix":false,"image":{"tileId":0,"characterName":"spr_possepticeye","direction":4,"pattern":1,"characterIndex":7},"moveFrequency":3,"moveRoute":{"list":[{"code":0,"indent":null,"parameters":[]}],"repeat":true,"skippable":false,"wait":false},"moveSpeed":3,"moveType":0,"priorityType":1,"stepAnime":false,"through":false,"trigger":0,"walkAnime":true,"list":[{"code":101,"indent":0,"parameters":["3fc_jenny1",4,0,2]},{"code":401,"indent":0,"parameters":["It looks like someone might have broken the control"]},{"code":401,"indent":0,"parameters":["panel and placed it before the explosion. But why would"]},{"code":401,"indent":0,"parameters":["they do that?"]},{"code":0,"indent":0,"parameters":[]}]},{"conditions":{"actorId":1,"actorValid":false,"itemId":1,"itemValid":false,"selfSwitchCh":"A","selfSwitchValid":false,"switch1Id":69,"switch1Valid":true,"switch2Id":1,"switch2Valid":false,"variableId":1,"variableValid":false,"variableValue":0},"directionFix":false,"image":{"tileId":0,"characterName":"","direction":2,"pattern":0,"characterIndex":0},"moveFrequency":3,"moveRoute":{"list":[{"code":0,"indent":null,"parameters":[]}],"repeat":true,"skippable":false,"wait":false},"moveSpeed":3,"moveType":0,"priorityType":0,"stepAnime":false,"through":false,"trigger":0,"walkAnime":true,"list":[{"code":0,"indent":0,"parameters":[]}]}],"x":7,"y":8},
{"id":8,"name":"Connor","note":"","pages":[{"conditions":{"actorId":1,"actorValid":false,"itemId":1,"itemValid":false,"selfSwitchCh":"A","selfSwitchValid":false,"switch1Id":1,"switch1Valid":false,"switch2Id":1,"switch2Valid":false,"variableId":1,"variableValid":false,"variableValue":0},"directionFix":false,"image":{"tileId":0,"characterName":"spr_bullets","direction":2,"pattern":1,"characterIndex":1},"moveFrequency":3,"moveRoute":{"list":[{"code":0,"indent":null,"parameters":[]}],"repeat":true,"skippable":false,"wait":false},"moveSpeed":3,"moveType":0,"priorityType":1,"stepAnime":false,"through":true,"trigger":0,"walkAnime":true,"list":[{"code":0,"indent":0,"parameters":[]}]}],"x":18,"y":0},
{"id":9,"name":"Hank","note":"","pages":[{"conditions":{"actorId":1,"actorValid":false,"itemId":1,"itemValid":false,"selfSwitchCh":"A","selfSwitchValid":false,"switch1Id":1,"switch1Valid":false,"switch2Id":1,"switch2Valid":false,"variableId":1,"variableValid":false,"variableValue":0},"directionFix":false,"image":{"tileId":0,"characterName":"spr_bullets","direction":2,"pattern":1,"characterIndex":1},"moveFrequency":3,"moveRoute":{"list":[{"code":0,"indent":null,"parameters":[]}],"repeat":true,"skippable":false,"wait":false},"moveSpeed":3,"moveType":0,"priorityType":1,"stepAnime":false,"through":true,"trigger":0,"walkAnime":true,"list":[{"code":0,"indent":0,"parameters":[]}]}],"x":17,"y":0},
{"id":10,"name":"Other Hank","note":"","pages":[{"conditions":{"actorId":1,"actorValid":false,"itemId":1,"itemValid":false,"selfSwitchCh":"A","selfSwitchValid":false,"switch1Id":68,"switch1Valid":true,"switch2Id":1,"switch2Valid":false,"variableId":1,"variableValid":false,"variableValue":0},"directionFix":false,"image":{"tileId":0,"characterName":"spr_dbh","direction":8,"pattern":1,"characterIndex":4},"moveFrequency":3,"moveRoute":{"list":[{"code":0,"indent":null,"parameters":[]}],"repeat":true,"skippable":false,"wait":false},"moveSpeed":3,"moveType":0,"priorityType":1,"stepAnime":false,"through":false,"trigger":0,"walkAnime":true,"list":[{"code":101,"indent":0,"parameters":["1fc_jack1",0,0,2]},{"code":401,"indent":0,"parameters":["See anything?"]},{"code":101,"indent":0,"parameters":["fc_hankmarkus",0,0,2]},{"code":401,"indent":0,"parameters":["Yeah. Was there anything in this office by the window?"]},{"code":101,"indent":0,"parameters":["fc_wjyellow",5,0,2]},{"code":401,"indent":0,"parameters":["Some candles, a plush frog, and lawbooks. Why do you"]},{"code":401,"indent":0,"parameters":["ask?"]},{"code":101,"indent":0,"parameters":["fc_hankmarkus",4,0,2]},{"code":401,"indent":0,"parameters":["I saw indentations on the edge of the carpet. And that's"]},{"code":401,"indent":0,"parameters":["not the kinda shit Anti'd be interested in so he must've"]},{"code":401,"indent":0,"parameters":["pushed it out the window or it got blown out by the"]},{"code":401,"indent":0,"parameters":["explosion."]},{"code":101,"indent":0,"parameters":["1fc_jack2",15,0,2]},{"code":401,"indent":0,"parameters":["But why?"]},{"code":101,"indent":0,"parameters":["fc_hankmarkus",5,0,2]},{"code":401,"indent":0,"parameters":["Hell if I know."]},{"code":101,"indent":0,"parameters":["1fc_jack1",4,0,2]},{"code":401,"indent":0,"parameters":["Well... that's probably worth noting."]},{"code":122,"indent":0,"parameters":[35,35,1,0,1]},{"code":123,"indent":0,"parameters":["A",0]},{"code":0,"indent":0,"parameters":[]}]},{"conditions":{"actorId":1,"actorValid":false,"itemId":1,"itemValid":false,"selfSwitchCh":"A","selfSwitchValid":true,"switch1Id":1,"switch1Valid":false,"switch2Id":1,"switch2Valid":false,"variableId":1,"variableValid":false,"variableValue":0},"directionFix":false,"image":{"tileId":0,"characterName":"spr_dbh","direction":8,"pattern":1,"characterIndex":4},"moveFrequency":3,"moveRoute":{"list":[{"code":0,"indent":null,"parameters":[]}],"repeat":true,"skippable":false,"wait":false},"moveSpeed":3,"moveType":0,"priorityType":1,"stepAnime":false,"through":false,"trigger":0,"walkAnime":true,"list":[{"code":101,"indent":0,"parameters":["fc_hankmarkus",0,0,2]},{"code":401,"indent":0,"parameters":["Something was here but it either got stolen or blown out"]},{"code":401,"indent":0,"parameters":["the window."]},{"code":0,"indent":0,"parameters":[]}]},{"conditions":{"actorId":1,"actorValid":false,"itemId":1,"itemValid":false,"selfSwitchCh":"A","selfSwitchValid":false,"switch1Id":69,"switch1Valid":true,"switch2Id":1,"switch2Valid":false,"variableId":1,"variableValid":false,"variableValue":0},"directionFix":false,"image":{"tileId":0,"characterName":"","direction":2,"pattern":0,"characterIndex":0},"moveFrequency":3,"moveRoute":{"list":[{"code":0,"indent":null,"parameters":[]}],"repeat":true,"skippable":false,"wait":false},"moveSpeed":3,"moveType":0,"priorityType":0,"stepAnime":false,"through":false,"trigger":0,"walkAnime":true,"list":[{"code":0,"indent":0,"parameters":[]}]}],"x":11,"y":5},
{"id":11,"name":"Other Connor","note":"","pages":[{"conditions":{"actorId":1,"actorValid":false,"itemId":1,"itemValid":false,"selfSwitchCh":"A","selfSwitchValid":false,"switch1Id":68,"switch1Valid":true,"switch2Id":1,"switch2Valid":false,"variableId":1,"variableValid":false,"variableValue":0},"directionFix":true,"image":{"tileId":0,"characterName":"spr_connorchase","direction":4,"pattern":2,"characterIndex":1},"moveFrequency":3,"moveRoute":{"list":[{"code":0,"indent":null,"parameters":[]}],"repeat":true,"skippable":false,"wait":false},"moveSpeed":3,"moveType":0,"priorityType":1,"stepAnime":false,"through":false,"trigger":0,"walkAnime":true,"list":[{"code":101,"indent":0,"parameters":["fc_connornpc",4,0,2]},{"code":401,"indent":0,"parameters":["I'm still checking out the center of the explosion. I'll let"]},{"code":401,"indent":0,"parameters":["you know if I find anything."]},{"code":0,"indent":0,"parameters":[]}]},{"conditions":{"actorId":1,"actorValid":false,"itemId":1,"itemValid":false,"selfSwitchCh":"A","selfSwitchValid":false,"switch1Id":1,"switch1Valid":false,"switch2Id":1,"switch2Valid":false,"variableId":51,"variableValid":true,"variableValue":1},"directionFix":false,"image":{"tileId":0,"characterName":"spr_connorchase","direction":2,"pattern":1,"characterIndex":1},"moveFrequency":3,"moveRoute":{"list":[{"code":0,"indent":null,"parameters":[]}],"repeat":true,"skippable":false,"wait":false},"moveSpeed":3,"moveType":0,"priorityType":1,"stepAnime":false,"through":false,"trigger":0,"walkAnime":true,"list":[{"code":0,"indent":0,"parameters":[]}]},{"conditions":{"actorId":1,"actorValid":false,"itemId":1,"itemValid":false,"selfSwitchCh":"A","selfSwitchValid":false,"switch1Id":1,"switch1Valid":false,"switch2Id":1,"switch2Valid":false,"variableId":51,"variableValid":true,"variableValue":2},"directionFix":false,"image":{"tileId":0,"characterName":"spr_connorchase","direction":4,"pattern":2,"characterIndex":1},"moveFrequency":3,"moveRoute":{"list":[{"code":0,"indent":null,"parameters":[]}],"repeat":true,"skippable":false,"wait":false},"moveSpeed":3,"moveType":0,"priorityType":1,"stepAnime":false,"through":false,"trigger":0,"walkAnime":true,"list":[{"code":0,"indent":0,"parameters":[]}]},{"conditions":{"actorId":1,"actorValid":false,"itemId":1,"itemValid":false,"selfSwitchCh":"A","selfSwitchValid":false,"switch1Id":1,"switch1Valid":false,"switch2Id":1,"switch2Valid":false,"variableId":51,"variableValid":true,"variableValue":3},"directionFix":false,"image":{"tileId":0,"characterName":"spr_connorchase","direction":4,"pattern":1,"characterIndex":1},"moveFrequency":3,"moveRoute":{"list":[{"code":0,"indent":null,"parameters":[]}],"repeat":true,"skippable":false,"wait":false},"moveSpeed":3,"moveType":0,"priorityType":1,"stepAnime":false,"through":false,"trigger":0,"walkAnime":true,"list":[{"code":0,"indent":0,"parameters":[]}]},{"conditions":{"actorId":1,"actorValid":false,"itemId":1,"itemValid":false,"selfSwitchCh":"A","selfSwitchValid":false,"switch1Id":1,"switch1Valid":false,"switch2Id":1,"switch2Valid":false,"variableId":51,"variableValid":true,"variableValue":4},"directionFix":false,"image":{"tileId":0,"characterName":"spr_connorchase","direction":6,"pattern":0,"characterIndex":1},"moveFrequency":3,"moveRoute":{"list":[{"code":0,"indent":null,"parameters":[]}],"repeat":true,"skippable":false,"wait":false},"moveSpeed":3,"moveType":0,"priorityType":1,"stepAnime":false,"through":false,"trigger":0,"walkAnime":true,"list":[{"code":0,"indent":0,"parameters":[]}]},{"conditions":{"actorId":1,"actorValid":false,"itemId":1,"itemValid":false,"selfSwitchCh":"A","selfSwitchValid":false,"switch1Id":1,"switch1Valid":false,"switch2Id":1,"switch2Valid":false,"variableId":51,"variableValid":true,"variableValue":5},"directionFix":false,"image":{"tileId":0,"characterName":"spr_connorchase","direction":6,"pattern":1,"characterIndex":1},"moveFrequency":3,"moveRoute":{"list":[{"code":0,"indent":null,"parameters":[]}],"repeat":true,"skippable":false,"wait":false},"moveSpeed":3,"moveType":0,"priorityType":1,"stepAnime":false,"through":false,"trigger":0,"walkAnime":true,"list":[{"code":0,"indent":0,"parameters":[]}]},{"conditions":{"actorId":1,"actorValid":false,"itemId":1,"itemValid":false,"selfSwitchCh":"A","selfSwitchValid":false,"switch1Id":1,"switch1Valid":false,"switch2Id":1,"switch2Valid":false,"variableId":51,"variableValid":true,"variableValue":6},"directionFix":false,"image":{"tileId":0,"characterName":"spr_connorchase","direction":8,"pattern":1,"characterIndex":1},"moveFrequency":3,"moveRoute":{"list":[{"code":0,"indent":null,"parameters":[]}],"repeat":true,"skippable":false,"wait":false},"moveSpeed":3,"moveType":0,"priorityType":1,"stepAnime":false,"through":false,"trigger":0,"walkAnime":true,"list":[{"code":0,"indent":0,"parameters":[]}]},{"conditions":{"actorId":1,"actorValid":false,"itemId":1,"itemValid":false,"selfSwitchCh":"A","selfSwitchValid":false,"switch1Id":1,"switch1Valid":false,"switch2Id":1,"switch2Valid":false,"variableId":51,"variableValid":true,"variableValue":7},"directionFix":false,"image":{"tileId":0,"characterName":"spr_connorchase","direction":6,"pattern":1,"characterIndex":1},"moveFrequency":3,"moveRoute":{"list":[{"code":0,"indent":null,"parameters":[]}],"repeat":true,"skippable":false,"wait":false},"moveSpeed":3,"moveType":0,"priorityType":1,"stepAnime":false,"through":false,"trigger":0,"walkAnime":true,"list":[{"code":0,"indent":0,"parameters":[]}]},{"conditions":{"actorId":1,"actorValid":false,"itemId":1,"itemValid":false,"selfSwitchCh":"A","selfSwitchValid":false,"switch1Id":1,"switch1Valid":false,"switch2Id":1,"switch2Valid":false,"variableId":51,"variableValid":true,"variableValue":8},"directionFix":false,"image":{"tileId":0,"characterName":"spr_connorchase","direction":6,"pattern":2,"characterIndex":1},"moveFrequency":3,"moveRoute":{"list":[{"code":0,"indent":null,"parameters":[]}],"repeat":true,"skippable":false,"wait":false},"moveSpeed":3,"moveType":0,"priorityType":1,"stepAnime":false,"through":false,"trigger":0,"walkAnime":true,"list":[{"code":0,"indent":0,"parameters":[]}]},{"conditions":{"actorId":1,"actorValid":false,"itemId":1,"itemValid":false,"selfSwitchCh":"A","selfSwitchValid":false,"switch1Id":1,"switch1Valid":false,"switch2Id":1,"switch2Valid":false,"variableId":51,"variableValid":true,"variableValue":9},"directionFix":false,"image":{"tileId":0,"characterName":"spr_connorchase","direction":4,"pattern":0,"characterIndex":1},"moveFrequency":3,"moveRoute":{"list":[{"code":0,"indent":null,"parameters":[]}],"repeat":true,"skippable":false,"wait":false},"moveSpeed":3,"moveType":0,"priorityType":1,"stepAnime":false,"through":false,"trigger":0,"walkAnime":true,"list":[{"code":0,"indent":0,"parameters":[]}]},{"conditions":{"actorId":1,"actorValid":false,"itemId":1,"itemValid":false,"selfSwitchCh":"A","selfSwitchValid":false,"switch1Id":1,"switch1Valid":false,"switch2Id":1,"switch2Valid":false,"variableId":51,"variableValid":true,"variableValue":10},"directionFix":false,"image":{"tileId":0,"characterName":"spr_connorchase","direction":2,"pattern":0,"characterIndex":1},"moveFrequency":3,"moveRoute":{"list":[{"code":0,"indent":null,"parameters":[]}],"repeat":true,"skippable":false,"wait":false},"moveSpeed":3,"moveType":0,"priorityType":1,"stepAnime":false,"through":false,"trigger":0,"walkAnime":true,"list":[{"code":0,"indent":0,"parameters":[]}]},{"conditions":{"actorId":1,"actorValid":false,"itemId":1,"itemValid":false,"selfSwitchCh":"A","selfSwitchValid":false,"switch1Id":1,"switch1Valid":false,"switch2Id":1,"switch2Valid":false,"variableId":51,"variableValid":true,"variableValue":11},"directionFix":false,"image":{"tileId":0,"characterName":"spr_dbh","direction":6,"pattern":1,"characterIndex":0},"moveFrequency":3,"moveRoute":{"list":[{"code":0,"indent":null,"parameters":[]}],"repeat":true,"skippable":false,"wait":false},"moveSpeed":3,"moveType":0,"priorityType":1,"stepAnime":false,"through":false,"trigger":0,"walkAnime":true,"list":[{"code":0,"indent":0,"parameters":[]}]}],"x":13,"y":8},
{"id":12,"name":"Mack","note":"","pages":[{"conditions":{"actorId":1,"actorValid":false,"itemId":1,"itemValid":false,"selfSwitchCh":"A","selfSwitchValid":false,"switch1Id":68,"switch1Valid":true,"switch2Id":1,"switch2Valid":false,"variableId":1,"variableValid":false,"variableValue":0},"directionFix":false,"image":{"tileId":0,"characterName":"spr_mack","direction":2,"pattern":1,"characterIndex":4},"moveFrequency":3,"moveRoute":{"list":[{"code":0,"indent":null,"parameters":[]}],"repeat":true,"skippable":false,"wait":false},"moveSpeed":3,"moveType":0,"priorityType":1,"stepAnime":false,"through":false,"trigger":0,"walkAnime":true,"list":[{"code":101,"indent":0,"parameters":["1fc_jack1",5,0,2]},{"code":401,"indent":0,"parameters":["So have you found any clues?"]},{"code":101,"indent":0,"parameters":["fc_wjyellow",5,0,2]},{"code":401,"indent":0,"parameters":["I'm sorry... I don't see anything useful. But maybe I'm"]},{"code":401,"indent":0,"parameters":["just too scared to notice."]},{"code":101,"indent":0,"parameters":["fc_wjyellow",1,0,2]},{"code":401,"indent":0,"parameters":["Jack... why do you think Anti would do this?"]},{"code":101,"indent":0,"parameters":["1fc_jack1",6,0,2]},{"code":401,"indent":0,"parameters":["I have no idea. He's acting weird, even for him."]},{"code":101,"indent":0,"parameters":["fc_wjyellow",5,0,2]},{"code":401,"indent":0,"parameters":["Weird?"]},{"code":101,"indent":0,"parameters":["1fc_jack2",15,0,2]},{"code":401,"indent":0,"parameters":["He usually works in the shadows. Not right out in the"]},{"code":401,"indent":0,"parameters":["open blowing up offices. Actually, how do egos get here?"]},{"code":401,"indent":0,"parameters":["They're not part of a game."]},{"code":101,"indent":0,"parameters":["fc_wjyellow",13,0,2]},{"code":401,"indent":0,"parameters":["Well, much like you influence canon, your community"]},{"code":401,"indent":0,"parameters":["has a small influence on canon here too. It's sort of the"]},{"code":401,"indent":0,"parameters":["same process by which Billy came to be... himself."]},{"code":101,"indent":0,"parameters":["fc_wjyellow",13,0,2]},{"code":401,"indent":0,"parameters":["Enough attention and they just materialise here. Well, it's"]},{"code":401,"indent":0,"parameters":["more complicated than that. Since they're sort of alter"]},{"code":401,"indent":0,"parameters":["egos of yourself, characters you play, and I'm basically"]},{"code":401,"indent":0,"parameters":["you here, they come directly from me."]},{"code":101,"indent":0,"parameters":["1fc_jack1",15,0,2]},{"code":401,"indent":0,"parameters":["From you? Like... out of you?"]},{"code":101,"indent":0,"parameters":["fc_wjyellow",13,0,2]},{"code":401,"indent":0,"parameters":["No, nothing gross! Just a part of me becomes them. Like"]},{"code":401,"indent":0,"parameters":["if you cut off a lizard's tail and it grows back. Except"]},{"code":401,"indent":0,"parameters":["the tail grows a new lizard. Actually, that's not the best"]},{"code":401,"indent":0,"parameters":["analogy, is it?"]},{"code":101,"indent":0,"parameters":["1fc_jack1",0,0,2]},{"code":401,"indent":0,"parameters":["I get what you're saying. They're part of you, but like..."]},{"code":401,"indent":0,"parameters":["not attached to you. Like you're their dad!"]},{"code":101,"indent":0,"parameters":["fc_wjyellow",13,0,2]},{"code":401,"indent":0,"parameters":["Yeah, I guess I am."]},{"code":101,"indent":0,"parameters":["1fc_jack2",15,0,2]},{"code":401,"indent":0,"parameters":["Wait, if that's the case, how come you can't control Anti?"]},{"code":101,"indent":0,"parameters":["fc_wjyellow",12,0,2]},{"code":401,"indent":0,"parameters":["Did you always obey your parents every time they told"]},{"code":401,"indent":0,"parameters":["you to do something?"]},{"code":101,"indent":0,"parameters":["1fc_jack1",3,0,2]},{"code":401,"indent":0,"parameters":["Okay... good point."]},{"code":101,"indent":0,"parameters":["1fc_jack2",15,0,2]},{"code":401,"indent":0,"parameters":["One more thing I want to know: if, other than me, you're"]},{"code":401,"indent":0,"parameters":["the most powerful person here, the one who sets"]},{"code":401,"indent":0,"parameters":["everything right and cleans stuff up, how is Anti doing all"]},{"code":401,"indent":0,"parameters":["this?"]},{"code":101,"indent":0,"parameters":["fc_wjyellow",14,0,2]},{"code":401,"indent":0,"parameters":["I don't know. I mean, I thought the egos didn't have my"]},{"code":401,"indent":0,"parameters":["abilities, but maybe they just never tried them out. Or"]},{"code":401,"indent":0,"parameters":["maybe this has something to do with your community."]},{"code":401,"indent":0,"parameters":["Genuinely, I have no idea."]},{"code":101,"indent":0,"parameters":["1fc_jack1",7,0,2]},{"code":401,"indent":0,"parameters":["I have a feeling that would be important to figure out."]},{"code":401,"indent":0,"parameters":["Because if he can usurp you so easily, the other egos"]},{"code":401,"indent":0,"parameters":["might be able to do it as well."]},{"code":101,"indent":0,"parameters":["fc_wjyellow",4,0,2]},{"code":401,"indent":0,"parameters":["One thing I do know: you are the ultimate authority in"]},{"code":401,"indent":0,"parameters":["this computer. Absolutely nothing and no one can"]},{"code":401,"indent":0,"parameters":["overpower you. So even if Anti becomes a foe equal"]},{"code":401,"indent":0,"parameters":["to me, he's still less powerful than you."]},{"code":101,"indent":0,"parameters":["1fc_jack2",15,0,2]},{"code":401,"indent":0,"parameters":["If that's the case, why couldn't I just grab all the"]},{"code":401,"indent":0,"parameters":["hydrospersion keys and go last time I was here?"]},{"code":101,"indent":0,"parameters":["fc_wjyellow",13,0,2]},{"code":401,"indent":0,"parameters":["You were split. The computer went haywire trying to"]},{"code":401,"indent":0,"parameters":["figure out how to accommodate for both of you. So your"]},{"code":401,"indent":0,"parameters":["powers probably got weakened. But as Seán, you did do"]},{"code":401,"indent":0,"parameters":["quite a bit to move things around, if you recall."]},{"code":101,"indent":0,"parameters":["1fc_jack1",5,0,2]},{"code":401,"indent":0,"parameters":["That's right, I did. Sorry about that."]},{"code":101,"indent":0,"parameters":["fc_wjyellow",4,0,2]},{"code":401,"indent":0,"parameters":["It was no trouble. Like I said, I was just doing my job."]},{"code":101,"indent":0,"parameters":["1fc_jack1",4,0,2]},{"code":401,"indent":0,"parameters":["Well, thanks anyway. For everything you've done here."]},{"code":101,"indent":0,"parameters":["fc_wjyellow",0,0,2]},{"code":401,"indent":0,"parameters":["You're very welcome."]},{"code":122,"indent":0,"parameters":[35,35,1,0,1]},{"code":123,"indent":0,"parameters":["A",0]},{"code":0,"indent":0,"parameters":[]}]},{"conditions":{"actorId":1,"actorValid":false,"itemId":1,"itemValid":false,"selfSwitchCh":"A","selfSwitchValid":true,"switch1Id":1,"switch1Valid":false,"switch2Id":1,"switch2Valid":false,"variableId":1,"variableValid":false,"variableValue":0},"directionFix":false,"image":{"tileId":0,"characterName":"spr_mack","direction":2,"pattern":1,"characterIndex":4},"moveFrequency":3,"moveRoute":{"list":[{"code":0,"indent":null,"parameters":[]}],"repeat":true,"skippable":false,"wait":false},"moveSpeed":3,"moveType":0,"priorityType":1,"stepAnime":false,"through":false,"trigger":0,"walkAnime":true,"list":[{"code":101,"indent":0,"parameters":["fc_wjyellow",5,0,2]},{"code":401,"indent":0,"parameters":["Anti shouldn't be able to overpower me. How is he doing"]},{"code":401,"indent":0,"parameters":["it?"]},{"code":101,"indent":0,"parameters":["1fc_jack1",4,0,2]},{"code":401,"indent":0,"parameters":["That's what I'm going to figure out."]},{"code":0,"indent":0,"parameters":[]}]},{"conditions":{"actorId":1,"actorValid":false,"itemId":1,"itemValid":false,"selfSwitchCh":"A","selfSwitchValid":false,"switch1Id":69,"switch1Valid":true,"switch2Id":1,"switch2Valid":false,"variableId":1,"variableValid":false,"variableValue":0},"directionFix":false,"image":{"tileId":0,"characterName":"","direction":2,"pattern":0,"characterIndex":0},"moveFrequency":3,"moveRoute":{"list":[{"code":0,"indent":null,"parameters":[]}],"repeat":true,"skippable":false,"wait":false},"moveSpeed":3,"moveType":0,"priorityType":0,"stepAnime":false,"through":false,"trigger":0,"walkAnime":true,"list":[{"code":0,"indent":0,"parameters":[]}]}],"x":7,"y":5},
{"id":13,"name":"EV013","note":"","pages":[{"conditions":{"actorId":1,"actorValid":false,"itemId":1,"itemValid":false,"selfSwitchCh":"A","selfSwitchValid":false,"switch1Id":1,"switch1Valid":false,"switch2Id":1,"switch2Valid":false,"variableId":1,"variableValid":false,"variableValue":0},"directionFix":false,"image":{"tileId":0,"characterName":"","direction":2,"pattern":0,"characterIndex":0},"moveFrequency":3,"moveRoute":{"list":[{"code":0,"indent":null,"parameters":[]}],"repeat":true,"skippable":false,"wait":false},"moveSpeed":3,"moveType":0,"priorityType":1,"stepAnime":false,"through":false,"trigger":0,"walkAnime":true,"list":[{"code":101,"indent":0,"parameters":["1fc_jack1",0,0,2]},{"code":401,"indent":0,"parameters":["The fridge is blown wide open. That must've been some"]},{"code":401,"indent":0,"parameters":["blast. But I don't see anything noteworthy here."]},{"code":0,"indent":0,"parameters":[]}]}],"x":3,"y":4},
{"id":14,"name":"EV014","note":"","pages":[{"conditions":{"actorId":1,"actorValid":false,"itemId":1,"itemValid":false,"selfSwitchCh":"A","selfSwitchValid":false,"switch1Id":78,"switch1Valid":true,"switch2Id":1,"switch2Valid":false,"variableId":1,"variableValid":false,"variableValue":0},"directionFix":false,"image":{"tileId":0,"characterName":"!Flame","direction":2,"pattern":1,"characterIndex":6},"moveFrequency":3,"moveRoute":{"list":[{"code":0,"indent":null,"parameters":[]}],"repeat":true,"skippable":false,"wait":false},"moveSpeed":3,"moveType":0,"priorityType":1,"stepAnime":true,"through":false,"trigger":0,"walkAnime":true,"list":[{"code":101,"indent":0,"parameters":["1fc_jack2",15,0,2]},{"code":401,"indent":0,"parameters":["TV's broken into 3 pieces. But the window behind it is"]},{"code":401,"indent":0,"parameters":["clean. Was this busted deliberately?"]},{"code":101,"indent":0,"parameters":["1fc_jack2",3,0,2]},{"code":401,"indent":0,"parameters":["Yeah, now I'm looking closely, there are some clean cuts"]},{"code":401,"indent":0,"parameters":["on the TV. No blast could do that. So why did Anti break"]},{"code":401,"indent":0,"parameters":["it?"]},{"code":205,"indent":0,"parameters":[0,{"list":[{"code":41,"indent":null,"parameters":["",0]},{"code":0,"indent":null,"parameters":[]}],"repeat":false,"skippable":false,"wait":true}]},{"code":505,"indent":0,"parameters":[{"code":41,"indent":null,"parameters":["",0]}]},{"code":122,"indent":0,"parameters":[35,35,1,0,1]},{"code":123,"indent":0,"parameters":["A",0]},{"code":0,"indent":0,"parameters":[]}]},{"conditions":{"actorId":1,"actorValid":false,"itemId":1,"itemValid":false,"selfSwitchCh":"A","selfSwitchValid":true,"switch1Id":1,"switch1Valid":false,"switch2Id":1,"switch2Valid":false,"variableId":1,"variableValid":false,"variableValue":0},"directionFix":false,"image":{"tileId":0,"characterName":"","direction":2,"pattern":0,"characterIndex":0},"moveFrequency":3,"moveRoute":{"list":[{"code":0,"indent":null,"parameters":[]}],"repeat":true,"skippable":false,"wait":false},"moveSpeed":3,"moveType":0,"priorityType":1,"stepAnime":false,"through":false,"trigger":0,"walkAnime":true,"list":[{"code":101,"indent":0,"parameters":["1fc_jack2",15,0,2]},{"code":401,"indent":0,"parameters":["The TV looks like it was cut intentionally. But why?"]},{"code":0,"indent":0,"parameters":[]}]}],"x":5,"y":5},
{"id":15,"name":"EV015","note":"","pages":[{"conditions":{"actorId":1,"actorValid":false,"itemId":1,"itemValid":false,"selfSwitchCh":"A","selfSwitchValid":false,"switch1Id":1,"switch1Valid":false,"switch2Id":1,"switch2Valid":false,"variableId":35,"variableValid":true,"variableValue":6},"directionFix":false,"image":{"tileId":0,"characterName":"","direction":2,"pattern":0,"characterIndex":0},"moveFrequency":3,"moveRoute":{"list":[{"code":0,"indent":null,"parameters":[]}],"repeat":true,"skippable":false,"wait":false},"moveSpeed":3,"moveType":0,"priorityType":0,"stepAnime":false,"through":false,"trigger":3,"walkAnime":true,"list":[{"code":111,"indent":0,"parameters":[0,161,1]},{"code":121,"indent":1,"parameters":[200,200,1]},{"code":0,"indent":1,"parameters":[]},{"code":412,"indent":0,"parameters":[]},{"code":101,"indent":0,"parameters":["fc_connornpc",4,0,2]},{"code":401,"indent":0,"parameters":["I think I might have found something. Jack, it's time to"]},{"code":401,"indent":0,"parameters":["tell me what you've figured out."]},{"code":221,"indent":0,"parameters":[]},{"code":121,"indent":0,"parameters":[69,69,0]},{"code":201,"indent":0,"parameters":[0,124,16,8,4,2]},{"code":122,"indent":0,"parameters":[51,51,0,0,10]},{"code":222,"indent":0,"parameters":[]},{"code":101,"indent":0,"parameters":["fc_connornpc",4,0,2]},{"code":401,"indent":0,"parameters":["From what I can tell, your clues indicate that Anti broke"]},{"code":401,"indent":0,"parameters":["in, broke the TV, broke the console and moved it to the"]},{"code":401,"indent":0,"parameters":["table, and smashed the glass on the door."]},{"code":101,"indent":0,"parameters":["1fc_jack1",4,0,2]},{"code":401,"indent":0,"parameters":["That's the gist, yeah."]},{"code":122,"indent":0,"parameters":[51,51,0,0,1]},{"code":101,"indent":0,"parameters":["fc_connornpc",2,0,2]},{"code":401,"indent":0,"parameters":["This does appear to be the blast's center. However, the"]},{"code":401,"indent":0,"parameters":["floor's damage here is inconsistent with how damage"]},{"code":401,"indent":0,"parameters":["from an explosive device would actually look."]},{"code":101,"indent":0,"parameters":["fc_wjyellow",5,0,2]},{"code":401,"indent":0,"parameters":["Really? Are you saying... this wasn't actually an"]},{"code":401,"indent":0,"parameters":["explosion?"]},{"code":101,"indent":0,"parameters":["fc_connornpc",6,0,2]},{"code":401,"indent":0,"parameters":["No, there was some kind of explosion, albeit very"]},{"code":401,"indent":0,"parameters":["directed; the size and locations of the holes in these two"]},{"code":401,"indent":0,"parameters":["windows confirms that."]},{"code":101,"indent":0,"parameters":["fc_connornpc",4,0,2]},{"code":401,"indent":0,"parameters":["But it doesn't seem to have involved the floor even if it"]},{"code":401,"indent":0,"parameters":["appears that way at first glance. This patch was damaged"]},{"code":401,"indent":0,"parameters":["somehow and then repaired. In fact..."]},{"code":122,"indent":0,"parameters":[51,51,0,0,2]},{"code":230,"indent":0,"parameters":[10]},{"code":122,"indent":0,"parameters":[51,51,0,0,3]},{"code":230,"indent":0,"parameters":[10]},{"code":122,"indent":0,"parameters":[51,51,0,0,4]},{"code":230,"indent":0,"parameters":[10]},{"code":122,"indent":0,"parameters":[51,51,0,0,5]},{"code":230,"indent":0,"parameters":[10]},{"code":101,"indent":0,"parameters":["fc_hankmarkus",1,0,2]},{"code":401,"indent":0,"parameters":["Connor, what are you-"]},{"code":122,"indent":0,"parameters":[51,51,0,0,6]},{"code":101,"indent":0,"parameters":["fc_connornpc",1,0,2]},{"code":401,"indent":0,"parameters":["...?"]},{"code":101,"indent":0,"parameters":["fc_hankmarkus",3,0,2]},{"code":401,"indent":0,"parameters":["Ugh, I told you not to do that!"]},{"code":101,"indent":0,"parameters":["fc_connornpc",2,0,2]},{"code":401,"indent":0,"parameters":["My apologies, Hank. I am just trying to get a sample."]},{"code":122,"indent":0,"parameters":[51,51,0,0,7]},{"code":230,"indent":0,"parameters":[10]},{"code":122,"indent":0,"parameters":[51,51,0,0,8]},{"code":230,"indent":0,"parameters":[10]},{"code":122,"indent":0,"parameters":[51,51,0,0,9]},{"code":230,"indent":0,"parameters":[30]},{"code":101,"indent":0,"parameters":["3fc_jenny1",15,0,2]},{"code":401,"indent":0,"parameters":["So what did you... taste?"]},{"code":101,"indent":0,"parameters":["fc_connornpc",6,0,2]},{"code":401,"indent":0,"parameters":["It was clearly repaired in a hurry. And it's not made of"]},{"code":401,"indent":0,"parameters":["the same material as the floor surrounding it."]},{"code":101,"indent":0,"parameters":["2fc_billy1",2,0,2]},{"code":401,"indent":0,"parameters":["So that means..."]},{"code":122,"indent":0,"parameters":[51,51,0,0,10]},{"code":101,"indent":0,"parameters":["fc_connornpc",5,0,2]},{"code":401,"indent":0,"parameters":["That means this is how Anti entered the room. He must"]},{"code":401,"indent":0,"parameters":["have repaired the floor when he left."]},{"code":101,"indent":0,"parameters":["4fc_cliffgreen2",1,0,2]},{"code":401,"indent":0,"parameters":["Now hold on a second. Anti can repair floors now?"]},{"code":101,"indent":0,"parameters":["1fc_jack2",15,0,2]},{"code":401,"indent":0,"parameters":["That isn't very like him. After all the destruction, why"]},{"code":401,"indent":0,"parameters":["fix the floor?"]},{"code":101,"indent":0,"parameters":["3fc_jenny1",6,0,2]},{"code":401,"indent":0,"parameters":["If he was trying to create a locked room mystery,"]},{"code":401,"indent":0,"parameters":["he did a horrible job covering up his escape route."]},{"code":101,"indent":0,"parameters":["fc_hankmarkus",5,0,2]},{"code":401,"indent":0,"parameters":["Perhaps we can follow the trail. What's under this room?"]},{"code":101,"indent":0,"parameters":["fc_wjyellow",5,0,2]},{"code":401,"indent":0,"parameters":["Some offices undergoing renovation. No one's been there"]},{"code":401,"indent":0,"parameters":["for a while. You think he used the empty space to his"]},{"code":401,"indent":0,"parameters":["advantage?"]},{"code":101,"indent":0,"parameters":["fc_connornpc",4,0,2]},{"code":401,"indent":0,"parameters":["I can't make any solid conclusions just yet. But it does"]},{"code":401,"indent":0,"parameters":["appear so. I am going to go beneath the floor to see if"]},{"code":401,"indent":0,"parameters":["the area below has any clues."]},{"code":101,"indent":0,"parameters":["fc_hankmarkus",4,0,2]},{"code":401,"indent":0,"parameters":["Why not just go downstairs and circle around?"]},{"code":101,"indent":0,"parameters":["fc_connornpc",5,0,2]},{"code":401,"indent":0,"parameters":["They likely barricaded the door after leaving. Going this"]},{"code":401,"indent":0,"parameters":["way would likely save time."]},{"code":101,"indent":0,"parameters":["fc_hankmarkus",1,0,2]},{"code":401,"indent":0,"parameters":["Well I'm not jumping down there."]},{"code":101,"indent":0,"parameters":["fc_connornpc",4,0,2]},{"code":401,"indent":0,"parameters":["It would be best not to bring too many people. So Jack,"]},{"code":401,"indent":0,"parameters":["do you want to accompany me?"]},{"code":101,"indent":0,"parameters":["1fc_jack1",10,0,2]},{"code":401,"indent":0,"parameters":["Hell yeah I do!!"]},{"code":122,"indent":0,"parameters":[51,51,0,0,11]},{"code":101,"indent":0,"parameters":["fc_connornpc",5,0,2]},{"code":401,"indent":0,"parameters":["We should go now. Time may be of the essence."]},{"code":121,"indent":0,"parameters":[200,200,0]},{"code":250,"indent":0,"parameters":[{"name":"Break","pan":0,"pitch":50,"volume":100}]},{"code":212,"indent":0,"parameters":[21,4,false]},{"code":284,"indent":0,"parameters":["!pl_mod_004",false,false,0,0]},{"code":230,"indent":0,"parameters":[60]},{"code":101,"indent":0,"parameters":["1fc_jack2",9,0,2]},{"code":401,"indent":0,"parameters":["Lead the way!"]},{"code":223,"indent":0,"parameters":[[-255,-255,-255,0],60,true]},{"code":201,"indent":0,"parameters":[0,125,12,5,6,2]},{"code":0,"indent":0,"parameters":[]}]},{"conditions":{"actorId":1,"actorValid":false,"itemId":1,"itemValid":false,"selfSwitchCh":"A","selfSwitchValid":true,"switch1Id":1,"switch1Valid":false,"switch2Id":1,"switch2Valid":false,"variableId":1,"variableValid":false,"variableValue":0},"directionFix":false,"image":{"tileId":0,"characterName":"","direction":2,"pattern":0,"characterIndex":0},"moveFrequency":3,"moveRoute":{"list":[{"code":0,"indent":null,"parameters":[]}],"repeat":true,"skippable":false,"wait":false},"moveSpeed":3,"moveType":0,"priorityType":0,"stepAnime":false,"through":false,"trigger":0,"walkAnime":true,"list":[{"code":0,"indent":0,"parameters":[]}]}],"x":15,"y":0},
{"id":16,"name":"EV016","note":"","pages":[{"conditions":{"actorId":1,"actorValid":false,"itemId":1,"itemValid":false,"selfSwitchCh":"A","selfSwitchValid":false,"switch1Id":69,"switch1Valid":true,"switch2Id":1,"switch2Valid":false,"variableId":1,"variableValid":false,"variableValue":0},"directionFix":false,"image":{"tileId":0,"characterName":"spr_dbh","direction":2,"pattern":1,"characterIndex":4},"moveFrequency":3,"moveRoute":{"list":[{"code":0,"indent":null,"parameters":[]}],"repeat":true,"skippable":false,"wait":false},"moveSpeed":3,"moveType":0,"priorityType":1,"stepAnime":false,"through":false,"trigger":0,"walkAnime":true,"list":[{"code":0,"indent":0,"parameters":[]}]}],"x":14,"y":7},
{"id":17,"name":"EV017","note":"","pages":[{"conditions":{"actorId":1,"actorValid":false,"itemId":1,"itemValid":false,"selfSwitchCh":"A","selfSwitchValid":false,"switch1Id":69,"switch1Valid":true,"switch2Id":1,"switch2Valid":false,"variableId":1,"variableValid":false,"variableValue":0},"directionFix":false,"image":{"tileId":0,"characterName":"spr_possepticeye","direction":2,"pattern":1,"characterIndex":7},"moveFrequency":3,"moveRoute":{"list":[{"code":0,"indent":null,"parameters":[]}],"repeat":true,"skippable":false,"wait":false},"moveSpeed":3,"moveType":0,"priorityType":1,"stepAnime":false,"through":false,"trigger":0,"walkAnime":true,"list":[{"code":0,"indent":0,"parameters":[]}]}],"x":15,"y":7},
{"id":18,"name":"EV018","note":"","pages":[{"conditions":{"actorId":1,"actorValid":false,"itemId":1,"itemValid":false,"selfSwitchCh":"A","selfSwitchValid":false,"switch1Id":69,"switch1Valid":true,"switch2Id":1,"switch2Valid":false,"variableId":1,"variableValid":false,"variableValue":0},"directionFix":false,"image":{"tileId":0,"characterName":"spr_possepticeye","direction":8,"pattern":1,"characterIndex":2},"moveFrequency":3,"moveRoute":{"list":[{"code":0,"indent":null,"parameters":[]}],"repeat":true,"skippable":false,"wait":false},"moveSpeed":3,"moveType":0,"priorityType":1,"stepAnime":false,"through":false,"trigger":0,"walkAnime":true,"list":[{"code":0,"indent":0,"parameters":[]}]}],"x":14,"y":9},
{"id":19,"name":"EV019","note":"","pages":[{"conditions":{"actorId":1,"actorValid":false,"itemId":1,"itemValid":false,"selfSwitchCh":"A","selfSwitchValid":false,"switch1Id":69,"switch1Valid":true,"switch2Id":1,"switch2Valid":false,"variableId":1,"variableValid":false,"variableValue":0},"directionFix":false,"image":{"tileId":0,"characterName":"spr_possepticeye","direction":8,"pattern":1,"characterIndex":5},"moveFrequency":3,"moveRoute":{"list":[{"code":0,"indent":null,"parameters":[]}],"repeat":true,"skippable":false,"wait":false},"moveSpeed":3,"moveType":0,"priorityType":1,"stepAnime":false,"through":false,"trigger":0,"walkAnime":true,"list":[{"code":0,"indent":0,"parameters":[]}]}],"x":15,"y":9},
{"id":20,"name":"EV020","note":"","pages":[{"conditions":{"actorId":1,"actorValid":false,"itemId":1,"itemValid":false,"selfSwitchCh":"A","selfSwitchValid":false,"switch1Id":69,"switch1Valid":true,"switch2Id":1,"switch2Valid":false,"variableId":1,"variableValid":false,"variableValue":0},"directionFix":false,"image":{"tileId":0,"characterName":"spr_mack","direction":2,"pattern":1,"characterIndex":4},"moveFrequency":3,"moveRoute":{"list":[{"code":0,"indent":null,"parameters":[]}],"repeat":true,"skippable":false,"wait":false},"moveSpeed":3,"moveType":0,"priorityType":1,"stepAnime":false,"through":false,"trigger":0,"walkAnime":true,"list":[{"code":0,"indent":0,"parameters":[]}]}],"x":13,"y":6},
{"id":21,"name":"floor break","note":"","pages":[{"conditions":{"actorId":1,"actorValid":false,"itemId":1,"itemValid":false,"selfSwitchCh":"A","selfSwitchValid":false,"switch1Id":1,"switch1Valid":false,"switch2Id":1,"switch2Valid":false,"variableId":1,"variableValid":false,"variableValue":0},"directionFix":false,"image":{"tileId":0,"characterName":"","direction":2,"pattern":0,"characterIndex":0},"moveFrequency":3,"moveRoute":{"list":[{"code":0,"indent":null,"parameters":[]}],"repeat":true,"skippable":false,"wait":false},"moveSpeed":3,"moveType":0,"priorityType":0,"stepAnime":false,"through":false,"trigger":0,"walkAnime":true,"list":[{"code":0,"indent":0,"parameters":[]}]}],"x":14,"y":8},
null,
null,
{"id":24,"name":"EV024","note":"","pages":[{"conditions":{"actorId":1,"actorValid":false,"itemId":1,"itemValid":false,"selfSwitchCh":"A","selfSwitchValid":false,"switch1Id":1,"switch1Valid":false,"switch2Id":1,"switch2Valid":false,"variableId":1,"variableValid":false,"variableValue":0},"directionFix":false,"image":{"tileId":0,"characterName":"","direction":2,"pattern":0,"characterIndex":0},"moveFrequency":3,"moveRoute":{"list":[{"code":0,"indent":null,"parameters":[]}],"repeat":true,"skippable":false,"wait":false},"moveSpeed":3,"moveType":0,"priorityType":0,"stepAnime":false,"through":false,"trigger":4,"walkAnime":true,"list":[{"code":111,"indent":0,"parameters":[3,0,1]},{"code":123,"indent":1,"parameters":["A",0]},{"code":0,"indent":1,"parameters":[]},{"code":412,"indent":0,"parameters":[]},{"code":0,"indent":0,"parameters":[]}]},{"conditions":{"actorId":1,"actorValid":false,"itemId":1,"itemValid":false,"selfSwitchCh":"A","selfSwitchValid":true,"switch1Id":1,"switch1Valid":false,"switch2Id":1,"switch2Valid":false,"variableId":1,"variableValid":false,"variableValue":0},"directionFix":false,"image":{"tileId":0,"characterName":"","direction":2,"pattern":0,"characterIndex":0},"moveFrequency":3,"moveRoute":{"list":[{"code":0,"indent":null,"parameters":[]}],"repeat":true,"skippable":false,"wait":false},"moveSpeed":3,"moveType":0,"priorityType":0,"stepAnime":false,"through":false,"trigger":3,"walkAnime":true,"list":[{"code":241,"indent":0,"parameters":[{"name":"","pan":0,"pitch":100,"volume":100}]},{"code":223,"indent":0,"parameters":[[0,-255,-255,0],1,true]},{"code":101,"indent":0,"parameters":["",0,1,1]},{"code":401,"indent":0,"parameters":["\\c[18]\\a[c]YOU REALLY THINK I'D LET YOU GO?"]},{"code":101,"indent":0,"parameters":["",0,1,1]},{"code":401,"indent":0,"parameters":["\\c[18]\\a[c]YOU REALLY THOUGHT YOU COULD FUCK WITH ME AND GET"]},{"code":401,"indent":0,"parameters":["AWAY WITH IT?"]},{"code":101,"indent":0,"parameters":["",0,1,1]},{"code":401,"indent":0,"parameters":["\\c[18]\\a[c]THIS GAME IS MINE."]},{"code":101,"indent":0,"parameters":["",0,1,1]},{"code":401,"indent":0,"parameters":["\\c[18]\\a[c]AND THERE'S NOTHING YOU CAN DO ABOUT IT."]},{"code":355,"indent":0,"parameters":["msgbox(\"Ý̵͜͠O҉͏̵U̶͏ ̵̨͟͏̢W̸̛͠Į̕͞Ļ̧̛̕L̷̡̢͘͢ ̕Ņ̶̶́E͏͏V̨̛̀͠E̸̕͝R̢̀́͢͠ "]},{"code":655,"indent":0,"parameters":["̵̢̀É̸͘҉S̵̨C̷͟À̴͜͜͜P̡̀͘͝͡Ȩ҉\")"]},{"code":121,"indent":0,"parameters":[142,142,0]},{"code":355,"indent":0,"parameters":["SceneManager.exit"]},{"code":0,"indent":0,"parameters":[]}]}],"x":11,"y":0}
]
}