{
"autoplayBgm":false,"autoplayBgs":false,"battleback1Name":"","battleback2Name":"","bgm":{"name":"","pan":0,"pitch":100,"volume":100},"bgs":{"name":"","pan":0,"pitch":100,"volume":80},"disableDashing":false,"displayName":"","encounterList":[],"encounterStep":30,"height":15,"note":"<all restrict: 6>","parallaxLoopX":false,"parallaxLoopY":false,"parallaxName":"","parallaxShow":false,"parallaxSx":0,"parallaxSy":0,"scrollType":0,"specifyBattleback":false,"tilesetId":47,"width":20,
"data":[0,0,0,0,0,0,0,0,0,0,0,0,0,0,0,0,0,0,0,0,0,0,0,0,0,0,0,0,0,0,0,0,0,0,0,0,0,0,0,0,0,0,0,0,0,0,0,0,0,0,0,0,0,0,0,0,0,0,0,0,0,0,0,7651,7649,7649,7649,7649,7649,7649,7649,7649,7649,7649,7649,7649,7653,0,0,0,0,0,0,7648,8002,8002,8002,8002,8002,8002,8002,8002,8002,8002,8002,8002,7648,0,0,0,0,0,0,7648,8008,8008,8008,8008,8008,8008,8008,8008,8008,8008,8008,8008,7648,0,0,0,0,0,0,7660,1656,1656,1656,1656,1656,1656,1656,1656,1656,1656,1656,1656,7660,0,0,0,0,0,0,8007,1656,1656,1656,1656,1656,1656,1656,1656,1656,1656,1656,1656,8007,0,0,0,0,0,0,8013,1656,1656,1656,1656,1656,1656,1656,1656,1656,1656,1656,1656,8013,0,0,0,0,0,0,1656,1656,1656,1656,1656,1656,1656,1656,1656,1656,1656,1656,1656,1656,0,0,0,0,0,0,7658,1656,1656,1656,1656,1656,1656,1656,1656,1656,1656,1656,1656,7658,0,0,0,0,0,0,7648,1656,1656,1656,1656,1656,1656,1656,1656,1656,1656,1656,1656,7648,0,0,0,0,0,0,7648,1656,1656,1656,1656,1656,1656,1656,1656,1656,1656,1656,1656,7648,0,0,0,0,0,0,7657,7649,7649,7649,7649,7649,7649,7649,7649,7649,7649,7649,7649,7655,0,0,0,0,0,0,0,0,0,0,0,0,0,0,0,0,0,0,0,0,0,0,0,0,0,0,0,0,0,0,0,0,0,0,0,0,0,0,0,0,0,0,0,0,0,0,0,0,0,0,0,0,0,0,0,0,0,0,0,0,0,0,0,0,0,0,0,0,0,0,0,0,0,0,0,0,0,0,0,0,0,0,0,0,0,0,0,0,0,0,0,0,0,0,0,0,0,0,0,0,0,0,0,0,0,0,0,0,0,0,0,0,0,0,0,0,0,0,0,0,0,0,0,0,0,0,0,0,0,0,0,0,0,0,0,0,0,0,0,0,0,0,0,0,0,0,0,0,0,0,0,0,0,0,0,0,0,0,0,0,0,0,0,0,0,0,0,0,0,0,0,0,0,0,0,0,0,0,0,0,0,0,0,0,0,0,0,0,0,0,0,0,0,0,0,0,0,0,0,0,0,0,0,0,0,0,0,0,0,0,0,0,0,0,0,0,0,0,0,0,0,0,0,0,0,0,0,0,0,0,0,0,0,0,0,0,0,0,0,0,0,0,0,0,0,0,0,0,0,0,0,0,0,0,0,0,0,0,0,0,0,0,0,0,0,0,0,0,0,0,0,0,0,0,0,0,0,0,0,0,0,0,0,0,0,0,0,0,0,0,0,0,0,0,0,0,0,0,0,0,0,0,0,0,0,0,0,0,0,0,0,0,0,0,0,0,0,0,0,0,0,0,0,0,0,0,0,0,0,0,0,0,0,0,0,0,0,0,0,0,0,0,0,0,0,0,0,0,0,0,0,0,0,0,0,0,0,0,0,0,0,0,0,0,0,0,0,0,0,0,0,0,0,0,0,0,0,0,0,0,0,0,0,0,0,0,0,0,0,0,0,0,0,0,0,0,0,0,0,0,0,0,0,0,0,0,0,0,0,0,0,0,0,0,0,0,0,0,0,0,0,0,0,0,0,0,0,0,0,0,0,0,0,0,0,0,0,0,0,0,0,0,0,0,0,0,0,0,0,0,0,0,0,0,0,0,0,0,0,0,0,0,0,0,0,0,0,0,0,0,0,0,0,0,0,0,0,0,0,0,0,0,0,0,0,0,0,0,0,0,0,0,0,0,0,0,0,0,0,0,0,0,0,0,0,0,0,0,0,0,0,0,0,0,0,0,0,0,0,0,0,0,0,0,0,0,0,0,0,0,0,0,0,0,0,0,0,0,0,0,0,0,0,0,0,0,0,0,0,0,0,0,0,0,0,0,0,0,0,0,0,0,0,0,0,0,0,0,0,0,0,0,0,0,0,0,0,0,0,0,0,0,0,0,0,0,0,0,0,0,0,0,0,0,0,0,0,0,0,0,0,0,0,0,0,0,0,0,0,0,0,0,0,0,0,0,0,0,0,0,0,0,0,0,0,0,0,0,0,0,0,0,0,0,0,0,0,0,0,0,0,0,0,0,0,0,0,0,0,0,0,0,0,0,0,0,0,0,0,0,0,0,0,0,0,0,0,0,0,0,0,0,0,0,0,0,0,0,0,0,0,0,0,0,0,0,0,0,0,0,0,0,0,0,0,0,0,0,0,0,0,0,0,0,0,0,0,0,0,0,0,0,0,0,0,0,0,0,0,0,0,0,0,0,0,0,0,0,0,0,0,0,0,0,0,0,0,0,0,0,0,0,0,0,0,0,0,0,0,0,0,0,0,0,0,0,0,0,0,0,0,0,0,0,0,0,0,0,0,0,0,0,0,0,0,0,0,0,0,0,0,0,0,0,0,0,0,0,0,0,0,0,0,0,0,0,0,0,0,0,0,0,0,0,0,0,0,0,0,0,0,0,0,0,0,0,0,0,0,0,0,0,0,0,0,0,0,0,0,0,0,0,0,0,0,0,0,0,0,0,0,0,0,0,0,0,0,0,0,0,0,0,0,0,0,0,0,0,0,0,0,0,0,0,0,0,0,0,0,0,0,0,0,0,0,0,0,0,0,0,0,0,0,0,0,0,0,0,0,0,0,0,0,0,0,0,0,0,0,0,0,0,0,0,0,0,0,0,0,0,0,0,0,0,0,0,0,0,0,0,0,0,0,0,0,0,0,0,0,0,0,0,0,0,0,0,0,0,0,0,0,0,0,0,0,0,0,0,0,0,0,0,0,0,0,0,0,0,0,0,0,0,0,0,0,0,0,0,0,0,0,0,0,0,0,0,0,0,0,0,0,0,0,0,0,0,0,0,0,0,0,0,0,0,0,0,0,0,0,0,0,0,0,0,0,0,0,0,0,0,0,0,0,0,0,0,0,0,0,0,0,0,0,0,0,0,0,0,0,0,0,0,0,0,0,0,0,0,0,0,0,0,0,0,0,0,0,0,0,0,0,0,0,0,0,0,0,0,0,0,0,0,0,0,0,0,0,0,0,0,0,0,0,0,0,0,0,0,0,0,0,0,0,0,0,0,0,0,0,0,0,0,0,0,0,0,0,0,0,0,0,0,0,0,0,0,0,0,0,0,0,0,0,0,0,0,0,0,0,0,0,0,0,0,0,0,0,0,0,0,0,0,0,0,0,0,0,0,0,0,0,0,0,0,0,0,0,0,0,0,0,0,0,0,0,0,0,0,0,0,0,0,0,0,0,0,0,0,0,0,0,0,0,0,0,0,0,0,0,0,0,0,0,0,0,0,0,0,0,0,0,0,0,0,0,0,0,0,0,0,0,0,0,0,0,0,0,0,0,0,0,0,0,0,0,0,0,0,0,0,0,0,0,0,0,0,0,0,0,0,0,0,0,0,0,0,0,0,0,0,0,0,0,0,0,0,0,0,0,0,0,0,0,0,0,0,0,0,0,0,0,0,0,0,0,0,0,0,0,0,0,0,0,0,0,0,0,0,0,0,0,0,0,0,0,0,0,0,0,0,0,0,0,0,0,0,0,0,0,0,0,0,0,0,0,0,0,0,0,0,0,0,0,0,0,0,0,0,0,0,0,0,0,0,0,0,6,6,6,6,6,6,6,6,6,6,6,6,6,6,0,0,0,0,0,0,6,0,0,0,0,0,0,0,0,0,0,0,0,6,0,0,0,0,0,0,6,0,0,0,0,0,0,0,0,0,0,0,0,6,0,0,0,0,0,0,6,0,0,0,0,0,0,0,0,0,0,0,0,6,0,0,0,0,0,0,0,0,0,0,0,0,0,0,0,0,0,0,0,0,0,0,0,0,0,0,6,0,0,0,0,0,0,0,0,0,0,0,0,6,0,0,0,0,0,0,6,0,0,0,0,0,0,0,0,0,0,0,0,6,0,0,0,0,0,0,6,0,0,0,0,0,0,0,0,0,0,0,0,6,0,0,0,0,0,0,6,6,6,6,6,6,6,6,6,6,6,6,6,6,0,0,0,0,0,0,0,0,0,0,0,0,0,0,0,0,0,0,0,0,0,0,0],
"events":[
null,
{"id":1,"name":"EV001","note":"","pages":[{"conditions":{"actorId":1,"actorValid":false,"itemId":1,"itemValid":false,"selfSwitchCh":"A","selfSwitchValid":false,"switch1Id":1,"switch1Valid":false,"switch2Id":1,"switch2Valid":false,"variableId":1,"variableValid":false,"variableValue":0},"directionFix":false,"image":{"characterIndex":0,"characterName":"","direction":2,"pattern":0,"tileId":0},"list":[{"code":205,"indent":0,"parameters":[-1,{"list":[{"code":29,"parameters":[5],"indent":null},{"code":0}],"repeat":false,"skippable":false,"wait":true}]},{"code":505,"indent":0,"parameters":[{"code":29,"parameters":[5],"indent":null}]},{"code":356,"indent":0,"parameters":["Tint set #252525"]},{"code":356,"indent":0,"parameters":["Light on 7"]},{"code":356,"indent":0,"parameters":["Light on 8"]},{"code":356,"indent":0,"parameters":["Light on 9"]},{"code":356,"indent":0,"parameters":["Light on 10"]},{"code":356,"indent":0,"parameters":["Light radius 5 #FFFFFF"]},{"code":356,"indent":0,"parameters":["Flashlight on 8 12 #FFFFFF 3"]},{"code":214,"indent":0,"parameters":[]},{"code":0,"indent":0,"parameters":[]}],"moveFrequency":3,"moveRoute":{"list":[{"code":0,"parameters":[]}],"repeat":true,"skippable":false,"wait":false},"moveSpeed":3,"moveType":0,"priorityType":0,"stepAnime":false,"through":false,"trigger":3,"walkAnime":true}],"x":16,"y":3},
{"id":2,"name":"EV002","note":"Light 50 #FFFFFF","pages":[{"conditions":{"actorId":1,"actorValid":false,"itemId":1,"itemValid":false,"selfSwitchCh":"A","selfSwitchValid":false,"switch1Id":1,"switch1Valid":false,"switch2Id":1,"switch2Valid":false,"variableId":1,"variableValid":false,"variableValue":0},"directionFix":false,"image":{"tileId":0,"characterName":"!Switch1","direction":2,"pattern":1,"characterIndex":0},"list":[{"code":101,"indent":0,"parameters":["",0,1,2]},{"code":401,"indent":0,"parameters":["\\c[23]Are you sure you're done?"]},{"code":102,"indent":0,"parameters":[["Yes","No"],1,0,2,0]},{"code":402,"indent":0,"parameters":[0,"Yes"]},{"code":123,"indent":1,"parameters":["A",0]},{"code":0,"indent":1,"parameters":[]},{"code":402,"indent":0,"parameters":[1,"No"]},{"code":101,"indent":1,"parameters":["",0,1,2]},{"code":401,"indent":1,"parameters":["\\c[23]All right, take your time."]},{"code":0,"indent":1,"parameters":[]},{"code":404,"indent":0,"parameters":[]},{"code":0,"indent":0,"parameters":[]}],"moveFrequency":3,"moveRoute":{"list":[{"code":0,"parameters":[]}],"repeat":true,"skippable":false,"wait":false},"moveSpeed":3,"moveType":0,"priorityType":1,"stepAnime":false,"through":false,"trigger":0,"walkAnime":true},{"conditions":{"actorId":1,"actorValid":false,"itemId":1,"itemValid":false,"selfSwitchCh":"A","selfSwitchValid":true,"switch1Id":1,"switch1Valid":false,"switch2Id":1,"switch2Valid":false,"variableId":1,"variableValid":false,"variableValue":0},"directionFix":false,"image":{"tileId":0,"characterName":"!Switch1","direction":6,"pattern":1,"characterIndex":0},"list":[{"code":111,"indent":0,"parameters":[1,77,0,0,0]},{"code":111,"indent":1,"parameters":[1,78,0,0,0]},{"code":111,"indent":2,"parameters":[1,79,0,0,0]},{"code":111,"indent":3,"parameters":[1,80,0,0,0]},{"code":101,"indent":4,"parameters":["",0,1,2]},{"code":401,"indent":4,"parameters":["\\c[23]Ah, okay. I see you've decided to set them exactly as they"]},{"code":401,"indent":4,"parameters":["were listed. Perfect. So that's blue, red, green, and pink."]},{"code":0,"indent":4,"parameters":[]},{"code":411,"indent":3,"parameters":[]},{"code":101,"indent":4,"parameters":["",0,1,2]},{"code":401,"indent":4,"parameters":["\\c[23]Oh you're, uh... you're keeping me on my toes today. With"]},{"code":401,"indent":4,"parameters":["the colour choices. Not that I have toes, mind you. It's"]},{"code":401,"indent":4,"parameters":["just... it's just a figure of speech. Figure of human speech."]},{"code":401,"indent":4,"parameters":["Don't quite get it, but... uhhhh..."]},{"code":0,"indent":4,"parameters":[]},{"code":412,"indent":3,"parameters":[]},{"code":0,"indent":3,"parameters":[]},{"code":411,"indent":2,"parameters":[]},{"code":101,"indent":3,"parameters":["",0,1,2]},{"code":401,"indent":3,"parameters":["\\c[23]Oh you're, uh... you're keeping me on my toes today. With"]},{"code":401,"indent":3,"parameters":["the colour choices. Not that I have toes, mind you. It's"]},{"code":401,"indent":3,"parameters":["just... it's just a figure of speech. Figure of human speech."]},{"code":401,"indent":3,"parameters":["Don't quite get it, but... uhhhh..."]},{"code":0,"indent":3,"parameters":[]},{"code":412,"indent":2,"parameters":[]},{"code":0,"indent":2,"parameters":[]},{"code":411,"indent":1,"parameters":[]},{"code":101,"indent":2,"parameters":["",0,1,2]},{"code":401,"indent":2,"parameters":["\\c[23]Oh you're, uh... you're keeping me on my toes today. With"]},{"code":401,"indent":2,"parameters":["the colour choices. Not that I have toes, mind you. It's"]},{"code":401,"indent":2,"parameters":["just... it's just a figure of speech. Figure of human speech."]},{"code":401,"indent":2,"parameters":["Don't quite get it, but... uhhhh..."]},{"code":0,"indent":2,"parameters":[]},{"code":412,"indent":1,"parameters":[]},{"code":0,"indent":1,"parameters":[]},{"code":411,"indent":0,"parameters":[]},{"code":101,"indent":1,"parameters":["",0,1,2]},{"code":401,"indent":1,"parameters":["\\c[23]Oh you're, uh... you're keeping me on my toes today. With"]},{"code":401,"indent":1,"parameters":["the colour choices. Not that I have toes, mind you. It's"]},{"code":401,"indent":1,"parameters":["just... it's just a figure of speech. Figure of human speech."]},{"code":401,"indent":1,"parameters":["Don't quite get it, but... uhhhh..."]},{"code":0,"indent":1,"parameters":[]},{"code":412,"indent":0,"parameters":[]},{"code":111,"indent":0,"parameters":[0,206,0]},{"code":111,"indent":1,"parameters":[0,212,0]},{"code":101,"indent":2,"parameters":["",0,1,2]},{"code":401,"indent":2,"parameters":["\\c[23]Are you sure you want two shades of purple? I mean purple is nice,"]},{"code":401,"indent":2,"parameters":["don't get me wrong, but they're also sort of the same colour,"]},{"code":401,"indent":2,"parameters":["and the idea was to make them really different, you know?"]},{"code":0,"indent":2,"parameters":[]},{"code":411,"indent":1,"parameters":[]},{"code":101,"indent":2,"parameters":["",0,1,2]},{"code":401,"indent":2,"parameters":["\\c[23]Ah that blue is sort of a purple colour now. You seem to have"]},{"code":401,"indent":2,"parameters":["changed it completely. You know, I kind of like it. Reminds me"]},{"code":401,"indent":2,"parameters":["of blueberries and... violets, I guess?"]},{"code":0,"indent":2,"parameters":[]},{"code":412,"indent":1,"parameters":[]},{"code":0,"indent":1,"parameters":[]},{"code":411,"indent":0,"parameters":[]},{"code":111,"indent":1,"parameters":[0,212,0]},{"code":101,"indent":2,"parameters":["",0,1,2]},{"code":401,"indent":2,"parameters":["\\c[23]Ah, that pink, it's sort of purple now. I always thought"]},{"code":401,"indent":2,"parameters":["pink was a nice colour, not that I'm biased or anything. But"]},{"code":401,"indent":2,"parameters":["okay, if purple is what you want, that's all right. I can be"]},{"code":401,"indent":2,"parameters":["flexible!"]},{"code":0,"indent":2,"parameters":[]},{"code":412,"indent":1,"parameters":[]},{"code":0,"indent":1,"parameters":[]},{"code":412,"indent":0,"parameters":[]},{"code":111,"indent":0,"parameters":[0,207,0]},{"code":101,"indent":1,"parameters":["",0,1,2]},{"code":401,"indent":1,"parameters":["\\c[23]Ah I see, you want your blue to actually be green. Okay."]},{"code":401,"indent":1,"parameters":["Can you tell the difference? Are you sure you want your blue"]},{"code":401,"indent":1,"parameters":["to be green? I thought I was pretty clear that blue was blue"]},{"code":401,"indent":1,"parameters":["and green was green but that's okay, no problem."]},{"code":0,"indent":1,"parameters":[]},{"code":412,"indent":0,"parameters":[]},{"code":111,"indent":0,"parameters":[0,208,0]},{"code":111,"indent":1,"parameters":[0,211,0]},{"code":101,"indent":2,"parameters":["",0,1,2]},{"code":401,"indent":2,"parameters":["\\c[23]Ah, I see you've got two oranges. Orange colours, that is."]},{"code":401,"indent":2,"parameters":["They're... they're awfully similar, is that what you want?"]},{"code":401,"indent":2,"parameters":["Are you playing this game on hard mode?"]},{"code":0,"indent":2,"parameters":[]},{"code":411,"indent":1,"parameters":[]},{"code":101,"indent":2,"parameters":["",0,1,2]},{"code":401,"indent":2,"parameters":["\\c[23]Yes, the red... is now orange. Not red. That is definitely not"]},{"code":401,"indent":2,"parameters":["a shade of red. But red is overrated anyway, I like a nice"]},{"code":401,"indent":2,"parameters":["orange. It's like this game is Halloween themed. Not that"]},{"code":401,"indent":2,"parameters":["there's anything scary coming, no."]},{"code":0,"indent":2,"parameters":[]},{"code":412,"indent":1,"parameters":[]},{"code":0,"indent":1,"parameters":[]},{"code":411,"indent":0,"parameters":[]},{"code":111,"indent":1,"parameters":[0,211,0]},{"code":101,"indent":2,"parameters":["",0,1,2]},{"code":401,"indent":2,"parameters":["\\c[23]The green... it's not green. That's more of an orange. I'm not"]},{"code":401,"indent":2,"parameters":["sure whether I explained it wrong or... well, orange is nice."]},{"code":401,"indent":2,"parameters":["Orange is pretty. Green can be orange if you want."]},{"code":0,"indent":2,"parameters":[]},{"code":412,"indent":1,"parameters":[]},{"code":0,"indent":1,"parameters":[]},{"code":412,"indent":0,"parameters":[]},{"code":111,"indent":0,"parameters":[0,209,0]},{"code":101,"indent":1,"parameters":["",0,1,2]},{"code":401,"indent":1,"parameters":["\\c[23]Yes, I wanted to say something about that green. It's not green."]},{"code":401,"indent":1,"parameters":["It's a sort of blue. Do you... do you just really like the"]},{"code":401,"indent":1,"parameters":["colour blue? Is that what you're looking for? Did green snub"]},{"code":401,"indent":1,"parameters":["you at a party? I completely understand if that's the case."]},{"code":101,"indent":1,"parameters":["",0,1,2]},{"code":401,"indent":1,"parameters":["\\c[23]I mean, that being said, I just want to make sure that it's not"]},{"code":401,"indent":1,"parameters":["too close to the blue. You know, could get confusing."]},{"code":0,"indent":1,"parameters":[]},{"code":412,"indent":0,"parameters":[]},{"code":111,"indent":0,"parameters":[0,210,0]},{"code":101,"indent":1,"parameters":["",0,1,2]},{"code":401,"indent":1,"parameters":["\\c[23]I see you've chosen yellow rather than green for your green"]},{"code":401,"indent":1,"parameters":["light. Yellow is a lovely colour, very bright, but the one"]},{"code":401,"indent":1,"parameters":["thing it's not is green. But you know what, I kind of like it"]},{"code":401,"indent":1,"parameters":["better this way. Yellow. Without the green."]},{"code":0,"indent":1,"parameters":[]},{"code":412,"indent":0,"parameters":[]},{"code":101,"indent":0,"parameters":["",0,1,2]},{"code":401,"indent":0,"parameters":["\\c[23]Anyway, are these your final decisions?"]},{"code":102,"indent":0,"parameters":[["Yes","No"],1,0,2,0]},{"code":402,"indent":0,"parameters":[0,"Yes"]},{"code":101,"indent":1,"parameters":["",0,1,2]},{"code":401,"indent":1,"parameters":["\\c[23]Great! So just go on to the other room!"]},{"code":205,"indent":1,"parameters":[5,{"list":[{"code":17},{"code":15,"parameters":[3]},{"code":18},{"code":15,"parameters":[3]},{"code":19},{"code":0}],"repeat":false,"skippable":true,"wait":true}]},{"code":505,"indent":1,"parameters":[{"code":17}]},{"code":505,"indent":1,"parameters":[{"code":15,"parameters":[3]}]},{"code":505,"indent":1,"parameters":[{"code":18}]},{"code":505,"indent":1,"parameters":[{"code":15,"parameters":[3]}]},{"code":505,"indent":1,"parameters":[{"code":19}]},{"code":121,"indent":1,"parameters":[180,180,0]},{"code":123,"indent":1,"parameters":["B",0]},{"code":0,"indent":1,"parameters":[]},{"code":402,"indent":0,"parameters":[1,"No"]},{"code":123,"indent":1,"parameters":["A",1]},{"code":0,"indent":1,"parameters":[]},{"code":404,"indent":0,"parameters":[]},{"code":0,"indent":0,"parameters":[]}],"moveFrequency":3,"moveRoute":{"list":[{"code":0,"parameters":[]}],"repeat":true,"skippable":false,"wait":false},"moveSpeed":3,"moveType":0,"priorityType":1,"stepAnime":false,"through":false,"trigger":4,"walkAnime":true},{"conditions":{"actorId":1,"actorValid":false,"itemId":1,"itemValid":false,"selfSwitchCh":"B","selfSwitchValid":true,"switch1Id":1,"switch1Valid":false,"switch2Id":1,"switch2Valid":false,"variableId":1,"variableValid":false,"variableValue":0},"directionFix":false,"image":{"tileId":0,"characterName":"!Switch1","direction":6,"pattern":1,"characterIndex":0},"list":[{"code":101,"indent":0,"parameters":["",0,1,2]},{"code":401,"indent":0,"parameters":["\\c[23]I think we decided on the colours for this already. You"]},{"code":401,"indent":0,"parameters":["don't want to go back, do you?"]},{"code":101,"indent":0,"parameters":["1fc_jack1",1,0,2]},{"code":401,"indent":0,"parameters":["Nope. Lead the way!"]},{"code":0,"indent":0,"parameters":[]}],"moveFrequency":3,"moveRoute":{"list":[{"code":0,"parameters":[]}],"repeat":true,"skippable":false,"wait":false},"moveSpeed":3,"moveType":0,"priorityType":1,"stepAnime":false,"through":false,"trigger":0,"walkAnime":true}],"x":15,"y":6},
{"id":3,"name":"EV003","note":"","pages":[{"conditions":{"actorId":1,"actorValid":false,"itemId":1,"itemValid":false,"selfSwitchCh":"A","selfSwitchValid":false,"switch1Id":1,"switch1Valid":false,"switch2Id":1,"switch2Valid":false,"variableId":1,"variableValid":false,"variableValue":0},"directionFix":false,"image":{"characterIndex":0,"characterName":"","direction":2,"pattern":0,"tileId":0},"list":[{"code":245,"indent":0,"parameters":[{"name":"bgs_fnaf","volume":10,"pitch":100,"pan":0}]},{"code":101,"indent":0,"parameters":["",0,1,2]},{"code":401,"indent":0,"parameters":["\\c[23]Right, okay, this room. You're definitely not in any danger"]},{"code":401,"indent":0,"parameters":["here. And that's good. But these coloured lights, you can see"]},{"code":401,"indent":0,"parameters":["them, right? I need you to play around with them until they"]},{"code":401,"indent":0,"parameters":["make blue, red, green, and pink. Left to right, that order."]},{"code":101,"indent":0,"parameters":["",0,1,2]},{"code":401,"indent":0,"parameters":["\\c[23]Or you can change them to the shade you want. Or the colour. If"]},{"code":401,"indent":0,"parameters":["you're not happy with those colours. I mean I personally think"]},{"code":401,"indent":0,"parameters":["they're great, but there are some other colours to choose from."]},{"code":401,"indent":0,"parameters":["And I heard you are colourblind, so I thought this might help."]},{"code":101,"indent":0,"parameters":["1fc_jack1",1,0,2]},{"code":401,"indent":0,"parameters":["Oh... thanks, Wheatley. That's really thoughtful of you."]},{"code":101,"indent":0,"parameters":["",0,1,2]},{"code":401,"indent":0,"parameters":["\\c[23]Don't mention it. Wanted to make sure you could see them"]},{"code":401,"indent":0,"parameters":["and not get them confused. Anyway the white light, that's just"]},{"code":401,"indent":0,"parameters":["there as a reset in case you get confused. Turns your flashlight"]},{"code":401,"indent":0,"parameters":["white again."]},{"code":101,"indent":0,"parameters":["",0,1,2]},{"code":401,"indent":0,"parameters":["\\c[23]When you're done, just throw that switch there. The one on"]},{"code":401,"indent":0,"parameters":["the far right."]},{"code":123,"indent":0,"parameters":["A",0]},{"code":0,"indent":0,"parameters":[]}],"moveFrequency":3,"moveRoute":{"list":[{"code":0,"parameters":[]}],"repeat":true,"skippable":false,"wait":false},"moveSpeed":3,"moveType":0,"priorityType":0,"stepAnime":false,"through":false,"trigger":3,"walkAnime":true},{"conditions":{"actorId":1,"actorValid":false,"itemId":1,"itemValid":false,"selfSwitchCh":"A","selfSwitchValid":true,"switch1Id":1,"switch1Valid":false,"switch2Id":1,"switch2Valid":false,"variableId":1,"variableValid":false,"variableValue":0},"directionFix":false,"image":{"characterIndex":0,"characterName":"","direction":2,"pattern":0,"tileId":0},"list":[{"code":0,"indent":0,"parameters":[]}],"moveFrequency":3,"moveRoute":{"list":[{"code":0,"parameters":[]}],"repeat":true,"skippable":false,"wait":false},"moveSpeed":3,"moveType":0,"priorityType":0,"stepAnime":false,"through":false,"trigger":0,"walkAnime":true}],"x":3,"y":3},
{"id":4,"name":"EV004","note":"","pages":[{"conditions":{"actorId":1,"actorValid":false,"itemId":1,"itemValid":false,"selfSwitchCh":"A","selfSwitchValid":false,"switch1Id":1,"switch1Valid":false,"switch2Id":1,"switch2Valid":false,"variableId":1,"variableValid":false,"variableValue":0},"directionFix":false,"image":{"characterIndex":0,"characterName":"","direction":2,"pattern":0,"tileId":0},"list":[{"code":201,"indent":0,"parameters":[0,129,4,11,6,0]},{"code":0,"indent":0,"parameters":[]}],"moveFrequency":3,"moveRoute":{"list":[{"code":0,"parameters":[]}],"repeat":true,"skippable":false,"wait":false},"moveSpeed":3,"moveType":0,"priorityType":1,"stepAnime":false,"through":false,"trigger":1,"walkAnime":true}],"x":17,"y":9},
{"id":5,"name":"Door","note":"","pages":[{"conditions":{"actorId":1,"actorValid":false,"itemId":1,"itemValid":false,"selfSwitchCh":"A","selfSwitchValid":false,"switch1Id":1,"switch1Valid":false,"switch2Id":1,"switch2Valid":false,"variableId":1,"variableValid":false,"variableValue":0},"directionFix":false,"image":{"tileId":0,"characterName":"Door6","direction":2,"pattern":1,"characterIndex":6},"list":[{"code":101,"indent":0,"parameters":["",0,1,2]},{"code":401,"indent":0,"parameters":["\\c[23]Sorry, I can't let you through there. Not until you've"]},{"code":401,"indent":0,"parameters":["picked your colours. It's just really important that you do"]},{"code":401,"indent":0,"parameters":["that."]},{"code":101,"indent":0,"parameters":["1fc_jack2",0,0,2]},{"code":401,"indent":0,"parameters":["Am I walking into a trap?"]},{"code":101,"indent":0,"parameters":["",0,1,2]},{"code":401,"indent":0,"parameters":["\\c[23]No! No traps! It's just, well, I like to have flashlight"]},{"code":401,"indent":0,"parameters":["colors that suit me best, d'you know what I mean? So just go"]},{"code":401,"indent":0,"parameters":["over there and pick your colours. I'll wait here."]},{"code":0,"indent":0,"parameters":[]}],"moveFrequency":3,"moveRoute":{"list":[{"code":0,"parameters":[]}],"repeat":true,"skippable":false,"wait":false},"moveSpeed":3,"moveType":0,"priorityType":1,"stepAnime":false,"through":false,"trigger":0,"walkAnime":true},{"conditions":{"actorId":1,"actorValid":false,"itemId":1,"itemValid":false,"selfSwitchCh":"A","selfSwitchValid":false,"switch1Id":180,"switch1Valid":true,"switch2Id":1,"switch2Valid":false,"variableId":1,"variableValid":false,"variableValue":0},"directionFix":false,"image":{"characterIndex":0,"characterName":"","direction":2,"pattern":0,"tileId":0},"list":[{"code":0,"indent":0,"parameters":[]}],"moveFrequency":3,"moveRoute":{"list":[{"code":0,"parameters":[]}],"repeat":true,"skippable":false,"wait":false},"moveSpeed":3,"moveType":0,"priorityType":0,"stepAnime":false,"through":true,"trigger":0,"walkAnime":true}],"x":16,"y":9},
{"id":6,"name":"EV006","note":"Light 40 #55e3df","pages":[{"conditions":{"actorId":1,"actorValid":false,"itemId":1,"itemValid":false,"selfSwitchCh":"A","selfSwitchValid":false,"switch1Id":1,"switch1Valid":false,"switch2Id":1,"switch2Valid":false,"variableId":1,"variableValid":false,"variableValue":0},"directionFix":false,"image":{"tileId":0,"characterName":"$spr_samgreen","direction":2,"pattern":1,"characterIndex":0},"list":[{"code":352,"indent":0,"parameters":[]},{"code":0,"indent":0,"parameters":[]}],"moveFrequency":3,"moveRoute":{"list":[{"code":0,"parameters":[]}],"repeat":true,"skippable":false,"wait":false},"moveSpeed":4,"moveType":0,"priorityType":1,"stepAnime":true,"through":false,"trigger":0,"walkAnime":true}],"x":15,"y":10},
null,
null,
null,
{"id":10,"name":"EV010","note":"Light 40 #FF0000 8","pages":[{"conditions":{"actorId":1,"actorValid":false,"itemId":1,"itemValid":false,"selfSwitchCh":"A","selfSwitchValid":false,"switch1Id":1,"switch1Valid":false,"switch2Id":1,"switch2Valid":false,"variableId":1,"variableValid":false,"variableValue":0},"directionFix":true,"image":{"tileId":0,"characterName":"!Other light colors","direction":2,"pattern":1,"characterIndex":2},"list":[{"code":108,"indent":0,"parameters":["<Sprite Offset: +0, -12>"]},{"code":111,"indent":0,"parameters":[0,180,0]},{"code":101,"indent":1,"parameters":["",0,1,2]},{"code":401,"indent":1,"parameters":["\\c[23]I think we decided on the colour, actually. Well you did,"]},{"code":401,"indent":1,"parameters":["but I helped a bit, didn't I? And I'm glad you went with my"]},{"code":401,"indent":1,"parameters":["original suggestion to make this red. Like a traffic light."]},{"code":401,"indent":1,"parameters":["Only don't stop or you'll just get stuck here."]},{"code":0,"indent":1,"parameters":[]},{"code":411,"indent":0,"parameters":[]},{"code":101,"indent":1,"parameters":["",0,0,2]},{"code":401,"indent":1,"parameters":["Change light color?"]},{"code":102,"indent":1,"parameters":[["Yes","No"],1,0,2,0]},{"code":402,"indent":1,"parameters":[0,"Yes"]},{"code":122,"indent":2,"parameters":[78,78,1,0,1]},{"code":356,"indent":2,"parameters":["light color 8 #ff3537"]},{"code":121,"indent":2,"parameters":[168,168,1]},{"code":121,"indent":2,"parameters":[169,169,0]},{"code":121,"indent":2,"parameters":[170,170,1]},{"code":121,"indent":2,"parameters":[171,171,1]},{"code":356,"indent":2,"parameters":["Light radius 5 #FFFFFF"]},{"code":356,"indent":2,"parameters":["Flashlight on 8 12 #ff3537 3"]},{"code":0,"indent":2,"parameters":[]},{"code":402,"indent":1,"parameters":[1,"No"]},{"code":0,"indent":2,"parameters":[]},{"code":404,"indent":1,"parameters":[]},{"code":0,"indent":1,"parameters":[]},{"code":412,"indent":0,"parameters":[]},{"code":0,"indent":0,"parameters":[]}],"moveFrequency":3,"moveRoute":{"list":[{"code":0,"parameters":[]}],"repeat":true,"skippable":false,"wait":false},"moveSpeed":3,"moveType":0,"priorityType":1,"stepAnime":true,"through":false,"trigger":0,"walkAnime":true},{"conditions":{"actorId":1,"actorValid":false,"itemId":1,"itemValid":false,"selfSwitchCh":"A","selfSwitchValid":false,"switch1Id":1,"switch1Valid":false,"switch2Id":1,"switch2Valid":false,"variableId":78,"variableValid":true,"variableValue":1},"directionFix":true,"image":{"tileId":0,"characterName":"!Other light colors","direction":4,"pattern":1,"characterIndex":2},"list":[{"code":108,"indent":0,"parameters":["<Sprite Offset: +0, -12>"]},{"code":111,"indent":0,"parameters":[0,180,0]},{"code":101,"indent":1,"parameters":["",0,1,2]},{"code":401,"indent":1,"parameters":["\\c[23]I think we decided on the colour, actually. Well you did,"]},{"code":401,"indent":1,"parameters":["but I helped a bit, didn't I? And I'm glad you went with my"]},{"code":401,"indent":1,"parameters":["original suggestion to make this red. Like a traffic light."]},{"code":401,"indent":1,"parameters":["Only don't stop or you'll just get stuck here."]},{"code":0,"indent":1,"parameters":[]},{"code":411,"indent":0,"parameters":[]},{"code":101,"indent":1,"parameters":["",0,0,2]},{"code":401,"indent":1,"parameters":["Change light color?"]},{"code":102,"indent":1,"parameters":[["Yes","No"],1,0,2,0]},{"code":402,"indent":1,"parameters":[0,"Yes"]},{"code":122,"indent":2,"parameters":[78,78,1,0,1]},{"code":356,"indent":2,"parameters":["light color 8 #f86c3c"]},{"code":121,"indent":2,"parameters":[168,168,1]},{"code":121,"indent":2,"parameters":[169,169,0]},{"code":121,"indent":2,"parameters":[170,170,1]},{"code":121,"indent":2,"parameters":[171,171,1]},{"code":356,"indent":2,"parameters":["Light radius 5 #FFFFFF"]},{"code":356,"indent":2,"parameters":["Flashlight on 8 12 #f86c3c 3"]},{"code":121,"indent":2,"parameters":[208,208,0]},{"code":0,"indent":2,"parameters":[]},{"code":402,"indent":1,"parameters":[1,"No"]},{"code":0,"indent":2,"parameters":[]},{"code":404,"indent":1,"parameters":[]},{"code":0,"indent":1,"parameters":[]},{"code":412,"indent":0,"parameters":[]},{"code":0,"indent":0,"parameters":[]}],"moveFrequency":3,"moveRoute":{"list":[{"code":0,"parameters":[]}],"repeat":true,"skippable":false,"wait":false},"moveSpeed":3,"moveType":0,"priorityType":1,"stepAnime":true,"through":false,"trigger":0,"walkAnime":true},{"conditions":{"actorId":1,"actorValid":false,"itemId":1,"itemValid":false,"selfSwitchCh":"A","selfSwitchValid":false,"switch1Id":1,"switch1Valid":false,"switch2Id":1,"switch2Valid":false,"variableId":78,"variableValid":true,"variableValue":2},"directionFix":true,"image":{"tileId":0,"characterName":"!Other light colors","direction":6,"pattern":1,"characterIndex":2},"list":[{"code":108,"indent":0,"parameters":["<Sprite Offset: +0, -12>"]},{"code":111,"indent":0,"parameters":[0,180,0]},{"code":101,"indent":1,"parameters":["",0,1,2]},{"code":401,"indent":1,"parameters":["\\c[23]I think we decided on the colour, actually. Well you did,"]},{"code":401,"indent":1,"parameters":["but I helped a bit, didn't I? And you went with orange. Like"]},{"code":401,"indent":1,"parameters":["a pumpkin! I'm just glad it's not flickering like one. They're"]},{"code":401,"indent":1,"parameters":["creepy, they are."]},{"code":0,"indent":1,"parameters":[]},{"code":411,"indent":0,"parameters":[]},{"code":101,"indent":1,"parameters":["",0,0,2]},{"code":401,"indent":1,"parameters":["Change light color?"]},{"code":102,"indent":1,"parameters":[["Yes","No"],1,0,2,0]},{"code":402,"indent":1,"parameters":[0,"Yes"]},{"code":122,"indent":2,"parameters":[78,78,1,0,1]},{"code":356,"indent":2,"parameters":["light color 8 #f88e41"]},{"code":121,"indent":2,"parameters":[168,168,1]},{"code":121,"indent":2,"parameters":[169,169,0]},{"code":121,"indent":2,"parameters":[170,170,1]},{"code":121,"indent":2,"parameters":[171,171,1]},{"code":356,"indent":2,"parameters":["Light radius 5 #FFFFFF"]},{"code":356,"indent":2,"parameters":["Flashlight on 8 12 #f88e41 3"]},{"code":0,"indent":2,"parameters":[]},{"code":402,"indent":1,"parameters":[1,"No"]},{"code":0,"indent":2,"parameters":[]},{"code":404,"indent":1,"parameters":[]},{"code":0,"indent":1,"parameters":[]},{"code":412,"indent":0,"parameters":[]},{"code":0,"indent":0,"parameters":[]}],"moveFrequency":3,"moveRoute":{"list":[{"code":0,"parameters":[]}],"repeat":true,"skippable":false,"wait":false},"moveSpeed":3,"moveType":0,"priorityType":1,"stepAnime":true,"through":false,"trigger":0,"walkAnime":true},{"conditions":{"actorId":1,"actorValid":false,"itemId":1,"itemValid":false,"selfSwitchCh":"A","selfSwitchValid":false,"switch1Id":1,"switch1Valid":false,"switch2Id":1,"switch2Valid":false,"variableId":78,"variableValid":true,"variableValue":3},"directionFix":true,"image":{"tileId":0,"characterName":"!Other light colors","direction":8,"pattern":1,"characterIndex":2},"list":[{"code":108,"indent":0,"parameters":["<Sprite Offset: +0, -12>"]},{"code":111,"indent":0,"parameters":[0,180,0]},{"code":101,"indent":1,"parameters":["",0,1,2]},{"code":401,"indent":1,"parameters":["\\c[23]I think we decided on the colour, actually. Well you did,"]},{"code":401,"indent":1,"parameters":["but I helped a bit, didn't I? And you went with orange. Like"]},{"code":401,"indent":1,"parameters":["a pumpkin! I'm just glad it's not flickering like one. They're"]},{"code":401,"indent":1,"parameters":["creepy, they are."]},{"code":0,"indent":1,"parameters":[]},{"code":411,"indent":0,"parameters":[]},{"code":101,"indent":1,"parameters":["",0,0,2]},{"code":401,"indent":1,"parameters":["Change light color?"]},{"code":102,"indent":1,"parameters":[["Yes","No"],1,0,2,0]},{"code":402,"indent":1,"parameters":[0,"Yes"]},{"code":122,"indent":2,"parameters":[78,78,1,0,1]},{"code":356,"indent":2,"parameters":["light color 8 #f8913c"]},{"code":121,"indent":2,"parameters":[168,168,1]},{"code":121,"indent":2,"parameters":[169,169,0]},{"code":121,"indent":2,"parameters":[170,170,1]},{"code":121,"indent":2,"parameters":[171,171,1]},{"code":356,"indent":2,"parameters":["Light radius 5 #FFFFFF"]},{"code":356,"indent":2,"parameters":["Flashlight on 8 12 #f8913c 3"]},{"code":0,"indent":2,"parameters":[]},{"code":402,"indent":1,"parameters":[1,"No"]},{"code":0,"indent":2,"parameters":[]},{"code":404,"indent":1,"parameters":[]},{"code":0,"indent":1,"parameters":[]},{"code":412,"indent":0,"parameters":[]},{"code":0,"indent":0,"parameters":[]}],"moveFrequency":3,"moveRoute":{"list":[{"code":0,"parameters":[]}],"repeat":true,"skippable":false,"wait":false},"moveSpeed":3,"moveType":0,"priorityType":1,"stepAnime":true,"through":false,"trigger":0,"walkAnime":true},{"conditions":{"actorId":1,"actorValid":false,"itemId":1,"itemValid":false,"selfSwitchCh":"A","selfSwitchValid":false,"switch1Id":1,"switch1Valid":false,"switch2Id":1,"switch2Valid":false,"variableId":78,"variableValid":true,"variableValue":4},"directionFix":true,"image":{"tileId":0,"characterName":"!Other light colors","direction":2,"pattern":1,"characterIndex":3},"list":[{"code":108,"indent":0,"parameters":["<Sprite Offset: +0, -12>"]},{"code":111,"indent":0,"parameters":[0,180,0]},{"code":101,"indent":1,"parameters":["",0,1,2]},{"code":401,"indent":1,"parameters":["\\c[23]I think we decided on the colour, actually. Well you did,"]},{"code":401,"indent":1,"parameters":["but I helped a bit, didn't I? And you went with orange. Like"]},{"code":401,"indent":1,"parameters":["a pumpkin! I'm just glad it's not flickering like one. They're"]},{"code":401,"indent":1,"parameters":["creepy, they are."]},{"code":0,"indent":1,"parameters":[]},{"code":411,"indent":0,"parameters":[]},{"code":101,"indent":1,"parameters":["",0,0,2]},{"code":401,"indent":1,"parameters":["Change light color?"]},{"code":102,"indent":1,"parameters":[["Yes","No"],1,0,2,0]},{"code":402,"indent":1,"parameters":[0,"Yes"]},{"code":122,"indent":2,"parameters":[78,78,1,0,1]},{"code":356,"indent":2,"parameters":["light color 8 #f89f41"]},{"code":121,"indent":2,"parameters":[168,168,1]},{"code":121,"indent":2,"parameters":[169,169,0]},{"code":121,"indent":2,"parameters":[170,170,1]},{"code":121,"indent":2,"parameters":[171,171,1]},{"code":356,"indent":2,"parameters":["Light radius 5 #FFFFFF"]},{"code":356,"indent":2,"parameters":["Flashlight on 8 12 #f89f41 3"]},{"code":0,"indent":2,"parameters":[]},{"code":402,"indent":1,"parameters":[1,"No"]},{"code":0,"indent":2,"parameters":[]},{"code":404,"indent":1,"parameters":[]},{"code":0,"indent":1,"parameters":[]},{"code":412,"indent":0,"parameters":[]},{"code":0,"indent":0,"parameters":[]}],"moveFrequency":3,"moveRoute":{"list":[{"code":0,"parameters":[]}],"repeat":true,"skippable":false,"wait":false},"moveSpeed":3,"moveType":0,"priorityType":1,"stepAnime":true,"through":false,"trigger":0,"walkAnime":true},{"conditions":{"actorId":1,"actorValid":false,"itemId":1,"itemValid":false,"selfSwitchCh":"A","selfSwitchValid":false,"switch1Id":1,"switch1Valid":false,"switch2Id":1,"switch2Valid":false,"variableId":78,"variableValid":true,"variableValue":5},"directionFix":true,"image":{"tileId":0,"characterName":"!Other light colors","direction":4,"pattern":1,"characterIndex":3},"list":[{"code":108,"indent":0,"parameters":["<Sprite Offset: +0, -12>"]},{"code":111,"indent":0,"parameters":[0,180,0]},{"code":101,"indent":1,"parameters":["",0,1,2]},{"code":401,"indent":1,"parameters":["\\c[23]I think we decided on the colour, actually. Well you did,"]},{"code":401,"indent":1,"parameters":["but I helped a bit, didn't I? And you went with orange. Like"]},{"code":401,"indent":1,"parameters":["a pumpkin! I'm just glad it's not flickering like one. They're"]},{"code":401,"indent":1,"parameters":["creepy, they are."]},{"code":0,"indent":1,"parameters":[]},{"code":411,"indent":0,"parameters":[]},{"code":101,"indent":1,"parameters":["",0,0,2]},{"code":401,"indent":1,"parameters":["Change light color?"]},{"code":102,"indent":1,"parameters":[["Yes","No"],1,0,2,0]},{"code":402,"indent":1,"parameters":[0,"Yes"]},{"code":122,"indent":2,"parameters":[78,78,1,0,1]},{"code":356,"indent":2,"parameters":["light color 8 #ffb73a"]},{"code":121,"indent":2,"parameters":[168,168,1]},{"code":121,"indent":2,"parameters":[169,169,0]},{"code":121,"indent":2,"parameters":[170,170,1]},{"code":121,"indent":2,"parameters":[171,171,1]},{"code":356,"indent":2,"parameters":["Light radius 5 #FFFFFF"]},{"code":356,"indent":2,"parameters":["Flashlight on 8 12 #ffb73a 3"]},{"code":0,"indent":2,"parameters":[]},{"code":402,"indent":1,"parameters":[1,"No"]},{"code":0,"indent":2,"parameters":[]},{"code":404,"indent":1,"parameters":[]},{"code":0,"indent":1,"parameters":[]},{"code":412,"indent":0,"parameters":[]},{"code":0,"indent":0,"parameters":[]}],"moveFrequency":3,"moveRoute":{"list":[{"code":0,"parameters":[]}],"repeat":true,"skippable":false,"wait":false},"moveSpeed":3,"moveType":0,"priorityType":1,"stepAnime":true,"through":false,"trigger":0,"walkAnime":true},{"conditions":{"actorId":1,"actorValid":false,"itemId":1,"itemValid":false,"selfSwitchCh":"A","selfSwitchValid":false,"switch1Id":1,"switch1Valid":false,"switch2Id":1,"switch2Valid":false,"variableId":78,"variableValid":true,"variableValue":6},"directionFix":true,"image":{"tileId":0,"characterName":"!Other light colors","direction":6,"pattern":1,"characterIndex":3},"list":[{"code":108,"indent":0,"parameters":["<Sprite Offset: +0, -12>"]},{"code":111,"indent":0,"parameters":[0,180,0]},{"code":101,"indent":1,"parameters":["",0,1,2]},{"code":401,"indent":1,"parameters":["\\c[23]I think we decided on the colour, actually. Well you did,"]},{"code":401,"indent":1,"parameters":["but I helped a bit, didn't I? And you went with orange. Like"]},{"code":401,"indent":1,"parameters":["a pumpkin! I'm just glad it's not flickering like one. They're"]},{"code":401,"indent":1,"parameters":["creepy, they are."]},{"code":0,"indent":1,"parameters":[]},{"code":411,"indent":0,"parameters":[]},{"code":101,"indent":1,"parameters":["",0,0,2]},{"code":401,"indent":1,"parameters":["Change light color?"]},{"code":102,"indent":1,"parameters":[["Yes","No"],1,0,2,0]},{"code":402,"indent":1,"parameters":[0,"Yes"]},{"code":122,"indent":2,"parameters":[78,78,1,0,1]},{"code":356,"indent":2,"parameters":["light color 8 #f8c03c"]},{"code":121,"indent":2,"parameters":[168,168,1]},{"code":121,"indent":2,"parameters":[169,169,0]},{"code":121,"indent":2,"parameters":[170,170,1]},{"code":121,"indent":2,"parameters":[171,171,1]},{"code":356,"indent":2,"parameters":["Light radius 5 #FFFFFF"]},{"code":356,"indent":2,"parameters":["Flashlight on 8 12 #f8c03c 3"]},{"code":0,"indent":2,"parameters":[]},{"code":402,"indent":1,"parameters":[1,"No"]},{"code":0,"indent":2,"parameters":[]},{"code":404,"indent":1,"parameters":[]},{"code":0,"indent":1,"parameters":[]},{"code":412,"indent":0,"parameters":[]},{"code":0,"indent":0,"parameters":[]}],"moveFrequency":3,"moveRoute":{"list":[{"code":0,"parameters":[]}],"repeat":true,"skippable":false,"wait":false},"moveSpeed":3,"moveType":0,"priorityType":1,"stepAnime":true,"through":false,"trigger":0,"walkAnime":true},{"conditions":{"actorId":1,"actorValid":false,"itemId":1,"itemValid":false,"selfSwitchCh":"A","selfSwitchValid":false,"switch1Id":1,"switch1Valid":false,"switch2Id":1,"switch2Valid":false,"variableId":78,"variableValid":true,"variableValue":7},"directionFix":true,"image":{"tileId":0,"characterName":"!Other light colors","direction":8,"pattern":1,"characterIndex":3},"list":[{"code":108,"indent":0,"parameters":["<Sprite Offset: +0, -12>"]},{"code":111,"indent":0,"parameters":[0,180,0]},{"code":101,"indent":1,"parameters":["",0,1,2]},{"code":401,"indent":1,"parameters":["\\c[23]I think we decided on the colour, actually. Well you did,"]},{"code":401,"indent":1,"parameters":["but I helped a bit, didn't I? And you went with orange. Like"]},{"code":401,"indent":1,"parameters":["a pumpkin! I'm just glad it's not flickering like one. They're"]},{"code":401,"indent":1,"parameters":["creepy, they are."]},{"code":0,"indent":1,"parameters":[]},{"code":411,"indent":0,"parameters":[]},{"code":101,"indent":1,"parameters":["",0,0,2]},{"code":401,"indent":1,"parameters":["Change light color?"]},{"code":102,"indent":1,"parameters":[["Yes","No"],1,0,2,0]},{"code":402,"indent":1,"parameters":[0,"Yes"]},{"code":122,"indent":2,"parameters":[78,78,0,0,0]},{"code":356,"indent":2,"parameters":["light color 8 #FF0000"]},{"code":121,"indent":2,"parameters":[168,168,1]},{"code":121,"indent":2,"parameters":[169,169,0]},{"code":121,"indent":2,"parameters":[170,170,1]},{"code":121,"indent":2,"parameters":[171,171,1]},{"code":356,"indent":2,"parameters":["Light radius 5 #FFFFFF"]},{"code":356,"indent":2,"parameters":["Flashlight on 8 12 #ff0000"]},{"code":121,"indent":2,"parameters":[208,208,1]},{"code":0,"indent":2,"parameters":[]},{"code":402,"indent":1,"parameters":[1,"No"]},{"code":0,"indent":2,"parameters":[]},{"code":404,"indent":1,"parameters":[]},{"code":0,"indent":1,"parameters":[]},{"code":412,"indent":0,"parameters":[]},{"code":0,"indent":0,"parameters":[]}],"moveFrequency":3,"moveRoute":{"list":[{"code":0,"parameters":[]}],"repeat":true,"skippable":false,"wait":false},"moveSpeed":3,"moveType":0,"priorityType":1,"stepAnime":true,"through":false,"trigger":0,"walkAnime":true}],"x":9,"y":6},
{"id":11,"name":"EV011","note":"Light 40 #000CFF 7","pages":[{"conditions":{"actorId":1,"actorValid":false,"itemId":1,"itemValid":false,"selfSwitchCh":"A","selfSwitchValid":false,"switch1Id":1,"switch1Valid":false,"switch2Id":1,"switch2Valid":false,"variableId":1,"variableValid":false,"variableValue":0},"directionFix":true,"image":{"tileId":0,"characterName":"!Other light colors","direction":2,"pattern":1,"characterIndex":6},"list":[{"code":108,"indent":0,"parameters":["<Sprite Offset: +0, -12>"]},{"code":111,"indent":0,"parameters":[0,180,0]},{"code":101,"indent":1,"parameters":["",0,1,2]},{"code":401,"indent":1,"parameters":["\\c[23]I think we decided on the colour, actually. It's very"]},{"code":401,"indent":1,"parameters":["nice! I like a good blue!"]},{"code":0,"indent":1,"parameters":[]},{"code":411,"indent":0,"parameters":[]},{"code":101,"indent":1,"parameters":["",0,0,2]},{"code":401,"indent":1,"parameters":["Change light color?"]},{"code":102,"indent":1,"parameters":[["Yes","No"],1,0,2,0]},{"code":402,"indent":1,"parameters":[0,"Yes"]},{"code":122,"indent":2,"parameters":[77,77,1,0,1]},{"code":356,"indent":2,"parameters":["light color 7 #5d3df8"]},{"code":121,"indent":2,"parameters":[168,168,1]},{"code":121,"indent":2,"parameters":[169,169,1]},{"code":121,"indent":2,"parameters":[170,170,0]},{"code":121,"indent":2,"parameters":[171,171,1]},{"code":356,"indent":2,"parameters":["Light radius 5 #FFFFFF"]},{"code":356,"indent":2,"parameters":["Flashlight on 8 12 #5d3df8 3"]},{"code":121,"indent":2,"parameters":[206,206,0]},{"code":0,"indent":2,"parameters":[]},{"code":402,"indent":1,"parameters":[1,"No"]},{"code":0,"indent":2,"parameters":[]},{"code":404,"indent":1,"parameters":[]},{"code":0,"indent":1,"parameters":[]},{"code":412,"indent":0,"parameters":[]},{"code":0,"indent":0,"parameters":[]}],"moveFrequency":3,"moveRoute":{"list":[{"code":0,"parameters":[]}],"repeat":true,"skippable":false,"wait":false},"moveSpeed":3,"moveType":0,"priorityType":1,"stepAnime":true,"through":false,"trigger":0,"walkAnime":true},{"conditions":{"actorId":1,"actorValid":false,"itemId":1,"itemValid":false,"selfSwitchCh":"A","selfSwitchValid":false,"switch1Id":1,"switch1Valid":false,"switch2Id":1,"switch2Valid":false,"variableId":77,"variableValid":true,"variableValue":1},"directionFix":true,"image":{"tileId":0,"characterName":"!Other light colors","direction":4,"pattern":1,"characterIndex":6},"list":[{"code":108,"indent":0,"parameters":["<Sprite Offset: +0, -12>"]},{"code":111,"indent":0,"parameters":[0,180,0]},{"code":101,"indent":1,"parameters":["",0,1,2]},{"code":401,"indent":1,"parameters":["\\c[23]I think we decided on the colour, actually. It's very"]},{"code":401,"indent":1,"parameters":["nice! Very... purple-y."]},{"code":0,"indent":1,"parameters":[]},{"code":411,"indent":0,"parameters":[]},{"code":101,"indent":1,"parameters":["",0,0,2]},{"code":401,"indent":1,"parameters":["Change light color?"]},{"code":102,"indent":1,"parameters":[["Yes","No"],1,0,2,0]},{"code":402,"indent":1,"parameters":[0,"Yes"]},{"code":122,"indent":2,"parameters":[77,77,1,0,1]},{"code":356,"indent":2,"parameters":["light color 7 #3cb4f8"]},{"code":121,"indent":2,"parameters":[168,168,1]},{"code":121,"indent":2,"parameters":[169,169,1]},{"code":121,"indent":2,"parameters":[170,170,0]},{"code":121,"indent":2,"parameters":[171,171,1]},{"code":356,"indent":2,"parameters":["Light radius 5 #FFFFFF"]},{"code":356,"indent":2,"parameters":["Flashlight on 8 12 #3cb4f8 3"]},{"code":121,"indent":2,"parameters":[206,206,1]},{"code":0,"indent":2,"parameters":[]},{"code":402,"indent":1,"parameters":[1,"No"]},{"code":0,"indent":2,"parameters":[]},{"code":404,"indent":1,"parameters":[]},{"code":0,"indent":1,"parameters":[]},{"code":412,"indent":0,"parameters":[]},{"code":0,"indent":0,"parameters":[]}],"moveFrequency":3,"moveRoute":{"list":[{"code":0,"parameters":[]}],"repeat":true,"skippable":false,"wait":false},"moveSpeed":3,"moveType":0,"priorityType":1,"stepAnime":true,"through":false,"trigger":0,"walkAnime":true},{"conditions":{"actorId":1,"actorValid":false,"itemId":1,"itemValid":false,"selfSwitchCh":"A","selfSwitchValid":false,"switch1Id":1,"switch1Valid":false,"switch2Id":1,"switch2Valid":false,"variableId":77,"variableValid":true,"variableValue":2},"directionFix":true,"image":{"tileId":0,"characterName":"!Other light colors","direction":6,"pattern":1,"characterIndex":6},"list":[{"code":108,"indent":0,"parameters":["<Sprite Offset: +0, -12>"]},{"code":111,"indent":0,"parameters":[0,180,0]},{"code":101,"indent":1,"parameters":["",0,1,2]},{"code":401,"indent":1,"parameters":["\\c[23]I think we decided on the colour, actually. It's very"]},{"code":401,"indent":1,"parameters":["nice! I like the lighter shade, it does make your flashlight a"]},{"code":401,"indent":1,"parameters":["bit brighter, doesn't it?"]},{"code":0,"indent":1,"parameters":[]},{"code":411,"indent":0,"parameters":[]},{"code":101,"indent":1,"parameters":["",0,0,2]},{"code":401,"indent":1,"parameters":["Change light color?"]},{"code":102,"indent":1,"parameters":[["Yes","No"],1,0,2,0]},{"code":402,"indent":1,"parameters":[0,"Yes"]},{"code":122,"indent":2,"parameters":[77,77,1,0,1]},{"code":356,"indent":2,"parameters":["light color 7 #3cb4f8"]},{"code":121,"indent":2,"parameters":[168,168,1]},{"code":121,"indent":2,"parameters":[169,169,1]},{"code":121,"indent":2,"parameters":[170,170,0]},{"code":121,"indent":2,"parameters":[171,171,1]},{"code":356,"indent":2,"parameters":["Light radius 5 #FFFFFF"]},{"code":356,"indent":2,"parameters":["Flashlight on 8 12 #3cb4f8 3"]},{"code":0,"indent":2,"parameters":[]},{"code":402,"indent":1,"parameters":[1,"No"]},{"code":0,"indent":2,"parameters":[]},{"code":404,"indent":1,"parameters":[]},{"code":0,"indent":1,"parameters":[]},{"code":412,"indent":0,"parameters":[]},{"code":0,"indent":0,"parameters":[]}],"moveFrequency":3,"moveRoute":{"list":[{"code":0,"parameters":[]}],"repeat":true,"skippable":false,"wait":false},"moveSpeed":3,"moveType":0,"priorityType":1,"stepAnime":true,"through":false,"trigger":0,"walkAnime":true},{"conditions":{"actorId":1,"actorValid":false,"itemId":1,"itemValid":false,"selfSwitchCh":"A","selfSwitchValid":false,"switch1Id":1,"switch1Valid":false,"switch2Id":1,"switch2Valid":false,"variableId":77,"variableValid":true,"variableValue":3},"directionFix":true,"image":{"tileId":0,"characterName":"!Other light colors","direction":8,"pattern":1,"characterIndex":6},"list":[{"code":108,"indent":0,"parameters":["<Sprite Offset: +0, -12>"]},{"code":111,"indent":0,"parameters":[0,180,0]},{"code":101,"indent":1,"parameters":["",0,1,2]},{"code":401,"indent":1,"parameters":["\\c[23]I think we decided on the colour, actually. It's very"]},{"code":401,"indent":1,"parameters":["nice! I like the lighter shade, it does make your flashlight a"]},{"code":401,"indent":1,"parameters":["bit brighter, doesn't it?"]},{"code":0,"indent":1,"parameters":[]},{"code":411,"indent":0,"parameters":[]},{"code":101,"indent":1,"parameters":["",0,0,2]},{"code":401,"indent":1,"parameters":["Change light color?"]},{"code":102,"indent":1,"parameters":[["Yes","No"],1,0,2,0]},{"code":402,"indent":1,"parameters":[0,"Yes"]},{"code":122,"indent":2,"parameters":[77,77,1,0,1]},{"code":356,"indent":2,"parameters":["light color 7 #3cc2f8"]},{"code":121,"indent":2,"parameters":[168,168,1]},{"code":121,"indent":2,"parameters":[169,169,1]},{"code":121,"indent":2,"parameters":[170,170,0]},{"code":121,"indent":2,"parameters":[171,171,1]},{"code":356,"indent":2,"parameters":["Light radius 5 #FFFFFF"]},{"code":356,"indent":2,"parameters":["Flashlight on 8 12 #3cc2f8 3"]},{"code":0,"indent":2,"parameters":[]},{"code":402,"indent":1,"parameters":[1,"No"]},{"code":0,"indent":2,"parameters":[]},{"code":404,"indent":1,"parameters":[]},{"code":0,"indent":1,"parameters":[]},{"code":412,"indent":0,"parameters":[]},{"code":0,"indent":0,"parameters":[]}],"moveFrequency":3,"moveRoute":{"list":[{"code":0,"parameters":[]}],"repeat":true,"skippable":false,"wait":false},"moveSpeed":3,"moveType":0,"priorityType":1,"stepAnime":true,"through":false,"trigger":0,"walkAnime":true},{"conditions":{"actorId":1,"actorValid":false,"itemId":1,"itemValid":false,"selfSwitchCh":"A","selfSwitchValid":false,"switch1Id":1,"switch1Valid":false,"switch2Id":1,"switch2Valid":false,"variableId":77,"variableValid":true,"variableValue":4},"directionFix":true,"image":{"tileId":0,"characterName":"!Other light colors","direction":2,"pattern":1,"characterIndex":7},"list":[{"code":108,"indent":0,"parameters":["<Sprite Offset: +0, -12>"]},{"code":111,"indent":0,"parameters":[0,180,0]},{"code":101,"indent":1,"parameters":["",0,1,2]},{"code":401,"indent":1,"parameters":["\\c[23]I think we decided on the colour, actually. It's very"]},{"code":401,"indent":1,"parameters":["nice! I like the lighter shade, it does make your flashlight a"]},{"code":401,"indent":1,"parameters":["bit brighter, doesn't it?"]},{"code":0,"indent":1,"parameters":[]},{"code":411,"indent":0,"parameters":[]},{"code":101,"indent":1,"parameters":["",0,0,2]},{"code":401,"indent":1,"parameters":["Change light color?"]},{"code":102,"indent":1,"parameters":[["Yes","No"],1,0,2,0]},{"code":402,"indent":1,"parameters":[0,"Yes"]},{"code":122,"indent":2,"parameters":[77,77,1,0,1]},{"code":356,"indent":2,"parameters":["light color 7 #3cf0f8"]},{"code":121,"indent":2,"parameters":[168,168,1]},{"code":121,"indent":2,"parameters":[169,169,1]},{"code":121,"indent":2,"parameters":[170,170,0]},{"code":121,"indent":2,"parameters":[171,171,1]},{"code":356,"indent":2,"parameters":["Light radius 5 #FFFFFF"]},{"code":356,"indent":2,"parameters":["Flashlight on 8 12 #3cf0f8 3"]},{"code":0,"indent":2,"parameters":[]},{"code":402,"indent":1,"parameters":[1,"No"]},{"code":0,"indent":2,"parameters":[]},{"code":404,"indent":1,"parameters":[]},{"code":0,"indent":1,"parameters":[]},{"code":412,"indent":0,"parameters":[]},{"code":0,"indent":0,"parameters":[]}],"moveFrequency":3,"moveRoute":{"list":[{"code":0,"parameters":[]}],"repeat":true,"skippable":false,"wait":false},"moveSpeed":3,"moveType":0,"priorityType":1,"stepAnime":true,"through":false,"trigger":0,"walkAnime":true},{"conditions":{"actorId":1,"actorValid":false,"itemId":1,"itemValid":false,"selfSwitchCh":"A","selfSwitchValid":false,"switch1Id":1,"switch1Valid":false,"switch2Id":1,"switch2Valid":false,"variableId":77,"variableValid":true,"variableValue":5},"directionFix":true,"image":{"tileId":0,"characterName":"!Other light colors","direction":4,"pattern":1,"characterIndex":7},"list":[{"code":108,"indent":0,"parameters":["<Sprite Offset: +0, -12>"]},{"code":111,"indent":0,"parameters":[0,180,0]},{"code":101,"indent":1,"parameters":["",0,1,2]},{"code":401,"indent":1,"parameters":["\\c[23]I think we decided on the colour, actually. It's very"]},{"code":401,"indent":1,"parameters":["nice! I like the lighter shade, it does make your flashlight a"]},{"code":401,"indent":1,"parameters":["bit brighter, doesn't it?"]},{"code":0,"indent":1,"parameters":[]},{"code":411,"indent":0,"parameters":[]},{"code":101,"indent":1,"parameters":["",0,0,2]},{"code":401,"indent":1,"parameters":["Change light color?"]},{"code":102,"indent":1,"parameters":[["Yes","No"],1,0,2,0]},{"code":402,"indent":1,"parameters":[0,"Yes"]},{"code":122,"indent":2,"parameters":[77,77,1,0,1]},{"code":356,"indent":2,"parameters":["light color 7 #3df8d6"]},{"code":121,"indent":2,"parameters":[168,168,1]},{"code":121,"indent":2,"parameters":[169,169,1]},{"code":121,"indent":2,"parameters":[170,170,0]},{"code":121,"indent":2,"parameters":[171,171,1]},{"code":356,"indent":2,"parameters":["Light radius 5 #FFFFFF"]},{"code":356,"indent":2,"parameters":["Flashlight on 8 12 #3df8d6 3"]},{"code":0,"indent":2,"parameters":[]},{"code":402,"indent":1,"parameters":[1,"No"]},{"code":0,"indent":2,"parameters":[]},{"code":404,"indent":1,"parameters":[]},{"code":0,"indent":1,"parameters":[]},{"code":412,"indent":0,"parameters":[]},{"code":0,"indent":0,"parameters":[]}],"moveFrequency":3,"moveRoute":{"list":[{"code":0,"parameters":[]}],"repeat":true,"skippable":false,"wait":false},"moveSpeed":3,"moveType":0,"priorityType":1,"stepAnime":true,"through":false,"trigger":0,"walkAnime":true},{"conditions":{"actorId":1,"actorValid":false,"itemId":1,"itemValid":false,"selfSwitchCh":"A","selfSwitchValid":false,"switch1Id":1,"switch1Valid":false,"switch2Id":1,"switch2Valid":false,"variableId":77,"variableValid":true,"variableValue":6},"directionFix":true,"image":{"tileId":0,"characterName":"!Other light colors","direction":6,"pattern":1,"characterIndex":7},"list":[{"code":108,"indent":0,"parameters":["<Sprite Offset: +0, -12>"]},{"code":111,"indent":0,"parameters":[0,180,0]},{"code":101,"indent":1,"parameters":["",0,1,2]},{"code":401,"indent":1,"parameters":["\\c[23]I think we decided on the colour, actually. It's very"]},{"code":401,"indent":1,"parameters":["nice! I like the lighter shade, it does make your flashlight a"]},{"code":401,"indent":1,"parameters":["bit brighter, doesn't it? Though it's sort of teal instead of"]},{"code":401,"indent":1,"parameters":["blue now. Who knew green and blue would make a whole new colour?"]},{"code":0,"indent":1,"parameters":[]},{"code":411,"indent":0,"parameters":[]},{"code":101,"indent":1,"parameters":["",0,0,2]},{"code":401,"indent":1,"parameters":["Change light color?"]},{"code":102,"indent":1,"parameters":[["Yes","No"],1,0,2,0]},{"code":402,"indent":1,"parameters":[0,"Yes"]},{"code":122,"indent":2,"parameters":[77,77,1,0,1]},{"code":356,"indent":2,"parameters":["light color 7 #3cf8b3"]},{"code":121,"indent":2,"parameters":[168,168,1]},{"code":121,"indent":2,"parameters":[169,169,1]},{"code":121,"indent":2,"parameters":[170,170,0]},{"code":121,"indent":2,"parameters":[171,171,1]},{"code":356,"indent":2,"parameters":["Light radius 5 #FFFFFF"]},{"code":356,"indent":2,"parameters":["Flashlight on 8 12 #3cf8b3 3"]},{"code":121,"indent":2,"parameters":[207,207,0]},{"code":0,"indent":2,"parameters":[]},{"code":402,"indent":1,"parameters":[1,"No"]},{"code":0,"indent":2,"parameters":[]},{"code":404,"indent":1,"parameters":[]},{"code":0,"indent":1,"parameters":[]},{"code":412,"indent":0,"parameters":[]},{"code":0,"indent":0,"parameters":[]}],"moveFrequency":3,"moveRoute":{"list":[{"code":0,"parameters":[]}],"repeat":true,"skippable":false,"wait":false},"moveSpeed":3,"moveType":0,"priorityType":1,"stepAnime":true,"through":false,"trigger":0,"walkAnime":true},{"conditions":{"actorId":1,"actorValid":false,"itemId":1,"itemValid":false,"selfSwitchCh":"A","selfSwitchValid":false,"switch1Id":1,"switch1Valid":false,"switch2Id":1,"switch2Valid":false,"variableId":77,"variableValid":true,"variableValue":7},"directionFix":true,"image":{"tileId":0,"characterName":"!Other light colors","direction":8,"pattern":1,"characterIndex":7},"list":[{"code":108,"indent":0,"parameters":["<Sprite Offset: +0, -12>"]},{"code":111,"indent":0,"parameters":[0,180,0]},{"code":101,"indent":1,"parameters":["",0,1,2]},{"code":401,"indent":1,"parameters":["\\c[23]I think we decided on the colour, actually. It's very"]},{"code":401,"indent":1,"parameters":["nice! I like the lighter shade, it does make your flashlight a"]},{"code":401,"indent":1,"parameters":["bit brighter, doesn't it? Though it's sort of teal instead of"]},{"code":401,"indent":1,"parameters":["blue now. Who knew green and blue would make a whole new colour?"]},{"code":0,"indent":1,"parameters":[]},{"code":411,"indent":0,"parameters":[]},{"code":101,"indent":1,"parameters":["",0,0,2]},{"code":401,"indent":1,"parameters":["Change light color?"]},{"code":102,"indent":1,"parameters":[["Yes","No"],1,0,2,0]},{"code":402,"indent":1,"parameters":[0,"Yes"]},{"code":122,"indent":2,"parameters":[77,77,0,0,0]},{"code":356,"indent":2,"parameters":["light color 7 #000CFF"]},{"code":121,"indent":2,"parameters":[168,168,1]},{"code":121,"indent":2,"parameters":[169,169,1]},{"code":121,"indent":2,"parameters":[170,170,0]},{"code":121,"indent":2,"parameters":[171,171,1]},{"code":356,"indent":2,"parameters":["Light radius 5 #FFFFFF"]},{"code":356,"indent":2,"parameters":["Flashlight on 8 12 #000CFF 3"]},{"code":121,"indent":2,"parameters":[207,207,1]},{"code":0,"indent":2,"parameters":[]},{"code":402,"indent":1,"parameters":[1,"No"]},{"code":0,"indent":2,"parameters":[]},{"code":404,"indent":1,"parameters":[]},{"code":0,"indent":1,"parameters":[]},{"code":412,"indent":0,"parameters":[]},{"code":0,"indent":0,"parameters":[]}],"moveFrequency":3,"moveRoute":{"list":[{"code":0,"parameters":[]}],"repeat":true,"skippable":false,"wait":false},"moveSpeed":3,"moveType":0,"priorityType":1,"stepAnime":true,"through":false,"trigger":0,"walkAnime":true}],"x":7,"y":6},
{"id":12,"name":"EV012","note":"Light 40 #06D100 9","pages":[{"conditions":{"actorId":1,"actorValid":false,"itemId":1,"itemValid":false,"selfSwitchCh":"A","selfSwitchValid":false,"switch1Id":1,"switch1Valid":false,"switch2Id":1,"switch2Valid":false,"variableId":1,"variableValid":false,"variableValue":0},"directionFix":true,"image":{"tileId":0,"characterName":"!Other light colors","direction":2,"pattern":1,"characterIndex":0},"list":[{"code":108,"indent":0,"parameters":["<Sprite Offset: +0, -12>"]},{"code":111,"indent":0,"parameters":[0,180,0]},{"code":101,"indent":1,"parameters":["",0,1,2]},{"code":401,"indent":1,"parameters":["\\c[23]You've already given this colour the go-ahead. And it's a"]},{"code":401,"indent":1,"parameters":["really nice green, very bright. Hard to miss this green!"]},{"code":0,"indent":1,"parameters":[]},{"code":411,"indent":0,"parameters":[]},{"code":101,"indent":1,"parameters":["",0,0,2]},{"code":401,"indent":1,"parameters":["Change light color?"]},{"code":102,"indent":1,"parameters":[["Yes","No"],1,0,2,0]},{"code":402,"indent":1,"parameters":[0,"Yes"]},{"code":122,"indent":2,"parameters":[79,79,1,0,1]},{"code":356,"indent":2,"parameters":["light color 9 #51e290"]},{"code":121,"indent":2,"parameters":[168,168,1]},{"code":121,"indent":2,"parameters":[169,169,1]},{"code":121,"indent":2,"parameters":[170,170,1]},{"code":121,"indent":2,"parameters":[171,171,0]},{"code":356,"indent":2,"parameters":["Light radius 5 #FFFFFF"]},{"code":356,"indent":2,"parameters":["Flashlight on 8 12 #51e290 3"]},{"code":0,"indent":2,"parameters":[]},{"code":402,"indent":1,"parameters":[1,"No"]},{"code":0,"indent":2,"parameters":[]},{"code":404,"indent":1,"parameters":[]},{"code":0,"indent":1,"parameters":[]},{"code":412,"indent":0,"parameters":[]},{"code":0,"indent":0,"parameters":[]}],"moveFrequency":3,"moveRoute":{"list":[{"code":0,"parameters":[]}],"repeat":true,"skippable":false,"wait":false},"moveSpeed":3,"moveType":0,"priorityType":1,"stepAnime":false,"through":false,"trigger":0,"walkAnime":true},{"conditions":{"actorId":1,"actorValid":false,"itemId":1,"itemValid":false,"selfSwitchCh":"A","selfSwitchValid":false,"switch1Id":1,"switch1Valid":false,"switch2Id":1,"switch2Valid":false,"variableId":79,"variableValid":true,"variableValue":1},"directionFix":true,"image":{"tileId":0,"characterName":"!Other light colors","direction":4,"pattern":1,"characterIndex":0},"list":[{"code":108,"indent":0,"parameters":["<Sprite Offset: +0, -12>"]},{"code":111,"indent":0,"parameters":[0,180,0]},{"code":101,"indent":1,"parameters":["",0,1,2]},{"code":401,"indent":1,"parameters":["\\c[23]You've already given this colour the go-ahead. And it's a"]},{"code":401,"indent":1,"parameters":["really nice green, very bright. Hard to miss this green!"]},{"code":0,"indent":1,"parameters":[]},{"code":411,"indent":0,"parameters":[]},{"code":101,"indent":1,"parameters":["",0,0,2]},{"code":401,"indent":1,"parameters":["Change light color?"]},{"code":102,"indent":1,"parameters":[["Yes","No"],1,0,2,0]},{"code":402,"indent":1,"parameters":[0,"Yes"]},{"code":122,"indent":2,"parameters":[79,79,1,0,1]},{"code":356,"indent":2,"parameters":["light color 9 #55e3df"]},{"code":121,"indent":2,"parameters":[168,168,1]},{"code":121,"indent":2,"parameters":[169,169,1]},{"code":121,"indent":2,"parameters":[170,170,1]},{"code":121,"indent":2,"parameters":[171,171,0]},{"code":356,"indent":2,"parameters":["Light radius 5 #FFFFFF"]},{"code":356,"indent":2,"parameters":["Flashlight on 8 12 #55e3df 3"]},{"code":121,"indent":2,"parameters":[209,209,0]},{"code":0,"indent":2,"parameters":[]},{"code":402,"indent":1,"parameters":[1,"No"]},{"code":0,"indent":2,"parameters":[]},{"code":404,"indent":1,"parameters":[]},{"code":0,"indent":1,"parameters":[]},{"code":412,"indent":0,"parameters":[]},{"code":0,"indent":0,"parameters":[]}],"moveFrequency":3,"moveRoute":{"list":[{"code":0,"parameters":[]}],"repeat":true,"skippable":false,"wait":false},"moveSpeed":3,"moveType":0,"priorityType":1,"stepAnime":false,"through":false,"trigger":0,"walkAnime":true},{"conditions":{"actorId":1,"actorValid":false,"itemId":1,"itemValid":false,"selfSwitchCh":"A","selfSwitchValid":false,"switch1Id":1,"switch1Valid":false,"switch2Id":1,"switch2Valid":false,"variableId":79,"variableValid":true,"variableValue":2},"directionFix":true,"image":{"tileId":0,"characterName":"!Other light colors","direction":6,"pattern":1,"characterIndex":0},"list":[{"code":108,"indent":0,"parameters":["<Sprite Offset: +0, -12>"]},{"code":111,"indent":0,"parameters":[0,180,0]},{"code":101,"indent":1,"parameters":["",0,1,2]},{"code":401,"indent":1,"parameters":["\\c[23]You've already given this colour the go-ahead. And it's..."]},{"code":401,"indent":1,"parameters":["blue. That's fine, I mean green isn't for everyone anyway."]},{"code":0,"indent":1,"parameters":[]},{"code":411,"indent":0,"parameters":[]},{"code":101,"indent":1,"parameters":["",0,0,2]},{"code":401,"indent":1,"parameters":["Change light color?"]},{"code":102,"indent":1,"parameters":[["Yes","No"],1,0,2,0]},{"code":402,"indent":1,"parameters":[0,"Yes"]},{"code":122,"indent":2,"parameters":[79,79,1,0,1]},{"code":356,"indent":2,"parameters":["light color 9 #d1ff39"]},{"code":121,"indent":2,"parameters":[168,168,1]},{"code":121,"indent":2,"parameters":[169,169,1]},{"code":121,"indent":2,"parameters":[170,170,1]},{"code":121,"indent":2,"parameters":[171,171,0]},{"code":356,"indent":2,"parameters":["Light radius 5 #FFFFFF"]},{"code":356,"indent":2,"parameters":["Flashlight on 8 12 #d1ff39 3"]},{"code":121,"indent":2,"parameters":[209,209,1]},{"code":121,"indent":2,"parameters":[210,210,0]},{"code":0,"indent":2,"parameters":[]},{"code":402,"indent":1,"parameters":[1,"No"]},{"code":0,"indent":2,"parameters":[]},{"code":404,"indent":1,"parameters":[]},{"code":0,"indent":1,"parameters":[]},{"code":412,"indent":0,"parameters":[]},{"code":0,"indent":0,"parameters":[]}],"moveFrequency":3,"moveRoute":{"list":[{"code":0,"parameters":[]}],"repeat":true,"skippable":false,"wait":false},"moveSpeed":3,"moveType":0,"priorityType":1,"stepAnime":false,"through":false,"trigger":0,"walkAnime":true},{"conditions":{"actorId":1,"actorValid":false,"itemId":1,"itemValid":false,"selfSwitchCh":"A","selfSwitchValid":false,"switch1Id":1,"switch1Valid":false,"switch2Id":1,"switch2Valid":false,"variableId":79,"variableValid":true,"variableValue":3},"directionFix":true,"image":{"tileId":0,"characterName":"!Other light colors","direction":8,"pattern":1,"characterIndex":0},"list":[{"code":108,"indent":0,"parameters":["<Sprite Offset: +0, -12>"]},{"code":111,"indent":0,"parameters":[0,180,0]},{"code":101,"indent":1,"parameters":["",0,1,2]},{"code":401,"indent":1,"parameters":["\\c[23]You've already given this colour the go-ahead. And"]},{"code":401,"indent":1,"parameters":["you've picked yellow for this one! You know what, yellow's"]},{"code":401,"indent":1,"parameters":["pretty. I don't know why people knock yellow. It's such a happy"]},{"code":401,"indent":1,"parameters":["colour. Happy thoughts, that's what we want right now!"]},{"code":0,"indent":1,"parameters":[]},{"code":411,"indent":0,"parameters":[]},{"code":101,"indent":1,"parameters":["",0,0,2]},{"code":401,"indent":1,"parameters":["Change light color?"]},{"code":102,"indent":1,"parameters":[["Yes","No"],1,0,2,0]},{"code":402,"indent":1,"parameters":[0,"Yes"]},{"code":122,"indent":2,"parameters":[79,79,1,0,1]},{"code":356,"indent":2,"parameters":["light color 9 #f7ff2e"]},{"code":121,"indent":2,"parameters":[168,168,1]},{"code":121,"indent":2,"parameters":[169,169,1]},{"code":121,"indent":2,"parameters":[170,170,1]},{"code":121,"indent":2,"parameters":[171,171,0]},{"code":356,"indent":2,"parameters":["Light radius 5 #FFFFFF"]},{"code":356,"indent":2,"parameters":["Flashlight on 8 12 #f7ff2e 3"]},{"code":0,"indent":2,"parameters":[]},{"code":402,"indent":1,"parameters":[1,"No"]},{"code":0,"indent":2,"parameters":[]},{"code":404,"indent":1,"parameters":[]},{"code":0,"indent":1,"parameters":[]},{"code":412,"indent":0,"parameters":[]},{"code":0,"indent":0,"parameters":[]}],"moveFrequency":3,"moveRoute":{"list":[{"code":0,"parameters":[]}],"repeat":true,"skippable":false,"wait":false},"moveSpeed":3,"moveType":0,"priorityType":1,"stepAnime":false,"through":false,"trigger":0,"walkAnime":true},{"conditions":{"actorId":1,"actorValid":false,"itemId":1,"itemValid":false,"selfSwitchCh":"A","selfSwitchValid":false,"switch1Id":1,"switch1Valid":false,"switch2Id":1,"switch2Valid":false,"variableId":79,"variableValid":true,"variableValue":4},"directionFix":true,"image":{"tileId":0,"characterName":"!Other light colors","direction":2,"pattern":1,"characterIndex":1},"list":[{"code":108,"indent":0,"parameters":["<Sprite Offset: +0, -12>"]},{"code":111,"indent":0,"parameters":[0,180,0]},{"code":101,"indent":1,"parameters":["",0,1,2]},{"code":401,"indent":1,"parameters":["\\c[23]You've already given this colour the go-ahead. And"]},{"code":401,"indent":1,"parameters":["you've picked yellow for this one! You know what, yellow's"]},{"code":401,"indent":1,"parameters":["pretty. I don't know why people knock yellow. It's such a happy"]},{"code":401,"indent":1,"parameters":["colour. Happy thoughts, that's what we want right now!"]},{"code":0,"indent":1,"parameters":[]},{"code":411,"indent":0,"parameters":[]},{"code":101,"indent":1,"parameters":["",0,0,2]},{"code":401,"indent":1,"parameters":["Change light color?"]},{"code":102,"indent":1,"parameters":[["Yes","No"],1,0,2,0]},{"code":402,"indent":1,"parameters":[0,"Yes"]},{"code":122,"indent":2,"parameters":[79,79,1,0,1]},{"code":356,"indent":2,"parameters":["light color 9 #fffa39"]},{"code":121,"indent":2,"parameters":[168,168,1]},{"code":121,"indent":2,"parameters":[169,169,1]},{"code":121,"indent":2,"parameters":[170,170,1]},{"code":121,"indent":2,"parameters":[171,171,0]},{"code":356,"indent":2,"parameters":["Light radius 5 #FFFFFF"]},{"code":356,"indent":2,"parameters":["Flashlight on 8 12 #fffa39 3"]},{"code":0,"indent":2,"parameters":[]},{"code":402,"indent":1,"parameters":[1,"No"]},{"code":0,"indent":2,"parameters":[]},{"code":404,"indent":1,"parameters":[]},{"code":0,"indent":1,"parameters":[]},{"code":412,"indent":0,"parameters":[]},{"code":0,"indent":0,"parameters":[]}],"moveFrequency":3,"moveRoute":{"list":[{"code":0,"parameters":[]}],"repeat":true,"skippable":false,"wait":false},"moveSpeed":3,"moveType":0,"priorityType":1,"stepAnime":false,"through":false,"trigger":0,"walkAnime":true},{"conditions":{"actorId":1,"actorValid":false,"itemId":1,"itemValid":false,"selfSwitchCh":"A","selfSwitchValid":false,"switch1Id":1,"switch1Valid":false,"switch2Id":1,"switch2Valid":false,"variableId":79,"variableValid":true,"variableValue":5},"directionFix":true,"image":{"tileId":0,"characterName":"!Other light colors","direction":4,"pattern":1,"characterIndex":1},"list":[{"code":108,"indent":0,"parameters":["<Sprite Offset: +0, -12>"]},{"code":111,"indent":0,"parameters":[0,180,0]},{"code":101,"indent":1,"parameters":["",0,1,2]},{"code":401,"indent":1,"parameters":["\\c[23]You've already given this colour the go-ahead. And"]},{"code":401,"indent":1,"parameters":["you've picked yellow for this one! You know what, yellow's"]},{"code":401,"indent":1,"parameters":["pretty. I don't know why people knock yellow. It's such a happy"]},{"code":401,"indent":1,"parameters":["colour. Happy thoughts, that's what we want right now!"]},{"code":0,"indent":1,"parameters":[]},{"code":411,"indent":0,"parameters":[]},{"code":101,"indent":1,"parameters":["",0,0,2]},{"code":401,"indent":1,"parameters":["Change light color?"]},{"code":102,"indent":1,"parameters":[["Yes","No"],1,0,2,0]},{"code":402,"indent":1,"parameters":[0,"Yes"]},{"code":122,"indent":2,"parameters":[79,79,1,0,1]},{"code":356,"indent":2,"parameters":["light color 9 #ffe234"]},{"code":121,"indent":2,"parameters":[168,168,1]},{"code":121,"indent":2,"parameters":[169,169,1]},{"code":121,"indent":2,"parameters":[170,170,1]},{"code":121,"indent":2,"parameters":[171,171,0]},{"code":356,"indent":2,"parameters":["Light radius 5 #FFFFFF"]},{"code":356,"indent":2,"parameters":["Flashlight on 8 12 #ffe234 3"]},{"code":0,"indent":2,"parameters":[]},{"code":402,"indent":1,"parameters":[1,"No"]},{"code":0,"indent":2,"parameters":[]},{"code":404,"indent":1,"parameters":[]},{"code":0,"indent":1,"parameters":[]},{"code":412,"indent":0,"parameters":[]},{"code":0,"indent":0,"parameters":[]}],"moveFrequency":3,"moveRoute":{"list":[{"code":0,"parameters":[]}],"repeat":true,"skippable":false,"wait":false},"moveSpeed":3,"moveType":0,"priorityType":1,"stepAnime":false,"through":false,"trigger":0,"walkAnime":true},{"conditions":{"actorId":1,"actorValid":false,"itemId":1,"itemValid":false,"selfSwitchCh":"A","selfSwitchValid":false,"switch1Id":1,"switch1Valid":false,"switch2Id":1,"switch2Valid":false,"variableId":79,"variableValid":true,"variableValue":6},"directionFix":true,"image":{"tileId":0,"characterName":"!Other light colors","direction":6,"pattern":1,"characterIndex":1},"list":[{"code":108,"indent":0,"parameters":["<Sprite Offset: +0, -12>"]},{"code":111,"indent":0,"parameters":[0,180,0]},{"code":101,"indent":1,"parameters":["",0,1,2]},{"code":401,"indent":1,"parameters":["\\c[23]You've already given this colour the go-ahead. And"]},{"code":401,"indent":1,"parameters":["you've picked yellow for this one! You know what, yellow's"]},{"code":401,"indent":1,"parameters":["pretty. I don't know why people knock yellow. It's such a happy"]},{"code":401,"indent":1,"parameters":["colour. Happy thoughts, that's what we want right now!"]},{"code":0,"indent":1,"parameters":[]},{"code":411,"indent":0,"parameters":[]},{"code":101,"indent":1,"parameters":["",0,0,2]},{"code":401,"indent":1,"parameters":["Change light color?"]},{"code":102,"indent":1,"parameters":[["Yes","No"],1,0,2,0]},{"code":402,"indent":1,"parameters":[0,"Yes"]},{"code":122,"indent":2,"parameters":[79,79,1,0,1]},{"code":356,"indent":2,"parameters":["light color 9 #ffb034"]},{"code":121,"indent":2,"parameters":[168,168,1]},{"code":121,"indent":2,"parameters":[169,169,1]},{"code":121,"indent":2,"parameters":[170,170,1]},{"code":121,"indent":2,"parameters":[171,171,0]},{"code":356,"indent":2,"parameters":["Light radius 5 #FFFFFF"]},{"code":356,"indent":2,"parameters":["Flashlight on 8 12 #ffb034 3"]},{"code":121,"indent":2,"parameters":[210,210,1]},{"code":121,"indent":2,"parameters":[211,211,0]},{"code":0,"indent":2,"parameters":[]},{"code":402,"indent":1,"parameters":[1,"No"]},{"code":0,"indent":2,"parameters":[]},{"code":404,"indent":1,"parameters":[]},{"code":0,"indent":1,"parameters":[]},{"code":412,"indent":0,"parameters":[]},{"code":0,"indent":0,"parameters":[]}],"moveFrequency":3,"moveRoute":{"list":[{"code":0,"parameters":[]}],"repeat":true,"skippable":false,"wait":false},"moveSpeed":3,"moveType":0,"priorityType":1,"stepAnime":false,"through":false,"trigger":0,"walkAnime":true},{"conditions":{"actorId":1,"actorValid":false,"itemId":1,"itemValid":false,"selfSwitchCh":"A","selfSwitchValid":false,"switch1Id":1,"switch1Valid":false,"switch2Id":1,"switch2Valid":false,"variableId":79,"variableValid":true,"variableValue":7},"directionFix":true,"image":{"tileId":0,"characterName":"!Other light colors","direction":8,"pattern":1,"characterIndex":1},"list":[{"code":108,"indent":0,"parameters":["<Sprite Offset: +0, -12>"]},{"code":111,"indent":0,"parameters":[0,180,0]},{"code":101,"indent":1,"parameters":["",0,1,2]},{"code":401,"indent":1,"parameters":["\\c[23]You've already given this colour the go-ahead. You've"]},{"code":401,"indent":1,"parameters":["picked a sort of orange. Like a traffic cone, well not exactly"]},{"code":401,"indent":1,"parameters":["like one. But still... orange. Not many orange things out in"]},{"code":401,"indent":1,"parameters":["the world, are there? Well, here's one more!"]},{"code":0,"indent":1,"parameters":[]},{"code":411,"indent":0,"parameters":[]},{"code":101,"indent":1,"parameters":["",0,0,2]},{"code":401,"indent":1,"parameters":["Change light color?"]},{"code":102,"indent":1,"parameters":[["Yes","No"],1,0,2,0]},{"code":402,"indent":1,"parameters":[0,"Yes"]},{"code":122,"indent":2,"parameters":[79,79,0,0,0]},{"code":356,"indent":2,"parameters":["light color 9 #06D100"]},{"code":121,"indent":2,"parameters":[168,168,1]},{"code":121,"indent":2,"parameters":[169,169,1]},{"code":121,"indent":2,"parameters":[170,170,1]},{"code":121,"indent":2,"parameters":[171,171,0]},{"code":356,"indent":2,"parameters":["Light radius 5 #FFFFFF"]},{"code":356,"indent":2,"parameters":["Flashlight on 8 12 #06d100 3"]},{"code":121,"indent":2,"parameters":[211,211,1]},{"code":0,"indent":2,"parameters":[]},{"code":402,"indent":1,"parameters":[1,"No"]},{"code":0,"indent":2,"parameters":[]},{"code":404,"indent":1,"parameters":[]},{"code":0,"indent":1,"parameters":[]},{"code":412,"indent":0,"parameters":[]},{"code":0,"indent":0,"parameters":[]}],"moveFrequency":3,"moveRoute":{"list":[{"code":0,"parameters":[]}],"repeat":true,"skippable":false,"wait":false},"moveSpeed":3,"moveType":0,"priorityType":1,"stepAnime":false,"through":false,"trigger":0,"walkAnime":true}],"x":11,"y":6},
{"id":13,"name":"EV013","note":"Light 40 #FF008F 10","pages":[{"conditions":{"actorId":1,"actorValid":false,"itemId":1,"itemValid":false,"selfSwitchCh":"A","selfSwitchValid":false,"switch1Id":1,"switch1Valid":false,"switch2Id":1,"switch2Valid":false,"variableId":1,"variableValid":false,"variableValue":0},"directionFix":true,"image":{"tileId":0,"characterName":"!Other light colors","direction":2,"pattern":1,"characterIndex":4},"list":[{"code":108,"indent":0,"parameters":["<Sprite Offset: +0, -12>"]},{"code":111,"indent":0,"parameters":[0,180,0]},{"code":101,"indent":1,"parameters":["",0,1,2]},{"code":401,"indent":1,"parameters":["\\c[23]Don't worry, your colour's locked in! I'm not going to"]},{"code":401,"indent":1,"parameters":["change it, though I wouldn't anyway. Pink's so nice. I don't"]},{"code":401,"indent":1,"parameters":["know why people think it's silly, it's pretty powerful."]},{"code":401,"indent":1,"parameters":["Especially that shade. Very... hot."]},{"code":0,"indent":1,"parameters":[]},{"code":411,"indent":0,"parameters":[]},{"code":101,"indent":1,"parameters":["",0,0,2]},{"code":401,"indent":1,"parameters":["Change light color?"]},{"code":102,"indent":1,"parameters":[["Yes","No"],1,0,2,0]},{"code":402,"indent":1,"parameters":[0,"Yes"]},{"code":122,"indent":2,"parameters":[80,80,1,0,1]},{"code":356,"indent":2,"parameters":["light color 10 #ff3aa9"]},{"code":121,"indent":2,"parameters":[168,168,0]},{"code":121,"indent":2,"parameters":[169,169,1]},{"code":121,"indent":2,"parameters":[170,170,1]},{"code":121,"indent":2,"parameters":[171,171,1]},{"code":356,"indent":2,"parameters":["Light radius 5 #FFFFFF"]},{"code":356,"indent":2,"parameters":["Flashlight on 8 12 #ff3aa9 3"]},{"code":0,"indent":2,"parameters":[]},{"code":402,"indent":1,"parameters":[1,"No"]},{"code":0,"indent":2,"parameters":[]},{"code":404,"indent":1,"parameters":[]},{"code":0,"indent":1,"parameters":[]},{"code":412,"indent":0,"parameters":[]},{"code":0,"indent":0,"parameters":[]}],"moveFrequency":3,"moveRoute":{"list":[{"code":0,"parameters":[]}],"repeat":true,"skippable":false,"wait":false},"moveSpeed":3,"moveType":0,"priorityType":1,"stepAnime":false,"through":false,"trigger":0,"walkAnime":true},{"conditions":{"actorId":1,"actorValid":false,"itemId":1,"itemValid":false,"selfSwitchCh":"A","selfSwitchValid":false,"switch1Id":1,"switch1Valid":false,"switch2Id":1,"switch2Valid":false,"variableId":80,"variableValid":true,"variableValue":1},"directionFix":true,"image":{"tileId":0,"characterName":"!Other light colors","direction":4,"pattern":1,"characterIndex":4},"list":[{"code":108,"indent":0,"parameters":["<Sprite Offset: +0, -12>"]},{"code":111,"indent":0,"parameters":[0,180,0]},{"code":101,"indent":1,"parameters":["",0,1,2]},{"code":401,"indent":1,"parameters":["\\c[23]Don't worry, your colour's locked in! I'm not going to"]},{"code":401,"indent":1,"parameters":["change it, though I wouldn't anyway. Pink's so nice. I don't"]},{"code":401,"indent":1,"parameters":["know why people think it's silly, it's pretty powerful."]},{"code":401,"indent":1,"parameters":["Especially that shade. Very... hot."]},{"code":0,"indent":1,"parameters":[]},{"code":411,"indent":0,"parameters":[]},{"code":101,"indent":1,"parameters":["",0,0,2]},{"code":401,"indent":1,"parameters":["Change light color?"]},{"code":102,"indent":1,"parameters":[["Yes","No"],1,0,2,0]},{"code":402,"indent":1,"parameters":[0,"Yes"]},{"code":122,"indent":2,"parameters":[80,80,1,0,1]},{"code":356,"indent":2,"parameters":["light color 10 #ff3ab6"]},{"code":121,"indent":2,"parameters":[168,168,0]},{"code":121,"indent":2,"parameters":[169,169,1]},{"code":121,"indent":2,"parameters":[170,170,1]},{"code":121,"indent":2,"parameters":[171,171,1]},{"code":356,"indent":2,"parameters":["Light radius 5 #FFFFFF"]},{"code":356,"indent":2,"parameters":["Flashlight on 8 12 #ff3ab6 3"]},{"code":0,"indent":2,"parameters":[]},{"code":402,"indent":1,"parameters":[1,"No"]},{"code":0,"indent":2,"parameters":[]},{"code":404,"indent":1,"parameters":[]},{"code":0,"indent":1,"parameters":[]},{"code":412,"indent":0,"parameters":[]},{"code":0,"indent":0,"parameters":[]}],"moveFrequency":3,"moveRoute":{"list":[{"code":0,"parameters":[]}],"repeat":true,"skippable":false,"wait":false},"moveSpeed":3,"moveType":0,"priorityType":1,"stepAnime":false,"through":false,"trigger":0,"walkAnime":true},{"conditions":{"actorId":1,"actorValid":false,"itemId":1,"itemValid":false,"selfSwitchCh":"A","selfSwitchValid":false,"switch1Id":1,"switch1Valid":false,"switch2Id":1,"switch2Valid":false,"variableId":80,"variableValid":true,"variableValue":2},"directionFix":true,"image":{"tileId":0,"characterName":"!Other light colors","direction":6,"pattern":1,"characterIndex":4},"list":[{"code":108,"indent":0,"parameters":["<Sprite Offset: +0, -12>"]},{"code":111,"indent":0,"parameters":[0,180,0]},{"code":101,"indent":1,"parameters":["",0,1,2]},{"code":401,"indent":1,"parameters":["\\c[23]Don't worry, your colour's locked in! I'm not going to"]},{"code":401,"indent":1,"parameters":["change it, though I wouldn't anyway. Pink's so nice. I don't"]},{"code":401,"indent":1,"parameters":["know why people think it's silly, it's pretty powerful."]},{"code":401,"indent":1,"parameters":["Especially that shade. Very... hot."]},{"code":0,"indent":1,"parameters":[]},{"code":411,"indent":0,"parameters":[]},{"code":101,"indent":1,"parameters":["",0,0,2]},{"code":401,"indent":1,"parameters":["Change light color?"]},{"code":102,"indent":1,"parameters":[["Yes","No"],1,0,2,0]},{"code":402,"indent":1,"parameters":[0,"Yes"]},{"code":122,"indent":2,"parameters":[80,80,1,0,1]},{"code":356,"indent":2,"parameters":["light color 10 #ff3aed"]},{"code":121,"indent":2,"parameters":[168,168,0]},{"code":121,"indent":2,"parameters":[169,169,1]},{"code":121,"indent":2,"parameters":[170,170,1]},{"code":121,"indent":2,"parameters":[171,171,1]},{"code":356,"indent":2,"parameters":["Light radius 5 #FFFFFF"]},{"code":356,"indent":2,"parameters":["Flashlight on 8 12 #ff3aed 3"]},{"code":0,"indent":2,"parameters":[]},{"code":402,"indent":1,"parameters":[1,"No"]},{"code":0,"indent":2,"parameters":[]},{"code":404,"indent":1,"parameters":[]},{"code":0,"indent":1,"parameters":[]},{"code":412,"indent":0,"parameters":[]},{"code":0,"indent":0,"parameters":[]}],"moveFrequency":3,"moveRoute":{"list":[{"code":0,"parameters":[]}],"repeat":true,"skippable":false,"wait":false},"moveSpeed":3,"moveType":0,"priorityType":1,"stepAnime":false,"through":false,"trigger":0,"walkAnime":true},{"conditions":{"actorId":1,"actorValid":false,"itemId":1,"itemValid":false,"selfSwitchCh":"A","selfSwitchValid":false,"switch1Id":1,"switch1Valid":false,"switch2Id":1,"switch2Valid":false,"variableId":80,"variableValid":true,"variableValue":3},"directionFix":true,"image":{"tileId":0,"characterName":"!Other light colors","direction":8,"pattern":1,"characterIndex":4},"list":[{"code":108,"indent":0,"parameters":["<Sprite Offset: +0, -12>"]},{"code":111,"indent":0,"parameters":[0,180,0]},{"code":101,"indent":1,"parameters":["",0,1,2]},{"code":401,"indent":1,"parameters":["\\c[23]Don't worry, your colour's locked in! I'm not going to"]},{"code":401,"indent":1,"parameters":["change it, though I wouldn't anyway. Pink's so nice. I don't"]},{"code":401,"indent":1,"parameters":["know why people think it's silly, it's pretty powerful."]},{"code":401,"indent":1,"parameters":["Especially that shade. It's almost purple, actually!"]},{"code":0,"indent":1,"parameters":[]},{"code":411,"indent":0,"parameters":[]},{"code":101,"indent":1,"parameters":["",0,0,2]},{"code":401,"indent":1,"parameters":["Change light color?"]},{"code":102,"indent":1,"parameters":[["Yes","No"],1,0,2,0]},{"code":402,"indent":1,"parameters":[0,"Yes"]},{"code":122,"indent":2,"parameters":[80,80,1,0,1]},{"code":356,"indent":2,"parameters":["light color 10 #ee3aff"]},{"code":121,"indent":2,"parameters":[168,168,0]},{"code":121,"indent":2,"parameters":[169,169,1]},{"code":121,"indent":2,"parameters":[170,170,1]},{"code":121,"indent":2,"parameters":[171,171,1]},{"code":356,"indent":2,"parameters":["Light radius 5 #FFFFFF"]},{"code":356,"indent":2,"parameters":["Flashlight on 8 12 #ee3aff 3"]},{"code":0,"indent":2,"parameters":[]},{"code":402,"indent":1,"parameters":[1,"No"]},{"code":0,"indent":2,"parameters":[]},{"code":404,"indent":1,"parameters":[]},{"code":0,"indent":1,"parameters":[]},{"code":412,"indent":0,"parameters":[]},{"code":0,"indent":0,"parameters":[]}],"moveFrequency":3,"moveRoute":{"list":[{"code":0,"parameters":[]}],"repeat":true,"skippable":false,"wait":false},"moveSpeed":3,"moveType":0,"priorityType":1,"stepAnime":false,"through":false,"trigger":0,"walkAnime":true},{"conditions":{"actorId":1,"actorValid":false,"itemId":1,"itemValid":false,"selfSwitchCh":"A","selfSwitchValid":false,"switch1Id":1,"switch1Valid":false,"switch2Id":1,"switch2Valid":false,"variableId":80,"variableValid":true,"variableValue":4},"directionFix":true,"image":{"tileId":0,"characterName":"!Other light colors","direction":2,"pattern":1,"characterIndex":5},"list":[{"code":108,"indent":0,"parameters":["<Sprite Offset: +0, -12>"]},{"code":111,"indent":0,"parameters":[0,180,0]},{"code":101,"indent":1,"parameters":["",0,1,2]},{"code":401,"indent":1,"parameters":["\\c[23]Don't worry, your colour's locked in! I'm not going to"]},{"code":401,"indent":1,"parameters":["change it, though I wouldn't anyway. Pink's so nice. I don't"]},{"code":401,"indent":1,"parameters":["know why people think it's silly, it's pretty powerful."]},{"code":401,"indent":1,"parameters":["Especially that shade. It's almost purple, actually!"]},{"code":0,"indent":1,"parameters":[]},{"code":411,"indent":0,"parameters":[]},{"code":101,"indent":1,"parameters":["",0,0,2]},{"code":401,"indent":1,"parameters":["Change light color?"]},{"code":102,"indent":1,"parameters":[["Yes","No"],1,0,2,0]},{"code":402,"indent":1,"parameters":[0,"Yes"]},{"code":122,"indent":2,"parameters":[80,80,1,0,1]},{"code":356,"indent":2,"parameters":["light color 10 #bd3aff"]},{"code":121,"indent":2,"parameters":[168,168,0]},{"code":121,"indent":2,"parameters":[169,169,1]},{"code":121,"indent":2,"parameters":[170,170,1]},{"code":121,"indent":2,"parameters":[171,171,1]},{"code":356,"indent":2,"parameters":["Light radius 5 #FFFFFF"]},{"code":356,"indent":2,"parameters":["Flashlight on 8 12 #bd3aff 3"]},{"code":121,"indent":2,"parameters":[212,212,0]},{"code":0,"indent":2,"parameters":[]},{"code":402,"indent":1,"parameters":[1,"No"]},{"code":0,"indent":2,"parameters":[]},{"code":404,"indent":1,"parameters":[]},{"code":0,"indent":1,"parameters":[]},{"code":412,"indent":0,"parameters":[]},{"code":0,"indent":0,"parameters":[]}],"moveFrequency":3,"moveRoute":{"list":[{"code":0,"parameters":[]}],"repeat":true,"skippable":false,"wait":false},"moveSpeed":3,"moveType":0,"priorityType":1,"stepAnime":false,"through":false,"trigger":0,"walkAnime":true},{"conditions":{"actorId":1,"actorValid":false,"itemId":1,"itemValid":false,"selfSwitchCh":"A","selfSwitchValid":false,"switch1Id":1,"switch1Valid":false,"switch2Id":1,"switch2Valid":false,"variableId":80,"variableValid":true,"variableValue":5},"directionFix":true,"image":{"tileId":0,"characterName":"!Other light colors","direction":4,"pattern":1,"characterIndex":5},"list":[{"code":108,"indent":0,"parameters":["<Sprite Offset: +0, -12>"]},{"code":111,"indent":0,"parameters":[0,180,0]},{"code":101,"indent":1,"parameters":["",0,1,2]},{"code":401,"indent":1,"parameters":["\\c[23]Don't worry, your colour's locked in! I'm not going to"]},{"code":401,"indent":1,"parameters":["change it, though I wouldn't anyway. Purple's a great colour."]},{"code":401,"indent":1,"parameters":["Yeah, I really like it. And purple's kinda fun to say, actually."]},{"code":401,"indent":1,"parameters":["Purple. Purple. Puuuurrrrppplllleeee. Rolls right off the tongue!"]},{"code":101,"indent":1,"parameters":["",0,1,2]},{"code":401,"indent":1,"parameters":["\\c[23]Well, not that I've got a tongue, but if I did have one,"]},{"code":401,"indent":1,"parameters":["it'd probably be even more fun to say!"]},{"code":0,"indent":1,"parameters":[]},{"code":411,"indent":0,"parameters":[]},{"code":101,"indent":1,"parameters":["",0,0,2]},{"code":401,"indent":1,"parameters":["Change light color?"]},{"code":102,"indent":1,"parameters":[["Yes","No"],1,0,2,0]},{"code":402,"indent":1,"parameters":[0,"Yes"]},{"code":122,"indent":2,"parameters":[80,80,1,0,1]},{"code":356,"indent":2,"parameters":["light color 10 #b73aff"]},{"code":121,"indent":2,"parameters":[168,168,0]},{"code":121,"indent":2,"parameters":[169,169,1]},{"code":121,"indent":2,"parameters":[170,170,1]},{"code":121,"indent":2,"parameters":[171,171,1]},{"code":356,"indent":2,"parameters":["Light radius 5 #FFFFFF"]},{"code":356,"indent":2,"parameters":["Flashlight on 8 12 #b73aff 3"]},{"code":0,"indent":2,"parameters":[]},{"code":402,"indent":1,"parameters":[1,"No"]},{"code":0,"indent":2,"parameters":[]},{"code":404,"indent":1,"parameters":[]},{"code":0,"indent":1,"parameters":[]},{"code":412,"indent":0,"parameters":[]},{"code":0,"indent":0,"parameters":[]}],"moveFrequency":3,"moveRoute":{"list":[{"code":0,"parameters":[]}],"repeat":true,"skippable":false,"wait":false},"moveSpeed":3,"moveType":0,"priorityType":1,"stepAnime":false,"through":false,"trigger":0,"walkAnime":true},{"conditions":{"actorId":1,"actorValid":false,"itemId":1,"itemValid":false,"selfSwitchCh":"A","selfSwitchValid":false,"switch1Id":1,"switch1Valid":false,"switch2Id":1,"switch2Valid":false,"variableId":80,"variableValid":true,"variableValue":6},"directionFix":true,"image":{"tileId":0,"characterName":"!Other light colors","direction":6,"pattern":1,"characterIndex":5},"list":[{"code":108,"indent":0,"parameters":["<Sprite Offset: +0, -12>"]},{"code":111,"indent":0,"parameters":[0,180,0]},{"code":101,"indent":1,"parameters":["",0,1,2]},{"code":401,"indent":1,"parameters":["\\c[23]Don't worry, your colour's locked in! I'm not going to"]},{"code":401,"indent":1,"parameters":["change it, though I wouldn't anyway. Purple's a great colour."]},{"code":401,"indent":1,"parameters":["Yeah, I really like it. And purple's kinda fun to say, actually."]},{"code":401,"indent":1,"parameters":["Purple. Purple. Puuuurrrrppplllleeee. Rolls right off the tongue!"]},{"code":101,"indent":1,"parameters":["",0,1,2]},{"code":401,"indent":1,"parameters":["\\c[23]Well, not that I've got a tongue, but if I did have one,"]},{"code":401,"indent":1,"parameters":["it'd probably be even more fun to say!"]},{"code":0,"indent":1,"parameters":[]},{"code":411,"indent":0,"parameters":[]},{"code":101,"indent":1,"parameters":["",0,0,2]},{"code":401,"indent":1,"parameters":["Change light color?"]},{"code":102,"indent":1,"parameters":[["Yes","No"],1,0,2,0]},{"code":402,"indent":1,"parameters":[0,"Yes"]},{"code":122,"indent":2,"parameters":[80,80,1,0,1]},{"code":356,"indent":2,"parameters":["light color 10 #823aff"]},{"code":121,"indent":2,"parameters":[168,168,0]},{"code":121,"indent":2,"parameters":[169,169,1]},{"code":121,"indent":2,"parameters":[170,170,1]},{"code":121,"indent":2,"parameters":[171,171,1]},{"code":356,"indent":2,"parameters":["Light radius 5 #FFFFFF"]},{"code":356,"indent":2,"parameters":["Flashlight on 8 12 #823aff 3"]},{"code":0,"indent":2,"parameters":[]},{"code":402,"indent":1,"parameters":[1,"No"]},{"code":0,"indent":2,"parameters":[]},{"code":404,"indent":1,"parameters":[]},{"code":0,"indent":1,"parameters":[]},{"code":412,"indent":0,"parameters":[]},{"code":0,"indent":0,"parameters":[]}],"moveFrequency":3,"moveRoute":{"list":[{"code":0,"parameters":[]}],"repeat":true,"skippable":false,"wait":false},"moveSpeed":3,"moveType":0,"priorityType":1,"stepAnime":false,"through":false,"trigger":0,"walkAnime":true},{"conditions":{"actorId":1,"actorValid":false,"itemId":1,"itemValid":false,"selfSwitchCh":"A","selfSwitchValid":false,"switch1Id":1,"switch1Valid":false,"switch2Id":1,"switch2Valid":false,"variableId":80,"variableValid":true,"variableValue":7},"directionFix":true,"image":{"tileId":0,"characterName":"!Other light colors","direction":8,"pattern":1,"characterIndex":5},"list":[{"code":108,"indent":0,"parameters":["<Sprite Offset: +0, -12>"]},{"code":111,"indent":0,"parameters":[0,180,0]},{"code":101,"indent":1,"parameters":["",0,1,2]},{"code":401,"indent":1,"parameters":["\\c[23]Don't worry, your colour's locked in! I'm not going to"]},{"code":401,"indent":1,"parameters":["change it, though I wouldn't anyway. Purple's a great colour."]},{"code":401,"indent":1,"parameters":["Yeah, I really like it. And purple's kinda fun to say, actually."]},{"code":401,"indent":1,"parameters":["Purple. Purple. Puuuurrrrppplllleeee. Rolls right off the tongue!"]},{"code":101,"indent":1,"parameters":["",0,1,2]},{"code":401,"indent":1,"parameters":["\\c[23]Well, not that I've got a tongue, but if I did have one,"]},{"code":401,"indent":1,"parameters":["it'd probably be even more fun to say!"]},{"code":0,"indent":1,"parameters":[]},{"code":411,"indent":0,"parameters":[]},{"code":101,"indent":1,"parameters":["",0,0,2]},{"code":401,"indent":1,"parameters":["Change light color?"]},{"code":102,"indent":1,"parameters":[["Yes","No"],1,0,2,0]},{"code":402,"indent":1,"parameters":[0,"Yes"]},{"code":122,"indent":2,"parameters":[80,80,0,0,0]},{"code":356,"indent":2,"parameters":["light color 10 #FF008F"]},{"code":121,"indent":2,"parameters":[168,168,0]},{"code":121,"indent":2,"parameters":[169,169,1]},{"code":121,"indent":2,"parameters":[170,170,1]},{"code":121,"indent":2,"parameters":[171,171,1]},{"code":356,"indent":2,"parameters":["Light radius 5 #FFFFFF"]},{"code":356,"indent":2,"parameters":["Flashlight on 8 12 #ff008f 3"]},{"code":121,"indent":2,"parameters":[212,212,1]},{"code":0,"indent":2,"parameters":[]},{"code":402,"indent":1,"parameters":[1,"No"]},{"code":0,"indent":2,"parameters":[]},{"code":404,"indent":1,"parameters":[]},{"code":0,"indent":1,"parameters":[]},{"code":412,"indent":0,"parameters":[]},{"code":0,"indent":0,"parameters":[]}],"moveFrequency":3,"moveRoute":{"list":[{"code":0,"parameters":[]}],"repeat":true,"skippable":false,"wait":false},"moveSpeed":3,"moveType":0,"priorityType":1,"stepAnime":false,"through":false,"trigger":0,"walkAnime":true}],"x":13,"y":6},
{"id":14,"name":"EV014","note":"Light 40 #FFFFFF","pages":[{"conditions":{"actorId":1,"actorValid":false,"itemId":1,"itemValid":false,"selfSwitchCh":"A","selfSwitchValid":false,"switch1Id":1,"switch1Valid":false,"switch2Id":1,"switch2Valid":false,"variableId":1,"variableValid":false,"variableValue":0},"directionFix":true,"image":{"tileId":0,"characterName":"!Other1","direction":8,"pattern":1,"characterIndex":2},"list":[{"code":108,"indent":0,"parameters":["<Sprite Offset: +0, -12>"]},{"code":111,"indent":0,"parameters":[0,180,0]},{"code":101,"indent":1,"parameters":["",0,1,2]},{"code":401,"indent":1,"parameters":["\\c[23]Right, good thinking. Changing your flashlight back to"]},{"code":401,"indent":1,"parameters":["white, good idea."]},{"code":121,"indent":1,"parameters":[168,168,1]},{"code":121,"indent":1,"parameters":[169,169,1]},{"code":121,"indent":1,"parameters":[170,170,1]},{"code":121,"indent":1,"parameters":[171,171,1]},{"code":356,"indent":1,"parameters":["Light radius 5 #FFFFFF"]},{"code":356,"indent":1,"parameters":["Flashlight on 8 12 #FFFFFF 3"]},{"code":0,"indent":1,"parameters":[]},{"code":411,"indent":0,"parameters":[]},{"code":121,"indent":1,"parameters":[168,168,1]},{"code":121,"indent":1,"parameters":[169,169,1]},{"code":121,"indent":1,"parameters":[170,170,1]},{"code":121,"indent":1,"parameters":[171,171,1]},{"code":122,"indent":1,"parameters":[77,77,0,0,0]},{"code":122,"indent":1,"parameters":[78,78,0,0,0]},{"code":122,"indent":1,"parameters":[79,79,0,0,0]},{"code":122,"indent":1,"parameters":[80,80,0,0,0]},{"code":121,"indent":1,"parameters":[206,206,1]},{"code":121,"indent":1,"parameters":[207,207,1]},{"code":121,"indent":1,"parameters":[209,209,1]},{"code":121,"indent":1,"parameters":[210,210,1]},{"code":121,"indent":1,"parameters":[208,208,1]},{"code":121,"indent":1,"parameters":[211,211,1]},{"code":121,"indent":1,"parameters":[212,212,1]},{"code":356,"indent":1,"parameters":["light color 7 #000CFF"]},{"code":356,"indent":1,"parameters":["light color 8 #FF0000"]},{"code":356,"indent":1,"parameters":["light color 9 #06D100"]},{"code":356,"indent":1,"parameters":["light color 10 #FF008F"]},{"code":356,"indent":1,"parameters":["Light radius 5 #FFFFFF"]},{"code":356,"indent":1,"parameters":["Flashlight on 8 12 #FFFFFF 3"]},{"code":0,"indent":1,"parameters":[]},{"code":412,"indent":0,"parameters":[]},{"code":0,"indent":0,"parameters":[]}],"moveFrequency":3,"moveRoute":{"list":[{"code":0,"parameters":[]}],"repeat":true,"skippable":false,"wait":false},"moveSpeed":3,"moveType":0,"priorityType":1,"stepAnime":true,"through":false,"trigger":0,"walkAnime":true}],"x":5,"y":6},
null,
null,
null,
null,
null,
null,
null,
null,
null,
null,
null,
null,
null,
null,
null
]
}