[
null,
{"id":1,"animationId":1,"description":"The best way to pitch water at slimes! Just bear in mind\nthat it's a bit erratic and the sucking part doesn't work.","etypeId":1,"traits":[],"iconIndex":24,"name":"VacPack","note":"<Action ID = 1>\n","params":[0,0,0,0,0,0,0,0],"price":0,"wtypeId":1},
{"id":2,"animationId":0,"description":"Alas, it is useless now.","etypeId":1,"traits":[{"code":31,"dataId":1,"value":0},{"code":22,"dataId":0,"value":0}],"iconIndex":24,"name":"Vacpack","note":"No longer works.","params":[0,0,0,0,0,0,0,0],"price":0,"wtypeId":1},
{"id":3,"animationId":0,"description":"","etypeId":1,"traits":[{"code":31,"dataId":1,"value":0},{"code":22,"dataId":0,"value":0}],"iconIndex":0,"name":"","note":"","params":[0,0,0,0,0,0,0,0],"price":0,"wtypeId":0},
{"id":4,"animationId":0,"description":"","etypeId":1,"traits":[{"code":31,"dataId":1,"value":0},{"code":22,"dataId":0,"value":0}],"iconIndex":0,"name":"","note":"","params":[0,0,0,0,0,0,0,0],"price":0,"wtypeId":0},
{"id":5,"animationId":0,"description":"","etypeId":1,"traits":[{"code":31,"dataId":1,"value":0},{"code":22,"dataId":0,"value":0}],"iconIndex":0,"name":"","note":"","params":[0,0,0,0,0,0,0,0],"price":0,"wtypeId":0}
]